digraph  g{ graph[label = "11:21:39.944"]
node [shape=rectangle, color=black, fontcolor=black, style=bold] edge [color=black] 0 [label="BindAccessEval", color = yellow] ; 
1 [label="HashDistinct", color = yellow] ; 
0 -> 1 ; 
2 [label="Project
[0, 3, 8, 14, 25, 29]", color = yellow] ; 
1 -> 2 ; 
3 [label="HashJoin 
[14PREDICATE_EQUAL28]
56200", color = yellow] ; 
2 -> 3 ; 
4 [label="HashJoin 
[14PREDICATE_EQUAL22]
56200", color = yellow] ; 
3 -> 4 ; 
5 [label="HashJoin 
[3PREDICATE_EQUAL14,0PREDICATE_EQUAL11]
56200", color = yellow] ; 
4 -> 5 ; 
6 [label="PhyMongoDBEval
offer
 test[{\"$project\": {\"offerwebpage\": 1, \"product\": 1, \"nr\": 1, \"vendor\": 1, \"price\": 1, \"deliverydays\": 1, \"producer\": 1, \"publisher\": 1, \"publishdate\": 1, \"validfrom\": 1, \"validto\": 1}},
{\"$project\": {\"offerwebpage\": 1, \"product\": 1, \"nr\": 1, \"vendor\": 1, \"price\": 1, \"deliverydays\": 1, \"producer\": 1, \"publisher\": 1, \"publishdate\": 1, \"validfrom\": 1, \"validto\": 1}},
{\"$project\": {\"offerwebpage\": 1, \"product\": 1, \"nr\": 1, \"vendor\": 1, \"price\": 1, \"deliverydays\": 1, \"producer\": 1, \"publisher\": 1, \"publishdate\": 1, \"validfrom\": 1, \"validto\": 1}}]
[nr, product, producer, vendor, price, validfrom, validto, deliverydays, offerwebpage, publisher, publishdate]
56200", color = yellow] ; 
5 -> 6 ; 
7 [label="PhyMongoDBEval
offer
 test[{\"$project\": {\"offerwebpage\": 1, \"product\": 1, \"nr\": 1, \"vendor\": 1, \"price\": 1, \"deliverydays\": 1, \"producer\": 1, \"publisher\": 1, \"publishdate\": 1, \"validfrom\": 1, \"validto\": 1}},
{\"$project\": {\"offerwebpage\": 1, \"product\": 1, \"nr\": 1, \"vendor\": 1, \"price\": 1, \"deliverydays\": 1, \"producer\": 1, \"publisher\": 1, \"publishdate\": 1, \"validfrom\": 1, \"validto\": 1}},
{\"$project\": {\"offerwebpage\": 1, \"product\": 1, \"nr\": 1, \"vendor\": 1, \"price\": 1, \"deliverydays\": 1, \"producer\": 1, \"publisher\": 1, \"publishdate\": 1, \"validfrom\": 1, \"validto\": 1}}]
[nr, product, producer, vendor, price, validfrom, validto, deliverydays, offerwebpage, publisher, publishdate]
56200", color = yellow] ; 
5 -> 7 ; 
8 [label="PhyMongoDBEval
vendor
 test[{\"$project\": {\"nr\": 1, \"publisher\": 1, \"publishdate\": 1, \"comment\": 1, \"label\": 1, \"homepage\": 1}},
{\"$project\": {\"nr\": 1, \"publisher\": 1, \"publishdate\": 1, \"comment\": 1, \"label\": 1, \"homepage\": 1}},
{\"$project\": {\"nr\": 1, \"publisher\": 1, \"publishdate\": 1, \"comment\": 1, \"label\": 1, \"homepage\": 1}}]
[nr, label, comment, homepage, publisher, publishdate]
30", color = yellow] ; 
4 -> 8 ; 
9 [label="PhyMongoDBEval
vendor
 test[{\"$project\": {\"nr\": 1, \"publisher\": 1, \"publishdate\": 1, \"comment\": 1, \"label\": 1, \"homepage\": 1}},
{\"$project\": {\"nr\": 1, \"publisher\": 1, \"publishdate\": 1, \"comment\": 1, \"label\": 1, \"homepage\": 1}},
{\"$project\": {\"nr\": 1, \"publisher\": 1, \"publishdate\": 1, \"comment\": 1, \"label\": 1, \"homepage\": 1}}]
[nr, label, comment, homepage, publisher, publishdate]
30", color = yellow] ; 
3 -> 9 ; 
10 [label="FunctionCallBindAccess
(<http://www4.wiwiss.fu-berlin.de/bizer/bsbm/v01/instances/dataFromVendor{1}/Offer{0}>, <{2}>, <http://www4.wiwiss.fu-berlin.de/bizer/bsbm/v01/instances/dataFromVendor{3}/Vendor{3}>, \"{5}\", <{4}>)", color = yellow] ; 
0 -> 10 ; 
}
