digraph  g{ graph[label = "11:26:54.193"]
node [shape=rectangle, color=black, fontcolor=black, style=bold] edge [color=black] 0 [label="BindAccessEval", color = yellow] ; 
1 [label="HashDistinct", color = yellow] ; 
0 -> 1 ; 
2 [label="Union", color = yellow] ; 
1 -> 2 ; 
3 [label="Project
[1, 0, 4, 2, 3, 5]", color = yellow] ; 
2 -> 3 ; 
4 [label="Project
[0, 3, 15, 29, 41, 49]", color = yellow] ; 
3 -> 4 ; 
5 [label="RightBindJoin 
[1, 2]
58", color = yellow] ; 
4 -> 5 ; 
6 [label="HashJoin 
[60PREDICATE_EQUAL61]
9356", color = yellow] ; 
5 -> 6 ; 
7 [label="HashJoin 
[2PREDICATE_EQUAL59,1PREDICATE_EQUAL58]
56200", color = yellow] ; 
6 -> 7 ; 
8 [label="RightBindJoin 
[1, 2]
56200", color = yellow] ; 
7 -> 8 ; 
9 [label="HashJoin 
[3PREDICATE_EQUAL36,0PREDICATE_EQUAL33]
56200", color = yellow] ; 
8 -> 9 ; 
10 [label="HashJoin 
[3PREDICATE_EQUAL25,0PREDICATE_EQUAL22]
56200", color = yellow] ; 
9 -> 10 ; 
11 [label="HashJoin 
[3PREDICATE_EQUAL14,0PREDICATE_EQUAL11]
56200", color = yellow] ; 
10 -> 11 ; 
12 [label="PhyMongoDBEval
offer
 test[{\"$project\": {\"offerwebpage\": 1, \"product\": 1, \"nr\": 1, \"vendor\": 1, \"price\": 1, \"deliverydays\": 1, \"producer\": 1, \"publisher\": 1, \"publishdate\": 1, \"validfrom\": 1, \"validto\": 1}},
{\"$project\": {\"offerwebpage\": 1, \"product\": 1, \"nr\": 1, \"vendor\": 1, \"price\": 1, \"deliverydays\": 1, \"producer\": 1, \"publisher\": 1, \"publishdate\": 1, \"validfrom\": 1, \"validto\": 1}},
{\"$project\": {\"offerwebpage\": 1, \"product\": 1, \"nr\": 1, \"vendor\": 1, \"price\": 1, \"deliverydays\": 1, \"producer\": 1, \"publisher\": 1, \"publishdate\": 1, \"validfrom\": 1, \"validto\": 1}}]
[nr, product, producer, vendor, price, validfrom, validto, deliverydays, offerwebpage, publisher, publishdate]
56200", color = yellow] ; 
11 -> 12 ; 
13 [label="PhyMongoDBEval
offer
 test[{\"$project\": {\"offerwebpage\": 1, \"product\": 1, \"nr\": 1, \"vendor\": 1, \"price\": 1, \"deliverydays\": 1, \"producer\": 1, \"publisher\": 1, \"publishdate\": 1, \"validfrom\": 1, \"validto\": 1}},
{\"$project\": {\"offerwebpage\": 1, \"product\": 1, \"nr\": 1, \"vendor\": 1, \"price\": 1, \"deliverydays\": 1, \"producer\": 1, \"publisher\": 1, \"publishdate\": 1, \"validfrom\": 1, \"validto\": 1}},
{\"$project\": {\"offerwebpage\": 1, \"product\": 1, \"nr\": 1, \"vendor\": 1, \"price\": 1, \"deliverydays\": 1, \"producer\": 1, \"publisher\": 1, \"publishdate\": 1, \"validfrom\": 1, \"validto\": 1}}]
[nr, product, producer, vendor, price, validfrom, validto, deliverydays, offerwebpage, publisher, publishdate]
56200", color = yellow] ; 
11 -> 13 ; 
14 [label="PhyMongoDBEval
offer
 test[{\"$project\": {\"offerwebpage\": 1, \"product\": 1, \"nr\": 1, \"vendor\": 1, \"price\": 1, \"deliverydays\": 1, \"producer\": 1, \"publisher\": 1, \"publishdate\": 1, \"validfrom\": 1, \"validto\": 1}},
{\"$project\": {\"offerwebpage\": 1, \"product\": 1, \"nr\": 1, \"vendor\": 1, \"price\": 1, \"deliverydays\": 1, \"producer\": 1, \"publisher\": 1, \"publishdate\": 1, \"validfrom\": 1, \"validto\": 1}},
{\"$project\": {\"offerwebpage\": 1, \"product\": 1, \"nr\": 1, \"vendor\": 1, \"price\": 1, \"deliverydays\": 1, \"producer\": 1, \"publisher\": 1, \"publishdate\": 1, \"validfrom\": 1, \"validto\": 1}}]
[nr, product, producer, vendor, price, validfrom, validto, deliverydays, offerwebpage, publisher, publishdate]
56200", color = yellow] ; 
10 -> 14 ; 
15 [label="PhyMongoDBEval
offer
 test[{\"$project\": {\"offerwebpage\": 1, \"product\": 1, \"nr\": 1, \"vendor\": 1, \"price\": 1, \"deliverydays\": 1, \"producer\": 1, \"publisher\": 1, \"publishdate\": 1, \"validfrom\": 1, \"validto\": 1}},
{\"$project\": {\"offerwebpage\": 1, \"product\": 1, \"nr\": 1, \"vendor\": 1, \"price\": 1, \"deliverydays\": 1, \"producer\": 1, \"publisher\": 1, \"publishdate\": 1, \"validfrom\": 1, \"validto\": 1}},
{\"$project\": {\"offerwebpage\": 1, \"product\": 1, \"nr\": 1, \"vendor\": 1, \"price\": 1, \"deliverydays\": 1, \"producer\": 1, \"publisher\": 1, \"publishdate\": 1, \"validfrom\": 1, \"validto\": 1}}]
[nr, product, producer, vendor, price, validfrom, validto, deliverydays, offerwebpage, publisher, publishdate]
56200", color = yellow] ; 
9 -> 15 ; 
16 [label="SQLQuery
SELECT nr, label, comment, producer, propertyNum1, propertyNum2, propertyTex1, propertyTex2, propertyTex3, propertyTex4, propertyTex5, propertyTex6, publisher, publishDate 
FROM Product 
WHERE nr = ? AND producer = ?", color = yellow] ; 
8 -> 16 ; 
17 [label="PhyMongoDBEval
productproducercountry
 test[{\"$project\": {\"country\": 1, \"nr\": 1, \"producer\": 1}},
{\"$project\": {\"country\": 1, \"nr\": 1, \"producer\": 1}},
{\"$project\": {\"country\": 1, \"nr\": 1, \"producer\": 1}}]
[nr, producer, country]
2810", color = yellow] ; 
7 -> 17 ; 
18 [label="PhyMongoDBEval
countrytype
 test[{\"$match\": {\"countrytype\": 122}},
{\"$project\": {\"country\": 1}},
{\"$project\": {\"country\": 1}},
{\"$project\": {\"country\": 1}}]
[country]
2", color = yellow] ; 
6 -> 18 ; 
19 [label="SQLQuery
SELECT P.nr AS nr, P.producer AS producer 
FROM PRODUCT AS P, PRODUCTTYPEPRODUCT AS PT 
WHERE P.nr = ? AND P.producer = ? AND PT.producttype = 56 AND PT.product = P.nr", color = yellow] ; 
5 -> 19 ; 
21 [label="Project
[1, 0, 2, 5, 3, 4]", color = yellow] ; 
2 -> 21 ; 
22 [label="Project
[0, 3, 8, 18, 24, 31]", color = yellow] ; 
21 -> 22 ; 
23 [label="HashJoin 
[26PREDICATE_EQUAL38]
250", color = yellow] ; 
22 -> 23 ; 
24 [label="HashJoin 
[3PREDICATE_EQUAL30,0PREDICATE_EQUAL27]
1203", color = yellow] ; 
23 -> 24 ; 
25 [label="RightBindJoin 
[0, 3]
1203", color = yellow] ; 
24 -> 25 ; 
26 [label="HashJoin 
[3PREDICATE_EQUAL14,0PREDICATE_EQUAL11]
56200", color = yellow] ; 
25 -> 26 ; 
27 [label="PhyMongoDBEval
offer
 test[{\"$project\": {\"offerwebpage\": 1, \"product\": 1, \"nr\": 1, \"vendor\": 1, \"price\": 1, \"deliverydays\": 1, \"producer\": 1, \"publisher\": 1, \"publishdate\": 1, \"validfrom\": 1, \"validto\": 1}},
{\"$project\": {\"offerwebpage\": 1, \"product\": 1, \"nr\": 1, \"vendor\": 1, \"price\": 1, \"deliverydays\": 1, \"producer\": 1, \"publisher\": 1, \"publishdate\": 1, \"validfrom\": 1, \"validto\": 1}},
{\"$project\": {\"offerwebpage\": 1, \"product\": 1, \"nr\": 1, \"vendor\": 1, \"price\": 1, \"deliverydays\": 1, \"producer\": 1, \"publisher\": 1, \"publishdate\": 1, \"validfrom\": 1, \"validto\": 1}}]
[nr, product, producer, vendor, price, validfrom, validto, deliverydays, offerwebpage, publisher, publishdate]
56200", color = yellow] ; 
26 -> 27 ; 
28 [label="PhyMongoDBEval
offer
 test[{\"$project\": {\"offerwebpage\": 1, \"product\": 1, \"nr\": 1, \"vendor\": 1, \"price\": 1, \"deliverydays\": 1, \"producer\": 1, \"publisher\": 1, \"publishdate\": 1, \"validfrom\": 1, \"validto\": 1}},
{\"$project\": {\"offerwebpage\": 1, \"product\": 1, \"nr\": 1, \"vendor\": 1, \"price\": 1, \"deliverydays\": 1, \"producer\": 1, \"publisher\": 1, \"publishdate\": 1, \"validfrom\": 1, \"validto\": 1}},
{\"$project\": {\"offerwebpage\": 1, \"product\": 1, \"nr\": 1, \"vendor\": 1, \"price\": 1, \"deliverydays\": 1, \"producer\": 1, \"publisher\": 1, \"publishdate\": 1, \"validfrom\": 1, \"validto\": 1}}]
[nr, product, producer, vendor, price, validfrom, validto, deliverydays, offerwebpage, publisher, publishdate]
56200", color = yellow] ; 
26 -> 28 ; 
29 [label="SQLQuery
SELECT O.nr AS offer, O.vendor AS vendor, P.propertyNum3 AS propertyNum3, P.propertyNum4 AS propertyNum4, PR.country AS country 
FROM Offer AS O, Product AS P, Producer AS PR, PRODUCTTYPEPRODUCT AS PTP 
WHERE O.nr = ? AND O.vendor = ? AND P.nr = O.product AND PR.nr = P.producer AND P.nr = PTP.product AND PTP.producttype = 57", color = yellow] ; 
25 -> 29 ; 
30 [label="PhyMongoDBEval
offer
 test[{\"$project\": {\"offerwebpage\": 1, \"product\": 1, \"nr\": 1, \"vendor\": 1, \"price\": 1, \"deliverydays\": 1, \"producer\": 1, \"publisher\": 1, \"publishdate\": 1, \"validfrom\": 1, \"validto\": 1}},
{\"$project\": {\"offerwebpage\": 1, \"product\": 1, \"nr\": 1, \"vendor\": 1, \"price\": 1, \"deliverydays\": 1, \"producer\": 1, \"publisher\": 1, \"publishdate\": 1, \"validfrom\": 1, \"validto\": 1}},
{\"$project\": {\"offerwebpage\": 1, \"product\": 1, \"nr\": 1, \"vendor\": 1, \"price\": 1, \"deliverydays\": 1, \"producer\": 1, \"publisher\": 1, \"publishdate\": 1, \"validfrom\": 1, \"validto\": 1}}]
[nr, product, producer, vendor, price, validfrom, validto, deliverydays, offerwebpage, publisher, publishdate]
56200", color = yellow] ; 
24 -> 30 ; 
31 [label="PhyMongoDBEval
countrytype
 test[{\"$match\": {\"countrytype\": 121}},
{\"$project\": {\"country\": 1}},
{\"$project\": {\"country\": 1}},
{\"$project\": {\"country\": 1}}]
[country]
2", color = yellow] ; 
23 -> 31 ; 
33 [label="Project
[2, 1, 5, 4, 3, 0]", color = yellow] ; 
2 -> 33 ; 
34 [label="Project
[4, 19, 22, 37, 45, 60]", color = yellow] ; 
33 -> 34 ; 
35 [label="HashJoin 
[16PREDICATE_EQUAL63]
162", color = yellow] ; 
34 -> 35 ; 
36 [label="HashJoin 
[22PREDICATE_EQUAL55,19PREDICATE_EQUAL52]
915", color = yellow] ; 
35 -> 36 ; 
37 [label="HashJoin 
[22PREDICATE_EQUAL44,19PREDICATE_EQUAL41]
915", color = yellow] ; 
36 -> 37 ; 
38 [label="HashJoin 
[22PREDICATE_EQUAL33,19PREDICATE_EQUAL30]
915", color = yellow] ; 
37 -> 38 ; 
39 [label="HashJoin 
[3PREDICATE_EQUAL21,0PREDICATE_EQUAL20]
915", color = yellow] ; 
38 -> 39 ; 
40 [label="RightBindJoin 
[0, 3]
46", color = yellow] ; 
39 -> 40 ; 
41 [label="LeftBindJoin 
[0, 1]
2810", color = yellow] ; 
40 -> 41 ; 
42 [label="SQLQuery
SELECT nr, label, comment, producer, propertyNum1, propertyNum2, propertyTex1, propertyTex2, propertyTex3, propertyTex4, propertyTex5, propertyTex6, publisher, publishDate 
FROM Product 
WHERE nr = ? AND producer = ?", color = yellow] ; 
41 -> 42 ; 
43 [label="PhyMongoDBEval
productproducercountry
 test[{\"$project\": {\"country\": 1, \"nr\": 1, \"producer\": 1}},
{\"$project\": {\"country\": 1, \"nr\": 1, \"producer\": 1}},
{\"$project\": {\"country\": 1, \"nr\": 1, \"producer\": 1}}]
[nr, producer, country]
2810", color = yellow] ; 
41 -> 43 ; 
44 [label="SQLQuery
SELECT P.nr AS nr, P.producer AS producer 
FROM PRODUCT AS P, PRODUCTTYPEPRODUCT AS PT 
WHERE P.nr = ? AND P.producer = ? AND PT.producttype = 56 AND PT.product = P.nr", color = yellow] ; 
40 -> 44 ; 
45 [label="PhyMongoDBEval
offer
 test[{\"$project\": {\"offerwebpage\": 1, \"product\": 1, \"nr\": 1, \"vendor\": 1, \"price\": 1, \"deliverydays\": 1, \"producer\": 1, \"publisher\": 1, \"publishdate\": 1, \"validfrom\": 1, \"validto\": 1}},
{\"$project\": {\"offerwebpage\": 1, \"product\": 1, \"nr\": 1, \"vendor\": 1, \"price\": 1, \"deliverydays\": 1, \"producer\": 1, \"publisher\": 1, \"publishdate\": 1, \"validfrom\": 1, \"validto\": 1}},
{\"$project\": {\"offerwebpage\": 1, \"product\": 1, \"nr\": 1, \"vendor\": 1, \"price\": 1, \"deliverydays\": 1, \"producer\": 1, \"publisher\": 1, \"publishdate\": 1, \"validfrom\": 1, \"validto\": 1}}]
[nr, product, producer, vendor, price, validfrom, validto, deliverydays, offerwebpage, publisher, publishdate]
56200", color = yellow] ; 
39 -> 45 ; 
46 [label="PhyMongoDBEval
offer
 test[{\"$project\": {\"offerwebpage\": 1, \"product\": 1, \"nr\": 1, \"vendor\": 1, \"price\": 1, \"deliverydays\": 1, \"producer\": 1, \"publisher\": 1, \"publishdate\": 1, \"validfrom\": 1, \"validto\": 1}},
{\"$project\": {\"offerwebpage\": 1, \"product\": 1, \"nr\": 1, \"vendor\": 1, \"price\": 1, \"deliverydays\": 1, \"producer\": 1, \"publisher\": 1, \"publishdate\": 1, \"validfrom\": 1, \"validto\": 1}},
{\"$project\": {\"offerwebpage\": 1, \"product\": 1, \"nr\": 1, \"vendor\": 1, \"price\": 1, \"deliverydays\": 1, \"producer\": 1, \"publisher\": 1, \"publishdate\": 1, \"validfrom\": 1, \"validto\": 1}}]
[nr, product, producer, vendor, price, validfrom, validto, deliverydays, offerwebpage, publisher, publishdate]
56200", color = yellow] ; 
38 -> 46 ; 
47 [label="PhyMongoDBEval
offer
 test[{\"$project\": {\"offerwebpage\": 1, \"product\": 1, \"nr\": 1, \"vendor\": 1, \"price\": 1, \"deliverydays\": 1, \"producer\": 1, \"publisher\": 1, \"publishdate\": 1, \"validfrom\": 1, \"validto\": 1}},
{\"$project\": {\"offerwebpage\": 1, \"product\": 1, \"nr\": 1, \"vendor\": 1, \"price\": 1, \"deliverydays\": 1, \"producer\": 1, \"publisher\": 1, \"publishdate\": 1, \"validfrom\": 1, \"validto\": 1}},
{\"$project\": {\"offerwebpage\": 1, \"product\": 1, \"nr\": 1, \"vendor\": 1, \"price\": 1, \"deliverydays\": 1, \"producer\": 1, \"publisher\": 1, \"publishdate\": 1, \"validfrom\": 1, \"validto\": 1}}]
[nr, product, producer, vendor, price, validfrom, validto, deliverydays, offerwebpage, publisher, publishdate]
56200", color = yellow] ; 
37 -> 47 ; 
48 [label="PhyMongoDBEval
offer
 test[{\"$project\": {\"offerwebpage\": 1, \"product\": 1, \"nr\": 1, \"vendor\": 1, \"price\": 1, \"deliverydays\": 1, \"producer\": 1, \"publisher\": 1, \"publishdate\": 1, \"validfrom\": 1, \"validto\": 1}},
{\"$project\": {\"offerwebpage\": 1, \"product\": 1, \"nr\": 1, \"vendor\": 1, \"price\": 1, \"deliverydays\": 1, \"producer\": 1, \"publisher\": 1, \"publishdate\": 1, \"validfrom\": 1, \"validto\": 1}},
{\"$project\": {\"offerwebpage\": 1, \"product\": 1, \"nr\": 1, \"vendor\": 1, \"price\": 1, \"deliverydays\": 1, \"producer\": 1, \"publisher\": 1, \"publishdate\": 1, \"validfrom\": 1, \"validto\": 1}}]
[nr, product, producer, vendor, price, validfrom, validto, deliverydays, offerwebpage, publisher, publishdate]
56200", color = yellow] ; 
36 -> 48 ; 
49 [label="PhyMongoDBEval
countrytype
 test[{\"$match\": {\"countrytype\": 121}},
{\"$project\": {\"country\": 1}},
{\"$project\": {\"country\": 1}},
{\"$project\": {\"country\": 1}}]
[country]
2", color = yellow] ; 
35 -> 49 ; 
51 [label="Project
[1, 0, 3, 4, 2, 5]", color = yellow] ; 
2 -> 51 ; 
52 [label="Project
[0, 3, 7, 19, 26, 53]", color = yellow] ; 
51 -> 52 ; 
53 [label="HashJoin 
[48PREDICATE_EQUAL63]
250", color = yellow] ; 
52 -> 53 ; 
54 [label="RightBindJoin 
[34, 35]
1203", color = yellow] ; 
53 -> 54 ; 
55 [label="HashJoin 
[35PREDICATE_EQUAL47,34PREDICATE_EQUAL46]
1203", color = yellow] ; 
54 -> 55 ; 
56 [label="RightBindJoin 
[34, 35]
1203", color = yellow] ; 
55 -> 56 ; 
57 [label="HashJoin 
[3PREDICATE_EQUAL36,0PREDICATE_EQUAL33]
56200", color = yellow] ; 
56 -> 57 ; 
58 [label="HashJoin 
[3PREDICATE_EQUAL25,0PREDICATE_EQUAL22]
56200", color = yellow] ; 
57 -> 58 ; 
59 [label="HashJoin 
[3PREDICATE_EQUAL14,0PREDICATE_EQUAL11]
56200", color = yellow] ; 
58 -> 59 ; 
60 [label="PhyMongoDBEval
offer
 test[{\"$project\": {\"offerwebpage\": 1, \"product\": 1, \"nr\": 1, \"vendor\": 1, \"price\": 1, \"deliverydays\": 1, \"producer\": 1, \"publisher\": 1, \"publishdate\": 1, \"validfrom\": 1, \"validto\": 1}},
{\"$project\": {\"offerwebpage\": 1, \"product\": 1, \"nr\": 1, \"vendor\": 1, \"price\": 1, \"deliverydays\": 1, \"producer\": 1, \"publisher\": 1, \"publishdate\": 1, \"validfrom\": 1, \"validto\": 1}},
{\"$project\": {\"offerwebpage\": 1, \"product\": 1, \"nr\": 1, \"vendor\": 1, \"price\": 1, \"deliverydays\": 1, \"producer\": 1, \"publisher\": 1, \"publishdate\": 1, \"validfrom\": 1, \"validto\": 1}}]
[nr, product, producer, vendor, price, validfrom, validto, deliverydays, offerwebpage, publisher, publishdate]
56200", color = yellow] ; 
59 -> 60 ; 
61 [label="PhyMongoDBEval
offer
 test[{\"$project\": {\"offerwebpage\": 1, \"product\": 1, \"nr\": 1, \"vendor\": 1, \"price\": 1, \"deliverydays\": 1, \"producer\": 1, \"publisher\": 1, \"publishdate\": 1, \"validfrom\": 1, \"validto\": 1}},
{\"$project\": {\"offerwebpage\": 1, \"product\": 1, \"nr\": 1, \"vendor\": 1, \"price\": 1, \"deliverydays\": 1, \"producer\": 1, \"publisher\": 1, \"publishdate\": 1, \"validfrom\": 1, \"validto\": 1}},
{\"$project\": {\"offerwebpage\": 1, \"product\": 1, \"nr\": 1, \"vendor\": 1, \"price\": 1, \"deliverydays\": 1, \"producer\": 1, \"publisher\": 1, \"publishdate\": 1, \"validfrom\": 1, \"validto\": 1}}]
[nr, product, producer, vendor, price, validfrom, validto, deliverydays, offerwebpage, publisher, publishdate]
56200", color = yellow] ; 
59 -> 61 ; 
62 [label="PhyMongoDBEval
offer
 test[{\"$project\": {\"offerwebpage\": 1, \"product\": 1, \"nr\": 1, \"vendor\": 1, \"price\": 1, \"deliverydays\": 1, \"producer\": 1, \"publisher\": 1, \"publishdate\": 1, \"validfrom\": 1, \"validto\": 1}},
{\"$project\": {\"offerwebpage\": 1, \"product\": 1, \"nr\": 1, \"vendor\": 1, \"price\": 1, \"deliverydays\": 1, \"producer\": 1, \"publisher\": 1, \"publishdate\": 1, \"validfrom\": 1, \"validto\": 1}},
{\"$project\": {\"offerwebpage\": 1, \"product\": 1, \"nr\": 1, \"vendor\": 1, \"price\": 1, \"deliverydays\": 1, \"producer\": 1, \"publisher\": 1, \"publishdate\": 1, \"validfrom\": 1, \"validto\": 1}}]
[nr, product, producer, vendor, price, validfrom, validto, deliverydays, offerwebpage, publisher, publishdate]
56200", color = yellow] ; 
58 -> 62 ; 
63 [label="PhyMongoDBEval
offer
 test[{\"$project\": {\"offerwebpage\": 1, \"product\": 1, \"nr\": 1, \"vendor\": 1, \"price\": 1, \"deliverydays\": 1, \"producer\": 1, \"publisher\": 1, \"publishdate\": 1, \"validfrom\": 1, \"validto\": 1}},
{\"$project\": {\"offerwebpage\": 1, \"product\": 1, \"nr\": 1, \"vendor\": 1, \"price\": 1, \"deliverydays\": 1, \"producer\": 1, \"publisher\": 1, \"publishdate\": 1, \"validfrom\": 1, \"validto\": 1}},
{\"$project\": {\"offerwebpage\": 1, \"product\": 1, \"nr\": 1, \"vendor\": 1, \"price\": 1, \"deliverydays\": 1, \"producer\": 1, \"publisher\": 1, \"publishdate\": 1, \"validfrom\": 1, \"validto\": 1}}]
[nr, product, producer, vendor, price, validfrom, validto, deliverydays, offerwebpage, publisher, publishdate]
56200", color = yellow] ; 
57 -> 63 ; 
64 [label="SQLQuery
SELECT P.nr AS nr, P.producer AS producer 
FROM PRODUCT AS P, PRODUCTTYPEPRODUCT AS PT 
WHERE P.nr = ? AND P.producer = ? AND PT.producttype = 57 AND PT.product = P.nr", color = yellow] ; 
56 -> 64 ; 
65 [label="PhyMongoDBEval
productproducercountry
 test[{\"$project\": {\"country\": 1, \"nr\": 1, \"producer\": 1}},
{\"$project\": {\"country\": 1, \"nr\": 1, \"producer\": 1}},
{\"$project\": {\"country\": 1, \"nr\": 1, \"producer\": 1}}]
[nr, producer, country]
2810", color = yellow] ; 
55 -> 65 ; 
66 [label="SQLQuery
SELECT nr, label, comment, producer, propertyNum1, propertyNum2, propertyTex1, propertyTex2, propertyTex3, propertyTex4, propertyTex5, propertyTex6, publisher, publishDate 
FROM Product 
WHERE nr = ? AND producer = ?", color = yellow] ; 
54 -> 66 ; 
67 [label="PhyMongoDBEval
countrytype
 test[{\"$match\": {\"countrytype\": 121}},
{\"$project\": {\"country\": 1}},
{\"$project\": {\"country\": 1}},
{\"$project\": {\"country\": 1}}]
[country]
2", color = yellow] ; 
53 -> 67 ; 
69 [label="Project
[1, 0, 2, 3, 4, 5]", color = yellow] ; 
2 -> 69 ; 
70 [label="Project
[0, 3, 8, 26, 40, 51]", color = yellow] ; 
69 -> 70 ; 
71 [label="HashJoin 
[62PREDICATE_EQUAL63]
162", color = yellow] ; 
70 -> 71 ; 
72 [label="HashJoin 
[13PREDICATE_EQUAL61,12PREDICATE_EQUAL60]
915", color = yellow] ; 
71 -> 72 ; 
73 [label="RightBindJoin 
[12, 13]
915", color = yellow] ; 
72 -> 73 ; 
74 [label="RightBindJoin 
[12, 13]
915", color = yellow] ; 
73 -> 74 ; 
75 [label="HashJoin 
[3PREDICATE_EQUAL36,0PREDICATE_EQUAL33]
56200", color = yellow] ; 
74 -> 75 ; 
76 [label="HashJoin 
[3PREDICATE_EQUAL25,0PREDICATE_EQUAL22]
56200", color = yellow] ; 
75 -> 76 ; 
77 [label="HashJoin 
[3PREDICATE_EQUAL14,0PREDICATE_EQUAL11]
56200", color = yellow] ; 
76 -> 77 ; 
78 [label="PhyMongoDBEval
offer
 test[{\"$project\": {\"offerwebpage\": 1, \"product\": 1, \"nr\": 1, \"vendor\": 1, \"price\": 1, \"deliverydays\": 1, \"producer\": 1, \"publisher\": 1, \"publishdate\": 1, \"validfrom\": 1, \"validto\": 1}},
{\"$project\": {\"offerwebpage\": 1, \"product\": 1, \"nr\": 1, \"vendor\": 1, \"price\": 1, \"deliverydays\": 1, \"producer\": 1, \"publisher\": 1, \"publishdate\": 1, \"validfrom\": 1, \"validto\": 1}},
{\"$project\": {\"offerwebpage\": 1, \"product\": 1, \"nr\": 1, \"vendor\": 1, \"price\": 1, \"deliverydays\": 1, \"producer\": 1, \"publisher\": 1, \"publishdate\": 1, \"validfrom\": 1, \"validto\": 1}}]
[nr, product, producer, vendor, price, validfrom, validto, deliverydays, offerwebpage, publisher, publishdate]
56200", color = yellow] ; 
77 -> 78 ; 
79 [label="PhyMongoDBEval
offer
 test[{\"$project\": {\"offerwebpage\": 1, \"product\": 1, \"nr\": 1, \"vendor\": 1, \"price\": 1, \"deliverydays\": 1, \"producer\": 1, \"publisher\": 1, \"publishdate\": 1, \"validfrom\": 1, \"validto\": 1}},
{\"$project\": {\"offerwebpage\": 1, \"product\": 1, \"nr\": 1, \"vendor\": 1, \"price\": 1, \"deliverydays\": 1, \"producer\": 1, \"publisher\": 1, \"publishdate\": 1, \"validfrom\": 1, \"validto\": 1}},
{\"$project\": {\"offerwebpage\": 1, \"product\": 1, \"nr\": 1, \"vendor\": 1, \"price\": 1, \"deliverydays\": 1, \"producer\": 1, \"publisher\": 1, \"publishdate\": 1, \"validfrom\": 1, \"validto\": 1}}]
[nr, product, producer, vendor, price, validfrom, validto, deliverydays, offerwebpage, publisher, publishdate]
56200", color = yellow] ; 
77 -> 79 ; 
80 [label="PhyMongoDBEval
offer
 test[{\"$project\": {\"offerwebpage\": 1, \"product\": 1, \"nr\": 1, \"vendor\": 1, \"price\": 1, \"deliverydays\": 1, \"producer\": 1, \"publisher\": 1, \"publishdate\": 1, \"validfrom\": 1, \"validto\": 1}},
{\"$project\": {\"offerwebpage\": 1, \"product\": 1, \"nr\": 1, \"vendor\": 1, \"price\": 1, \"deliverydays\": 1, \"producer\": 1, \"publisher\": 1, \"publishdate\": 1, \"validfrom\": 1, \"validto\": 1}},
{\"$project\": {\"offerwebpage\": 1, \"product\": 1, \"nr\": 1, \"vendor\": 1, \"price\": 1, \"deliverydays\": 1, \"producer\": 1, \"publisher\": 1, \"publishdate\": 1, \"validfrom\": 1, \"validto\": 1}}]
[nr, product, producer, vendor, price, validfrom, validto, deliverydays, offerwebpage, publisher, publishdate]
56200", color = yellow] ; 
76 -> 80 ; 
81 [label="PhyMongoDBEval
offer
 test[{\"$project\": {\"offerwebpage\": 1, \"product\": 1, \"nr\": 1, \"vendor\": 1, \"price\": 1, \"deliverydays\": 1, \"producer\": 1, \"publisher\": 1, \"publishdate\": 1, \"validfrom\": 1, \"validto\": 1}},
{\"$project\": {\"offerwebpage\": 1, \"product\": 1, \"nr\": 1, \"vendor\": 1, \"price\": 1, \"deliverydays\": 1, \"producer\": 1, \"publisher\": 1, \"publishdate\": 1, \"validfrom\": 1, \"validto\": 1}},
{\"$project\": {\"offerwebpage\": 1, \"product\": 1, \"nr\": 1, \"vendor\": 1, \"price\": 1, \"deliverydays\": 1, \"producer\": 1, \"publisher\": 1, \"publishdate\": 1, \"validfrom\": 1, \"validto\": 1}}]
[nr, product, producer, vendor, price, validfrom, validto, deliverydays, offerwebpage, publisher, publishdate]
56200", color = yellow] ; 
75 -> 81 ; 
82 [label="SQLQuery
SELECT P.nr AS nr, P.producer AS producer 
FROM PRODUCT AS P, PRODUCTTYPEPRODUCT AS PT 
WHERE P.nr = ? AND P.producer = ? AND PT.producttype = 56 AND PT.product = P.nr", color = yellow] ; 
74 -> 82 ; 
83 [label="SQLQuery
SELECT nr, label, comment, producer, propertyNum1, propertyNum2, propertyTex1, propertyTex2, propertyTex3, propertyTex4, propertyTex5, propertyTex6, publisher, publishDate 
FROM Product 
WHERE nr = ? AND producer = ?", color = yellow] ; 
73 -> 83 ; 
84 [label="PhyMongoDBEval
productproducercountry
 test[{\"$project\": {\"country\": 1, \"nr\": 1, \"producer\": 1}},
{\"$project\": {\"country\": 1, \"nr\": 1, \"producer\": 1}},
{\"$project\": {\"country\": 1, \"nr\": 1, \"producer\": 1}}]
[nr, producer, country]
2810", color = yellow] ; 
72 -> 84 ; 
85 [label="PhyMongoDBEval
countrytype
 test[{\"$match\": {\"countrytype\": 121}},
{\"$project\": {\"country\": 1}},
{\"$project\": {\"country\": 1}},
{\"$project\": {\"country\": 1}}]
[country]
2", color = yellow] ; 
71 -> 85 ; 
87 [label="Project
[1, 0, 4, 5, 3, 2]", color = yellow] ; 
2 -> 87 ; 
88 [label="Project
[0, 1, 3, 12, 24, 31]", color = yellow] ; 
87 -> 88 ; 
89 [label="HashJoin 
[4PREDICATE_EQUAL38]
58", color = yellow] ; 
88 -> 89 ; 
90 [label="HashJoin 
[1PREDICATE_EQUAL30,0PREDICATE_EQUAL27]
915", color = yellow] ; 
89 -> 90 ; 
91 [label="HashJoin 
[1PREDICATE_EQUAL19,0PREDICATE_EQUAL16]
915", color = yellow] ; 
90 -> 91 ; 
92 [label="LeftBindJoin 
[0, 3]
915", color = yellow] ; 
91 -> 92 ; 
93 [label="SQLQuery
SELECT O.nr AS offer, O.vendor AS vendor, P.propertyNum3 AS propertyNum3, P.propertyNum4 AS propertyNum4, PR.country AS country 
FROM Offer AS O, Product AS P, Producer AS PR, PRODUCTTYPEPRODUCT AS PTP 
WHERE O.nr = ? AND O.vendor = ? AND P.nr = O.product AND PR.nr = P.producer AND P.nr = PTP.product AND PTP.producttype = 56", color = yellow] ; 
92 -> 93 ; 
94 [label="PhyMongoDBEval
offer
 test[{\"$project\": {\"offerwebpage\": 1, \"product\": 1, \"nr\": 1, \"vendor\": 1, \"price\": 1, \"deliverydays\": 1, \"producer\": 1, \"publisher\": 1, \"publishdate\": 1, \"validfrom\": 1, \"validto\": 1}},
{\"$project\": {\"offerwebpage\": 1, \"product\": 1, \"nr\": 1, \"vendor\": 1, \"price\": 1, \"deliverydays\": 1, \"producer\": 1, \"publisher\": 1, \"publishdate\": 1, \"validfrom\": 1, \"validto\": 1}},
{\"$project\": {\"offerwebpage\": 1, \"product\": 1, \"nr\": 1, \"vendor\": 1, \"price\": 1, \"deliverydays\": 1, \"producer\": 1, \"publisher\": 1, \"publishdate\": 1, \"validfrom\": 1, \"validto\": 1}}]
[nr, product, producer, vendor, price, validfrom, validto, deliverydays, offerwebpage, publisher, publishdate]
56200", color = yellow] ; 
92 -> 94 ; 
95 [label="PhyMongoDBEval
offer
 test[{\"$project\": {\"offerwebpage\": 1, \"product\": 1, \"nr\": 1, \"vendor\": 1, \"price\": 1, \"deliverydays\": 1, \"producer\": 1, \"publisher\": 1, \"publishdate\": 1, \"validfrom\": 1, \"validto\": 1}},
{\"$project\": {\"offerwebpage\": 1, \"product\": 1, \"nr\": 1, \"vendor\": 1, \"price\": 1, \"deliverydays\": 1, \"producer\": 1, \"publisher\": 1, \"publishdate\": 1, \"validfrom\": 1, \"validto\": 1}},
{\"$project\": {\"offerwebpage\": 1, \"product\": 1, \"nr\": 1, \"vendor\": 1, \"price\": 1, \"deliverydays\": 1, \"producer\": 1, \"publisher\": 1, \"publishdate\": 1, \"validfrom\": 1, \"validto\": 1}}]
[nr, product, producer, vendor, price, validfrom, validto, deliverydays, offerwebpage, publisher, publishdate]
56200", color = yellow] ; 
91 -> 95 ; 
96 [label="PhyMongoDBEval
offer
 test[{\"$project\": {\"offerwebpage\": 1, \"product\": 1, \"nr\": 1, \"vendor\": 1, \"price\": 1, \"deliverydays\": 1, \"producer\": 1, \"publisher\": 1, \"publishdate\": 1, \"validfrom\": 1, \"validto\": 1}},
{\"$project\": {\"offerwebpage\": 1, \"product\": 1, \"nr\": 1, \"vendor\": 1, \"price\": 1, \"deliverydays\": 1, \"producer\": 1, \"publisher\": 1, \"publishdate\": 1, \"validfrom\": 1, \"validto\": 1}},
{\"$project\": {\"offerwebpage\": 1, \"product\": 1, \"nr\": 1, \"vendor\": 1, \"price\": 1, \"deliverydays\": 1, \"producer\": 1, \"publisher\": 1, \"publishdate\": 1, \"validfrom\": 1, \"validto\": 1}}]
[nr, product, producer, vendor, price, validfrom, validto, deliverydays, offerwebpage, publisher, publishdate]
56200", color = yellow] ; 
90 -> 96 ; 
97 [label="PhyMongoDBEval
countrytype
 test[{\"$match\": {\"countrytype\": 122}},
{\"$project\": {\"country\": 1}},
{\"$project\": {\"country\": 1}},
{\"$project\": {\"country\": 1}}]
[country]
2", color = yellow] ; 
89 -> 97 ; 
99 [label="Project
[2, 1, 4, 3, 5, 0]", color = yellow] ; 
2 -> 99 ; 
100 [label="Project
[5, 19, 22, 34, 49, 59]", color = yellow] ; 
99 -> 100 ; 
101 [label="HashJoin 
[18PREDICATE_EQUAL63]
250", color = yellow] ; 
100 -> 101 ; 
102 [label="HashJoin 
[22PREDICATE_EQUAL55,19PREDICATE_EQUAL52]
1203", color = yellow] ; 
101 -> 102 ; 
103 [label="HashJoin 
[22PREDICATE_EQUAL44,19PREDICATE_EQUAL41]
1203", color = yellow] ; 
102 -> 103 ; 
104 [label="HashJoin 
[22PREDICATE_EQUAL33,19PREDICATE_EQUAL30]
1203", color = yellow] ; 
103 -> 104 ; 
105 [label="HashJoin 
[3PREDICATE_EQUAL21,0PREDICATE_EQUAL20]
1203", color = yellow] ; 
104 -> 105 ; 
106 [label="LeftBindJoin 
[0, 1]
56", color = yellow] ; 
105 -> 106 ; 
107 [label="SQLQuery
SELECT tab_1903.nr, tab_1903.label, tab_1903.comment, tab_1903.producer, tab_1903.propertyNum1, tab_1903.propertyNum2, tab_1903.propertyTex1, tab_1903.propertyTex2, tab_1903.propertyTex3, tab_1903.propertyTex4, tab_1903.propertyTex5, tab_1903.propertyTex6, tab_1903.publisher, tab_1903.publishDate, tab_1904.nr, tab_1904.producer 
FROM Product AS tab_1903, PRODUCTTYPEPRODUCT AS tab_1905, PRODUCT AS tab_1904 
WHERE tab_1903.nr = ? AND tab_1903.producer = ? AND tab_1905.producttype = 57 AND tab_1905.product = tab_1904.nr AND tab_1903.producer = tab_1904.producer AND tab_1903.nr = tab_1904.nr", color = yellow] ; 
106 -> 107 ; 
108 [label="PhyMongoDBEval
productproducercountry
 test[{\"$project\": {\"country\": 1, \"nr\": 1, \"producer\": 1}},
{\"$project\": {\"country\": 1, \"nr\": 1, \"producer\": 1}},
{\"$project\": {\"country\": 1, \"nr\": 1, \"producer\": 1}}]
[nr, producer, country]
2810", color = yellow] ; 
106 -> 108 ; 
109 [label="PhyMongoDBEval
offer
 test[{\"$project\": {\"offerwebpage\": 1, \"product\": 1, \"nr\": 1, \"vendor\": 1, \"price\": 1, \"deliverydays\": 1, \"producer\": 1, \"publisher\": 1, \"publishdate\": 1, \"validfrom\": 1, \"validto\": 1}},
{\"$project\": {\"offerwebpage\": 1, \"product\": 1, \"nr\": 1, \"vendor\": 1, \"price\": 1, \"deliverydays\": 1, \"producer\": 1, \"publisher\": 1, \"publishdate\": 1, \"validfrom\": 1, \"validto\": 1}},
{\"$project\": {\"offerwebpage\": 1, \"product\": 1, \"nr\": 1, \"vendor\": 1, \"price\": 1, \"deliverydays\": 1, \"producer\": 1, \"publisher\": 1, \"publishdate\": 1, \"validfrom\": 1, \"validto\": 1}}]
[nr, product, producer, vendor, price, validfrom, validto, deliverydays, offerwebpage, publisher, publishdate]
56200", color = yellow] ; 
105 -> 109 ; 
110 [label="PhyMongoDBEval
offer
 test[{\"$project\": {\"offerwebpage\": 1, \"product\": 1, \"nr\": 1, \"vendor\": 1, \"price\": 1, \"deliverydays\": 1, \"producer\": 1, \"publisher\": 1, \"publishdate\": 1, \"validfrom\": 1, \"validto\": 1}},
{\"$project\": {\"offerwebpage\": 1, \"product\": 1, \"nr\": 1, \"vendor\": 1, \"price\": 1, \"deliverydays\": 1, \"producer\": 1, \"publisher\": 1, \"publishdate\": 1, \"validfrom\": 1, \"validto\": 1}},
{\"$project\": {\"offerwebpage\": 1, \"product\": 1, \"nr\": 1, \"vendor\": 1, \"price\": 1, \"deliverydays\": 1, \"producer\": 1, \"publisher\": 1, \"publishdate\": 1, \"validfrom\": 1, \"validto\": 1}}]
[nr, product, producer, vendor, price, validfrom, validto, deliverydays, offerwebpage, publisher, publishdate]
56200", color = yellow] ; 
104 -> 110 ; 
111 [label="PhyMongoDBEval
offer
 test[{\"$project\": {\"offerwebpage\": 1, \"product\": 1, \"nr\": 1, \"vendor\": 1, \"price\": 1, \"deliverydays\": 1, \"producer\": 1, \"publisher\": 1, \"publishdate\": 1, \"validfrom\": 1, \"validto\": 1}},
{\"$project\": {\"offerwebpage\": 1, \"product\": 1, \"nr\": 1, \"vendor\": 1, \"price\": 1, \"deliverydays\": 1, \"producer\": 1, \"publisher\": 1, \"publishdate\": 1, \"validfrom\": 1, \"validto\": 1}},
{\"$project\": {\"offerwebpage\": 1, \"product\": 1, \"nr\": 1, \"vendor\": 1, \"price\": 1, \"deliverydays\": 1, \"producer\": 1, \"publisher\": 1, \"publishdate\": 1, \"validfrom\": 1, \"validto\": 1}}]
[nr, product, producer, vendor, price, validfrom, validto, deliverydays, offerwebpage, publisher, publishdate]
56200", color = yellow] ; 
103 -> 111 ; 
112 [label="PhyMongoDBEval
offer
 test[{\"$project\": {\"offerwebpage\": 1, \"product\": 1, \"nr\": 1, \"vendor\": 1, \"price\": 1, \"deliverydays\": 1, \"producer\": 1, \"publisher\": 1, \"publishdate\": 1, \"validfrom\": 1, \"validto\": 1}},
{\"$project\": {\"offerwebpage\": 1, \"product\": 1, \"nr\": 1, \"vendor\": 1, \"price\": 1, \"deliverydays\": 1, \"producer\": 1, \"publisher\": 1, \"publishdate\": 1, \"validfrom\": 1, \"validto\": 1}},
{\"$project\": {\"offerwebpage\": 1, \"product\": 1, \"nr\": 1, \"vendor\": 1, \"price\": 1, \"deliverydays\": 1, \"producer\": 1, \"publisher\": 1, \"publishdate\": 1, \"validfrom\": 1, \"validto\": 1}}]
[nr, product, producer, vendor, price, validfrom, validto, deliverydays, offerwebpage, publisher, publishdate]
56200", color = yellow] ; 
102 -> 112 ; 
113 [label="PhyMongoDBEval
countrytype
 test[{\"$match\": {\"countrytype\": 121}},
{\"$project\": {\"country\": 1}},
{\"$project\": {\"country\": 1}},
{\"$project\": {\"country\": 1}}]
[country]
2", color = yellow] ; 
101 -> 113 ; 
115 [label="Project
[1, 0, 2, 3, 4, 5]", color = yellow] ; 
2 -> 115 ; 
116 [label="Project
[0, 3, 8, 15, 29, 48]", color = yellow] ; 
115 -> 116 ; 
117 [label="RightBindJoin 
[34, 35]
191", color = yellow] ; 
116 -> 117 ; 
118 [label="HashJoin 
[60PREDICATE_EQUAL61]
9356", color = yellow] ; 
117 -> 118 ; 
119 [label="HashJoin 
[35PREDICATE_EQUAL59,34PREDICATE_EQUAL58]
56200", color = yellow] ; 
118 -> 119 ; 
120 [label="RightBindJoin 
[34, 35]
56200", color = yellow] ; 
119 -> 120 ; 
121 [label="HashJoin 
[3PREDICATE_EQUAL36,0PREDICATE_EQUAL33]
56200", color = yellow] ; 
120 -> 121 ; 
122 [label="HashJoin 
[3PREDICATE_EQUAL25,0PREDICATE_EQUAL22]
56200", color = yellow] ; 
121 -> 122 ; 
123 [label="HashJoin 
[3PREDICATE_EQUAL14,0PREDICATE_EQUAL11]
56200", color = yellow] ; 
122 -> 123 ; 
124 [label="PhyMongoDBEval
offer
 test[{\"$project\": {\"offerwebpage\": 1, \"product\": 1, \"nr\": 1, \"vendor\": 1, \"price\": 1, \"deliverydays\": 1, \"producer\": 1, \"publisher\": 1, \"publishdate\": 1, \"validfrom\": 1, \"validto\": 1}},
{\"$project\": {\"offerwebpage\": 1, \"product\": 1, \"nr\": 1, \"vendor\": 1, \"price\": 1, \"deliverydays\": 1, \"producer\": 1, \"publisher\": 1, \"publishdate\": 1, \"validfrom\": 1, \"validto\": 1}},
{\"$project\": {\"offerwebpage\": 1, \"product\": 1, \"nr\": 1, \"vendor\": 1, \"price\": 1, \"deliverydays\": 1, \"producer\": 1, \"publisher\": 1, \"publishdate\": 1, \"validfrom\": 1, \"validto\": 1}}]
[nr, product, producer, vendor, price, validfrom, validto, deliverydays, offerwebpage, publisher, publishdate]
56200", color = yellow] ; 
123 -> 124 ; 
125 [label="PhyMongoDBEval
offer
 test[{\"$project\": {\"offerwebpage\": 1, \"product\": 1, \"nr\": 1, \"vendor\": 1, \"price\": 1, \"deliverydays\": 1, \"producer\": 1, \"publisher\": 1, \"publishdate\": 1, \"validfrom\": 1, \"validto\": 1}},
{\"$project\": {\"offerwebpage\": 1, \"product\": 1, \"nr\": 1, \"vendor\": 1, \"price\": 1, \"deliverydays\": 1, \"producer\": 1, \"publisher\": 1, \"publishdate\": 1, \"validfrom\": 1, \"validto\": 1}},
{\"$project\": {\"offerwebpage\": 1, \"product\": 1, \"nr\": 1, \"vendor\": 1, \"price\": 1, \"deliverydays\": 1, \"producer\": 1, \"publisher\": 1, \"publishdate\": 1, \"validfrom\": 1, \"validto\": 1}}]
[nr, product, producer, vendor, price, validfrom, validto, deliverydays, offerwebpage, publisher, publishdate]
56200", color = yellow] ; 
123 -> 125 ; 
126 [label="PhyMongoDBEval
offer
 test[{\"$project\": {\"offerwebpage\": 1, \"product\": 1, \"nr\": 1, \"vendor\": 1, \"price\": 1, \"deliverydays\": 1, \"producer\": 1, \"publisher\": 1, \"publishdate\": 1, \"validfrom\": 1, \"validto\": 1}},
{\"$project\": {\"offerwebpage\": 1, \"product\": 1, \"nr\": 1, \"vendor\": 1, \"price\": 1, \"deliverydays\": 1, \"producer\": 1, \"publisher\": 1, \"publishdate\": 1, \"validfrom\": 1, \"validto\": 1}},
{\"$project\": {\"offerwebpage\": 1, \"product\": 1, \"nr\": 1, \"vendor\": 1, \"price\": 1, \"deliverydays\": 1, \"producer\": 1, \"publisher\": 1, \"publishdate\": 1, \"validfrom\": 1, \"validto\": 1}}]
[nr, product, producer, vendor, price, validfrom, validto, deliverydays, offerwebpage, publisher, publishdate]
56200", color = yellow] ; 
122 -> 126 ; 
127 [label="PhyMongoDBEval
offer
 test[{\"$project\": {\"offerwebpage\": 1, \"product\": 1, \"nr\": 1, \"vendor\": 1, \"price\": 1, \"deliverydays\": 1, \"producer\": 1, \"publisher\": 1, \"publishdate\": 1, \"validfrom\": 1, \"validto\": 1}},
{\"$project\": {\"offerwebpage\": 1, \"product\": 1, \"nr\": 1, \"vendor\": 1, \"price\": 1, \"deliverydays\": 1, \"producer\": 1, \"publisher\": 1, \"publishdate\": 1, \"validfrom\": 1, \"validto\": 1}},
{\"$project\": {\"offerwebpage\": 1, \"product\": 1, \"nr\": 1, \"vendor\": 1, \"price\": 1, \"deliverydays\": 1, \"producer\": 1, \"publisher\": 1, \"publishdate\": 1, \"validfrom\": 1, \"validto\": 1}}]
[nr, product, producer, vendor, price, validfrom, validto, deliverydays, offerwebpage, publisher, publishdate]
56200", color = yellow] ; 
121 -> 127 ; 
128 [label="SQLQuery
SELECT nr, label, comment, producer, propertyNum1, propertyNum2, propertyTex1, propertyTex2, propertyTex3, propertyTex4, propertyTex5, propertyTex6, publisher, publishDate 
FROM Product 
WHERE nr = ? AND producer = ?", color = yellow] ; 
120 -> 128 ; 
129 [label="PhyMongoDBEval
productproducercountry
 test[{\"$project\": {\"country\": 1, \"nr\": 1, \"producer\": 1}},
{\"$project\": {\"country\": 1, \"nr\": 1, \"producer\": 1}},
{\"$project\": {\"country\": 1, \"nr\": 1, \"producer\": 1}}]
[nr, producer, country]
2810", color = yellow] ; 
119 -> 129 ; 
130 [label="PhyMongoDBEval
countrytype
 test[{\"$match\": {\"countrytype\": 122}},
{\"$project\": {\"country\": 1}},
{\"$project\": {\"country\": 1}},
{\"$project\": {\"country\": 1}}]
[country]
2", color = yellow] ; 
118 -> 130 ; 
131 [label="SQLQuery
SELECT P.nr AS nr, P.producer AS producer 
FROM PRODUCT AS P, PRODUCTTYPEPRODUCT AS PT 
WHERE P.nr = ? AND P.producer = ? AND PT.producttype = 57 AND PT.product = P.nr", color = yellow] ; 
117 -> 131 ; 
133 [label="Project
[1, 0, 3, 2, 4, 5]", color = yellow] ; 
2 -> 133 ; 
134 [label="Project
[0, 3, 4, 19, 40, 48]", color = yellow] ; 
133 -> 134 ; 
135 [label="RightBindJoin 
[23, 24]
58", color = yellow] ; 
134 -> 135 ; 
136 [label="HashJoin 
[60PREDICATE_EQUAL61]
9356", color = yellow] ; 
135 -> 136 ; 
137 [label="HashJoin 
[24PREDICATE_EQUAL59,23PREDICATE_EQUAL58]
56200", color = yellow] ; 
136 -> 137 ; 
138 [label="RightBindJoin 
[23, 24]
56200", color = yellow] ; 
137 -> 138 ; 
139 [label="HashJoin 
[3PREDICATE_EQUAL36,0PREDICATE_EQUAL33]
56200", color = yellow] ; 
138 -> 139 ; 
140 [label="HashJoin 
[3PREDICATE_EQUAL25,0PREDICATE_EQUAL22]
56200", color = yellow] ; 
139 -> 140 ; 
141 [label="HashJoin 
[3PREDICATE_EQUAL14,0PREDICATE_EQUAL11]
56200", color = yellow] ; 
140 -> 141 ; 
142 [label="PhyMongoDBEval
offer
 test[{\"$project\": {\"offerwebpage\": 1, \"product\": 1, \"nr\": 1, \"vendor\": 1, \"price\": 1, \"deliverydays\": 1, \"producer\": 1, \"publisher\": 1, \"publishdate\": 1, \"validfrom\": 1, \"validto\": 1}},
{\"$project\": {\"offerwebpage\": 1, \"product\": 1, \"nr\": 1, \"vendor\": 1, \"price\": 1, \"deliverydays\": 1, \"producer\": 1, \"publisher\": 1, \"publishdate\": 1, \"validfrom\": 1, \"validto\": 1}},
{\"$project\": {\"offerwebpage\": 1, \"product\": 1, \"nr\": 1, \"vendor\": 1, \"price\": 1, \"deliverydays\": 1, \"producer\": 1, \"publisher\": 1, \"publishdate\": 1, \"validfrom\": 1, \"validto\": 1}}]
[nr, product, producer, vendor, price, validfrom, validto, deliverydays, offerwebpage, publisher, publishdate]
56200", color = yellow] ; 
141 -> 142 ; 
143 [label="PhyMongoDBEval
offer
 test[{\"$project\": {\"offerwebpage\": 1, \"product\": 1, \"nr\": 1, \"vendor\": 1, \"price\": 1, \"deliverydays\": 1, \"producer\": 1, \"publisher\": 1, \"publishdate\": 1, \"validfrom\": 1, \"validto\": 1}},
{\"$project\": {\"offerwebpage\": 1, \"product\": 1, \"nr\": 1, \"vendor\": 1, \"price\": 1, \"deliverydays\": 1, \"producer\": 1, \"publisher\": 1, \"publishdate\": 1, \"validfrom\": 1, \"validto\": 1}},
{\"$project\": {\"offerwebpage\": 1, \"product\": 1, \"nr\": 1, \"vendor\": 1, \"price\": 1, \"deliverydays\": 1, \"producer\": 1, \"publisher\": 1, \"publishdate\": 1, \"validfrom\": 1, \"validto\": 1}}]
[nr, product, producer, vendor, price, validfrom, validto, deliverydays, offerwebpage, publisher, publishdate]
56200", color = yellow] ; 
141 -> 143 ; 
144 [label="PhyMongoDBEval
offer
 test[{\"$project\": {\"offerwebpage\": 1, \"product\": 1, \"nr\": 1, \"vendor\": 1, \"price\": 1, \"deliverydays\": 1, \"producer\": 1, \"publisher\": 1, \"publishdate\": 1, \"validfrom\": 1, \"validto\": 1}},
{\"$project\": {\"offerwebpage\": 1, \"product\": 1, \"nr\": 1, \"vendor\": 1, \"price\": 1, \"deliverydays\": 1, \"producer\": 1, \"publisher\": 1, \"publishdate\": 1, \"validfrom\": 1, \"validto\": 1}},
{\"$project\": {\"offerwebpage\": 1, \"product\": 1, \"nr\": 1, \"vendor\": 1, \"price\": 1, \"deliverydays\": 1, \"producer\": 1, \"publisher\": 1, \"publishdate\": 1, \"validfrom\": 1, \"validto\": 1}}]
[nr, product, producer, vendor, price, validfrom, validto, deliverydays, offerwebpage, publisher, publishdate]
56200", color = yellow] ; 
140 -> 144 ; 
145 [label="PhyMongoDBEval
offer
 test[{\"$project\": {\"offerwebpage\": 1, \"product\": 1, \"nr\": 1, \"vendor\": 1, \"price\": 1, \"deliverydays\": 1, \"producer\": 1, \"publisher\": 1, \"publishdate\": 1, \"validfrom\": 1, \"validto\": 1}},
{\"$project\": {\"offerwebpage\": 1, \"product\": 1, \"nr\": 1, \"vendor\": 1, \"price\": 1, \"deliverydays\": 1, \"producer\": 1, \"publisher\": 1, \"publishdate\": 1, \"validfrom\": 1, \"validto\": 1}},
{\"$project\": {\"offerwebpage\": 1, \"product\": 1, \"nr\": 1, \"vendor\": 1, \"price\": 1, \"deliverydays\": 1, \"producer\": 1, \"publisher\": 1, \"publishdate\": 1, \"validfrom\": 1, \"validto\": 1}}]
[nr, product, producer, vendor, price, validfrom, validto, deliverydays, offerwebpage, publisher, publishdate]
56200", color = yellow] ; 
139 -> 145 ; 
146 [label="SQLQuery
SELECT nr, label, comment, producer, propertyNum1, propertyNum2, propertyTex1, propertyTex2, propertyTex3, propertyTex4, propertyTex5, propertyTex6, publisher, publishDate 
FROM Product 
WHERE nr = ? AND producer = ?", color = yellow] ; 
138 -> 146 ; 
147 [label="PhyMongoDBEval
productproducercountry
 test[{\"$project\": {\"country\": 1, \"nr\": 1, \"producer\": 1}},
{\"$project\": {\"country\": 1, \"nr\": 1, \"producer\": 1}},
{\"$project\": {\"country\": 1, \"nr\": 1, \"producer\": 1}}]
[nr, producer, country]
2810", color = yellow] ; 
137 -> 147 ; 
148 [label="PhyMongoDBEval
countrytype
 test[{\"$match\": {\"countrytype\": 122}},
{\"$project\": {\"country\": 1}},
{\"$project\": {\"country\": 1}},
{\"$project\": {\"country\": 1}}]
[country]
2", color = yellow] ; 
136 -> 148 ; 
149 [label="SQLQuery
SELECT P.nr AS nr, P.producer AS producer 
FROM PRODUCT AS P, PRODUCTTYPEPRODUCT AS PT 
WHERE P.nr = ? AND P.producer = ? AND PT.producttype = 56 AND PT.product = P.nr", color = yellow] ; 
135 -> 149 ; 
151 [label="Project
[1, 0, 4, 3, 5, 2]", color = yellow] ; 
2 -> 151 ; 
152 [label="Project
[1, 2, 4, 10, 25, 35]", color = yellow] ; 
151 -> 152 ; 
153 [label="HashJoin 
[2PREDICATE_EQUAL31,1PREDICATE_EQUAL28]
191", color = yellow] ; 
152 -> 153 ; 
154 [label="HashJoin 
[2PREDICATE_EQUAL20,1PREDICATE_EQUAL17]
191", color = yellow] ; 
153 -> 154 ; 
155 [label="HashJoin 
[2PREDICATE_EQUAL9,1PREDICATE_EQUAL6]
191", color = yellow] ; 
154 -> 155 ; 
156 [label="RightBindJoin 
[0]
191", color = yellow] ; 
155 -> 156 ; 
157 [label="PhyMongoDBEval
countrytype
 test[{\"$match\": {\"countrytype\": 122}},
{\"$project\": {\"country\": 1}},
{\"$project\": {\"country\": 1}},
{\"$project\": {\"country\": 1}}]
[country]
2", color = yellow] ; 
156 -> 157 ; 
158 [label="SQLQuery
SELECT O.nr AS offer, O.vendor AS vendor, P.propertyNum3 AS propertyNum3, P.propertyNum4 AS propertyNum4, PR.country AS country 
FROM Offer AS O, Product AS P, Producer AS PR, PRODUCTTYPEPRODUCT AS PTP 
WHERE PR.country = ? AND P.nr = O.product AND PR.nr = P.producer AND P.nr = PTP.product AND PTP.producttype = 57", color = yellow] ; 
156 -> 158 ; 
159 [label="PhyMongoDBEval
offer
 test[{\"$project\": {\"offerwebpage\": 1, \"product\": 1, \"nr\": 1, \"vendor\": 1, \"price\": 1, \"deliverydays\": 1, \"producer\": 1, \"publisher\": 1, \"publishdate\": 1, \"validfrom\": 1, \"validto\": 1}},
{\"$project\": {\"offerwebpage\": 1, \"product\": 1, \"nr\": 1, \"vendor\": 1, \"price\": 1, \"deliverydays\": 1, \"producer\": 1, \"publisher\": 1, \"publishdate\": 1, \"validfrom\": 1, \"validto\": 1}},
{\"$project\": {\"offerwebpage\": 1, \"product\": 1, \"nr\": 1, \"vendor\": 1, \"price\": 1, \"deliverydays\": 1, \"producer\": 1, \"publisher\": 1, \"publishdate\": 1, \"validfrom\": 1, \"validto\": 1}}]
[nr, product, producer, vendor, price, validfrom, validto, deliverydays, offerwebpage, publisher, publishdate]
56200", color = yellow] ; 
155 -> 159 ; 
160 [label="PhyMongoDBEval
offer
 test[{\"$project\": {\"offerwebpage\": 1, \"product\": 1, \"nr\": 1, \"vendor\": 1, \"price\": 1, \"deliverydays\": 1, \"producer\": 1, \"publisher\": 1, \"publishdate\": 1, \"validfrom\": 1, \"validto\": 1}},
{\"$project\": {\"offerwebpage\": 1, \"product\": 1, \"nr\": 1, \"vendor\": 1, \"price\": 1, \"deliverydays\": 1, \"producer\": 1, \"publisher\": 1, \"publishdate\": 1, \"validfrom\": 1, \"validto\": 1}},
{\"$project\": {\"offerwebpage\": 1, \"product\": 1, \"nr\": 1, \"vendor\": 1, \"price\": 1, \"deliverydays\": 1, \"producer\": 1, \"publisher\": 1, \"publishdate\": 1, \"validfrom\": 1, \"validto\": 1}}]
[nr, product, producer, vendor, price, validfrom, validto, deliverydays, offerwebpage, publisher, publishdate]
56200", color = yellow] ; 
154 -> 160 ; 
161 [label="PhyMongoDBEval
offer
 test[{\"$project\": {\"offerwebpage\": 1, \"product\": 1, \"nr\": 1, \"vendor\": 1, \"price\": 1, \"deliverydays\": 1, \"producer\": 1, \"publisher\": 1, \"publishdate\": 1, \"validfrom\": 1, \"validto\": 1}},
{\"$project\": {\"offerwebpage\": 1, \"product\": 1, \"nr\": 1, \"vendor\": 1, \"price\": 1, \"deliverydays\": 1, \"producer\": 1, \"publisher\": 1, \"publishdate\": 1, \"validfrom\": 1, \"validto\": 1}},
{\"$project\": {\"offerwebpage\": 1, \"product\": 1, \"nr\": 1, \"vendor\": 1, \"price\": 1, \"deliverydays\": 1, \"producer\": 1, \"publisher\": 1, \"publishdate\": 1, \"validfrom\": 1, \"validto\": 1}}]
[nr, product, producer, vendor, price, validfrom, validto, deliverydays, offerwebpage, publisher, publishdate]
56200", color = yellow] ; 
153 -> 161 ; 
163 [label="Project
[1, 0, 3, 5, 4, 2]", color = yellow] ; 
2 -> 163 ; 
164 [label="Project
[1, 2, 4, 14, 24, 32]", color = yellow] ; 
163 -> 164 ; 
165 [label="HashJoin 
[2PREDICATE_EQUAL31,1PREDICATE_EQUAL28]
250", color = yellow] ; 
164 -> 165 ; 
166 [label="HashJoin 
[2PREDICATE_EQUAL20,1PREDICATE_EQUAL17]
250", color = yellow] ; 
165 -> 166 ; 
167 [label="HashJoin 
[2PREDICATE_EQUAL9,1PREDICATE_EQUAL6]
250", color = yellow] ; 
166 -> 167 ; 
168 [label="RightBindJoin 
[0]
250", color = yellow] ; 
167 -> 168 ; 
169 [label="PhyMongoDBEval
countrytype
 test[{\"$match\": {\"countrytype\": 121}},
{\"$project\": {\"country\": 1}},
{\"$project\": {\"country\": 1}},
{\"$project\": {\"country\": 1}}]
[country]
2", color = yellow] ; 
168 -> 169 ; 
170 [label="SQLQuery
SELECT O.nr AS offer, O.vendor AS vendor, P.propertyNum3 AS propertyNum3, P.propertyNum4 AS propertyNum4, PR.country AS country 
FROM Offer AS O, Product AS P, Producer AS PR, PRODUCTTYPEPRODUCT AS PTP 
WHERE PR.country = ? AND P.nr = O.product AND PR.nr = P.producer AND P.nr = PTP.product AND PTP.producttype = 57", color = yellow] ; 
168 -> 170 ; 
171 [label="PhyMongoDBEval
offer
 test[{\"$project\": {\"offerwebpage\": 1, \"product\": 1, \"nr\": 1, \"vendor\": 1, \"price\": 1, \"deliverydays\": 1, \"producer\": 1, \"publisher\": 1, \"publishdate\": 1, \"validfrom\": 1, \"validto\": 1}},
{\"$project\": {\"offerwebpage\": 1, \"product\": 1, \"nr\": 1, \"vendor\": 1, \"price\": 1, \"deliverydays\": 1, \"producer\": 1, \"publisher\": 1, \"publishdate\": 1, \"validfrom\": 1, \"validto\": 1}},
{\"$project\": {\"offerwebpage\": 1, \"product\": 1, \"nr\": 1, \"vendor\": 1, \"price\": 1, \"deliverydays\": 1, \"producer\": 1, \"publisher\": 1, \"publishdate\": 1, \"validfrom\": 1, \"validto\": 1}}]
[nr, product, producer, vendor, price, validfrom, validto, deliverydays, offerwebpage, publisher, publishdate]
56200", color = yellow] ; 
167 -> 171 ; 
172 [label="PhyMongoDBEval
offer
 test[{\"$project\": {\"offerwebpage\": 1, \"product\": 1, \"nr\": 1, \"vendor\": 1, \"price\": 1, \"deliverydays\": 1, \"producer\": 1, \"publisher\": 1, \"publishdate\": 1, \"validfrom\": 1, \"validto\": 1}},
{\"$project\": {\"offerwebpage\": 1, \"product\": 1, \"nr\": 1, \"vendor\": 1, \"price\": 1, \"deliverydays\": 1, \"producer\": 1, \"publisher\": 1, \"publishdate\": 1, \"validfrom\": 1, \"validto\": 1}},
{\"$project\": {\"offerwebpage\": 1, \"product\": 1, \"nr\": 1, \"vendor\": 1, \"price\": 1, \"deliverydays\": 1, \"producer\": 1, \"publisher\": 1, \"publishdate\": 1, \"validfrom\": 1, \"validto\": 1}}]
[nr, product, producer, vendor, price, validfrom, validto, deliverydays, offerwebpage, publisher, publishdate]
56200", color = yellow] ; 
166 -> 172 ; 
173 [label="PhyMongoDBEval
offer
 test[{\"$project\": {\"offerwebpage\": 1, \"product\": 1, \"nr\": 1, \"vendor\": 1, \"price\": 1, \"deliverydays\": 1, \"producer\": 1, \"publisher\": 1, \"publishdate\": 1, \"validfrom\": 1, \"validto\": 1}},
{\"$project\": {\"offerwebpage\": 1, \"product\": 1, \"nr\": 1, \"vendor\": 1, \"price\": 1, \"deliverydays\": 1, \"producer\": 1, \"publisher\": 1, \"publishdate\": 1, \"validfrom\": 1, \"validto\": 1}},
{\"$project\": {\"offerwebpage\": 1, \"product\": 1, \"nr\": 1, \"vendor\": 1, \"price\": 1, \"deliverydays\": 1, \"producer\": 1, \"publisher\": 1, \"publishdate\": 1, \"validfrom\": 1, \"validto\": 1}}]
[nr, product, producer, vendor, price, validfrom, validto, deliverydays, offerwebpage, publisher, publishdate]
56200", color = yellow] ; 
165 -> 173 ; 
175 [label="Project
[2, 1, 4, 3, 5, 0]", color = yellow] ; 
2 -> 175 ; 
176 [label="Project
[11, 20, 23, 35, 50, 60]", color = yellow] ; 
175 -> 176 ; 
177 [label="HashJoin 
[23PREDICATE_EQUAL56,20PREDICATE_EQUAL53]
191", color = yellow] ; 
176 -> 177 ; 
178 [label="HashJoin 
[23PREDICATE_EQUAL45,20PREDICATE_EQUAL42]
191", color = yellow] ; 
177 -> 178 ; 
179 [label="HashJoin 
[23PREDICATE_EQUAL34,20PREDICATE_EQUAL31]
191", color = yellow] ; 
178 -> 179 ; 
180 [label="HashJoin 
[2PREDICATE_EQUAL22,1PREDICATE_EQUAL21]
191", color = yellow] ; 
179 -> 180 ; 
181 [label="RightBindJoin 
[1, 2]
10", color = yellow] ; 
180 -> 181 ; 
182 [label="RightBindJoin 
[1, 2]
10", color = yellow] ; 
181 -> 182 ; 
183 [label="HashJoin 
[0PREDICATE_EQUAL3]
477", color = yellow] ; 
182 -> 183 ; 
184 [label="PhyMongoDBEval
countrytype
 test[{\"$match\": {\"countrytype\": 122}},
{\"$project\": {\"country\": 1}},
{\"$project\": {\"country\": 1}},
{\"$project\": {\"country\": 1}}]
[country]
2", color = yellow] ; 
183 -> 184 ; 
185 [label="PhyMongoDBEval
productproducercountry
 test[{\"$project\": {\"country\": 1, \"nr\": 1, \"producer\": 1}},
{\"$project\": {\"country\": 1, \"nr\": 1, \"producer\": 1}},
{\"$project\": {\"country\": 1, \"nr\": 1, \"producer\": 1}}]
[nr, producer, country]
2810", color = yellow] ; 
183 -> 185 ; 
186 [label="SQLQuery
SELECT P.nr AS nr, P.producer AS producer 
FROM PRODUCT AS P, PRODUCTTYPEPRODUCT AS PT 
WHERE P.nr = ? AND P.producer = ? AND PT.producttype = 57 AND PT.product = P.nr", color = yellow] ; 
182 -> 186 ; 
187 [label="SQLQuery
SELECT nr, label, comment, producer, propertyNum1, propertyNum2, propertyTex1, propertyTex2, propertyTex3, propertyTex4, propertyTex5, propertyTex6, publisher, publishDate 
FROM Product 
WHERE nr = ? AND producer = ?", color = yellow] ; 
181 -> 187 ; 
188 [label="PhyMongoDBEval
offer
 test[{\"$project\": {\"offerwebpage\": 1, \"product\": 1, \"nr\": 1, \"vendor\": 1, \"price\": 1, \"deliverydays\": 1, \"producer\": 1, \"publisher\": 1, \"publishdate\": 1, \"validfrom\": 1, \"validto\": 1}},
{\"$project\": {\"offerwebpage\": 1, \"product\": 1, \"nr\": 1, \"vendor\": 1, \"price\": 1, \"deliverydays\": 1, \"producer\": 1, \"publisher\": 1, \"publishdate\": 1, \"validfrom\": 1, \"validto\": 1}},
{\"$project\": {\"offerwebpage\": 1, \"product\": 1, \"nr\": 1, \"vendor\": 1, \"price\": 1, \"deliverydays\": 1, \"producer\": 1, \"publisher\": 1, \"publishdate\": 1, \"validfrom\": 1, \"validto\": 1}}]
[nr, product, producer, vendor, price, validfrom, validto, deliverydays, offerwebpage, publisher, publishdate]
56200", color = yellow] ; 
180 -> 188 ; 
189 [label="PhyMongoDBEval
offer
 test[{\"$project\": {\"offerwebpage\": 1, \"product\": 1, \"nr\": 1, \"vendor\": 1, \"price\": 1, \"deliverydays\": 1, \"producer\": 1, \"publisher\": 1, \"publishdate\": 1, \"validfrom\": 1, \"validto\": 1}},
{\"$project\": {\"offerwebpage\": 1, \"product\": 1, \"nr\": 1, \"vendor\": 1, \"price\": 1, \"deliverydays\": 1, \"producer\": 1, \"publisher\": 1, \"publishdate\": 1, \"validfrom\": 1, \"validto\": 1}},
{\"$project\": {\"offerwebpage\": 1, \"product\": 1, \"nr\": 1, \"vendor\": 1, \"price\": 1, \"deliverydays\": 1, \"producer\": 1, \"publisher\": 1, \"publishdate\": 1, \"validfrom\": 1, \"validto\": 1}}]
[nr, product, producer, vendor, price, validfrom, validto, deliverydays, offerwebpage, publisher, publishdate]
56200", color = yellow] ; 
179 -> 189 ; 
190 [label="PhyMongoDBEval
offer
 test[{\"$project\": {\"offerwebpage\": 1, \"product\": 1, \"nr\": 1, \"vendor\": 1, \"price\": 1, \"deliverydays\": 1, \"producer\": 1, \"publisher\": 1, \"publishdate\": 1, \"validfrom\": 1, \"validto\": 1}},
{\"$project\": {\"offerwebpage\": 1, \"product\": 1, \"nr\": 1, \"vendor\": 1, \"price\": 1, \"deliverydays\": 1, \"producer\": 1, \"publisher\": 1, \"publishdate\": 1, \"validfrom\": 1, \"validto\": 1}},
{\"$project\": {\"offerwebpage\": 1, \"product\": 1, \"nr\": 1, \"vendor\": 1, \"price\": 1, \"deliverydays\": 1, \"producer\": 1, \"publisher\": 1, \"publishdate\": 1, \"validfrom\": 1, \"validto\": 1}}]
[nr, product, producer, vendor, price, validfrom, validto, deliverydays, offerwebpage, publisher, publishdate]
56200", color = yellow] ; 
178 -> 190 ; 
191 [label="PhyMongoDBEval
offer
 test[{\"$project\": {\"offerwebpage\": 1, \"product\": 1, \"nr\": 1, \"vendor\": 1, \"price\": 1, \"deliverydays\": 1, \"producer\": 1, \"publisher\": 1, \"publishdate\": 1, \"validfrom\": 1, \"validto\": 1}},
{\"$project\": {\"offerwebpage\": 1, \"product\": 1, \"nr\": 1, \"vendor\": 1, \"price\": 1, \"deliverydays\": 1, \"producer\": 1, \"publisher\": 1, \"publishdate\": 1, \"validfrom\": 1, \"validto\": 1}},
{\"$project\": {\"offerwebpage\": 1, \"product\": 1, \"nr\": 1, \"vendor\": 1, \"price\": 1, \"deliverydays\": 1, \"producer\": 1, \"publisher\": 1, \"publishdate\": 1, \"validfrom\": 1, \"validto\": 1}}]
[nr, product, producer, vendor, price, validfrom, validto, deliverydays, offerwebpage, publisher, publishdate]
56200", color = yellow] ; 
177 -> 191 ; 
193 [label="Project
[1, 0, 3, 5, 4, 2]", color = yellow] ; 
2 -> 193 ; 
194 [label="Project
[1, 2, 3, 14, 24, 32]", color = yellow] ; 
193 -> 194 ; 
195 [label="HashJoin 
[2PREDICATE_EQUAL31,1PREDICATE_EQUAL28]
58", color = yellow] ; 
194 -> 195 ; 
196 [label="HashJoin 
[2PREDICATE_EQUAL20,1PREDICATE_EQUAL17]
58", color = yellow] ; 
195 -> 196 ; 
197 [label="HashJoin 
[2PREDICATE_EQUAL9,1PREDICATE_EQUAL6]
58", color = yellow] ; 
196 -> 197 ; 
198 [label="RightBindJoin 
[0]
58", color = yellow] ; 
197 -> 198 ; 
199 [label="PhyMongoDBEval
countrytype
 test[{\"$match\": {\"countrytype\": 122}},
{\"$project\": {\"country\": 1}},
{\"$project\": {\"country\": 1}},
{\"$project\": {\"country\": 1}}]
[country]
2", color = yellow] ; 
198 -> 199 ; 
200 [label="SQLQuery
SELECT O.nr AS offer, O.vendor AS vendor, P.propertyNum3 AS propertyNum3, P.propertyNum4 AS propertyNum4, PR.country AS country 
FROM Offer AS O, Product AS P, Producer AS PR, PRODUCTTYPEPRODUCT AS PTP 
WHERE PR.country = ? AND P.nr = O.product AND PR.nr = P.producer AND P.nr = PTP.product AND PTP.producttype = 56", color = yellow] ; 
198 -> 200 ; 
201 [label="PhyMongoDBEval
offer
 test[{\"$project\": {\"offerwebpage\": 1, \"product\": 1, \"nr\": 1, \"vendor\": 1, \"price\": 1, \"deliverydays\": 1, \"producer\": 1, \"publisher\": 1, \"publishdate\": 1, \"validfrom\": 1, \"validto\": 1}},
{\"$project\": {\"offerwebpage\": 1, \"product\": 1, \"nr\": 1, \"vendor\": 1, \"price\": 1, \"deliverydays\": 1, \"producer\": 1, \"publisher\": 1, \"publishdate\": 1, \"validfrom\": 1, \"validto\": 1}},
{\"$project\": {\"offerwebpage\": 1, \"product\": 1, \"nr\": 1, \"vendor\": 1, \"price\": 1, \"deliverydays\": 1, \"producer\": 1, \"publisher\": 1, \"publishdate\": 1, \"validfrom\": 1, \"validto\": 1}}]
[nr, product, producer, vendor, price, validfrom, validto, deliverydays, offerwebpage, publisher, publishdate]
56200", color = yellow] ; 
197 -> 201 ; 
202 [label="PhyMongoDBEval
offer
 test[{\"$project\": {\"offerwebpage\": 1, \"product\": 1, \"nr\": 1, \"vendor\": 1, \"price\": 1, \"deliverydays\": 1, \"producer\": 1, \"publisher\": 1, \"publishdate\": 1, \"validfrom\": 1, \"validto\": 1}},
{\"$project\": {\"offerwebpage\": 1, \"product\": 1, \"nr\": 1, \"vendor\": 1, \"price\": 1, \"deliverydays\": 1, \"producer\": 1, \"publisher\": 1, \"publishdate\": 1, \"validfrom\": 1, \"validto\": 1}},
{\"$project\": {\"offerwebpage\": 1, \"product\": 1, \"nr\": 1, \"vendor\": 1, \"price\": 1, \"deliverydays\": 1, \"producer\": 1, \"publisher\": 1, \"publishdate\": 1, \"validfrom\": 1, \"validto\": 1}}]
[nr, product, producer, vendor, price, validfrom, validto, deliverydays, offerwebpage, publisher, publishdate]
56200", color = yellow] ; 
196 -> 202 ; 
203 [label="PhyMongoDBEval
offer
 test[{\"$project\": {\"offerwebpage\": 1, \"product\": 1, \"nr\": 1, \"vendor\": 1, \"price\": 1, \"deliverydays\": 1, \"producer\": 1, \"publisher\": 1, \"publishdate\": 1, \"validfrom\": 1, \"validto\": 1}},
{\"$project\": {\"offerwebpage\": 1, \"product\": 1, \"nr\": 1, \"vendor\": 1, \"price\": 1, \"deliverydays\": 1, \"producer\": 1, \"publisher\": 1, \"publishdate\": 1, \"validfrom\": 1, \"validto\": 1}},
{\"$project\": {\"offerwebpage\": 1, \"product\": 1, \"nr\": 1, \"vendor\": 1, \"price\": 1, \"deliverydays\": 1, \"producer\": 1, \"publisher\": 1, \"publishdate\": 1, \"validfrom\": 1, \"validto\": 1}}]
[nr, product, producer, vendor, price, validfrom, validto, deliverydays, offerwebpage, publisher, publishdate]
56200", color = yellow] ; 
195 -> 203 ; 
205 [label="Project
[1, 0, 3, 2, 5, 4]", color = yellow] ; 
2 -> 205 ; 
206 [label="Project
[0, 3, 4, 19, 25, 34]", color = yellow] ; 
205 -> 206 ; 
207 [label="HashJoin 
[26PREDICATE_EQUAL38]
162", color = yellow] ; 
206 -> 207 ; 
208 [label="HashJoin 
[3PREDICATE_EQUAL30,0PREDICATE_EQUAL27]
915", color = yellow] ; 
207 -> 208 ; 
209 [label="RightBindJoin 
[0, 3]
915", color = yellow] ; 
208 -> 209 ; 
210 [label="HashJoin 
[3PREDICATE_EQUAL14,0PREDICATE_EQUAL11]
56200", color = yellow] ; 
209 -> 210 ; 
211 [label="PhyMongoDBEval
offer
 test[{\"$project\": {\"offerwebpage\": 1, \"product\": 1, \"nr\": 1, \"vendor\": 1, \"price\": 1, \"deliverydays\": 1, \"producer\": 1, \"publisher\": 1, \"publishdate\": 1, \"validfrom\": 1, \"validto\": 1}},
{\"$project\": {\"offerwebpage\": 1, \"product\": 1, \"nr\": 1, \"vendor\": 1, \"price\": 1, \"deliverydays\": 1, \"producer\": 1, \"publisher\": 1, \"publishdate\": 1, \"validfrom\": 1, \"validto\": 1}},
{\"$project\": {\"offerwebpage\": 1, \"product\": 1, \"nr\": 1, \"vendor\": 1, \"price\": 1, \"deliverydays\": 1, \"producer\": 1, \"publisher\": 1, \"publishdate\": 1, \"validfrom\": 1, \"validto\": 1}}]
[nr, product, producer, vendor, price, validfrom, validto, deliverydays, offerwebpage, publisher, publishdate]
56200", color = yellow] ; 
210 -> 211 ; 
212 [label="PhyMongoDBEval
offer
 test[{\"$project\": {\"offerwebpage\": 1, \"product\": 1, \"nr\": 1, \"vendor\": 1, \"price\": 1, \"deliverydays\": 1, \"producer\": 1, \"publisher\": 1, \"publishdate\": 1, \"validfrom\": 1, \"validto\": 1}},
{\"$project\": {\"offerwebpage\": 1, \"product\": 1, \"nr\": 1, \"vendor\": 1, \"price\": 1, \"deliverydays\": 1, \"producer\": 1, \"publisher\": 1, \"publishdate\": 1, \"validfrom\": 1, \"validto\": 1}},
{\"$project\": {\"offerwebpage\": 1, \"product\": 1, \"nr\": 1, \"vendor\": 1, \"price\": 1, \"deliverydays\": 1, \"producer\": 1, \"publisher\": 1, \"publishdate\": 1, \"validfrom\": 1, \"validto\": 1}}]
[nr, product, producer, vendor, price, validfrom, validto, deliverydays, offerwebpage, publisher, publishdate]
56200", color = yellow] ; 
210 -> 212 ; 
213 [label="SQLQuery
SELECT O.nr AS offer, O.vendor AS vendor, P.propertyNum3 AS propertyNum3, P.propertyNum4 AS propertyNum4, PR.country AS country 
FROM Offer AS O, Product AS P, Producer AS PR, PRODUCTTYPEPRODUCT AS PTP 
WHERE O.nr = ? AND O.vendor = ? AND P.nr = O.product AND PR.nr = P.producer AND P.nr = PTP.product AND PTP.producttype = 56", color = yellow] ; 
209 -> 213 ; 
214 [label="PhyMongoDBEval
offer
 test[{\"$project\": {\"offerwebpage\": 1, \"product\": 1, \"nr\": 1, \"vendor\": 1, \"price\": 1, \"deliverydays\": 1, \"producer\": 1, \"publisher\": 1, \"publishdate\": 1, \"validfrom\": 1, \"validto\": 1}},
{\"$project\": {\"offerwebpage\": 1, \"product\": 1, \"nr\": 1, \"vendor\": 1, \"price\": 1, \"deliverydays\": 1, \"producer\": 1, \"publisher\": 1, \"publishdate\": 1, \"validfrom\": 1, \"validto\": 1}},
{\"$project\": {\"offerwebpage\": 1, \"product\": 1, \"nr\": 1, \"vendor\": 1, \"price\": 1, \"deliverydays\": 1, \"producer\": 1, \"publisher\": 1, \"publishdate\": 1, \"validfrom\": 1, \"validto\": 1}}]
[nr, product, producer, vendor, price, validfrom, validto, deliverydays, offerwebpage, publisher, publishdate]
56200", color = yellow] ; 
208 -> 214 ; 
215 [label="PhyMongoDBEval
countrytype
 test[{\"$match\": {\"countrytype\": 121}},
{\"$project\": {\"country\": 1}},
{\"$project\": {\"country\": 1}},
{\"$project\": {\"country\": 1}}]
[country]
2", color = yellow] ; 
207 -> 215 ; 
217 [label="Project
[1, 0, 2, 3, 4, 5]", color = yellow] ; 
2 -> 217 ; 
218 [label="Project
[0, 3, 8, 15, 29, 35]", color = yellow] ; 
217 -> 218 ; 
219 [label="HashJoin 
[37PREDICATE_EQUAL38]
162", color = yellow] ; 
218 -> 219 ; 
220 [label="RightBindJoin 
[0, 3]
915", color = yellow] ; 
219 -> 220 ; 
221 [label="HashJoin 
[3PREDICATE_EQUAL25,0PREDICATE_EQUAL22]
56200", color = yellow] ; 
220 -> 221 ; 
222 [label="HashJoin 
[3PREDICATE_EQUAL14,0PREDICATE_EQUAL11]
56200", color = yellow] ; 
221 -> 222 ; 
223 [label="PhyMongoDBEval
offer
 test[{\"$project\": {\"offerwebpage\": 1, \"product\": 1, \"nr\": 1, \"vendor\": 1, \"price\": 1, \"deliverydays\": 1, \"producer\": 1, \"publisher\": 1, \"publishdate\": 1, \"validfrom\": 1, \"validto\": 1}},
{\"$project\": {\"offerwebpage\": 1, \"product\": 1, \"nr\": 1, \"vendor\": 1, \"price\": 1, \"deliverydays\": 1, \"producer\": 1, \"publisher\": 1, \"publishdate\": 1, \"validfrom\": 1, \"validto\": 1}},
{\"$project\": {\"offerwebpage\": 1, \"product\": 1, \"nr\": 1, \"vendor\": 1, \"price\": 1, \"deliverydays\": 1, \"producer\": 1, \"publisher\": 1, \"publishdate\": 1, \"validfrom\": 1, \"validto\": 1}}]
[nr, product, producer, vendor, price, validfrom, validto, deliverydays, offerwebpage, publisher, publishdate]
56200", color = yellow] ; 
222 -> 223 ; 
224 [label="PhyMongoDBEval
offer
 test[{\"$project\": {\"offerwebpage\": 1, \"product\": 1, \"nr\": 1, \"vendor\": 1, \"price\": 1, \"deliverydays\": 1, \"producer\": 1, \"publisher\": 1, \"publishdate\": 1, \"validfrom\": 1, \"validto\": 1}},
{\"$project\": {\"offerwebpage\": 1, \"product\": 1, \"nr\": 1, \"vendor\": 1, \"price\": 1, \"deliverydays\": 1, \"producer\": 1, \"publisher\": 1, \"publishdate\": 1, \"validfrom\": 1, \"validto\": 1}},
{\"$project\": {\"offerwebpage\": 1, \"product\": 1, \"nr\": 1, \"vendor\": 1, \"price\": 1, \"deliverydays\": 1, \"producer\": 1, \"publisher\": 1, \"publishdate\": 1, \"validfrom\": 1, \"validto\": 1}}]
[nr, product, producer, vendor, price, validfrom, validto, deliverydays, offerwebpage, publisher, publishdate]
56200", color = yellow] ; 
222 -> 224 ; 
225 [label="PhyMongoDBEval
offer
 test[{\"$project\": {\"offerwebpage\": 1, \"product\": 1, \"nr\": 1, \"vendor\": 1, \"price\": 1, \"deliverydays\": 1, \"producer\": 1, \"publisher\": 1, \"publishdate\": 1, \"validfrom\": 1, \"validto\": 1}},
{\"$project\": {\"offerwebpage\": 1, \"product\": 1, \"nr\": 1, \"vendor\": 1, \"price\": 1, \"deliverydays\": 1, \"producer\": 1, \"publisher\": 1, \"publishdate\": 1, \"validfrom\": 1, \"validto\": 1}},
{\"$project\": {\"offerwebpage\": 1, \"product\": 1, \"nr\": 1, \"vendor\": 1, \"price\": 1, \"deliverydays\": 1, \"producer\": 1, \"publisher\": 1, \"publishdate\": 1, \"validfrom\": 1, \"validto\": 1}}]
[nr, product, producer, vendor, price, validfrom, validto, deliverydays, offerwebpage, publisher, publishdate]
56200", color = yellow] ; 
221 -> 225 ; 
226 [label="SQLQuery
SELECT O.nr AS offer, O.vendor AS vendor, P.propertyNum3 AS propertyNum3, P.propertyNum4 AS propertyNum4, PR.country AS country 
FROM Offer AS O, Product AS P, Producer AS PR, PRODUCTTYPEPRODUCT AS PTP 
WHERE O.nr = ? AND O.vendor = ? AND P.nr = O.product AND PR.nr = P.producer AND P.nr = PTP.product AND PTP.producttype = 56", color = yellow] ; 
220 -> 226 ; 
227 [label="PhyMongoDBEval
countrytype
 test[{\"$match\": {\"countrytype\": 121}},
{\"$project\": {\"country\": 1}},
{\"$project\": {\"country\": 1}},
{\"$project\": {\"country\": 1}}]
[country]
2", color = yellow] ; 
219 -> 227 ; 
229 [label="Project
[1, 0, 5, 2, 3, 4]", color = yellow] ; 
2 -> 229 ; 
230 [label="Project
[0, 3, 4, 18, 24, 35]", color = yellow] ; 
229 -> 230 ; 
231 [label="HashJoin 
[26PREDICATE_EQUAL38]
191", color = yellow] ; 
230 -> 231 ; 
232 [label="HashJoin 
[3PREDICATE_EQUAL30,0PREDICATE_EQUAL27]
1203", color = yellow] ; 
231 -> 232 ; 
233 [label="RightBindJoin 
[0, 3]
1203", color = yellow] ; 
232 -> 233 ; 
234 [label="HashJoin 
[3PREDICATE_EQUAL14,0PREDICATE_EQUAL11]
56200", color = yellow] ; 
233 -> 234 ; 
235 [label="PhyMongoDBEval
offer
 test[{\"$project\": {\"offerwebpage\": 1, \"product\": 1, \"nr\": 1, \"vendor\": 1, \"price\": 1, \"deliverydays\": 1, \"producer\": 1, \"publisher\": 1, \"publishdate\": 1, \"validfrom\": 1, \"validto\": 1}},
{\"$project\": {\"offerwebpage\": 1, \"product\": 1, \"nr\": 1, \"vendor\": 1, \"price\": 1, \"deliverydays\": 1, \"producer\": 1, \"publisher\": 1, \"publishdate\": 1, \"validfrom\": 1, \"validto\": 1}},
{\"$project\": {\"offerwebpage\": 1, \"product\": 1, \"nr\": 1, \"vendor\": 1, \"price\": 1, \"deliverydays\": 1, \"producer\": 1, \"publisher\": 1, \"publishdate\": 1, \"validfrom\": 1, \"validto\": 1}}]
[nr, product, producer, vendor, price, validfrom, validto, deliverydays, offerwebpage, publisher, publishdate]
56200", color = yellow] ; 
234 -> 235 ; 
236 [label="PhyMongoDBEval
offer
 test[{\"$project\": {\"offerwebpage\": 1, \"product\": 1, \"nr\": 1, \"vendor\": 1, \"price\": 1, \"deliverydays\": 1, \"producer\": 1, \"publisher\": 1, \"publishdate\": 1, \"validfrom\": 1, \"validto\": 1}},
{\"$project\": {\"offerwebpage\": 1, \"product\": 1, \"nr\": 1, \"vendor\": 1, \"price\": 1, \"deliverydays\": 1, \"producer\": 1, \"publisher\": 1, \"publishdate\": 1, \"validfrom\": 1, \"validto\": 1}},
{\"$project\": {\"offerwebpage\": 1, \"product\": 1, \"nr\": 1, \"vendor\": 1, \"price\": 1, \"deliverydays\": 1, \"producer\": 1, \"publisher\": 1, \"publishdate\": 1, \"validfrom\": 1, \"validto\": 1}}]
[nr, product, producer, vendor, price, validfrom, validto, deliverydays, offerwebpage, publisher, publishdate]
56200", color = yellow] ; 
234 -> 236 ; 
237 [label="SQLQuery
SELECT O.nr AS offer, O.vendor AS vendor, P.propertyNum3 AS propertyNum3, P.propertyNum4 AS propertyNum4, PR.country AS country 
FROM Offer AS O, Product AS P, Producer AS PR, PRODUCTTYPEPRODUCT AS PTP 
WHERE O.nr = ? AND O.vendor = ? AND P.nr = O.product AND PR.nr = P.producer AND P.nr = PTP.product AND PTP.producttype = 57", color = yellow] ; 
233 -> 237 ; 
238 [label="PhyMongoDBEval
offer
 test[{\"$project\": {\"offerwebpage\": 1, \"product\": 1, \"nr\": 1, \"vendor\": 1, \"price\": 1, \"deliverydays\": 1, \"producer\": 1, \"publisher\": 1, \"publishdate\": 1, \"validfrom\": 1, \"validto\": 1}},
{\"$project\": {\"offerwebpage\": 1, \"product\": 1, \"nr\": 1, \"vendor\": 1, \"price\": 1, \"deliverydays\": 1, \"producer\": 1, \"publisher\": 1, \"publishdate\": 1, \"validfrom\": 1, \"validto\": 1}},
{\"$project\": {\"offerwebpage\": 1, \"product\": 1, \"nr\": 1, \"vendor\": 1, \"price\": 1, \"deliverydays\": 1, \"producer\": 1, \"publisher\": 1, \"publishdate\": 1, \"validfrom\": 1, \"validto\": 1}}]
[nr, product, producer, vendor, price, validfrom, validto, deliverydays, offerwebpage, publisher, publishdate]
56200", color = yellow] ; 
232 -> 238 ; 
239 [label="PhyMongoDBEval
countrytype
 test[{\"$match\": {\"countrytype\": 122}},
{\"$project\": {\"country\": 1}},
{\"$project\": {\"country\": 1}},
{\"$project\": {\"country\": 1}}]
[country]
2", color = yellow] ; 
231 -> 239 ; 
240 [label="FunctionCallBindAccess
(<http://www4.wiwiss.fu-berlin.de/bizer/bsbm/v01/instances/dataFromVendor{0}/Offer{1}>, <{2}>, \"{3}\", \"{4}\", \"{5}\")", color = yellow] ; 
0 -> 240 ; 
}
