<?xml version="1.0" encoding="UTF-8" standalone="no"?>
<!DOCTYPE svg PUBLIC "-//W3C//DTD SVG 1.1//EN"
 "http://www.w3.org/Graphics/SVG/1.1/DTD/svg11.dtd">
<!-- Generated by graphviz version 2.40.1 (20161225.0304)
 -->
<!-- Title: g Pages: 1 -->
<svg width="7199pt" height="540pt"
 viewBox="0.00 0.00 7198.50 540.00" xmlns="http://www.w3.org/2000/svg" xmlns:xlink="http://www.w3.org/1999/xlink">
<g id="graph0" class="graph" transform="scale(1 1) rotate(0) translate(4 536)">
<title>g</title>
<polygon fill="#ffffff" stroke="transparent" points="-4,4 -4,-536 7194.5,-536 7194.5,4 -4,4"/>
<text text-anchor="middle" x="3595.25" y="-7.8" font-family="Times,serif" font-size="14.00" fill="#000000">17:56:43.23</text>
<!-- 0 -->
<g id="node1" class="node">
<title>0</title>
<polygon fill="none" stroke="#ffff00" stroke-width="2" points="3540.5,-532 3434.5,-532 3434.5,-496 3540.5,-496 3540.5,-532"/>
<text text-anchor="middle" x="3487.5" y="-510.3" font-family="Times,serif" font-size="14.00" fill="#000000">BindAccessEval</text>
</g>
<!-- 1 -->
<g id="node2" class="node">
<title>1</title>
<polygon fill="none" stroke="#ffff00" stroke-width="2" points="3405,-459 3318,-459 3318,-423 3405,-423 3405,-459"/>
<text text-anchor="middle" x="3361.5" y="-437.3" font-family="Times,serif" font-size="14.00" fill="#000000">HashDistinct</text>
</g>
<!-- 0&#45;&gt;1 -->
<g id="edge1" class="edge">
<title>0&#45;&gt;1</title>
<path fill="none" stroke="#000000" d="M3456.3539,-495.9551C3439.8465,-486.3912 3419.3796,-474.5334 3401.6876,-464.2833"/>
<polygon fill="#000000" stroke="#000000" points="3403.1318,-461.075 3392.7245,-459.0904 3399.6226,-467.1319 3403.1318,-461.075"/>
</g>
<!-- 22 -->
<g id="node20" class="node">
<title>22</title>
<polygon fill="none" stroke="#ffff00" stroke-width="2" points="3803.5,-460 3423.5,-460 3423.5,-422 3803.5,-422 3803.5,-460"/>
<text text-anchor="middle" x="3613.5" y="-444.8" font-family="Times,serif" font-size="14.00" fill="#000000">FunctionCallBindAccess</text>
<text text-anchor="middle" x="3613.5" y="-429.8" font-family="Times,serif" font-size="14.00" fill="#000000">(&quot;{0}&quot;, &quot;{1}&quot;, &lt;http://downlode.org/rdf/iso&#45;3166/countries#{2}&gt;)</text>
</g>
<!-- 0&#45;&gt;22 -->
<g id="edge19" class="edge">
<title>0&#45;&gt;22</title>
<path fill="none" stroke="#000000" d="M3518.6461,-495.9551C3534.657,-486.6789 3554.3929,-475.2446 3571.7088,-465.2124"/>
<polygon fill="#000000" stroke="#000000" points="3573.6126,-468.1544 3580.5107,-460.1128 3570.1034,-462.0975 3573.6126,-468.1544"/>
</g>
<!-- 2 -->
<g id="node3" class="node">
<title>2</title>
<polygon fill="none" stroke="#ffff00" stroke-width="2" points="3388.5,-386 3334.5,-386 3334.5,-350 3388.5,-350 3388.5,-386"/>
<text text-anchor="middle" x="3361.5" y="-364.3" font-family="Times,serif" font-size="14.00" fill="#000000">Union</text>
</g>
<!-- 1&#45;&gt;2 -->
<g id="edge2" class="edge">
<title>1&#45;&gt;2</title>
<path fill="none" stroke="#000000" d="M3361.5,-422.9551C3361.5,-414.8828 3361.5,-405.1764 3361.5,-396.1817"/>
<polygon fill="#000000" stroke="#000000" points="3365.0001,-396.0903 3361.5,-386.0904 3358.0001,-396.0904 3365.0001,-396.0903"/>
</g>
<!-- 3 -->
<g id="node4" class="node">
<title>3</title>
<polygon fill="none" stroke="#ffff00" stroke-width="2" points="2413,-314 2352,-314 2352,-276 2413,-276 2413,-314"/>
<text text-anchor="middle" x="2382.5" y="-298.8" font-family="Times,serif" font-size="14.00" fill="#000000">Project</text>
<text text-anchor="middle" x="2382.5" y="-283.8" font-family="Times,serif" font-size="14.00" fill="#000000">[2, 3, 4]</text>
</g>
<!-- 2&#45;&gt;3 -->
<g id="edge3" class="edge">
<title>2&#45;&gt;3</title>
<path fill="none" stroke="#000000" d="M3334.2941,-365.9714C3197.8577,-355.7979 2588.1941,-310.3378 2423.5774,-298.063"/>
<polygon fill="#000000" stroke="#000000" points="2423.6203,-294.5565 2413.3877,-297.3032 2423.0997,-301.5372 2423.6203,-294.5565"/>
</g>
<!-- 8 -->
<g id="node8" class="node">
<title>8</title>
<polygon fill="none" stroke="#ffff00" stroke-width="2" points="3353,-314 3292,-314 3292,-276 3353,-276 3353,-314"/>
<text text-anchor="middle" x="3322.5" y="-298.8" font-family="Times,serif" font-size="14.00" fill="#000000">Project</text>
<text text-anchor="middle" x="3322.5" y="-283.8" font-family="Times,serif" font-size="14.00" fill="#000000">[2, 3, 6]</text>
</g>
<!-- 2&#45;&gt;8 -->
<g id="edge7" class="edge">
<title>2&#45;&gt;8</title>
<path fill="none" stroke="#000000" d="M3351.8595,-349.9551C3347.5403,-341.8703 3342.3452,-332.1462 3337.5336,-323.1398"/>
<polygon fill="#000000" stroke="#000000" points="3340.5102,-321.2838 3332.711,-314.1128 3334.3361,-324.5823 3340.5102,-321.2838"/>
</g>
<!-- 13 -->
<g id="node12" class="node">
<title>13</title>
<polygon fill="none" stroke="#ffff00" stroke-width="2" points="3843,-314 3782,-314 3782,-276 3843,-276 3843,-314"/>
<text text-anchor="middle" x="3812.5" y="-298.8" font-family="Times,serif" font-size="14.00" fill="#000000">Project</text>
<text text-anchor="middle" x="3812.5" y="-283.8" font-family="Times,serif" font-size="14.00" fill="#000000">[2, 3, 6]</text>
</g>
<!-- 2&#45;&gt;13 -->
<g id="edge11" class="edge">
<title>2&#45;&gt;13</title>
<path fill="none" stroke="#000000" d="M3388.6964,-363.5979C3464.9806,-351.2504 3681.3003,-316.2363 3771.8512,-301.5795"/>
<polygon fill="#000000" stroke="#000000" points="3772.4326,-305.031 3781.7449,-299.9781 3771.3141,-298.121 3772.4326,-305.031"/>
</g>
<!-- 18 -->
<g id="node16" class="node">
<title>18</title>
<polygon fill="none" stroke="#ffff00" stroke-width="2" points="4989,-314 4928,-314 4928,-276 4989,-276 4989,-314"/>
<text text-anchor="middle" x="4958.5" y="-298.8" font-family="Times,serif" font-size="14.00" fill="#000000">Project</text>
<text text-anchor="middle" x="4958.5" y="-283.8" font-family="Times,serif" font-size="14.00" fill="#000000">[2, 3, 6]</text>
</g>
<!-- 2&#45;&gt;18 -->
<g id="edge15" class="edge">
<title>2&#45;&gt;18</title>
<path fill="none" stroke="#000000" d="M3388.5488,-366.7636C3576.669,-358.1645 4689.0731,-307.3157 4917.5099,-296.8737"/>
<polygon fill="#000000" stroke="#000000" points="4917.8827,-300.3604 4927.7124,-296.4073 4917.563,-293.3677 4917.8827,-300.3604"/>
</g>
<!-- 4 -->
<g id="node5" class="node">
<title>4</title>
<polygon fill="none" stroke="#ffff00" stroke-width="2" points="1365,-240 1266,-240 1266,-187 1365,-187 1365,-240"/>
<text text-anchor="middle" x="1315.5" y="-224.8" font-family="Times,serif" font-size="14.00" fill="#000000">RightBindJoin </text>
<text text-anchor="middle" x="1315.5" y="-209.8" font-family="Times,serif" font-size="14.00" fill="#000000">[1, 0]</text>
<text text-anchor="middle" x="1315.5" y="-194.8" font-family="Times,serif" font-size="14.00" fill="#000000">7</text>
</g>
<!-- 3&#45;&gt;4 -->
<g id="edge4" class="edge">
<title>3&#45;&gt;4</title>
<path fill="none" stroke="#000000" d="M2351.7175,-292.6488C2204.7715,-281.4247 1573.6099,-233.215 1375.341,-218.0708"/>
<polygon fill="#000000" stroke="#000000" points="1375.3569,-214.5619 1365.1194,-217.29 1374.8238,-221.5416 1375.3569,-214.5619"/>
</g>
<!-- 5 -->
<g id="node6" class="node">
<title>5</title>
<polygon fill="none" stroke="#ffff00" stroke-width="2" points="829,-128.5 0,-128.5 0,-45.5 829,-45.5 829,-128.5"/>
<text text-anchor="middle" x="414.5" y="-113.3" font-family="Times,serif" font-size="14.00" fill="#000000">SQLQuery</text>
<text text-anchor="middle" x="414.5" y="-98.3" font-family="Times,serif" font-size="14.00" fill="#000000">SELECT tab_114.nr, tab_114.producer, tab_116.label, tab_116.propertyNum2 </text>
<text text-anchor="middle" x="414.5" y="-83.3" font-family="Times,serif" font-size="14.00" fill="#000000">FROM PRODUCT AS tab_114, PRODUCTTYPEPRODUCT AS tab_115, Product AS tab_116 &#160;</text>
<text text-anchor="middle" x="414.5" y="-68.3" font-family="Times,serif" font-size="14.00" fill="#000000">WHERE tab_115.producttype = 110 AND tab_115.product = tab_114.nr AND tab_114.nr = tab_116.nr AND tab_114.producer = tab_116.producer</text>
<text text-anchor="middle" x="414.5" y="-53.3" font-family="Times,serif" font-size="14.00" fill="#000000">30</text>
</g>
<!-- 4&#45;&gt;5 -->
<g id="edge5" class="edge">
<title>4&#45;&gt;5</title>
<path fill="none" stroke="#000000" d="M1265.9104,-207.3503C1179.0405,-196.5026 993.7149,-173.0282 837.5,-151 790.8843,-144.4266 741.4214,-137.185 693.3788,-130.0089"/>
<polygon fill="#000000" stroke="#000000" points="693.8787,-126.5449 683.471,-128.527 692.8432,-133.4678 693.8787,-126.5449"/>
</g>
<!-- 6 -->
<g id="node7" class="node">
<title>6</title>
<polygon fill="none" stroke="#ffff00" stroke-width="2" points="1784.5,-151 846.5,-151 846.5,-23 1784.5,-23 1784.5,-151"/>
<text text-anchor="middle" x="1315.5" y="-135.8" font-family="Times,serif" font-size="14.00" fill="#000000">PhyMongoDBEval</text>
<text text-anchor="middle" x="1315.5" y="-120.8" font-family="Times,serif" font-size="14.00" fill="#000000">countrytype</text>
<text text-anchor="middle" x="1315.5" y="-105.8" font-family="Times,serif" font-size="14.00" fill="#000000">[{&quot;$match&quot;:{&quot;countrytype&quot;:121}},</text>
<text text-anchor="middle" x="1315.5" y="-90.8" font-family="Times,serif" font-size="14.00" fill="#000000">{$lookup: { from: &quot;productproducercountry&quot;, let: { &quot;country&quot;: &quot;$country&quot;}, pipeline: [ { $match: {$expr: {$eq: [&quot;$$country&quot;, &quot;$country&quot;] } } } ], as: &quot;mongojoin0&quot;}},</text>
<text text-anchor="middle" x="1315.5" y="-75.8" font-family="Times,serif" font-size="14.00" fill="#000000">{$unwind: &quot;$mongojoin0&quot;},</text>
<text text-anchor="middle" x="1315.5" y="-60.8" font-family="Times,serif" font-size="14.00" fill="#000000">{ &quot;$match&quot;: { &quot;mongojoin0.producer&quot;: %s, &quot;mongojoin0.nr&quot;: %s } }]</text>
<text text-anchor="middle" x="1315.5" y="-45.8" font-family="Times,serif" font-size="14.00" fill="#000000">[country, mongojoin0.nr, mongojoin0.producer]</text>
<text text-anchor="middle" x="1315.5" y="-30.8" font-family="Times,serif" font-size="14.00" fill="#000000">7</text>
</g>
<!-- 4&#45;&gt;6 -->
<g id="edge6" class="edge">
<title>4&#45;&gt;6</title>
<path fill="none" stroke="#000000" d="M1315.5,-186.9815C1315.5,-179.2136 1315.5,-170.3145 1315.5,-161.0988"/>
<polygon fill="#000000" stroke="#000000" points="1319.0001,-161.0129 1315.5,-151.0129 1312.0001,-161.0129 1319.0001,-161.0129"/>
</g>
<!-- 9 -->
<g id="node9" class="node">
<title>9</title>
<polygon fill="none" stroke="#ffff00" stroke-width="2" points="3167,-240 3068,-240 3068,-187 3167,-187 3167,-240"/>
<text text-anchor="middle" x="3117.5" y="-224.8" font-family="Times,serif" font-size="14.00" fill="#000000">RightBindJoin </text>
<text text-anchor="middle" x="3117.5" y="-209.8" font-family="Times,serif" font-size="14.00" fill="#000000">[1, 0]</text>
<text text-anchor="middle" x="3117.5" y="-194.8" font-family="Times,serif" font-size="14.00" fill="#000000">5</text>
</g>
<!-- 8&#45;&gt;9 -->
<g id="edge8" class="edge">
<title>8&#45;&gt;9</title>
<path fill="none" stroke="#000000" d="M3291.8094,-282.7986C3261.4335,-270.7223 3214.1486,-251.9237 3176.4874,-236.9511"/>
<polygon fill="#000000" stroke="#000000" points="3177.7216,-233.6754 3167.136,-233.2333 3175.1355,-240.1802 3177.7216,-233.6754"/>
</g>
<!-- 10 -->
<g id="node10" class="node">
<title>10</title>
<polygon fill="none" stroke="#ffff00" stroke-width="2" points="2631,-128.5 1802,-128.5 1802,-45.5 2631,-45.5 2631,-128.5"/>
<text text-anchor="middle" x="2216.5" y="-113.3" font-family="Times,serif" font-size="14.00" fill="#000000">SQLQuery</text>
<text text-anchor="middle" x="2216.5" y="-98.3" font-family="Times,serif" font-size="14.00" fill="#000000">SELECT tab_117.nr, tab_117.producer, tab_119.label, tab_119.propertyNum2 </text>
<text text-anchor="middle" x="2216.5" y="-83.3" font-family="Times,serif" font-size="14.00" fill="#000000">FROM Product AS tab_119, PRODUCTTYPEPRODUCT AS tab_118, PRODUCT AS tab_117 &#160;</text>
<text text-anchor="middle" x="2216.5" y="-68.3" font-family="Times,serif" font-size="14.00" fill="#000000">WHERE tab_118.producttype = 110 AND tab_118.product = tab_117.nr AND tab_117.producer = tab_119.producer AND tab_117.nr = tab_119.nr</text>
<text text-anchor="middle" x="2216.5" y="-53.3" font-family="Times,serif" font-size="14.00" fill="#000000">30</text>
</g>
<!-- 9&#45;&gt;10 -->
<g id="edge9" class="edge">
<title>9&#45;&gt;10</title>
<path fill="none" stroke="#000000" d="M3067.9104,-207.3503C2981.0405,-196.5026 2795.7149,-173.0282 2639.5,-151 2592.8843,-144.4266 2543.4214,-137.185 2495.3788,-130.0089"/>
<polygon fill="#000000" stroke="#000000" points="2495.8787,-126.5449 2485.471,-128.527 2494.8432,-133.4678 2495.8787,-126.5449"/>
</g>
<!-- 11 -->
<g id="node11" class="node">
<title>11</title>
<polygon fill="none" stroke="#ffff00" stroke-width="2" points="3586.5,-151 2648.5,-151 2648.5,-23 3586.5,-23 3586.5,-151"/>
<text text-anchor="middle" x="3117.5" y="-135.8" font-family="Times,serif" font-size="14.00" fill="#000000">PhyMongoDBEval</text>
<text text-anchor="middle" x="3117.5" y="-120.8" font-family="Times,serif" font-size="14.00" fill="#000000">countrytype</text>
<text text-anchor="middle" x="3117.5" y="-105.8" font-family="Times,serif" font-size="14.00" fill="#000000">[{&quot;$match&quot;:{&quot;countrytype&quot;:122}},</text>
<text text-anchor="middle" x="3117.5" y="-90.8" font-family="Times,serif" font-size="14.00" fill="#000000">{$lookup: { from: &quot;productproducercountry&quot;, let: { &quot;country&quot;: &quot;$country&quot;}, pipeline: [ { $match: {$expr: {$eq: [&quot;$$country&quot;, &quot;$country&quot;] } } } ], as: &quot;mongojoin1&quot;}},</text>
<text text-anchor="middle" x="3117.5" y="-75.8" font-family="Times,serif" font-size="14.00" fill="#000000">{$unwind: &quot;$mongojoin1&quot;},</text>
<text text-anchor="middle" x="3117.5" y="-60.8" font-family="Times,serif" font-size="14.00" fill="#000000">{ &quot;$match&quot;: { &quot;mongojoin1.producer&quot;: %s, &quot;mongojoin1.nr&quot;: %s } }]</text>
<text text-anchor="middle" x="3117.5" y="-45.8" font-family="Times,serif" font-size="14.00" fill="#000000">[mongojoin1.nr, mongojoin1.producer, mongojoin1.country]</text>
<text text-anchor="middle" x="3117.5" y="-30.8" font-family="Times,serif" font-size="14.00" fill="#000000">5</text>
</g>
<!-- 9&#45;&gt;11 -->
<g id="edge10" class="edge">
<title>9&#45;&gt;11</title>
<path fill="none" stroke="#000000" d="M3117.5,-186.9815C3117.5,-179.2136 3117.5,-170.3145 3117.5,-161.0988"/>
<polygon fill="#000000" stroke="#000000" points="3121.0001,-161.0129 3117.5,-151.0129 3114.0001,-161.0129 3121.0001,-161.0129"/>
</g>
<!-- 14 -->
<g id="node13" class="node">
<title>14</title>
<polygon fill="none" stroke="#ffff00" stroke-width="2" points="4068,-240 3969,-240 3969,-187 4068,-187 4068,-240"/>
<text text-anchor="middle" x="4018.5" y="-224.8" font-family="Times,serif" font-size="14.00" fill="#000000">RightBindJoin </text>
<text text-anchor="middle" x="4018.5" y="-209.8" font-family="Times,serif" font-size="14.00" fill="#000000">[1, 0]</text>
<text text-anchor="middle" x="4018.5" y="-194.8" font-family="Times,serif" font-size="14.00" fill="#000000">5</text>
</g>
<!-- 13&#45;&gt;14 -->
<g id="edge12" class="edge">
<title>13&#45;&gt;14</title>
<path fill="none" stroke="#000000" d="M3843.3403,-282.7986C3873.8644,-270.7223 3921.3799,-251.9237 3959.2249,-236.9511"/>
<polygon fill="#000000" stroke="#000000" points="3960.6108,-240.1668 3968.6219,-233.2333 3958.0355,-233.6577 3960.6108,-240.1668"/>
</g>
<!-- 15 -->
<g id="node14" class="node">
<title>15</title>
<polygon fill="none" stroke="#ffff00" stroke-width="2" points="4433,-128.5 3604,-128.5 3604,-45.5 4433,-45.5 4433,-128.5"/>
<text text-anchor="middle" x="4018.5" y="-113.3" font-family="Times,serif" font-size="14.00" fill="#000000">SQLQuery</text>
<text text-anchor="middle" x="4018.5" y="-98.3" font-family="Times,serif" font-size="14.00" fill="#000000">SELECT tab_120.nr, tab_120.producer, tab_122.label, tab_122.propertyNum1 </text>
<text text-anchor="middle" x="4018.5" y="-83.3" font-family="Times,serif" font-size="14.00" fill="#000000">FROM PRODUCTTYPEPRODUCT AS tab_121, PRODUCT AS tab_120, Product AS tab_122 &#160;</text>
<text text-anchor="middle" x="4018.5" y="-68.3" font-family="Times,serif" font-size="14.00" fill="#000000">WHERE tab_121.producttype = 110 AND tab_121.product = tab_120.nr AND tab_120.producer = tab_122.producer AND tab_120.nr = tab_122.nr</text>
<text text-anchor="middle" x="4018.5" y="-53.3" font-family="Times,serif" font-size="14.00" fill="#000000">30</text>
</g>
<!-- 14&#45;&gt;15 -->
<g id="edge13" class="edge">
<title>14&#45;&gt;15</title>
<path fill="none" stroke="#000000" d="M4018.5,-186.9815C4018.5,-173.0622 4018.5,-155.511 4018.5,-139.0135"/>
<polygon fill="#000000" stroke="#000000" points="4022.0001,-138.9195 4018.5,-128.9195 4015.0001,-138.9196 4022.0001,-138.9195"/>
</g>
<!-- 16 -->
<g id="node15" class="node">
<title>16</title>
<polygon fill="none" stroke="#ffff00" stroke-width="2" points="5388.5,-151 4450.5,-151 4450.5,-23 5388.5,-23 5388.5,-151"/>
<text text-anchor="middle" x="4919.5" y="-135.8" font-family="Times,serif" font-size="14.00" fill="#000000">PhyMongoDBEval</text>
<text text-anchor="middle" x="4919.5" y="-120.8" font-family="Times,serif" font-size="14.00" fill="#000000">countrytype</text>
<text text-anchor="middle" x="4919.5" y="-105.8" font-family="Times,serif" font-size="14.00" fill="#000000">[{&quot;$match&quot;:{&quot;countrytype&quot;:122}},</text>
<text text-anchor="middle" x="4919.5" y="-90.8" font-family="Times,serif" font-size="14.00" fill="#000000">{$lookup: { from: &quot;productproducercountry&quot;, let: { &quot;country&quot;: &quot;$country&quot;}, pipeline: [ { $match: {$expr: {$eq: [&quot;$$country&quot;, &quot;$country&quot;] } } } ], as: &quot;mongojoin2&quot;}},</text>
<text text-anchor="middle" x="4919.5" y="-75.8" font-family="Times,serif" font-size="14.00" fill="#000000">{$unwind: &quot;$mongojoin2&quot;},</text>
<text text-anchor="middle" x="4919.5" y="-60.8" font-family="Times,serif" font-size="14.00" fill="#000000">{ &quot;$match&quot;: { &quot;mongojoin2.producer&quot;: %s, &quot;mongojoin2.nr&quot;: %s } }]</text>
<text text-anchor="middle" x="4919.5" y="-45.8" font-family="Times,serif" font-size="14.00" fill="#000000">[mongojoin2.nr, mongojoin2.producer, mongojoin2.country]</text>
<text text-anchor="middle" x="4919.5" y="-30.8" font-family="Times,serif" font-size="14.00" fill="#000000">5</text>
</g>
<!-- 14&#45;&gt;16 -->
<g id="edge14" class="edge">
<title>14&#45;&gt;16</title>
<path fill="none" stroke="#000000" d="M4068.2251,-206.5186C4144.3939,-195.8246 4297.5617,-174.3199 4453.2419,-152.4624"/>
<polygon fill="#000000" stroke="#000000" points="4454.0829,-155.8788 4463.4991,-151.0223 4453.1096,-148.9468 4454.0829,-155.8788"/>
</g>
<!-- 19 -->
<g id="node17" class="node">
<title>19</title>
<polygon fill="none" stroke="#ffff00" stroke-width="2" points="5870,-240 5771,-240 5771,-187 5870,-187 5870,-240"/>
<text text-anchor="middle" x="5820.5" y="-224.8" font-family="Times,serif" font-size="14.00" fill="#000000">RightBindJoin </text>
<text text-anchor="middle" x="5820.5" y="-209.8" font-family="Times,serif" font-size="14.00" fill="#000000">[0, 1]</text>
<text text-anchor="middle" x="5820.5" y="-194.8" font-family="Times,serif" font-size="14.00" fill="#000000">7</text>
</g>
<!-- 18&#45;&gt;19 -->
<g id="edge16" class="edge">
<title>18&#45;&gt;19</title>
<path fill="none" stroke="#000000" d="M4989.179,-292.0994C5114.8991,-280.2128 5592.0009,-235.104 5760.8439,-219.1403"/>
<polygon fill="#000000" stroke="#000000" points="5761.1739,-222.6248 5770.8,-218.199 5760.5149,-215.6559 5761.1739,-222.6248"/>
</g>
<!-- 20 -->
<g id="node18" class="node">
<title>20</title>
<polygon fill="none" stroke="#ffff00" stroke-width="2" points="6235,-128.5 5406,-128.5 5406,-45.5 6235,-45.5 6235,-128.5"/>
<text text-anchor="middle" x="5820.5" y="-113.3" font-family="Times,serif" font-size="14.00" fill="#000000">SQLQuery</text>
<text text-anchor="middle" x="5820.5" y="-98.3" font-family="Times,serif" font-size="14.00" fill="#000000">SELECT tab_123.nr, tab_123.producer, tab_125.label, tab_125.propertyNum1 </text>
<text text-anchor="middle" x="5820.5" y="-83.3" font-family="Times,serif" font-size="14.00" fill="#000000">FROM PRODUCT AS tab_123, PRODUCTTYPEPRODUCT AS tab_124, Product AS tab_125 &#160;</text>
<text text-anchor="middle" x="5820.5" y="-68.3" font-family="Times,serif" font-size="14.00" fill="#000000">WHERE tab_124.producttype = 110 AND tab_124.product = tab_123.nr AND tab_123.producer = tab_125.producer AND tab_123.nr = tab_125.nr</text>
<text text-anchor="middle" x="5820.5" y="-53.3" font-family="Times,serif" font-size="14.00" fill="#000000">30</text>
</g>
<!-- 19&#45;&gt;20 -->
<g id="edge17" class="edge">
<title>19&#45;&gt;20</title>
<path fill="none" stroke="#000000" d="M5820.5,-186.9815C5820.5,-173.0622 5820.5,-155.511 5820.5,-139.0135"/>
<polygon fill="#000000" stroke="#000000" points="5824.0001,-138.9195 5820.5,-128.9195 5817.0001,-138.9196 5824.0001,-138.9195"/>
</g>
<!-- 21 -->
<g id="node19" class="node">
<title>21</title>
<polygon fill="none" stroke="#ffff00" stroke-width="2" points="7190.5,-151 6252.5,-151 6252.5,-23 7190.5,-23 7190.5,-151"/>
<text text-anchor="middle" x="6721.5" y="-135.8" font-family="Times,serif" font-size="14.00" fill="#000000">PhyMongoDBEval</text>
<text text-anchor="middle" x="6721.5" y="-120.8" font-family="Times,serif" font-size="14.00" fill="#000000">countrytype</text>
<text text-anchor="middle" x="6721.5" y="-105.8" font-family="Times,serif" font-size="14.00" fill="#000000">[{&quot;$match&quot;:{&quot;countrytype&quot;:121}},</text>
<text text-anchor="middle" x="6721.5" y="-90.8" font-family="Times,serif" font-size="14.00" fill="#000000">{$lookup: { from: &quot;productproducercountry&quot;, let: { &quot;country&quot;: &quot;$country&quot;}, pipeline: [ { $match: {$expr: {$eq: [&quot;$$country&quot;, &quot;$country&quot;] } } } ], as: &quot;mongojoin3&quot;}},</text>
<text text-anchor="middle" x="6721.5" y="-75.8" font-family="Times,serif" font-size="14.00" fill="#000000">{$unwind: &quot;$mongojoin3&quot;},</text>
<text text-anchor="middle" x="6721.5" y="-60.8" font-family="Times,serif" font-size="14.00" fill="#000000">{ &quot;$match&quot;: { &quot;mongojoin3.nr&quot;: %s, &quot;mongojoin3.producer&quot;: %s } }]</text>
<text text-anchor="middle" x="6721.5" y="-45.8" font-family="Times,serif" font-size="14.00" fill="#000000">[mongojoin3.nr, mongojoin3.producer, mongojoin3.country]</text>
<text text-anchor="middle" x="6721.5" y="-30.8" font-family="Times,serif" font-size="14.00" fill="#000000">7</text>
</g>
<!-- 19&#45;&gt;21 -->
<g id="edge18" class="edge">
<title>19&#45;&gt;21</title>
<path fill="none" stroke="#000000" d="M5870.2251,-206.5186C5946.3939,-195.8246 6099.5617,-174.3199 6255.2419,-152.4624"/>
<polygon fill="#000000" stroke="#000000" points="6256.0829,-155.8788 6265.4991,-151.0223 6255.1096,-148.9468 6256.0829,-155.8788"/>
</g>
</g>
</svg>
