digraph  g{ graph[label = "17:56:44.265"]
node [shape=rectangle, color=black, fontcolor=black, style=bold] edge [color=black] 0 [label="BindAccessEval", color = yellow] ; 
1 [label="HashDistinct", color = yellow] ; 
0 -> 1 ; 
2 [label="Union", color = yellow] ; 
1 -> 2 ; 
3 [label="Project
[2, 3, 4]", color = yellow] ; 
2 -> 3 ; 
4 [label="RightBindJoin 
[1, 0]
4", color = yellow] ; 
3 -> 4 ; 
5 [label="SQLQuery
SELECT tab_132.nr, tab_132.producer, tab_134.label, tab_134.propertyNum1 
FROM PRODUCTTYPEPRODUCT AS tab_133, PRODUCT AS tab_132, Product AS tab_134  
WHERE tab_133.producttype = 110 AND tab_133.product = tab_132.nr AND tab_132.producer = tab_134.producer AND tab_132.nr = tab_134.nr
30", color = yellow] ; 
4 -> 5 ; 
6 [label="PhyMongoDBEval
countrytype
[{\"$match\":{\"countrytype\":111}},
{$lookup: { from: \"productproducercountry\", let: { \"country\": \"$country\"}, pipeline: [ { $match: {$expr: {$eq: [\"$$country\", \"$country\"] } } } ], as: \"mongojoin4\"}},
{$unwind: \"$mongojoin4\"},
{ \"$match\": { \"mongojoin4.producer\": %s, \"mongojoin4.nr\": %s } }]
[country, mongojoin4.nr, mongojoin4.producer]
4", color = yellow] ; 
4 -> 6 ; 
8 [label="Project
[1, 3, 6]", color = yellow] ; 
2 -> 8 ; 
9 [label="RightBindJoin 
[0, 2]
4", color = yellow] ; 
8 -> 9 ; 
10 [label="SQLQuery
SELECT tab_129.nr, tab_129.label, tab_129.producer, tab_129.propertyNum2 
FROM PRODUCTTYPEPRODUCT AS tab_131, Product AS tab_129, PRODUCT AS tab_130  
WHERE tab_131.producttype = 110 AND tab_131.product = tab_130.nr AND tab_129.producer = tab_130.producer AND tab_129.nr = tab_130.nr
30", color = yellow] ; 
9 -> 10 ; 
11 [label="PhyMongoDBEval
countrytype
[{\"$match\":{\"countrytype\":111}},
{$lookup: { from: \"productproducercountry\", let: { \"country\": \"$country\"}, pipeline: [ { $match: {$expr: {$eq: [\"$$country\", \"$country\"] } } } ], as: \"mongojoin5\"}},
{$unwind: \"$mongojoin5\"},
{ \"$match\": { \"mongojoin5.nr\": %s, \"mongojoin5.producer\": %s } }]
[mongojoin5.nr, mongojoin5.producer, mongojoin5.country]
4", color = yellow] ; 
9 -> 11 ; 
13 [label="Project
[1, 3, 6]", color = yellow] ; 
2 -> 13 ; 
14 [label="RightBindJoin 
[0, 2]
7", color = yellow] ; 
13 -> 14 ; 
15 [label="SQLQuery
SELECT tab_126.nr, tab_126.label, tab_126.producer, tab_126.propertyNum1 
FROM PRODUCT AS tab_127, PRODUCTTYPEPRODUCT AS tab_128, Product AS tab_126  
WHERE tab_128.producttype = 110 AND tab_128.product = tab_127.nr AND tab_126.producer = tab_127.producer AND tab_126.nr = tab_127.nr
30", color = yellow] ; 
14 -> 15 ; 
16 [label="PhyMongoDBEval
countrytype
[{\"$match\":{\"countrytype\":121}},
{$lookup: { from: \"productproducercountry\", let: { \"country\": \"$country\"}, pipeline: [ { $match: {$expr: {$eq: [\"$$country\", \"$country\"] } } } ], as: \"mongojoin6\"}},
{$unwind: \"$mongojoin6\"},
{ \"$match\": { \"mongojoin6.nr\": %s, \"mongojoin6.producer\": %s } }]
[mongojoin6.nr, mongojoin6.producer, mongojoin6.country]
7", color = yellow] ; 
14 -> 16 ; 
18 [label="Project
[2, 3, 4]", color = yellow] ; 
2 -> 18 ; 
19 [label="RightBindJoin 
[0, 1]
16", color = yellow] ; 
18 -> 19 ; 
20 [label="SQLQuery
SELECT tab_135.nr, tab_135.producer, tab_137.label, tab_137.propertyNum1 
FROM PRODUCT AS tab_135, PRODUCTTYPEPRODUCT AS tab_136, Product AS tab_137  
WHERE tab_136.producttype = 110 AND tab_136.product = tab_135.nr AND tab_135.producer = tab_137.producer AND tab_135.nr = tab_137.nr
30", color = yellow] ; 
19 -> 20 ; 
21 [label="PhyMongoDBEval
countrytype
[{\"$match\":{\"countrytype\":112}},
{$lookup: { from: \"productproducercountry\", let: { \"country\": \"$country\"}, pipeline: [ { $match: {$expr: {$eq: [\"$$country\", \"$country\"] } } } ], as: \"mongojoin7\"}},
{$unwind: \"$mongojoin7\"},
{ \"$match\": { \"mongojoin7.nr\": %s, \"mongojoin7.producer\": %s } }]
[country, mongojoin7.nr, mongojoin7.producer]
16", color = yellow] ; 
19 -> 21 ; 
23 [label="Project
[2, 3, 6]", color = yellow] ; 
2 -> 23 ; 
24 [label="RightBindJoin 
[0, 1]
16", color = yellow] ; 
23 -> 24 ; 
25 [label="SQLQuery
SELECT tab_138.nr, tab_138.producer, tab_140.label, tab_140.propertyNum2 
FROM PRODUCT AS tab_138, Product AS tab_140, PRODUCTTYPEPRODUCT AS tab_139  
WHERE tab_139.producttype = 110 AND tab_139.product = tab_138.nr AND tab_138.nr = tab_140.nr AND tab_138.producer = tab_140.producer
30", color = yellow] ; 
24 -> 25 ; 
26 [label="PhyMongoDBEval
countrytype
[{\"$match\":{\"countrytype\":112}},
{$lookup: { from: \"productproducercountry\", let: { \"country\": \"$country\"}, pipeline: [ { $match: {$expr: {$eq: [\"$$country\", \"$country\"] } } } ], as: \"mongojoin8\"}},
{$unwind: \"$mongojoin8\"},
{ \"$match\": { \"mongojoin8.nr\": %s, \"mongojoin8.producer\": %s } }]
[mongojoin8.nr, mongojoin8.producer, mongojoin8.country]
16", color = yellow] ; 
24 -> 26 ; 
28 [label="Project
[2, 3, 4]", color = yellow] ; 
2 -> 28 ; 
29 [label="RightBindJoin 
[0, 1]
5", color = yellow] ; 
28 -> 29 ; 
30 [label="SQLQuery
SELECT tab_141.nr, tab_141.producer, tab_143.label, tab_143.propertyNum2 
FROM PRODUCTTYPEPRODUCT AS tab_142, PRODUCT AS tab_141, Product AS tab_143  
WHERE tab_142.producttype = 110 AND tab_142.product = tab_141.nr AND tab_141.producer = tab_143.producer AND tab_141.nr = tab_143.nr
30", color = yellow] ; 
29 -> 30 ; 
31 [label="PhyMongoDBEval
countrytype
[{\"$match\":{\"countrytype\":122}},
{$lookup: { from: \"productproducercountry\", let: { \"country\": \"$country\"}, pipeline: [ { $match: {$expr: {$eq: [\"$$country\", \"$country\"] } } } ], as: \"mongojoin9\"}},
{$unwind: \"$mongojoin9\"},
{ \"$match\": { \"mongojoin9.nr\": %s, \"mongojoin9.producer\": %s } }]
[country, mongojoin9.nr, mongojoin9.producer]
5", color = yellow] ; 
29 -> 31 ; 
33 [label="Project
[2, 3, 4]", color = yellow] ; 
2 -> 33 ; 
34 [label="RightBindJoin 
[1, 0]
7", color = yellow] ; 
33 -> 34 ; 
35 [label="SQLQuery
SELECT tab_144.nr, tab_144.producer, tab_146.label, tab_146.propertyNum2 
FROM PRODUCTTYPEPRODUCT AS tab_145, PRODUCT AS tab_144, Product AS tab_146  
WHERE tab_145.producttype = 110 AND tab_145.product = tab_144.nr AND tab_144.producer = tab_146.producer AND tab_144.nr = tab_146.nr
30", color = yellow] ; 
34 -> 35 ; 
36 [label="PhyMongoDBEval
countrytype
[{\"$match\":{\"countrytype\":121}},
{$lookup: { from: \"productproducercountry\", let: { \"country\": \"$country\"}, pipeline: [ { $match: {$expr: {$eq: [\"$$country\", \"$country\"] } } } ], as: \"mongojoin10\"}},
{$unwind: \"$mongojoin10\"},
{ \"$match\": { \"mongojoin10.producer\": %s, \"mongojoin10.nr\": %s } }]
[country, mongojoin10.nr, mongojoin10.producer]
7", color = yellow] ; 
34 -> 36 ; 
38 [label="Project
[2, 3, 4]", color = yellow] ; 
2 -> 38 ; 
39 [label="RightBindJoin 
[0, 1]
5", color = yellow] ; 
38 -> 39 ; 
40 [label="SQLQuery
SELECT tab_147.nr, tab_147.producer, tab_149.label, tab_149.propertyNum1 
FROM PRODUCT AS tab_147, PRODUCTTYPEPRODUCT AS tab_148, Product AS tab_149  
WHERE tab_148.producttype = 110 AND tab_148.product = tab_147.nr AND tab_147.producer = tab_149.producer AND tab_147.nr = tab_149.nr
30", color = yellow] ; 
39 -> 40 ; 
41 [label="PhyMongoDBEval
countrytype
[{\"$match\":{\"countrytype\":122}},
{$lookup: { from: \"productproducercountry\", let: { \"country\": \"$country\"}, pipeline: [ { $match: {$expr: {$eq: [\"$$country\", \"$country\"] } } } ], as: \"mongojoin11\"}},
{$unwind: \"$mongojoin11\"},
{ \"$match\": { \"mongojoin11.nr\": %s, \"mongojoin11.producer\": %s } }]
[country, mongojoin11.nr, mongojoin11.producer]
5", color = yellow] ; 
39 -> 41 ; 
42 [label="FunctionCallBindAccess
(\"{0}\", \"{1}\", <http://downlode.org/rdf/iso-3166/countries#{2}>)", color = yellow] ; 
0 -> 42 ; 
}
