digraph  g{ graph[label = "17:56:47.832"]
node [shape=rectangle, color=black, fontcolor=black, style=bold] edge [color=black] 0 [label="BindAccessEval", color = yellow] ; 
1 [label="HashDistinct", color = yellow] ; 
0 -> 1 ; 
2 [label="Union", color = yellow] ; 
1 -> 2 ; 
3 [label="Project
[2, 3, 6]", color = yellow] ; 
2 -> 3 ; 
4 [label="RightBindJoin 
[0, 1]
3", color = yellow] ; 
3 -> 4 ; 
5 [label="SQLQuery
SELECT tab_183.nr, tab_183.producer, tab_185.label, tab_185.propertyNum1 
FROM Product AS tab_185, PRODUCT AS tab_183, PRODUCTTYPEPRODUCT AS tab_184  
WHERE tab_184.producttype = 56 AND tab_184.product = tab_183.nr AND tab_183.nr = tab_185.nr AND tab_183.producer = tab_185.producer
46", color = yellow] ; 
4 -> 5 ; 
6 [label="PhyMongoDBEval
countrytype
[{\"$match\":{\"countrytype\":122}},
{$lookup: { from: \"productproducercountry\", let: { \"country\": \"$country\"}, pipeline: [ { $match: {$expr: {$eq: [\"$$country\", \"$country\"] } } } ], as: \"mongojoin12\"}},
{$unwind: \"$mongojoin12\"},
{ \"$match\": { \"mongojoin12.nr\": %s, \"mongojoin12.producer\": %s } }]
[mongojoin12.nr, mongojoin12.producer, mongojoin12.country]
3", color = yellow] ; 
4 -> 6 ; 
8 [label="Project
[2, 3, 6]", color = yellow] ; 
2 -> 8 ; 
9 [label="RightBindJoin 
[0, 1]
19", color = yellow] ; 
8 -> 9 ; 
10 [label="SQLQuery
SELECT tab_186.nr, tab_186.producer, tab_188.label, tab_188.propertyNum1 
FROM PRODUCTTYPEPRODUCT AS tab_187, PRODUCT AS tab_186, Product AS tab_188  
WHERE tab_187.producttype = 56 AND tab_187.product = tab_186.nr AND tab_186.producer = tab_188.producer AND tab_186.nr = tab_188.nr
46", color = yellow] ; 
9 -> 10 ; 
11 [label="PhyMongoDBEval
countrytype
[{\"$match\":{\"countrytype\":112}},
{$lookup: { from: \"productproducercountry\", let: { \"country\": \"$country\"}, pipeline: [ { $match: {$expr: {$eq: [\"$$country\", \"$country\"] } } } ], as: \"mongojoin13\"}},
{$unwind: \"$mongojoin13\"},
{ \"$match\": { \"mongojoin13.nr\": %s, \"mongojoin13.producer\": %s } }]
[mongojoin13.nr, mongojoin13.producer, mongojoin13.country]
19", color = yellow] ; 
9 -> 11 ; 
13 [label="Project
[1, 3, 6]", color = yellow] ; 
2 -> 13 ; 
14 [label="RightBindJoin 
[0, 2]
11", color = yellow] ; 
13 -> 14 ; 
15 [label="SQLQuery
SELECT tab_159.nr, tab_159.label, tab_159.producer, tab_159.propertyNum2 
FROM PRODUCT AS tab_160, Product AS tab_159, PRODUCTTYPEPRODUCT AS tab_161  
WHERE tab_161.producttype = 57 AND tab_161.product = tab_160.nr AND tab_159.producer = tab_160.producer AND tab_159.nr = tab_160.nr
56", color = yellow] ; 
14 -> 15 ; 
16 [label="PhyMongoDBEval
countrytype
[{\"$match\":{\"countrytype\":121}},
{$lookup: { from: \"productproducercountry\", let: { \"country\": \"$country\"}, pipeline: [ { $match: {$expr: {$eq: [\"$$country\", \"$country\"] } } } ], as: \"mongojoin14\"}},
{$unwind: \"$mongojoin14\"},
{ \"$match\": { \"mongojoin14.nr\": %s, \"mongojoin14.producer\": %s } }]
[mongojoin14.nr, mongojoin14.producer, mongojoin14.country]
11", color = yellow] ; 
14 -> 16 ; 
18 [label="Project
[2, 3, 6]", color = yellow] ; 
2 -> 18 ; 
19 [label="RightBindJoin 
[1, 0]
25", color = yellow] ; 
18 -> 19 ; 
20 [label="SQLQuery
SELECT tab_153.nr, tab_153.producer, tab_155.label, tab_155.propertyNum2 
FROM PRODUCTTYPEPRODUCT AS tab_154, PRODUCT AS tab_153, Product AS tab_155  
WHERE tab_154.producttype = 57 AND tab_154.product = tab_153.nr AND tab_153.producer = tab_155.producer AND tab_153.nr = tab_155.nr
56", color = yellow] ; 
19 -> 20 ; 
21 [label="PhyMongoDBEval
countrytype
[{\"$match\":{\"countrytype\":112}},
{$lookup: { from: \"productproducercountry\", let: { \"country\": \"$country\"}, pipeline: [ { $match: {$expr: {$eq: [\"$$country\", \"$country\"] } } } ], as: \"mongojoin15\"}},
{$unwind: \"$mongojoin15\"},
{ \"$match\": { \"mongojoin15.producer\": %s, \"mongojoin15.nr\": %s } }]
[mongojoin15.nr, mongojoin15.producer, mongojoin15.country]
25", color = yellow] ; 
19 -> 21 ; 
23 [label="Project
[1, 3, 6]", color = yellow] ; 
2 -> 23 ; 
24 [label="RightBindJoin 
[0, 2]
11", color = yellow] ; 
23 -> 24 ; 
25 [label="SQLQuery
SELECT tab_165.nr, tab_165.label, tab_165.producer, tab_165.propertyNum1 
FROM PRODUCTTYPEPRODUCT AS tab_167, PRODUCT AS tab_166, Product AS tab_165  
WHERE tab_167.producttype = 57 AND tab_167.product = tab_166.nr AND tab_165.producer = tab_166.producer AND tab_165.nr = tab_166.nr
56", color = yellow] ; 
24 -> 25 ; 
26 [label="PhyMongoDBEval
countrytype
[{\"$match\":{\"countrytype\":121}},
{$lookup: { from: \"productproducercountry\", let: { \"country\": \"$country\"}, pipeline: [ { $match: {$expr: {$eq: [\"$$country\", \"$country\"] } } } ], as: \"mongojoin16\"}},
{$unwind: \"$mongojoin16\"},
{ \"$match\": { \"mongojoin16.nr\": %s, \"mongojoin16.producer\": %s } }]
[mongojoin16.nr, mongojoin16.producer, mongojoin16.country]
11", color = yellow] ; 
24 -> 26 ; 
28 [label="Project
[2, 3, 6]", color = yellow] ; 
2 -> 28 ; 
29 [label="RightBindJoin 
[0, 1]
3", color = yellow] ; 
28 -> 29 ; 
30 [label="SQLQuery
SELECT tab_189.nr, tab_189.producer, tab_191.label, tab_191.propertyNum2 
FROM Product AS tab_191, PRODUCT AS tab_189, PRODUCTTYPEPRODUCT AS tab_190  
WHERE tab_190.producttype = 56 AND tab_190.product = tab_189.nr AND tab_189.producer = tab_191.producer AND tab_189.nr = tab_191.nr
46", color = yellow] ; 
29 -> 30 ; 
31 [label="PhyMongoDBEval
countrytype
[{\"$match\":{\"countrytype\":122}},
{$lookup: { from: \"productproducercountry\", let: { \"country\": \"$country\"}, pipeline: [ { $match: {$expr: {$eq: [\"$$country\", \"$country\"] } } } ], as: \"mongojoin17\"}},
{$unwind: \"$mongojoin17\"},
{ \"$match\": { \"mongojoin17.nr\": %s, \"mongojoin17.producer\": %s } }]
[mongojoin17.nr, mongojoin17.producer, mongojoin17.country]
3", color = yellow] ; 
29 -> 31 ; 
33 [label="Project
[1, 3, 6]", color = yellow] ; 
2 -> 33 ; 
34 [label="RightBindJoin 
[0, 2]
10", color = yellow] ; 
33 -> 34 ; 
35 [label="SQLQuery
SELECT tab_156.nr, tab_156.label, tab_156.producer, tab_156.propertyNum2 
FROM PRODUCT AS tab_157, PRODUCTTYPEPRODUCT AS tab_158, Product AS tab_156  
WHERE tab_158.producttype = 57 AND tab_158.product = tab_157.nr AND tab_156.producer = tab_157.producer AND tab_156.nr = tab_157.nr
56", color = yellow] ; 
34 -> 35 ; 
36 [label="PhyMongoDBEval
countrytype
[{\"$match\":{\"countrytype\":122}},
{$lookup: { from: \"productproducercountry\", let: { \"country\": \"$country\"}, pipeline: [ { $match: {$expr: {$eq: [\"$$country\", \"$country\"] } } } ], as: \"mongojoin18\"}},
{$unwind: \"$mongojoin18\"},
{ \"$match\": { \"mongojoin18.nr\": %s, \"mongojoin18.producer\": %s } }]
[mongojoin18.nr, mongojoin18.producer, mongojoin18.country]
10", color = yellow] ; 
34 -> 36 ; 
38 [label="Project
[2, 3, 6]", color = yellow] ; 
2 -> 38 ; 
39 [label="RightBindJoin 
[1, 0]
11", color = yellow] ; 
38 -> 39 ; 
40 [label="SQLQuery
SELECT tab_174.nr, tab_174.producer, tab_176.label, tab_176.propertyNum1 
FROM PRODUCTTYPEPRODUCT AS tab_175, PRODUCT AS tab_174, Product AS tab_176  
WHERE tab_175.producttype = 57 AND tab_175.product = tab_174.nr AND tab_174.producer = tab_176.producer AND tab_174.nr = tab_176.nr
56", color = yellow] ; 
39 -> 40 ; 
41 [label="PhyMongoDBEval
countrytype
[{\"$match\":{\"countrytype\":111}},
{$lookup: { from: \"productproducercountry\", let: { \"country\": \"$country\"}, pipeline: [ { $match: {$expr: {$eq: [\"$$country\", \"$country\"] } } } ], as: \"mongojoin19\"}},
{$unwind: \"$mongojoin19\"},
{ \"$match\": { \"mongojoin19.producer\": %s, \"mongojoin19.nr\": %s } }]
[mongojoin19.nr, mongojoin19.producer, mongojoin19.country]
11", color = yellow] ; 
39 -> 41 ; 
43 [label="Project
[1, 3, 6]", color = yellow] ; 
2 -> 43 ; 
44 [label="RightBindJoin 
[0, 2]
25", color = yellow] ; 
43 -> 44 ; 
45 [label="SQLQuery
SELECT tab_180.nr, tab_180.label, tab_180.producer, tab_180.propertyNum1 
FROM Product AS tab_180, PRODUCT AS tab_181, PRODUCTTYPEPRODUCT AS tab_182  
WHERE tab_182.producttype = 57 AND tab_182.product = tab_181.nr AND tab_180.producer = tab_181.producer AND tab_180.nr = tab_181.nr
56", color = yellow] ; 
44 -> 45 ; 
46 [label="PhyMongoDBEval
countrytype
[{\"$match\":{\"countrytype\":112}},
{$lookup: { from: \"productproducercountry\", let: { \"country\": \"$country\"}, pipeline: [ { $match: {$expr: {$eq: [\"$$country\", \"$country\"] } } } ], as: \"mongojoin20\"}},
{$unwind: \"$mongojoin20\"},
{ \"$match\": { \"mongojoin20.nr\": %s, \"mongojoin20.producer\": %s } }]
[mongojoin20.nr, mongojoin20.producer, mongojoin20.country]
25", color = yellow] ; 
44 -> 46 ; 
48 [label="Project
[2, 3, 6]", color = yellow] ; 
2 -> 48 ; 
49 [label="RightBindJoin 
[0, 1]
7", color = yellow] ; 
48 -> 49 ; 
50 [label="SQLQuery
SELECT tab_192.nr, tab_192.producer, tab_194.label, tab_194.propertyNum1 
FROM Product AS tab_194, PRODUCT AS tab_192, PRODUCTTYPEPRODUCT AS tab_193  
WHERE tab_193.producttype = 56 AND tab_193.product = tab_192.nr AND tab_192.producer = tab_194.producer AND tab_192.nr = tab_194.nr
46", color = yellow] ; 
49 -> 50 ; 
51 [label="PhyMongoDBEval
countrytype
[{\"$match\":{\"countrytype\":121}},
{$lookup: { from: \"productproducercountry\", let: { \"country\": \"$country\"}, pipeline: [ { $match: {$expr: {$eq: [\"$$country\", \"$country\"] } } } ], as: \"mongojoin21\"}},
{$unwind: \"$mongojoin21\"},
{ \"$match\": { \"mongojoin21.nr\": %s, \"mongojoin21.producer\": %s } }]
[mongojoin21.nr, mongojoin21.producer, mongojoin21.country]
7", color = yellow] ; 
49 -> 51 ; 
53 [label="Project
[1, 3, 6]", color = yellow] ; 
2 -> 53 ; 
54 [label="RightBindJoin 
[2, 0]
8", color = yellow] ; 
53 -> 54 ; 
55 [label="SQLQuery
SELECT tab_162.nr, tab_162.label, tab_162.producer, tab_162.propertyNum1 
FROM PRODUCTTYPEPRODUCT AS tab_164, Product AS tab_162, PRODUCT AS tab_163  
WHERE tab_164.producttype = 56 AND tab_164.product = tab_163.nr AND tab_162.producer = tab_163.producer AND tab_162.nr = tab_163.nr
46", color = yellow] ; 
54 -> 55 ; 
56 [label="PhyMongoDBEval
countrytype
[{\"$match\":{\"countrytype\":111}},
{$lookup: { from: \"productproducercountry\", let: { \"country\": \"$country\"}, pipeline: [ { $match: {$expr: {$eq: [\"$$country\", \"$country\"] } } } ], as: \"mongojoin22\"}},
{$unwind: \"$mongojoin22\"},
{ \"$match\": { \"mongojoin22.producer\": %s, \"mongojoin22.nr\": %s } }]
[mongojoin22.nr, mongojoin22.producer, mongojoin22.country]
8", color = yellow] ; 
54 -> 56 ; 
58 [label="Project
[1, 3, 6]", color = yellow] ; 
2 -> 58 ; 
59 [label="RightBindJoin 
[2, 0]
10", color = yellow] ; 
58 -> 59 ; 
60 [label="SQLQuery
SELECT tab_168.nr, tab_168.label, tab_168.producer, tab_168.propertyNum1 
FROM PRODUCT AS tab_169, PRODUCTTYPEPRODUCT AS tab_170, Product AS tab_168  
WHERE tab_170.producttype = 57 AND tab_170.product = tab_169.nr AND tab_168.producer = tab_169.producer AND tab_168.nr = tab_169.nr
56", color = yellow] ; 
59 -> 60 ; 
61 [label="PhyMongoDBEval
countrytype
[{\"$match\":{\"countrytype\":122}},
{$lookup: { from: \"productproducercountry\", let: { \"country\": \"$country\"}, pipeline: [ { $match: {$expr: {$eq: [\"$$country\", \"$country\"] } } } ], as: \"mongojoin23\"}},
{$unwind: \"$mongojoin23\"},
{ \"$match\": { \"mongojoin23.producer\": %s, \"mongojoin23.nr\": %s } }]
[mongojoin23.nr, mongojoin23.producer, mongojoin23.country]
10", color = yellow] ; 
59 -> 61 ; 
63 [label="Project
[2, 3, 6]", color = yellow] ; 
2 -> 63 ; 
64 [label="RightBindJoin 
[0, 1]
11", color = yellow] ; 
63 -> 64 ; 
65 [label="SQLQuery
SELECT tab_150.nr, tab_150.producer, tab_152.label, tab_152.propertyNum2 
FROM Product AS tab_152, PRODUCT AS tab_150, PRODUCTTYPEPRODUCT AS tab_151  
WHERE tab_151.producttype = 57 AND tab_151.product = tab_150.nr AND tab_150.producer = tab_152.producer AND tab_150.nr = tab_152.nr
56", color = yellow] ; 
64 -> 65 ; 
66 [label="PhyMongoDBEval
countrytype
[{\"$match\":{\"countrytype\":111}},
{$lookup: { from: \"productproducercountry\", let: { \"country\": \"$country\"}, pipeline: [ { $match: {$expr: {$eq: [\"$$country\", \"$country\"] } } } ], as: \"mongojoin24\"}},
{$unwind: \"$mongojoin24\"},
{ \"$match\": { \"mongojoin24.nr\": %s, \"mongojoin24.producer\": %s } }]
[mongojoin24.nr, mongojoin24.producer, mongojoin24.country]
11", color = yellow] ; 
64 -> 66 ; 
68 [label="Project
[2, 3, 4]", color = yellow] ; 
2 -> 68 ; 
69 [label="RightBindJoin 
[0, 1]
7", color = yellow] ; 
68 -> 69 ; 
70 [label="SQLQuery
SELECT tab_195.nr, tab_195.producer, tab_197.label, tab_197.propertyNum2 
FROM PRODUCTTYPEPRODUCT AS tab_196, PRODUCT AS tab_195, Product AS tab_197  
WHERE tab_196.producttype = 56 AND tab_196.product = tab_195.nr AND tab_195.nr = tab_197.nr AND tab_195.producer = tab_197.producer
46", color = yellow] ; 
69 -> 70 ; 
71 [label="PhyMongoDBEval
countrytype
[{\"$match\":{\"countrytype\":121}},
{$lookup: { from: \"productproducercountry\", let: { \"country\": \"$country\"}, pipeline: [ { $match: {$expr: {$eq: [\"$$country\", \"$country\"] } } } ], as: \"mongojoin25\"}},
{$unwind: \"$mongojoin25\"},
{ \"$match\": { \"mongojoin25.nr\": %s, \"mongojoin25.producer\": %s } }]
[country, mongojoin25.nr, mongojoin25.producer]
7", color = yellow] ; 
69 -> 71 ; 
73 [label="Project
[1, 3, 6]", color = yellow] ; 
2 -> 73 ; 
74 [label="RightBindJoin 
[0, 2]
19", color = yellow] ; 
73 -> 74 ; 
75 [label="SQLQuery
SELECT tab_177.nr, tab_177.label, tab_177.producer, tab_177.propertyNum2 
FROM PRODUCT AS tab_178, PRODUCTTYPEPRODUCT AS tab_179, Product AS tab_177  
WHERE tab_179.producttype = 56 AND tab_179.product = tab_178.nr AND tab_177.producer = tab_178.producer AND tab_177.nr = tab_178.nr
46", color = yellow] ; 
74 -> 75 ; 
76 [label="PhyMongoDBEval
countrytype
[{\"$match\":{\"countrytype\":112}},
{$lookup: { from: \"productproducercountry\", let: { \"country\": \"$country\"}, pipeline: [ { $match: {$expr: {$eq: [\"$$country\", \"$country\"] } } } ], as: \"mongojoin26\"}},
{$unwind: \"$mongojoin26\"},
{ \"$match\": { \"mongojoin26.nr\": %s, \"mongojoin26.producer\": %s } }]
[mongojoin26.nr, mongojoin26.producer, mongojoin26.country]
19", color = yellow] ; 
74 -> 76 ; 
78 [label="Project
[1, 3, 6]", color = yellow] ; 
2 -> 78 ; 
79 [label="RightBindJoin 
[0, 2]
8", color = yellow] ; 
78 -> 79 ; 
80 [label="SQLQuery
SELECT tab_171.nr, tab_171.label, tab_171.producer, tab_171.propertyNum2 
FROM Product AS tab_171, PRODUCT AS tab_172, PRODUCTTYPEPRODUCT AS tab_173  
WHERE tab_173.producttype = 56 AND tab_173.product = tab_172.nr AND tab_171.producer = tab_172.producer AND tab_171.nr = tab_172.nr
46", color = yellow] ; 
79 -> 80 ; 
81 [label="PhyMongoDBEval
countrytype
[{\"$match\":{\"countrytype\":111}},
{$lookup: { from: \"productproducercountry\", let: { \"country\": \"$country\"}, pipeline: [ { $match: {$expr: {$eq: [\"$$country\", \"$country\"] } } } ], as: \"mongojoin27\"}},
{$unwind: \"$mongojoin27\"},
{ \"$match\": { \"mongojoin27.nr\": %s, \"mongojoin27.producer\": %s } }]
[mongojoin27.nr, mongojoin27.producer, mongojoin27.country]
8", color = yellow] ; 
79 -> 81 ; 
82 [label="FunctionCallBindAccess
(\"{0}\", \"{1}\", <http://downlode.org/rdf/iso-3166/countries#{2}>)", color = yellow] ; 
0 -> 82 ; 
}
