<?xml version="1.0" encoding="UTF-8" standalone="no"?>
<!DOCTYPE svg PUBLIC "-//W3C//DTD SVG 1.1//EN"
 "http://www.w3.org/Graphics/SVG/1.1/DTD/svg11.dtd">
<!-- Generated by graphviz version 2.40.1 (20161225.0304)
 -->
<!-- Title: g Pages: 1 -->
<svg width="28822pt" height="540pt"
 viewBox="0.00 0.00 28822.00 540.00" xmlns="http://www.w3.org/2000/svg" xmlns:xlink="http://www.w3.org/1999/xlink">
<g id="graph0" class="graph" transform="scale(1 1) rotate(0) translate(4 536)">
<title>g</title>
<polygon fill="#ffffff" stroke="transparent" points="-4,4 -4,-536 28818,-536 28818,4 -4,4"/>
<text text-anchor="middle" x="14407" y="-7.8" font-family="Times,serif" font-size="14.00" fill="#000000">17:56:47.832</text>
<!-- 0 -->
<g id="node1" class="node">
<title>0</title>
<polygon fill="none" stroke="#ffff00" stroke-width="2" points="14349,-532 14243,-532 14243,-496 14349,-496 14349,-532"/>
<text text-anchor="middle" x="14296" y="-510.3" font-family="Times,serif" font-size="14.00" fill="#000000">BindAccessEval</text>
</g>
<!-- 1 -->
<g id="node2" class="node">
<title>1</title>
<polygon fill="none" stroke="#ffff00" stroke-width="2" points="14213.5,-459 14126.5,-459 14126.5,-423 14213.5,-423 14213.5,-459"/>
<text text-anchor="middle" x="14170" y="-437.3" font-family="Times,serif" font-size="14.00" fill="#000000">HashDistinct</text>
</g>
<!-- 0&#45;&gt;1 -->
<g id="edge1" class="edge">
<title>0&#45;&gt;1</title>
<path fill="none" stroke="#000000" d="M14264.8539,-495.9551C14248.3465,-486.3912 14227.8796,-474.5334 14210.1876,-464.2833"/>
<polygon fill="#000000" stroke="#000000" points="14211.6318,-461.075 14201.2245,-459.0904 14208.1226,-467.1319 14211.6318,-461.075"/>
</g>
<!-- 82 -->
<g id="node68" class="node">
<title>82</title>
<polygon fill="none" stroke="#ffff00" stroke-width="2" points="14612,-460 14232,-460 14232,-422 14612,-422 14612,-460"/>
<text text-anchor="middle" x="14422" y="-444.8" font-family="Times,serif" font-size="14.00" fill="#000000">FunctionCallBindAccess</text>
<text text-anchor="middle" x="14422" y="-429.8" font-family="Times,serif" font-size="14.00" fill="#000000">(&quot;{0}&quot;, &quot;{1}&quot;, &lt;http://downlode.org/rdf/iso&#45;3166/countries#{2}&gt;)</text>
</g>
<!-- 0&#45;&gt;82 -->
<g id="edge67" class="edge">
<title>0&#45;&gt;82</title>
<path fill="none" stroke="#000000" d="M14327.1461,-495.9551C14343.157,-486.6789 14362.8929,-475.2446 14380.2088,-465.2124"/>
<polygon fill="#000000" stroke="#000000" points="14382.1126,-468.1544 14389.0107,-460.1128 14378.6034,-462.0975 14382.1126,-468.1544"/>
</g>
<!-- 2 -->
<g id="node3" class="node">
<title>2</title>
<polygon fill="none" stroke="#ffff00" stroke-width="2" points="14197,-386 14143,-386 14143,-350 14197,-350 14197,-386"/>
<text text-anchor="middle" x="14170" y="-364.3" font-family="Times,serif" font-size="14.00" fill="#000000">Union</text>
</g>
<!-- 1&#45;&gt;2 -->
<g id="edge2" class="edge">
<title>1&#45;&gt;2</title>
<path fill="none" stroke="#000000" d="M14170,-422.9551C14170,-414.8828 14170,-405.1764 14170,-396.1817"/>
<polygon fill="#000000" stroke="#000000" points="14173.5001,-396.0903 14170,-386.0904 14166.5001,-396.0904 14173.5001,-396.0903"/>
</g>
<!-- 3 -->
<g id="node4" class="node">
<title>3</title>
<polygon fill="none" stroke="#ffff00" stroke-width="2" points="3065.5,-314 3004.5,-314 3004.5,-276 3065.5,-276 3065.5,-314"/>
<text text-anchor="middle" x="3035" y="-298.8" font-family="Times,serif" font-size="14.00" fill="#000000">Project</text>
<text text-anchor="middle" x="3035" y="-283.8" font-family="Times,serif" font-size="14.00" fill="#000000">[2, 3, 6]</text>
</g>
<!-- 2&#45;&gt;3 -->
<g id="edge3" class="edge">
<title>2&#45;&gt;3</title>
<path fill="none" stroke="#000000" d="M14142.6446,-367.9166C13632.4532,-366.3526 6131.5441,-342.9784 3935,-314 3603.264,-309.6235 3202.8408,-299.4405 3075.7528,-296.0902"/>
<polygon fill="#000000" stroke="#000000" points="3075.7792,-292.5897 3065.6902,-295.8241 3075.5941,-299.5873 3075.7792,-292.5897"/>
</g>
<!-- 8 -->
<g id="node8" class="node">
<title>8</title>
<polygon fill="none" stroke="#ffff00" stroke-width="2" points="4005.5,-314 3944.5,-314 3944.5,-276 4005.5,-276 4005.5,-314"/>
<text text-anchor="middle" x="3975" y="-298.8" font-family="Times,serif" font-size="14.00" fill="#000000">Project</text>
<text text-anchor="middle" x="3975" y="-283.8" font-family="Times,serif" font-size="14.00" fill="#000000">[2, 3, 6]</text>
</g>
<!-- 2&#45;&gt;8 -->
<g id="edge7" class="edge">
<title>2&#45;&gt;8</title>
<path fill="none" stroke="#000000" d="M14142.7434,-367.8719C13755.502,-366.0428 9318.4041,-344.776 5737,-314 5048.7154,-308.0854 4209.2276,-297.8908 4015.9853,-295.5083"/>
<polygon fill="#000000" stroke="#000000" points="4015.7661,-292.0054 4005.7237,-295.3816 4015.6797,-299.0049 4015.7661,-292.0054"/>
</g>
<!-- 13 -->
<g id="node12" class="node">
<title>13</title>
<polygon fill="none" stroke="#ffff00" stroke-width="2" points="5807.5,-314 5746.5,-314 5746.5,-276 5807.5,-276 5807.5,-314"/>
<text text-anchor="middle" x="5777" y="-298.8" font-family="Times,serif" font-size="14.00" fill="#000000">Project</text>
<text text-anchor="middle" x="5777" y="-283.8" font-family="Times,serif" font-size="14.00" fill="#000000">[1, 3, 6]</text>
</g>
<!-- 2&#45;&gt;13 -->
<g id="edge11" class="edge">
<title>2&#45;&gt;13</title>
<path fill="none" stroke="#000000" d="M14142.8708,-367.8068C13803.0936,-365.3819 10338.5791,-340.4934 7539,-314 6850.7208,-307.4866 6011.2289,-297.7458 5817.9856,-295.4819"/>
<polygon fill="#000000" stroke="#000000" points="5817.7642,-291.9792 5807.7238,-295.3616 5817.6821,-298.9787 5817.7642,-291.9792"/>
</g>
<!-- 18 -->
<g id="node16" class="node">
<title>18</title>
<polygon fill="none" stroke="#ffff00" stroke-width="2" points="7609.5,-314 7548.5,-314 7548.5,-276 7609.5,-276 7609.5,-314"/>
<text text-anchor="middle" x="7579" y="-298.8" font-family="Times,serif" font-size="14.00" fill="#000000">Project</text>
<text text-anchor="middle" x="7579" y="-283.8" font-family="Times,serif" font-size="14.00" fill="#000000">[2, 3, 6]</text>
</g>
<!-- 2&#45;&gt;18 -->
<g id="edge15" class="edge">
<title>2&#45;&gt;18</title>
<path fill="none" stroke="#000000" d="M14142.7498,-367.6982C13705.7646,-362.8583 8152.6989,-301.3541 7619.9904,-295.454"/>
<polygon fill="#000000" stroke="#000000" points="7619.7455,-291.9512 7609.7073,-295.3401 7619.6679,-298.9507 7619.7455,-291.9512"/>
</g>
<!-- 23 -->
<g id="node20" class="node">
<title>23</title>
<polygon fill="none" stroke="#ffff00" stroke-width="2" points="9411.5,-314 9350.5,-314 9350.5,-276 9411.5,-276 9411.5,-314"/>
<text text-anchor="middle" x="9381" y="-298.8" font-family="Times,serif" font-size="14.00" fill="#000000">Project</text>
<text text-anchor="middle" x="9381" y="-283.8" font-family="Times,serif" font-size="14.00" fill="#000000">[1, 3, 6]</text>
</g>
<!-- 2&#45;&gt;23 -->
<g id="edge19" class="edge">
<title>2&#45;&gt;23</title>
<path fill="none" stroke="#000000" d="M14142.7719,-367.585C13778.0419,-362.0253 9864.5929,-302.3715 9421.7191,-295.6207"/>
<polygon fill="#000000" stroke="#000000" points="9421.6708,-292.1196 9411.6186,-295.4667 9421.564,-299.1188 9421.6708,-292.1196"/>
</g>
<!-- 28 -->
<g id="node24" class="node">
<title>28</title>
<polygon fill="none" stroke="#ffff00" stroke-width="2" points="11213.5,-314 11152.5,-314 11152.5,-276 11213.5,-276 11213.5,-314"/>
<text text-anchor="middle" x="11183" y="-298.8" font-family="Times,serif" font-size="14.00" fill="#000000">Project</text>
<text text-anchor="middle" x="11183" y="-283.8" font-family="Times,serif" font-size="14.00" fill="#000000">[2, 3, 6]</text>
</g>
<!-- 2&#45;&gt;28 -->
<g id="edge23" class="edge">
<title>2&#45;&gt;28</title>
<path fill="none" stroke="#000000" d="M14142.8029,-367.3353C13865.9398,-360.569 11561.5844,-304.2523 11224.1714,-296.0062"/>
<polygon fill="#000000" stroke="#000000" points="11223.9631,-292.5002 11213.8805,-295.7547 11223.792,-299.4981 11223.9631,-292.5002"/>
</g>
<!-- 33 -->
<g id="node28" class="node">
<title>33</title>
<polygon fill="none" stroke="#ffff00" stroke-width="2" points="13015.5,-314 12954.5,-314 12954.5,-276 13015.5,-276 13015.5,-314"/>
<text text-anchor="middle" x="12985" y="-298.8" font-family="Times,serif" font-size="14.00" fill="#000000">Project</text>
<text text-anchor="middle" x="12985" y="-283.8" font-family="Times,serif" font-size="14.00" fill="#000000">[1, 3, 6]</text>
</g>
<!-- 2&#45;&gt;33 -->
<g id="edge27" class="edge">
<title>2&#45;&gt;33</title>
<path fill="none" stroke="#000000" d="M14142.7386,-366.3206C13987.2847,-356.7441 13213.1921,-309.0574 13025.8672,-297.5176"/>
<polygon fill="#000000" stroke="#000000" points="13025.8263,-294.0085 13015.63,-296.8869 13025.3958,-300.9952 13025.8263,-294.0085"/>
</g>
<!-- 38 -->
<g id="node32" class="node">
<title>38</title>
<polygon fill="none" stroke="#ffff00" stroke-width="2" points="14161.5,-314 14100.5,-314 14100.5,-276 14161.5,-276 14161.5,-314"/>
<text text-anchor="middle" x="14131" y="-298.8" font-family="Times,serif" font-size="14.00" fill="#000000">Project</text>
<text text-anchor="middle" x="14131" y="-283.8" font-family="Times,serif" font-size="14.00" fill="#000000">[2, 3, 6]</text>
</g>
<!-- 2&#45;&gt;38 -->
<g id="edge31" class="edge">
<title>2&#45;&gt;38</title>
<path fill="none" stroke="#000000" d="M14160.3595,-349.9551C14156.0403,-341.8703 14150.8452,-332.1462 14146.0336,-323.1398"/>
<polygon fill="#000000" stroke="#000000" points="14149.0102,-321.2838 14141.211,-314.1128 14142.8361,-324.5823 14149.0102,-321.2838"/>
</g>
<!-- 43 -->
<g id="node36" class="node">
<title>43</title>
<polygon fill="none" stroke="#ffff00" stroke-width="2" points="14651.5,-314 14590.5,-314 14590.5,-276 14651.5,-276 14651.5,-314"/>
<text text-anchor="middle" x="14621" y="-298.8" font-family="Times,serif" font-size="14.00" fill="#000000">Project</text>
<text text-anchor="middle" x="14621" y="-283.8" font-family="Times,serif" font-size="14.00" fill="#000000">[1, 3, 6]</text>
</g>
<!-- 2&#45;&gt;43 -->
<g id="edge35" class="edge">
<title>2&#45;&gt;43</title>
<path fill="none" stroke="#000000" d="M14197.1964,-363.5979C14273.4806,-351.2504 14489.8003,-316.2363 14580.3512,-301.5795"/>
<polygon fill="#000000" stroke="#000000" points="14580.9326,-305.031 14590.2449,-299.9781 14579.8141,-298.121 14580.9326,-305.031"/>
</g>
<!-- 48 -->
<g id="node40" class="node">
<title>48</title>
<polygon fill="none" stroke="#ffff00" stroke-width="2" points="15797.5,-314 15736.5,-314 15736.5,-276 15797.5,-276 15797.5,-314"/>
<text text-anchor="middle" x="15767" y="-298.8" font-family="Times,serif" font-size="14.00" fill="#000000">Project</text>
<text text-anchor="middle" x="15767" y="-283.8" font-family="Times,serif" font-size="14.00" fill="#000000">[2, 3, 6]</text>
</g>
<!-- 2&#45;&gt;48 -->
<g id="edge39" class="edge">
<title>2&#45;&gt;48</title>
<path fill="none" stroke="#000000" d="M14197.0488,-366.7636C14385.169,-358.1645 15497.5731,-307.3157 15726.0099,-296.8737"/>
<polygon fill="#000000" stroke="#000000" points="15726.3827,-300.3604 15736.2124,-296.4073 15726.063,-293.3677 15726.3827,-300.3604"/>
</g>
<!-- 53 -->
<g id="node44" class="node">
<title>53</title>
<polygon fill="none" stroke="#ffff00" stroke-width="2" points="17271.5,-314 17210.5,-314 17210.5,-276 17271.5,-276 17271.5,-314"/>
<text text-anchor="middle" x="17241" y="-298.8" font-family="Times,serif" font-size="14.00" fill="#000000">Project</text>
<text text-anchor="middle" x="17241" y="-283.8" font-family="Times,serif" font-size="14.00" fill="#000000">[1, 3, 6]</text>
</g>
<!-- 2&#45;&gt;53 -->
<g id="edge43" class="edge">
<title>2&#45;&gt;53</title>
<path fill="none" stroke="#000000" d="M14197.016,-367.3578C14477.6552,-360.6868 16857.1189,-304.1251 17199.9202,-295.9765"/>
<polygon fill="#000000" stroke="#000000" points="17200.2243,-299.4704 17210.1383,-295.7336 17200.0579,-292.4723 17200.2243,-299.4704"/>
</g>
<!-- 58 -->
<g id="node48" class="node">
<title>58</title>
<polygon fill="none" stroke="#ffff00" stroke-width="2" points="18909.5,-314 18848.5,-314 18848.5,-276 18909.5,-276 18909.5,-314"/>
<text text-anchor="middle" x="18879" y="-298.8" font-family="Times,serif" font-size="14.00" fill="#000000">Project</text>
<text text-anchor="middle" x="18879" y="-283.8" font-family="Times,serif" font-size="14.00" fill="#000000">[1, 3, 6]</text>
</g>
<!-- 2&#45;&gt;58 -->
<g id="edge47" class="edge">
<title>2&#45;&gt;58</title>
<path fill="none" stroke="#000000" d="M14197.0653,-367.5804C14557.3147,-361.9958 18399.7726,-302.4291 18838.308,-295.6308"/>
<polygon fill="#000000" stroke="#000000" points="18838.3715,-299.1304 18848.3161,-295.4757 18838.263,-292.1312 18838.3715,-299.1304"/>
</g>
<!-- 63 -->
<g id="node52" class="node">
<title>63</title>
<polygon fill="none" stroke="#ffff00" stroke-width="2" points="20629.5,-314 20568.5,-314 20568.5,-276 20629.5,-276 20629.5,-314"/>
<text text-anchor="middle" x="20599" y="-298.8" font-family="Times,serif" font-size="14.00" fill="#000000">Project</text>
<text text-anchor="middle" x="20599" y="-283.8" font-family="Times,serif" font-size="14.00" fill="#000000">[2, 3, 6]</text>
</g>
<!-- 2&#45;&gt;63 -->
<g id="edge51" class="edge">
<title>2&#45;&gt;63</title>
<path fill="none" stroke="#000000" d="M14197.2662,-367.6904C14628.3887,-362.7951 20034.4443,-301.4104 20558.2599,-295.4626"/>
<polygon fill="#000000" stroke="#000000" points="20558.4194,-298.9611 20568.379,-295.3477 20558.3399,-291.9616 20558.4194,-298.9611"/>
</g>
<!-- 68 -->
<g id="node56" class="node">
<title>68</title>
<polygon fill="none" stroke="#ffff00" stroke-width="2" points="22390.5,-314 22329.5,-314 22329.5,-276 22390.5,-276 22390.5,-314"/>
<text text-anchor="middle" x="22360" y="-298.8" font-family="Times,serif" font-size="14.00" fill="#000000">Project</text>
<text text-anchor="middle" x="22360" y="-283.8" font-family="Times,serif" font-size="14.00" fill="#000000">[2, 3, 4]</text>
</g>
<!-- 2&#45;&gt;68 -->
<g id="edge55" class="edge">
<title>2&#45;&gt;68</title>
<path fill="none" stroke="#000000" d="M14197.2344,-367.801C14533.098,-365.3406 17909.3455,-340.444 20638,-314 21309.9211,-307.4883 22129.2993,-297.7657 22319.3248,-295.4891"/>
<polygon fill="#000000" stroke="#000000" points="22319.465,-298.9878 22329.4223,-295.3681 22319.381,-291.9883 22319.465,-298.9878"/>
</g>
<!-- 73 -->
<g id="node60" class="node">
<title>73</title>
<polygon fill="none" stroke="#ffff00" stroke-width="2" points="24171.5,-314 24110.5,-314 24110.5,-276 24171.5,-276 24171.5,-314"/>
<text text-anchor="middle" x="24141" y="-298.8" font-family="Times,serif" font-size="14.00" fill="#000000">Project</text>
<text text-anchor="middle" x="24141" y="-283.8" font-family="Times,serif" font-size="14.00" fill="#000000">[1, 3, 6]</text>
</g>
<!-- 2&#45;&gt;73 -->
<g id="edge59" class="edge">
<title>2&#45;&gt;73</title>
<path fill="none" stroke="#000000" d="M14197.1796,-367.8676C14578.8958,-365.9985 18906.019,-344.5096 22399,-314 23079.1012,-308.0596 23908.526,-297.8949 24100.1668,-295.5109"/>
<polygon fill="#000000" stroke="#000000" points="24100.3912,-299.0085 24110.3468,-295.3841 24100.3039,-292.009 24100.3912,-299.0085"/>
</g>
<!-- 78 -->
<g id="node64" class="node">
<title>78</title>
<polygon fill="none" stroke="#ffff00" stroke-width="2" points="25963.5,-314 25902.5,-314 25902.5,-276 25963.5,-276 25963.5,-314"/>
<text text-anchor="middle" x="25933" y="-298.8" font-family="Times,serif" font-size="14.00" fill="#000000">Project</text>
<text text-anchor="middle" x="25933" y="-283.8" font-family="Times,serif" font-size="14.00" fill="#000000">[1, 3, 6]</text>
</g>
<!-- 2&#45;&gt;78 -->
<g id="edge63" class="edge">
<title>2&#45;&gt;78</title>
<path fill="none" stroke="#000000" d="M14197.281,-367.9108C14621.627,-366.5108 19912.5774,-348.6366 24180,-314 24864.7721,-308.442 25699.9695,-297.9772 25892.2241,-295.524"/>
<polygon fill="#000000" stroke="#000000" points="25892.4789,-299.0211 25902.4334,-295.3935 25892.3894,-292.0217 25892.4789,-299.0211"/>
</g>
<!-- 4 -->
<g id="node5" class="node">
<title>4</title>
<polygon fill="none" stroke="#ffff00" stroke-width="2" points="1361.5,-240 1262.5,-240 1262.5,-187 1361.5,-187 1361.5,-240"/>
<text text-anchor="middle" x="1312" y="-224.8" font-family="Times,serif" font-size="14.00" fill="#000000">RightBindJoin </text>
<text text-anchor="middle" x="1312" y="-209.8" font-family="Times,serif" font-size="14.00" fill="#000000">[0, 1]</text>
<text text-anchor="middle" x="1312" y="-194.8" font-family="Times,serif" font-size="14.00" fill="#000000">3</text>
</g>
<!-- 3&#45;&gt;4 -->
<g id="edge4" class="edge">
<title>3&#45;&gt;4</title>
<path fill="none" stroke="#000000" d="M3004.3628,-293.5508C2801.3173,-283.9465 1649.2956,-229.4545 1372.0228,-216.3391"/>
<polygon fill="#000000" stroke="#000000" points="1371.9188,-212.8304 1361.7646,-215.8539 1371.588,-219.8226 1371.9188,-212.8304"/>
</g>
<!-- 5 -->
<g id="node6" class="node">
<title>5</title>
<polygon fill="none" stroke="#ffff00" stroke-width="2" points="822,-128.5 0,-128.5 0,-45.5 822,-45.5 822,-128.5"/>
<text text-anchor="middle" x="411" y="-113.3" font-family="Times,serif" font-size="14.00" fill="#000000">SQLQuery</text>
<text text-anchor="middle" x="411" y="-98.3" font-family="Times,serif" font-size="14.00" fill="#000000">SELECT tab_183.nr, tab_183.producer, tab_185.label, tab_185.propertyNum1 </text>
<text text-anchor="middle" x="411" y="-83.3" font-family="Times,serif" font-size="14.00" fill="#000000">FROM Product AS tab_185, PRODUCT AS tab_183, PRODUCTTYPEPRODUCT AS tab_184 &#160;</text>
<text text-anchor="middle" x="411" y="-68.3" font-family="Times,serif" font-size="14.00" fill="#000000">WHERE tab_184.producttype = 56 AND tab_184.product = tab_183.nr AND tab_183.nr = tab_185.nr AND tab_183.producer = tab_185.producer</text>
<text text-anchor="middle" x="411" y="-53.3" font-family="Times,serif" font-size="14.00" fill="#000000">46</text>
</g>
<!-- 4&#45;&gt;5 -->
<g id="edge5" class="edge">
<title>4&#45;&gt;5</title>
<path fill="none" stroke="#000000" d="M1262.4424,-207.4257C1175.1687,-196.6469 988.3845,-173.2135 831,-151 784.6345,-144.4559 735.4363,-137.2217 687.6616,-130.042"/>
<polygon fill="#000000" stroke="#000000" points="687.8997,-126.5385 677.4901,-128.5111 686.8577,-133.4606 687.8997,-126.5385"/>
</g>
<!-- 6 -->
<g id="node7" class="node">
<title>6</title>
<polygon fill="none" stroke="#ffff00" stroke-width="2" points="1784,-151 840,-151 840,-23 1784,-23 1784,-151"/>
<text text-anchor="middle" x="1312" y="-135.8" font-family="Times,serif" font-size="14.00" fill="#000000">PhyMongoDBEval</text>
<text text-anchor="middle" x="1312" y="-120.8" font-family="Times,serif" font-size="14.00" fill="#000000">countrytype</text>
<text text-anchor="middle" x="1312" y="-105.8" font-family="Times,serif" font-size="14.00" fill="#000000">[{&quot;$match&quot;:{&quot;countrytype&quot;:122}},</text>
<text text-anchor="middle" x="1312" y="-90.8" font-family="Times,serif" font-size="14.00" fill="#000000">{$lookup: { from: &quot;productproducercountry&quot;, let: { &quot;country&quot;: &quot;$country&quot;}, pipeline: [ { $match: {$expr: {$eq: [&quot;$$country&quot;, &quot;$country&quot;] } } } ], as: &quot;mongojoin12&quot;}},</text>
<text text-anchor="middle" x="1312" y="-75.8" font-family="Times,serif" font-size="14.00" fill="#000000">{$unwind: &quot;$mongojoin12&quot;},</text>
<text text-anchor="middle" x="1312" y="-60.8" font-family="Times,serif" font-size="14.00" fill="#000000">{ &quot;$match&quot;: { &quot;mongojoin12.nr&quot;: %s, &quot;mongojoin12.producer&quot;: %s } }]</text>
<text text-anchor="middle" x="1312" y="-45.8" font-family="Times,serif" font-size="14.00" fill="#000000">[mongojoin12.nr, mongojoin12.producer, mongojoin12.country]</text>
<text text-anchor="middle" x="1312" y="-30.8" font-family="Times,serif" font-size="14.00" fill="#000000">3</text>
</g>
<!-- 4&#45;&gt;6 -->
<g id="edge6" class="edge">
<title>4&#45;&gt;6</title>
<path fill="none" stroke="#000000" d="M1312,-186.9815C1312,-179.2136 1312,-170.3145 1312,-161.0988"/>
<polygon fill="#000000" stroke="#000000" points="1315.5001,-161.0129 1312,-151.0129 1308.5001,-161.0129 1315.5001,-161.0129"/>
</g>
<!-- 9 -->
<g id="node9" class="node">
<title>9</title>
<polygon fill="none" stroke="#ffff00" stroke-width="2" points="3163.5,-240 3064.5,-240 3064.5,-187 3163.5,-187 3163.5,-240"/>
<text text-anchor="middle" x="3114" y="-224.8" font-family="Times,serif" font-size="14.00" fill="#000000">RightBindJoin </text>
<text text-anchor="middle" x="3114" y="-209.8" font-family="Times,serif" font-size="14.00" fill="#000000">[0, 1]</text>
<text text-anchor="middle" x="3114" y="-194.8" font-family="Times,serif" font-size="14.00" fill="#000000">19</text>
</g>
<!-- 8&#45;&gt;9 -->
<g id="edge8" class="edge">
<title>8&#45;&gt;9</title>
<path fill="none" stroke="#000000" d="M3944.3566,-292.0994C3818.8449,-280.2188 3342.7088,-235.149 3173.8392,-219.1642"/>
<polygon fill="#000000" stroke="#000000" points="3173.9277,-215.657 3163.6423,-218.199 3173.268,-222.6259 3173.9277,-215.657"/>
</g>
<!-- 10 -->
<g id="node10" class="node">
<title>10</title>
<polygon fill="none" stroke="#ffff00" stroke-width="2" points="2624,-128.5 1802,-128.5 1802,-45.5 2624,-45.5 2624,-128.5"/>
<text text-anchor="middle" x="2213" y="-113.3" font-family="Times,serif" font-size="14.00" fill="#000000">SQLQuery</text>
<text text-anchor="middle" x="2213" y="-98.3" font-family="Times,serif" font-size="14.00" fill="#000000">SELECT tab_186.nr, tab_186.producer, tab_188.label, tab_188.propertyNum1 </text>
<text text-anchor="middle" x="2213" y="-83.3" font-family="Times,serif" font-size="14.00" fill="#000000">FROM PRODUCTTYPEPRODUCT AS tab_187, PRODUCT AS tab_186, Product AS tab_188 &#160;</text>
<text text-anchor="middle" x="2213" y="-68.3" font-family="Times,serif" font-size="14.00" fill="#000000">WHERE tab_187.producttype = 56 AND tab_187.product = tab_186.nr AND tab_186.producer = tab_188.producer AND tab_186.nr = tab_188.nr</text>
<text text-anchor="middle" x="2213" y="-53.3" font-family="Times,serif" font-size="14.00" fill="#000000">46</text>
</g>
<!-- 9&#45;&gt;10 -->
<g id="edge9" class="edge">
<title>9&#45;&gt;10</title>
<path fill="none" stroke="#000000" d="M3064.4424,-207.4257C2977.1687,-196.6469 2790.3845,-173.2135 2633,-151 2586.6345,-144.4559 2537.4363,-137.2217 2489.6616,-130.042"/>
<polygon fill="#000000" stroke="#000000" points="2489.8997,-126.5385 2479.4901,-128.5111 2488.8577,-133.4606 2489.8997,-126.5385"/>
</g>
<!-- 11 -->
<g id="node11" class="node">
<title>11</title>
<polygon fill="none" stroke="#ffff00" stroke-width="2" points="3586,-151 2642,-151 2642,-23 3586,-23 3586,-151"/>
<text text-anchor="middle" x="3114" y="-135.8" font-family="Times,serif" font-size="14.00" fill="#000000">PhyMongoDBEval</text>
<text text-anchor="middle" x="3114" y="-120.8" font-family="Times,serif" font-size="14.00" fill="#000000">countrytype</text>
<text text-anchor="middle" x="3114" y="-105.8" font-family="Times,serif" font-size="14.00" fill="#000000">[{&quot;$match&quot;:{&quot;countrytype&quot;:112}},</text>
<text text-anchor="middle" x="3114" y="-90.8" font-family="Times,serif" font-size="14.00" fill="#000000">{$lookup: { from: &quot;productproducercountry&quot;, let: { &quot;country&quot;: &quot;$country&quot;}, pipeline: [ { $match: {$expr: {$eq: [&quot;$$country&quot;, &quot;$country&quot;] } } } ], as: &quot;mongojoin13&quot;}},</text>
<text text-anchor="middle" x="3114" y="-75.8" font-family="Times,serif" font-size="14.00" fill="#000000">{$unwind: &quot;$mongojoin13&quot;},</text>
<text text-anchor="middle" x="3114" y="-60.8" font-family="Times,serif" font-size="14.00" fill="#000000">{ &quot;$match&quot;: { &quot;mongojoin13.nr&quot;: %s, &quot;mongojoin13.producer&quot;: %s } }]</text>
<text text-anchor="middle" x="3114" y="-45.8" font-family="Times,serif" font-size="14.00" fill="#000000">[mongojoin13.nr, mongojoin13.producer, mongojoin13.country]</text>
<text text-anchor="middle" x="3114" y="-30.8" font-family="Times,serif" font-size="14.00" fill="#000000">19</text>
</g>
<!-- 9&#45;&gt;11 -->
<g id="edge10" class="edge">
<title>9&#45;&gt;11</title>
<path fill="none" stroke="#000000" d="M3114,-186.9815C3114,-179.2136 3114,-170.3145 3114,-161.0988"/>
<polygon fill="#000000" stroke="#000000" points="3117.5001,-161.0129 3114,-151.0129 3110.5001,-161.0129 3117.5001,-161.0129"/>
</g>
<!-- 14 -->
<g id="node13" class="node">
<title>14</title>
<polygon fill="none" stroke="#ffff00" stroke-width="2" points="4965.5,-240 4866.5,-240 4866.5,-187 4965.5,-187 4965.5,-240"/>
<text text-anchor="middle" x="4916" y="-224.8" font-family="Times,serif" font-size="14.00" fill="#000000">RightBindJoin </text>
<text text-anchor="middle" x="4916" y="-209.8" font-family="Times,serif" font-size="14.00" fill="#000000">[0, 2]</text>
<text text-anchor="middle" x="4916" y="-194.8" font-family="Times,serif" font-size="14.00" fill="#000000">11</text>
</g>
<!-- 13&#45;&gt;14 -->
<g id="edge12" class="edge">
<title>13&#45;&gt;14</title>
<path fill="none" stroke="#000000" d="M5746.3566,-292.0994C5620.8449,-280.2188 5144.7088,-235.149 4975.8392,-219.1642"/>
<polygon fill="#000000" stroke="#000000" points="4975.9277,-215.657 4965.6423,-218.199 4975.268,-222.6259 4975.9277,-215.657"/>
</g>
<!-- 15 -->
<g id="node14" class="node">
<title>15</title>
<polygon fill="none" stroke="#ffff00" stroke-width="2" points="4426,-128.5 3604,-128.5 3604,-45.5 4426,-45.5 4426,-128.5"/>
<text text-anchor="middle" x="4015" y="-113.3" font-family="Times,serif" font-size="14.00" fill="#000000">SQLQuery</text>
<text text-anchor="middle" x="4015" y="-98.3" font-family="Times,serif" font-size="14.00" fill="#000000">SELECT tab_159.nr, tab_159.label, tab_159.producer, tab_159.propertyNum2 </text>
<text text-anchor="middle" x="4015" y="-83.3" font-family="Times,serif" font-size="14.00" fill="#000000">FROM PRODUCT AS tab_160, Product AS tab_159, PRODUCTTYPEPRODUCT AS tab_161 &#160;</text>
<text text-anchor="middle" x="4015" y="-68.3" font-family="Times,serif" font-size="14.00" fill="#000000">WHERE tab_161.producttype = 57 AND tab_161.product = tab_160.nr AND tab_159.producer = tab_160.producer AND tab_159.nr = tab_160.nr</text>
<text text-anchor="middle" x="4015" y="-53.3" font-family="Times,serif" font-size="14.00" fill="#000000">56</text>
</g>
<!-- 14&#45;&gt;15 -->
<g id="edge13" class="edge">
<title>14&#45;&gt;15</title>
<path fill="none" stroke="#000000" d="M4866.4424,-207.4257C4779.1687,-196.6469 4592.3845,-173.2135 4435,-151 4388.6345,-144.4559 4339.4363,-137.2217 4291.6616,-130.042"/>
<polygon fill="#000000" stroke="#000000" points="4291.8997,-126.5385 4281.4901,-128.5111 4290.8577,-133.4606 4291.8997,-126.5385"/>
</g>
<!-- 16 -->
<g id="node15" class="node">
<title>16</title>
<polygon fill="none" stroke="#ffff00" stroke-width="2" points="5388,-151 4444,-151 4444,-23 5388,-23 5388,-151"/>
<text text-anchor="middle" x="4916" y="-135.8" font-family="Times,serif" font-size="14.00" fill="#000000">PhyMongoDBEval</text>
<text text-anchor="middle" x="4916" y="-120.8" font-family="Times,serif" font-size="14.00" fill="#000000">countrytype</text>
<text text-anchor="middle" x="4916" y="-105.8" font-family="Times,serif" font-size="14.00" fill="#000000">[{&quot;$match&quot;:{&quot;countrytype&quot;:121}},</text>
<text text-anchor="middle" x="4916" y="-90.8" font-family="Times,serif" font-size="14.00" fill="#000000">{$lookup: { from: &quot;productproducercountry&quot;, let: { &quot;country&quot;: &quot;$country&quot;}, pipeline: [ { $match: {$expr: {$eq: [&quot;$$country&quot;, &quot;$country&quot;] } } } ], as: &quot;mongojoin14&quot;}},</text>
<text text-anchor="middle" x="4916" y="-75.8" font-family="Times,serif" font-size="14.00" fill="#000000">{$unwind: &quot;$mongojoin14&quot;},</text>
<text text-anchor="middle" x="4916" y="-60.8" font-family="Times,serif" font-size="14.00" fill="#000000">{ &quot;$match&quot;: { &quot;mongojoin14.nr&quot;: %s, &quot;mongojoin14.producer&quot;: %s } }]</text>
<text text-anchor="middle" x="4916" y="-45.8" font-family="Times,serif" font-size="14.00" fill="#000000">[mongojoin14.nr, mongojoin14.producer, mongojoin14.country]</text>
<text text-anchor="middle" x="4916" y="-30.8" font-family="Times,serif" font-size="14.00" fill="#000000">11</text>
</g>
<!-- 14&#45;&gt;16 -->
<g id="edge14" class="edge">
<title>14&#45;&gt;16</title>
<path fill="none" stroke="#000000" d="M4916,-186.9815C4916,-179.2136 4916,-170.3145 4916,-161.0988"/>
<polygon fill="#000000" stroke="#000000" points="4919.5001,-161.0129 4916,-151.0129 4912.5001,-161.0129 4919.5001,-161.0129"/>
</g>
<!-- 19 -->
<g id="node17" class="node">
<title>19</title>
<polygon fill="none" stroke="#ffff00" stroke-width="2" points="6767.5,-240 6668.5,-240 6668.5,-187 6767.5,-187 6767.5,-240"/>
<text text-anchor="middle" x="6718" y="-224.8" font-family="Times,serif" font-size="14.00" fill="#000000">RightBindJoin </text>
<text text-anchor="middle" x="6718" y="-209.8" font-family="Times,serif" font-size="14.00" fill="#000000">[1, 0]</text>
<text text-anchor="middle" x="6718" y="-194.8" font-family="Times,serif" font-size="14.00" fill="#000000">25</text>
</g>
<!-- 18&#45;&gt;19 -->
<g id="edge16" class="edge">
<title>18&#45;&gt;19</title>
<path fill="none" stroke="#000000" d="M7548.3566,-292.0994C7422.8449,-280.2188 6946.7088,-235.149 6777.8392,-219.1642"/>
<polygon fill="#000000" stroke="#000000" points="6777.9277,-215.657 6767.6423,-218.199 6777.268,-222.6259 6777.9277,-215.657"/>
</g>
<!-- 20 -->
<g id="node18" class="node">
<title>20</title>
<polygon fill="none" stroke="#ffff00" stroke-width="2" points="6228,-128.5 5406,-128.5 5406,-45.5 6228,-45.5 6228,-128.5"/>
<text text-anchor="middle" x="5817" y="-113.3" font-family="Times,serif" font-size="14.00" fill="#000000">SQLQuery</text>
<text text-anchor="middle" x="5817" y="-98.3" font-family="Times,serif" font-size="14.00" fill="#000000">SELECT tab_153.nr, tab_153.producer, tab_155.label, tab_155.propertyNum2 </text>
<text text-anchor="middle" x="5817" y="-83.3" font-family="Times,serif" font-size="14.00" fill="#000000">FROM PRODUCTTYPEPRODUCT AS tab_154, PRODUCT AS tab_153, Product AS tab_155 &#160;</text>
<text text-anchor="middle" x="5817" y="-68.3" font-family="Times,serif" font-size="14.00" fill="#000000">WHERE tab_154.producttype = 57 AND tab_154.product = tab_153.nr AND tab_153.producer = tab_155.producer AND tab_153.nr = tab_155.nr</text>
<text text-anchor="middle" x="5817" y="-53.3" font-family="Times,serif" font-size="14.00" fill="#000000">56</text>
</g>
<!-- 19&#45;&gt;20 -->
<g id="edge17" class="edge">
<title>19&#45;&gt;20</title>
<path fill="none" stroke="#000000" d="M6668.4424,-207.4257C6581.1687,-196.6469 6394.3845,-173.2135 6237,-151 6190.6345,-144.4559 6141.4363,-137.2217 6093.6616,-130.042"/>
<polygon fill="#000000" stroke="#000000" points="6093.8997,-126.5385 6083.4901,-128.5111 6092.8577,-133.4606 6093.8997,-126.5385"/>
</g>
<!-- 21 -->
<g id="node19" class="node">
<title>21</title>
<polygon fill="none" stroke="#ffff00" stroke-width="2" points="7190,-151 6246,-151 6246,-23 7190,-23 7190,-151"/>
<text text-anchor="middle" x="6718" y="-135.8" font-family="Times,serif" font-size="14.00" fill="#000000">PhyMongoDBEval</text>
<text text-anchor="middle" x="6718" y="-120.8" font-family="Times,serif" font-size="14.00" fill="#000000">countrytype</text>
<text text-anchor="middle" x="6718" y="-105.8" font-family="Times,serif" font-size="14.00" fill="#000000">[{&quot;$match&quot;:{&quot;countrytype&quot;:112}},</text>
<text text-anchor="middle" x="6718" y="-90.8" font-family="Times,serif" font-size="14.00" fill="#000000">{$lookup: { from: &quot;productproducercountry&quot;, let: { &quot;country&quot;: &quot;$country&quot;}, pipeline: [ { $match: {$expr: {$eq: [&quot;$$country&quot;, &quot;$country&quot;] } } } ], as: &quot;mongojoin15&quot;}},</text>
<text text-anchor="middle" x="6718" y="-75.8" font-family="Times,serif" font-size="14.00" fill="#000000">{$unwind: &quot;$mongojoin15&quot;},</text>
<text text-anchor="middle" x="6718" y="-60.8" font-family="Times,serif" font-size="14.00" fill="#000000">{ &quot;$match&quot;: { &quot;mongojoin15.producer&quot;: %s, &quot;mongojoin15.nr&quot;: %s } }]</text>
<text text-anchor="middle" x="6718" y="-45.8" font-family="Times,serif" font-size="14.00" fill="#000000">[mongojoin15.nr, mongojoin15.producer, mongojoin15.country]</text>
<text text-anchor="middle" x="6718" y="-30.8" font-family="Times,serif" font-size="14.00" fill="#000000">25</text>
</g>
<!-- 19&#45;&gt;21 -->
<g id="edge18" class="edge">
<title>19&#45;&gt;21</title>
<path fill="none" stroke="#000000" d="M6718,-186.9815C6718,-179.2136 6718,-170.3145 6718,-161.0988"/>
<polygon fill="#000000" stroke="#000000" points="6721.5001,-161.0129 6718,-151.0129 6714.5001,-161.0129 6721.5001,-161.0129"/>
</g>
<!-- 24 -->
<g id="node21" class="node">
<title>24</title>
<polygon fill="none" stroke="#ffff00" stroke-width="2" points="8569.5,-240 8470.5,-240 8470.5,-187 8569.5,-187 8569.5,-240"/>
<text text-anchor="middle" x="8520" y="-224.8" font-family="Times,serif" font-size="14.00" fill="#000000">RightBindJoin </text>
<text text-anchor="middle" x="8520" y="-209.8" font-family="Times,serif" font-size="14.00" fill="#000000">[0, 2]</text>
<text text-anchor="middle" x="8520" y="-194.8" font-family="Times,serif" font-size="14.00" fill="#000000">11</text>
</g>
<!-- 23&#45;&gt;24 -->
<g id="edge20" class="edge">
<title>23&#45;&gt;24</title>
<path fill="none" stroke="#000000" d="M9350.3566,-292.0994C9224.8449,-280.2188 8748.7088,-235.149 8579.8392,-219.1642"/>
<polygon fill="#000000" stroke="#000000" points="8579.9277,-215.657 8569.6423,-218.199 8579.268,-222.6259 8579.9277,-215.657"/>
</g>
<!-- 25 -->
<g id="node22" class="node">
<title>25</title>
<polygon fill="none" stroke="#ffff00" stroke-width="2" points="8030,-128.5 7208,-128.5 7208,-45.5 8030,-45.5 8030,-128.5"/>
<text text-anchor="middle" x="7619" y="-113.3" font-family="Times,serif" font-size="14.00" fill="#000000">SQLQuery</text>
<text text-anchor="middle" x="7619" y="-98.3" font-family="Times,serif" font-size="14.00" fill="#000000">SELECT tab_165.nr, tab_165.label, tab_165.producer, tab_165.propertyNum1 </text>
<text text-anchor="middle" x="7619" y="-83.3" font-family="Times,serif" font-size="14.00" fill="#000000">FROM PRODUCTTYPEPRODUCT AS tab_167, PRODUCT AS tab_166, Product AS tab_165 &#160;</text>
<text text-anchor="middle" x="7619" y="-68.3" font-family="Times,serif" font-size="14.00" fill="#000000">WHERE tab_167.producttype = 57 AND tab_167.product = tab_166.nr AND tab_165.producer = tab_166.producer AND tab_165.nr = tab_166.nr</text>
<text text-anchor="middle" x="7619" y="-53.3" font-family="Times,serif" font-size="14.00" fill="#000000">56</text>
</g>
<!-- 24&#45;&gt;25 -->
<g id="edge21" class="edge">
<title>24&#45;&gt;25</title>
<path fill="none" stroke="#000000" d="M8470.4424,-207.4257C8383.1687,-196.6469 8196.3845,-173.2135 8039,-151 7992.6345,-144.4559 7943.4363,-137.2217 7895.6616,-130.042"/>
<polygon fill="#000000" stroke="#000000" points="7895.8997,-126.5385 7885.4901,-128.5111 7894.8577,-133.4606 7895.8997,-126.5385"/>
</g>
<!-- 26 -->
<g id="node23" class="node">
<title>26</title>
<polygon fill="none" stroke="#ffff00" stroke-width="2" points="8992,-151 8048,-151 8048,-23 8992,-23 8992,-151"/>
<text text-anchor="middle" x="8520" y="-135.8" font-family="Times,serif" font-size="14.00" fill="#000000">PhyMongoDBEval</text>
<text text-anchor="middle" x="8520" y="-120.8" font-family="Times,serif" font-size="14.00" fill="#000000">countrytype</text>
<text text-anchor="middle" x="8520" y="-105.8" font-family="Times,serif" font-size="14.00" fill="#000000">[{&quot;$match&quot;:{&quot;countrytype&quot;:121}},</text>
<text text-anchor="middle" x="8520" y="-90.8" font-family="Times,serif" font-size="14.00" fill="#000000">{$lookup: { from: &quot;productproducercountry&quot;, let: { &quot;country&quot;: &quot;$country&quot;}, pipeline: [ { $match: {$expr: {$eq: [&quot;$$country&quot;, &quot;$country&quot;] } } } ], as: &quot;mongojoin16&quot;}},</text>
<text text-anchor="middle" x="8520" y="-75.8" font-family="Times,serif" font-size="14.00" fill="#000000">{$unwind: &quot;$mongojoin16&quot;},</text>
<text text-anchor="middle" x="8520" y="-60.8" font-family="Times,serif" font-size="14.00" fill="#000000">{ &quot;$match&quot;: { &quot;mongojoin16.nr&quot;: %s, &quot;mongojoin16.producer&quot;: %s } }]</text>
<text text-anchor="middle" x="8520" y="-45.8" font-family="Times,serif" font-size="14.00" fill="#000000">[mongojoin16.nr, mongojoin16.producer, mongojoin16.country]</text>
<text text-anchor="middle" x="8520" y="-30.8" font-family="Times,serif" font-size="14.00" fill="#000000">11</text>
</g>
<!-- 24&#45;&gt;26 -->
<g id="edge22" class="edge">
<title>24&#45;&gt;26</title>
<path fill="none" stroke="#000000" d="M8520,-186.9815C8520,-179.2136 8520,-170.3145 8520,-161.0988"/>
<polygon fill="#000000" stroke="#000000" points="8523.5001,-161.0129 8520,-151.0129 8516.5001,-161.0129 8523.5001,-161.0129"/>
</g>
<!-- 29 -->
<g id="node25" class="node">
<title>29</title>
<polygon fill="none" stroke="#ffff00" stroke-width="2" points="10371.5,-240 10272.5,-240 10272.5,-187 10371.5,-187 10371.5,-240"/>
<text text-anchor="middle" x="10322" y="-224.8" font-family="Times,serif" font-size="14.00" fill="#000000">RightBindJoin </text>
<text text-anchor="middle" x="10322" y="-209.8" font-family="Times,serif" font-size="14.00" fill="#000000">[0, 1]</text>
<text text-anchor="middle" x="10322" y="-194.8" font-family="Times,serif" font-size="14.00" fill="#000000">3</text>
</g>
<!-- 28&#45;&gt;29 -->
<g id="edge24" class="edge">
<title>28&#45;&gt;29</title>
<path fill="none" stroke="#000000" d="M11152.3566,-292.0994C11026.8449,-280.2188 10550.7088,-235.149 10381.8392,-219.1642"/>
<polygon fill="#000000" stroke="#000000" points="10381.9277,-215.657 10371.6423,-218.199 10381.268,-222.6259 10381.9277,-215.657"/>
</g>
<!-- 30 -->
<g id="node26" class="node">
<title>30</title>
<polygon fill="none" stroke="#ffff00" stroke-width="2" points="9832,-128.5 9010,-128.5 9010,-45.5 9832,-45.5 9832,-128.5"/>
<text text-anchor="middle" x="9421" y="-113.3" font-family="Times,serif" font-size="14.00" fill="#000000">SQLQuery</text>
<text text-anchor="middle" x="9421" y="-98.3" font-family="Times,serif" font-size="14.00" fill="#000000">SELECT tab_189.nr, tab_189.producer, tab_191.label, tab_191.propertyNum2 </text>
<text text-anchor="middle" x="9421" y="-83.3" font-family="Times,serif" font-size="14.00" fill="#000000">FROM Product AS tab_191, PRODUCT AS tab_189, PRODUCTTYPEPRODUCT AS tab_190 &#160;</text>
<text text-anchor="middle" x="9421" y="-68.3" font-family="Times,serif" font-size="14.00" fill="#000000">WHERE tab_190.producttype = 56 AND tab_190.product = tab_189.nr AND tab_189.producer = tab_191.producer AND tab_189.nr = tab_191.nr</text>
<text text-anchor="middle" x="9421" y="-53.3" font-family="Times,serif" font-size="14.00" fill="#000000">46</text>
</g>
<!-- 29&#45;&gt;30 -->
<g id="edge25" class="edge">
<title>29&#45;&gt;30</title>
<path fill="none" stroke="#000000" d="M10272.4424,-207.4257C10185.1687,-196.6469 9998.3845,-173.2135 9841,-151 9794.6345,-144.4559 9745.4363,-137.2217 9697.6616,-130.042"/>
<polygon fill="#000000" stroke="#000000" points="9697.8997,-126.5385 9687.4901,-128.5111 9696.8577,-133.4606 9697.8997,-126.5385"/>
</g>
<!-- 31 -->
<g id="node27" class="node">
<title>31</title>
<polygon fill="none" stroke="#ffff00" stroke-width="2" points="10794,-151 9850,-151 9850,-23 10794,-23 10794,-151"/>
<text text-anchor="middle" x="10322" y="-135.8" font-family="Times,serif" font-size="14.00" fill="#000000">PhyMongoDBEval</text>
<text text-anchor="middle" x="10322" y="-120.8" font-family="Times,serif" font-size="14.00" fill="#000000">countrytype</text>
<text text-anchor="middle" x="10322" y="-105.8" font-family="Times,serif" font-size="14.00" fill="#000000">[{&quot;$match&quot;:{&quot;countrytype&quot;:122}},</text>
<text text-anchor="middle" x="10322" y="-90.8" font-family="Times,serif" font-size="14.00" fill="#000000">{$lookup: { from: &quot;productproducercountry&quot;, let: { &quot;country&quot;: &quot;$country&quot;}, pipeline: [ { $match: {$expr: {$eq: [&quot;$$country&quot;, &quot;$country&quot;] } } } ], as: &quot;mongojoin17&quot;}},</text>
<text text-anchor="middle" x="10322" y="-75.8" font-family="Times,serif" font-size="14.00" fill="#000000">{$unwind: &quot;$mongojoin17&quot;},</text>
<text text-anchor="middle" x="10322" y="-60.8" font-family="Times,serif" font-size="14.00" fill="#000000">{ &quot;$match&quot;: { &quot;mongojoin17.nr&quot;: %s, &quot;mongojoin17.producer&quot;: %s } }]</text>
<text text-anchor="middle" x="10322" y="-45.8" font-family="Times,serif" font-size="14.00" fill="#000000">[mongojoin17.nr, mongojoin17.producer, mongojoin17.country]</text>
<text text-anchor="middle" x="10322" y="-30.8" font-family="Times,serif" font-size="14.00" fill="#000000">3</text>
</g>
<!-- 29&#45;&gt;31 -->
<g id="edge26" class="edge">
<title>29&#45;&gt;31</title>
<path fill="none" stroke="#000000" d="M10322,-186.9815C10322,-179.2136 10322,-170.3145 10322,-161.0988"/>
<polygon fill="#000000" stroke="#000000" points="10325.5001,-161.0129 10322,-151.0129 10318.5001,-161.0129 10325.5001,-161.0129"/>
</g>
<!-- 34 -->
<g id="node29" class="node">
<title>34</title>
<polygon fill="none" stroke="#ffff00" stroke-width="2" points="12173.5,-240 12074.5,-240 12074.5,-187 12173.5,-187 12173.5,-240"/>
<text text-anchor="middle" x="12124" y="-224.8" font-family="Times,serif" font-size="14.00" fill="#000000">RightBindJoin </text>
<text text-anchor="middle" x="12124" y="-209.8" font-family="Times,serif" font-size="14.00" fill="#000000">[0, 2]</text>
<text text-anchor="middle" x="12124" y="-194.8" font-family="Times,serif" font-size="14.00" fill="#000000">10</text>
</g>
<!-- 33&#45;&gt;34 -->
<g id="edge28" class="edge">
<title>33&#45;&gt;34</title>
<path fill="none" stroke="#000000" d="M12954.3566,-292.0994C12828.8449,-280.2188 12352.7088,-235.149 12183.8392,-219.1642"/>
<polygon fill="#000000" stroke="#000000" points="12183.9277,-215.657 12173.6423,-218.199 12183.268,-222.6259 12183.9277,-215.657"/>
</g>
<!-- 35 -->
<g id="node30" class="node">
<title>35</title>
<polygon fill="none" stroke="#ffff00" stroke-width="2" points="11634,-128.5 10812,-128.5 10812,-45.5 11634,-45.5 11634,-128.5"/>
<text text-anchor="middle" x="11223" y="-113.3" font-family="Times,serif" font-size="14.00" fill="#000000">SQLQuery</text>
<text text-anchor="middle" x="11223" y="-98.3" font-family="Times,serif" font-size="14.00" fill="#000000">SELECT tab_156.nr, tab_156.label, tab_156.producer, tab_156.propertyNum2 </text>
<text text-anchor="middle" x="11223" y="-83.3" font-family="Times,serif" font-size="14.00" fill="#000000">FROM PRODUCT AS tab_157, PRODUCTTYPEPRODUCT AS tab_158, Product AS tab_156 &#160;</text>
<text text-anchor="middle" x="11223" y="-68.3" font-family="Times,serif" font-size="14.00" fill="#000000">WHERE tab_158.producttype = 57 AND tab_158.product = tab_157.nr AND tab_156.producer = tab_157.producer AND tab_156.nr = tab_157.nr</text>
<text text-anchor="middle" x="11223" y="-53.3" font-family="Times,serif" font-size="14.00" fill="#000000">56</text>
</g>
<!-- 34&#45;&gt;35 -->
<g id="edge29" class="edge">
<title>34&#45;&gt;35</title>
<path fill="none" stroke="#000000" d="M12074.4424,-207.4257C11987.1687,-196.6469 11800.3845,-173.2135 11643,-151 11596.6345,-144.4559 11547.4363,-137.2217 11499.6616,-130.042"/>
<polygon fill="#000000" stroke="#000000" points="11499.8997,-126.5385 11489.4901,-128.5111 11498.8577,-133.4606 11499.8997,-126.5385"/>
</g>
<!-- 36 -->
<g id="node31" class="node">
<title>36</title>
<polygon fill="none" stroke="#ffff00" stroke-width="2" points="12596,-151 11652,-151 11652,-23 12596,-23 12596,-151"/>
<text text-anchor="middle" x="12124" y="-135.8" font-family="Times,serif" font-size="14.00" fill="#000000">PhyMongoDBEval</text>
<text text-anchor="middle" x="12124" y="-120.8" font-family="Times,serif" font-size="14.00" fill="#000000">countrytype</text>
<text text-anchor="middle" x="12124" y="-105.8" font-family="Times,serif" font-size="14.00" fill="#000000">[{&quot;$match&quot;:{&quot;countrytype&quot;:122}},</text>
<text text-anchor="middle" x="12124" y="-90.8" font-family="Times,serif" font-size="14.00" fill="#000000">{$lookup: { from: &quot;productproducercountry&quot;, let: { &quot;country&quot;: &quot;$country&quot;}, pipeline: [ { $match: {$expr: {$eq: [&quot;$$country&quot;, &quot;$country&quot;] } } } ], as: &quot;mongojoin18&quot;}},</text>
<text text-anchor="middle" x="12124" y="-75.8" font-family="Times,serif" font-size="14.00" fill="#000000">{$unwind: &quot;$mongojoin18&quot;},</text>
<text text-anchor="middle" x="12124" y="-60.8" font-family="Times,serif" font-size="14.00" fill="#000000">{ &quot;$match&quot;: { &quot;mongojoin18.nr&quot;: %s, &quot;mongojoin18.producer&quot;: %s } }]</text>
<text text-anchor="middle" x="12124" y="-45.8" font-family="Times,serif" font-size="14.00" fill="#000000">[mongojoin18.nr, mongojoin18.producer, mongojoin18.country]</text>
<text text-anchor="middle" x="12124" y="-30.8" font-family="Times,serif" font-size="14.00" fill="#000000">10</text>
</g>
<!-- 34&#45;&gt;36 -->
<g id="edge30" class="edge">
<title>34&#45;&gt;36</title>
<path fill="none" stroke="#000000" d="M12124,-186.9815C12124,-179.2136 12124,-170.3145 12124,-161.0988"/>
<polygon fill="#000000" stroke="#000000" points="12127.5001,-161.0129 12124,-151.0129 12120.5001,-161.0129 12127.5001,-161.0129"/>
</g>
<!-- 39 -->
<g id="node33" class="node">
<title>39</title>
<polygon fill="none" stroke="#ffff00" stroke-width="2" points="13975.5,-240 13876.5,-240 13876.5,-187 13975.5,-187 13975.5,-240"/>
<text text-anchor="middle" x="13926" y="-224.8" font-family="Times,serif" font-size="14.00" fill="#000000">RightBindJoin </text>
<text text-anchor="middle" x="13926" y="-209.8" font-family="Times,serif" font-size="14.00" fill="#000000">[1, 0]</text>
<text text-anchor="middle" x="13926" y="-194.8" font-family="Times,serif" font-size="14.00" fill="#000000">11</text>
</g>
<!-- 38&#45;&gt;39 -->
<g id="edge32" class="edge">
<title>38&#45;&gt;39</title>
<path fill="none" stroke="#000000" d="M14100.3094,-282.7986C14069.9335,-270.7223 14022.6486,-251.9237 13984.9874,-236.9511"/>
<polygon fill="#000000" stroke="#000000" points="13986.2216,-233.6754 13975.636,-233.2333 13983.6355,-240.1802 13986.2216,-233.6754"/>
</g>
<!-- 40 -->
<g id="node34" class="node">
<title>40</title>
<polygon fill="none" stroke="#ffff00" stroke-width="2" points="13436,-128.5 12614,-128.5 12614,-45.5 13436,-45.5 13436,-128.5"/>
<text text-anchor="middle" x="13025" y="-113.3" font-family="Times,serif" font-size="14.00" fill="#000000">SQLQuery</text>
<text text-anchor="middle" x="13025" y="-98.3" font-family="Times,serif" font-size="14.00" fill="#000000">SELECT tab_174.nr, tab_174.producer, tab_176.label, tab_176.propertyNum1 </text>
<text text-anchor="middle" x="13025" y="-83.3" font-family="Times,serif" font-size="14.00" fill="#000000">FROM PRODUCTTYPEPRODUCT AS tab_175, PRODUCT AS tab_174, Product AS tab_176 &#160;</text>
<text text-anchor="middle" x="13025" y="-68.3" font-family="Times,serif" font-size="14.00" fill="#000000">WHERE tab_175.producttype = 57 AND tab_175.product = tab_174.nr AND tab_174.producer = tab_176.producer AND tab_174.nr = tab_176.nr</text>
<text text-anchor="middle" x="13025" y="-53.3" font-family="Times,serif" font-size="14.00" fill="#000000">56</text>
</g>
<!-- 39&#45;&gt;40 -->
<g id="edge33" class="edge">
<title>39&#45;&gt;40</title>
<path fill="none" stroke="#000000" d="M13876.4424,-207.4257C13789.1687,-196.6469 13602.3845,-173.2135 13445,-151 13398.6345,-144.4559 13349.4363,-137.2217 13301.6616,-130.042"/>
<polygon fill="#000000" stroke="#000000" points="13301.8997,-126.5385 13291.4901,-128.5111 13300.8577,-133.4606 13301.8997,-126.5385"/>
</g>
<!-- 41 -->
<g id="node35" class="node">
<title>41</title>
<polygon fill="none" stroke="#ffff00" stroke-width="2" points="14398,-151 13454,-151 13454,-23 14398,-23 14398,-151"/>
<text text-anchor="middle" x="13926" y="-135.8" font-family="Times,serif" font-size="14.00" fill="#000000">PhyMongoDBEval</text>
<text text-anchor="middle" x="13926" y="-120.8" font-family="Times,serif" font-size="14.00" fill="#000000">countrytype</text>
<text text-anchor="middle" x="13926" y="-105.8" font-family="Times,serif" font-size="14.00" fill="#000000">[{&quot;$match&quot;:{&quot;countrytype&quot;:111}},</text>
<text text-anchor="middle" x="13926" y="-90.8" font-family="Times,serif" font-size="14.00" fill="#000000">{$lookup: { from: &quot;productproducercountry&quot;, let: { &quot;country&quot;: &quot;$country&quot;}, pipeline: [ { $match: {$expr: {$eq: [&quot;$$country&quot;, &quot;$country&quot;] } } } ], as: &quot;mongojoin19&quot;}},</text>
<text text-anchor="middle" x="13926" y="-75.8" font-family="Times,serif" font-size="14.00" fill="#000000">{$unwind: &quot;$mongojoin19&quot;},</text>
<text text-anchor="middle" x="13926" y="-60.8" font-family="Times,serif" font-size="14.00" fill="#000000">{ &quot;$match&quot;: { &quot;mongojoin19.producer&quot;: %s, &quot;mongojoin19.nr&quot;: %s } }]</text>
<text text-anchor="middle" x="13926" y="-45.8" font-family="Times,serif" font-size="14.00" fill="#000000">[mongojoin19.nr, mongojoin19.producer, mongojoin19.country]</text>
<text text-anchor="middle" x="13926" y="-30.8" font-family="Times,serif" font-size="14.00" fill="#000000">11</text>
</g>
<!-- 39&#45;&gt;41 -->
<g id="edge34" class="edge">
<title>39&#45;&gt;41</title>
<path fill="none" stroke="#000000" d="M13926,-186.9815C13926,-179.2136 13926,-170.3145 13926,-161.0988"/>
<polygon fill="#000000" stroke="#000000" points="13929.5001,-161.0129 13926,-151.0129 13922.5001,-161.0129 13929.5001,-161.0129"/>
</g>
<!-- 44 -->
<g id="node37" class="node">
<title>44</title>
<polygon fill="none" stroke="#ffff00" stroke-width="2" points="14876.5,-240 14777.5,-240 14777.5,-187 14876.5,-187 14876.5,-240"/>
<text text-anchor="middle" x="14827" y="-224.8" font-family="Times,serif" font-size="14.00" fill="#000000">RightBindJoin </text>
<text text-anchor="middle" x="14827" y="-209.8" font-family="Times,serif" font-size="14.00" fill="#000000">[0, 2]</text>
<text text-anchor="middle" x="14827" y="-194.8" font-family="Times,serif" font-size="14.00" fill="#000000">25</text>
</g>
<!-- 43&#45;&gt;44 -->
<g id="edge36" class="edge">
<title>43&#45;&gt;44</title>
<path fill="none" stroke="#000000" d="M14651.8403,-282.7986C14682.3644,-270.7223 14729.8799,-251.9237 14767.7249,-236.9511"/>
<polygon fill="#000000" stroke="#000000" points="14769.1108,-240.1668 14777.1219,-233.2333 14766.5355,-233.6577 14769.1108,-240.1668"/>
</g>
<!-- 45 -->
<g id="node38" class="node">
<title>45</title>
<polygon fill="none" stroke="#ffff00" stroke-width="2" points="15238,-128.5 14416,-128.5 14416,-45.5 15238,-45.5 15238,-128.5"/>
<text text-anchor="middle" x="14827" y="-113.3" font-family="Times,serif" font-size="14.00" fill="#000000">SQLQuery</text>
<text text-anchor="middle" x="14827" y="-98.3" font-family="Times,serif" font-size="14.00" fill="#000000">SELECT tab_180.nr, tab_180.label, tab_180.producer, tab_180.propertyNum1 </text>
<text text-anchor="middle" x="14827" y="-83.3" font-family="Times,serif" font-size="14.00" fill="#000000">FROM Product AS tab_180, PRODUCT AS tab_181, PRODUCTTYPEPRODUCT AS tab_182 &#160;</text>
<text text-anchor="middle" x="14827" y="-68.3" font-family="Times,serif" font-size="14.00" fill="#000000">WHERE tab_182.producttype = 57 AND tab_182.product = tab_181.nr AND tab_180.producer = tab_181.producer AND tab_180.nr = tab_181.nr</text>
<text text-anchor="middle" x="14827" y="-53.3" font-family="Times,serif" font-size="14.00" fill="#000000">56</text>
</g>
<!-- 44&#45;&gt;45 -->
<g id="edge37" class="edge">
<title>44&#45;&gt;45</title>
<path fill="none" stroke="#000000" d="M14827,-186.9815C14827,-173.0622 14827,-155.511 14827,-139.0135"/>
<polygon fill="#000000" stroke="#000000" points="14830.5001,-138.9195 14827,-128.9195 14823.5001,-138.9196 14830.5001,-138.9195"/>
</g>
<!-- 46 -->
<g id="node39" class="node">
<title>46</title>
<polygon fill="none" stroke="#ffff00" stroke-width="2" points="16200,-151 15256,-151 15256,-23 16200,-23 16200,-151"/>
<text text-anchor="middle" x="15728" y="-135.8" font-family="Times,serif" font-size="14.00" fill="#000000">PhyMongoDBEval</text>
<text text-anchor="middle" x="15728" y="-120.8" font-family="Times,serif" font-size="14.00" fill="#000000">countrytype</text>
<text text-anchor="middle" x="15728" y="-105.8" font-family="Times,serif" font-size="14.00" fill="#000000">[{&quot;$match&quot;:{&quot;countrytype&quot;:112}},</text>
<text text-anchor="middle" x="15728" y="-90.8" font-family="Times,serif" font-size="14.00" fill="#000000">{$lookup: { from: &quot;productproducercountry&quot;, let: { &quot;country&quot;: &quot;$country&quot;}, pipeline: [ { $match: {$expr: {$eq: [&quot;$$country&quot;, &quot;$country&quot;] } } } ], as: &quot;mongojoin20&quot;}},</text>
<text text-anchor="middle" x="15728" y="-75.8" font-family="Times,serif" font-size="14.00" fill="#000000">{$unwind: &quot;$mongojoin20&quot;},</text>
<text text-anchor="middle" x="15728" y="-60.8" font-family="Times,serif" font-size="14.00" fill="#000000">{ &quot;$match&quot;: { &quot;mongojoin20.nr&quot;: %s, &quot;mongojoin20.producer&quot;: %s } }]</text>
<text text-anchor="middle" x="15728" y="-45.8" font-family="Times,serif" font-size="14.00" fill="#000000">[mongojoin20.nr, mongojoin20.producer, mongojoin20.country]</text>
<text text-anchor="middle" x="15728" y="-30.8" font-family="Times,serif" font-size="14.00" fill="#000000">25</text>
</g>
<!-- 44&#45;&gt;46 -->
<g id="edge38" class="edge">
<title>44&#45;&gt;46</title>
<path fill="none" stroke="#000000" d="M14876.7251,-206.5186C14952.8939,-195.8246 15106.0617,-174.3199 15261.7419,-152.4624"/>
<polygon fill="#000000" stroke="#000000" points="15262.5829,-155.8788 15271.9991,-151.0223 15261.6096,-148.9468 15262.5829,-155.8788"/>
</g>
<!-- 49 -->
<g id="node41" class="node">
<title>49</title>
<polygon fill="none" stroke="#ffff00" stroke-width="2" points="16678.5,-240 16579.5,-240 16579.5,-187 16678.5,-187 16678.5,-240"/>
<text text-anchor="middle" x="16629" y="-224.8" font-family="Times,serif" font-size="14.00" fill="#000000">RightBindJoin </text>
<text text-anchor="middle" x="16629" y="-209.8" font-family="Times,serif" font-size="14.00" fill="#000000">[0, 1]</text>
<text text-anchor="middle" x="16629" y="-194.8" font-family="Times,serif" font-size="14.00" fill="#000000">7</text>
</g>
<!-- 48&#45;&gt;49 -->
<g id="edge40" class="edge">
<title>48&#45;&gt;49</title>
<path fill="none" stroke="#000000" d="M15797.679,-292.0994C15923.3991,-280.2128 16400.5009,-235.104 16569.3439,-219.1403"/>
<polygon fill="#000000" stroke="#000000" points="16569.6739,-222.6248 16579.3,-218.199 16569.0149,-215.6559 16569.6739,-222.6248"/>
</g>
<!-- 50 -->
<g id="node42" class="node">
<title>50</title>
<polygon fill="none" stroke="#ffff00" stroke-width="2" points="17040,-128.5 16218,-128.5 16218,-45.5 17040,-45.5 17040,-128.5"/>
<text text-anchor="middle" x="16629" y="-113.3" font-family="Times,serif" font-size="14.00" fill="#000000">SQLQuery</text>
<text text-anchor="middle" x="16629" y="-98.3" font-family="Times,serif" font-size="14.00" fill="#000000">SELECT tab_192.nr, tab_192.producer, tab_194.label, tab_194.propertyNum1 </text>
<text text-anchor="middle" x="16629" y="-83.3" font-family="Times,serif" font-size="14.00" fill="#000000">FROM Product AS tab_194, PRODUCT AS tab_192, PRODUCTTYPEPRODUCT AS tab_193 &#160;</text>
<text text-anchor="middle" x="16629" y="-68.3" font-family="Times,serif" font-size="14.00" fill="#000000">WHERE tab_193.producttype = 56 AND tab_193.product = tab_192.nr AND tab_192.producer = tab_194.producer AND tab_192.nr = tab_194.nr</text>
<text text-anchor="middle" x="16629" y="-53.3" font-family="Times,serif" font-size="14.00" fill="#000000">46</text>
</g>
<!-- 49&#45;&gt;50 -->
<g id="edge41" class="edge">
<title>49&#45;&gt;50</title>
<path fill="none" stroke="#000000" d="M16629,-186.9815C16629,-173.0622 16629,-155.511 16629,-139.0135"/>
<polygon fill="#000000" stroke="#000000" points="16632.5001,-138.9195 16629,-128.9195 16625.5001,-138.9196 16632.5001,-138.9195"/>
</g>
<!-- 51 -->
<g id="node43" class="node">
<title>51</title>
<polygon fill="none" stroke="#ffff00" stroke-width="2" points="18002,-151 17058,-151 17058,-23 18002,-23 18002,-151"/>
<text text-anchor="middle" x="17530" y="-135.8" font-family="Times,serif" font-size="14.00" fill="#000000">PhyMongoDBEval</text>
<text text-anchor="middle" x="17530" y="-120.8" font-family="Times,serif" font-size="14.00" fill="#000000">countrytype</text>
<text text-anchor="middle" x="17530" y="-105.8" font-family="Times,serif" font-size="14.00" fill="#000000">[{&quot;$match&quot;:{&quot;countrytype&quot;:121}},</text>
<text text-anchor="middle" x="17530" y="-90.8" font-family="Times,serif" font-size="14.00" fill="#000000">{$lookup: { from: &quot;productproducercountry&quot;, let: { &quot;country&quot;: &quot;$country&quot;}, pipeline: [ { $match: {$expr: {$eq: [&quot;$$country&quot;, &quot;$country&quot;] } } } ], as: &quot;mongojoin21&quot;}},</text>
<text text-anchor="middle" x="17530" y="-75.8" font-family="Times,serif" font-size="14.00" fill="#000000">{$unwind: &quot;$mongojoin21&quot;},</text>
<text text-anchor="middle" x="17530" y="-60.8" font-family="Times,serif" font-size="14.00" fill="#000000">{ &quot;$match&quot;: { &quot;mongojoin21.nr&quot;: %s, &quot;mongojoin21.producer&quot;: %s } }]</text>
<text text-anchor="middle" x="17530" y="-45.8" font-family="Times,serif" font-size="14.00" fill="#000000">[mongojoin21.nr, mongojoin21.producer, mongojoin21.country]</text>
<text text-anchor="middle" x="17530" y="-30.8" font-family="Times,serif" font-size="14.00" fill="#000000">7</text>
</g>
<!-- 49&#45;&gt;51 -->
<g id="edge42" class="edge">
<title>49&#45;&gt;51</title>
<path fill="none" stroke="#000000" d="M16678.7251,-206.5186C16754.8939,-195.8246 16908.0617,-174.3199 17063.7419,-152.4624"/>
<polygon fill="#000000" stroke="#000000" points="17064.5829,-155.8788 17073.9991,-151.0223 17063.6096,-148.9468 17064.5829,-155.8788"/>
</g>
<!-- 54 -->
<g id="node45" class="node">
<title>54</title>
<polygon fill="none" stroke="#ffff00" stroke-width="2" points="18480.5,-240 18381.5,-240 18381.5,-187 18480.5,-187 18480.5,-240"/>
<text text-anchor="middle" x="18431" y="-224.8" font-family="Times,serif" font-size="14.00" fill="#000000">RightBindJoin </text>
<text text-anchor="middle" x="18431" y="-209.8" font-family="Times,serif" font-size="14.00" fill="#000000">[2, 0]</text>
<text text-anchor="middle" x="18431" y="-194.8" font-family="Times,serif" font-size="14.00" fill="#000000">8</text>
</g>
<!-- 53&#45;&gt;54 -->
<g id="edge44" class="edge">
<title>53&#45;&gt;54</title>
<path fill="none" stroke="#000000" d="M17271.6117,-292.9035C17429.9071,-282.0622 18156.5125,-232.2989 18371.1414,-217.5996"/>
<polygon fill="#000000" stroke="#000000" points="18371.5323,-221.0811 18381.2697,-216.9059 18371.0539,-214.0974 18371.5323,-221.0811"/>
</g>
<!-- 55 -->
<g id="node46" class="node">
<title>55</title>
<polygon fill="none" stroke="#ffff00" stroke-width="2" points="18842,-128.5 18020,-128.5 18020,-45.5 18842,-45.5 18842,-128.5"/>
<text text-anchor="middle" x="18431" y="-113.3" font-family="Times,serif" font-size="14.00" fill="#000000">SQLQuery</text>
<text text-anchor="middle" x="18431" y="-98.3" font-family="Times,serif" font-size="14.00" fill="#000000">SELECT tab_162.nr, tab_162.label, tab_162.producer, tab_162.propertyNum1 </text>
<text text-anchor="middle" x="18431" y="-83.3" font-family="Times,serif" font-size="14.00" fill="#000000">FROM PRODUCTTYPEPRODUCT AS tab_164, Product AS tab_162, PRODUCT AS tab_163 &#160;</text>
<text text-anchor="middle" x="18431" y="-68.3" font-family="Times,serif" font-size="14.00" fill="#000000">WHERE tab_164.producttype = 56 AND tab_164.product = tab_163.nr AND tab_162.producer = tab_163.producer AND tab_162.nr = tab_163.nr</text>
<text text-anchor="middle" x="18431" y="-53.3" font-family="Times,serif" font-size="14.00" fill="#000000">46</text>
</g>
<!-- 54&#45;&gt;55 -->
<g id="edge45" class="edge">
<title>54&#45;&gt;55</title>
<path fill="none" stroke="#000000" d="M18431,-186.9815C18431,-173.0622 18431,-155.511 18431,-139.0135"/>
<polygon fill="#000000" stroke="#000000" points="18434.5001,-138.9195 18431,-128.9195 18427.5001,-138.9196 18434.5001,-138.9195"/>
</g>
<!-- 56 -->
<g id="node47" class="node">
<title>56</title>
<polygon fill="none" stroke="#ffff00" stroke-width="2" points="19804,-151 18860,-151 18860,-23 19804,-23 19804,-151"/>
<text text-anchor="middle" x="19332" y="-135.8" font-family="Times,serif" font-size="14.00" fill="#000000">PhyMongoDBEval</text>
<text text-anchor="middle" x="19332" y="-120.8" font-family="Times,serif" font-size="14.00" fill="#000000">countrytype</text>
<text text-anchor="middle" x="19332" y="-105.8" font-family="Times,serif" font-size="14.00" fill="#000000">[{&quot;$match&quot;:{&quot;countrytype&quot;:111}},</text>
<text text-anchor="middle" x="19332" y="-90.8" font-family="Times,serif" font-size="14.00" fill="#000000">{$lookup: { from: &quot;productproducercountry&quot;, let: { &quot;country&quot;: &quot;$country&quot;}, pipeline: [ { $match: {$expr: {$eq: [&quot;$$country&quot;, &quot;$country&quot;] } } } ], as: &quot;mongojoin22&quot;}},</text>
<text text-anchor="middle" x="19332" y="-75.8" font-family="Times,serif" font-size="14.00" fill="#000000">{$unwind: &quot;$mongojoin22&quot;},</text>
<text text-anchor="middle" x="19332" y="-60.8" font-family="Times,serif" font-size="14.00" fill="#000000">{ &quot;$match&quot;: { &quot;mongojoin22.producer&quot;: %s, &quot;mongojoin22.nr&quot;: %s } }]</text>
<text text-anchor="middle" x="19332" y="-45.8" font-family="Times,serif" font-size="14.00" fill="#000000">[mongojoin22.nr, mongojoin22.producer, mongojoin22.country]</text>
<text text-anchor="middle" x="19332" y="-30.8" font-family="Times,serif" font-size="14.00" fill="#000000">8</text>
</g>
<!-- 54&#45;&gt;56 -->
<g id="edge46" class="edge">
<title>54&#45;&gt;56</title>
<path fill="none" stroke="#000000" d="M18480.7251,-206.5186C18556.8939,-195.8246 18710.0617,-174.3199 18865.7419,-152.4624"/>
<polygon fill="#000000" stroke="#000000" points="18866.5829,-155.8788 18875.9991,-151.0223 18865.6096,-148.9468 18866.5829,-155.8788"/>
</g>
<!-- 59 -->
<g id="node49" class="node">
<title>59</title>
<polygon fill="none" stroke="#ffff00" stroke-width="2" points="20282.5,-240 20183.5,-240 20183.5,-187 20282.5,-187 20282.5,-240"/>
<text text-anchor="middle" x="20233" y="-224.8" font-family="Times,serif" font-size="14.00" fill="#000000">RightBindJoin </text>
<text text-anchor="middle" x="20233" y="-209.8" font-family="Times,serif" font-size="14.00" fill="#000000">[2, 0]</text>
<text text-anchor="middle" x="20233" y="-194.8" font-family="Times,serif" font-size="14.00" fill="#000000">10</text>
</g>
<!-- 58&#45;&gt;59 -->
<g id="edge48" class="edge">
<title>58&#45;&gt;59</title>
<path fill="none" stroke="#000000" d="M18909.5006,-293.1641C19082.2192,-282.7678 19938.1501,-231.2476 20173.1957,-217.0997"/>
<polygon fill="#000000" stroke="#000000" points="20173.4909,-220.5884 20183.2625,-216.4938 20173.0702,-213.6011 20173.4909,-220.5884"/>
</g>
<!-- 60 -->
<g id="node50" class="node">
<title>60</title>
<polygon fill="none" stroke="#ffff00" stroke-width="2" points="20644,-128.5 19822,-128.5 19822,-45.5 20644,-45.5 20644,-128.5"/>
<text text-anchor="middle" x="20233" y="-113.3" font-family="Times,serif" font-size="14.00" fill="#000000">SQLQuery</text>
<text text-anchor="middle" x="20233" y="-98.3" font-family="Times,serif" font-size="14.00" fill="#000000">SELECT tab_168.nr, tab_168.label, tab_168.producer, tab_168.propertyNum1 </text>
<text text-anchor="middle" x="20233" y="-83.3" font-family="Times,serif" font-size="14.00" fill="#000000">FROM PRODUCT AS tab_169, PRODUCTTYPEPRODUCT AS tab_170, Product AS tab_168 &#160;</text>
<text text-anchor="middle" x="20233" y="-68.3" font-family="Times,serif" font-size="14.00" fill="#000000">WHERE tab_170.producttype = 57 AND tab_170.product = tab_169.nr AND tab_168.producer = tab_169.producer AND tab_168.nr = tab_169.nr</text>
<text text-anchor="middle" x="20233" y="-53.3" font-family="Times,serif" font-size="14.00" fill="#000000">56</text>
</g>
<!-- 59&#45;&gt;60 -->
<g id="edge49" class="edge">
<title>59&#45;&gt;60</title>
<path fill="none" stroke="#000000" d="M20233,-186.9815C20233,-173.0622 20233,-155.511 20233,-139.0135"/>
<polygon fill="#000000" stroke="#000000" points="20236.5001,-138.9195 20233,-128.9195 20229.5001,-138.9196 20236.5001,-138.9195"/>
</g>
<!-- 61 -->
<g id="node51" class="node">
<title>61</title>
<polygon fill="none" stroke="#ffff00" stroke-width="2" points="21606,-151 20662,-151 20662,-23 21606,-23 21606,-151"/>
<text text-anchor="middle" x="21134" y="-135.8" font-family="Times,serif" font-size="14.00" fill="#000000">PhyMongoDBEval</text>
<text text-anchor="middle" x="21134" y="-120.8" font-family="Times,serif" font-size="14.00" fill="#000000">countrytype</text>
<text text-anchor="middle" x="21134" y="-105.8" font-family="Times,serif" font-size="14.00" fill="#000000">[{&quot;$match&quot;:{&quot;countrytype&quot;:122}},</text>
<text text-anchor="middle" x="21134" y="-90.8" font-family="Times,serif" font-size="14.00" fill="#000000">{$lookup: { from: &quot;productproducercountry&quot;, let: { &quot;country&quot;: &quot;$country&quot;}, pipeline: [ { $match: {$expr: {$eq: [&quot;$$country&quot;, &quot;$country&quot;] } } } ], as: &quot;mongojoin23&quot;}},</text>
<text text-anchor="middle" x="21134" y="-75.8" font-family="Times,serif" font-size="14.00" fill="#000000">{$unwind: &quot;$mongojoin23&quot;},</text>
<text text-anchor="middle" x="21134" y="-60.8" font-family="Times,serif" font-size="14.00" fill="#000000">{ &quot;$match&quot;: { &quot;mongojoin23.producer&quot;: %s, &quot;mongojoin23.nr&quot;: %s } }]</text>
<text text-anchor="middle" x="21134" y="-45.8" font-family="Times,serif" font-size="14.00" fill="#000000">[mongojoin23.nr, mongojoin23.producer, mongojoin23.country]</text>
<text text-anchor="middle" x="21134" y="-30.8" font-family="Times,serif" font-size="14.00" fill="#000000">10</text>
</g>
<!-- 59&#45;&gt;61 -->
<g id="edge50" class="edge">
<title>59&#45;&gt;61</title>
<path fill="none" stroke="#000000" d="M20282.7251,-206.5186C20358.8939,-195.8246 20512.0617,-174.3199 20667.7419,-152.4624"/>
<polygon fill="#000000" stroke="#000000" points="20668.5829,-155.8788 20677.9991,-151.0223 20667.6096,-148.9468 20668.5829,-155.8788"/>
</g>
<!-- 64 -->
<g id="node53" class="node">
<title>64</title>
<polygon fill="none" stroke="#ffff00" stroke-width="2" points="22084.5,-240 21985.5,-240 21985.5,-187 22084.5,-187 22084.5,-240"/>
<text text-anchor="middle" x="22035" y="-224.8" font-family="Times,serif" font-size="14.00" fill="#000000">RightBindJoin </text>
<text text-anchor="middle" x="22035" y="-209.8" font-family="Times,serif" font-size="14.00" fill="#000000">[0, 1]</text>
<text text-anchor="middle" x="22035" y="-194.8" font-family="Times,serif" font-size="14.00" fill="#000000">11</text>
</g>
<!-- 63&#45;&gt;64 -->
<g id="edge52" class="edge">
<title>63&#45;&gt;64</title>
<path fill="none" stroke="#000000" d="M20629.6572,-293.2601C20809.7781,-283.0373 21730.8343,-230.7629 21975.3435,-216.8858"/>
<polygon fill="#000000" stroke="#000000" points="21975.671,-220.3729 21985.4566,-216.3118 21975.2743,-213.3842 21975.671,-220.3729"/>
</g>
<!-- 65 -->
<g id="node54" class="node">
<title>65</title>
<polygon fill="none" stroke="#ffff00" stroke-width="2" points="22446,-128.5 21624,-128.5 21624,-45.5 22446,-45.5 22446,-128.5"/>
<text text-anchor="middle" x="22035" y="-113.3" font-family="Times,serif" font-size="14.00" fill="#000000">SQLQuery</text>
<text text-anchor="middle" x="22035" y="-98.3" font-family="Times,serif" font-size="14.00" fill="#000000">SELECT tab_150.nr, tab_150.producer, tab_152.label, tab_152.propertyNum2 </text>
<text text-anchor="middle" x="22035" y="-83.3" font-family="Times,serif" font-size="14.00" fill="#000000">FROM Product AS tab_152, PRODUCT AS tab_150, PRODUCTTYPEPRODUCT AS tab_151 &#160;</text>
<text text-anchor="middle" x="22035" y="-68.3" font-family="Times,serif" font-size="14.00" fill="#000000">WHERE tab_151.producttype = 57 AND tab_151.product = tab_150.nr AND tab_150.producer = tab_152.producer AND tab_150.nr = tab_152.nr</text>
<text text-anchor="middle" x="22035" y="-53.3" font-family="Times,serif" font-size="14.00" fill="#000000">56</text>
</g>
<!-- 64&#45;&gt;65 -->
<g id="edge53" class="edge">
<title>64&#45;&gt;65</title>
<path fill="none" stroke="#000000" d="M22035,-186.9815C22035,-173.0622 22035,-155.511 22035,-139.0135"/>
<polygon fill="#000000" stroke="#000000" points="22038.5001,-138.9195 22035,-128.9195 22031.5001,-138.9196 22038.5001,-138.9195"/>
</g>
<!-- 66 -->
<g id="node55" class="node">
<title>66</title>
<polygon fill="none" stroke="#ffff00" stroke-width="2" points="23408,-151 22464,-151 22464,-23 23408,-23 23408,-151"/>
<text text-anchor="middle" x="22936" y="-135.8" font-family="Times,serif" font-size="14.00" fill="#000000">PhyMongoDBEval</text>
<text text-anchor="middle" x="22936" y="-120.8" font-family="Times,serif" font-size="14.00" fill="#000000">countrytype</text>
<text text-anchor="middle" x="22936" y="-105.8" font-family="Times,serif" font-size="14.00" fill="#000000">[{&quot;$match&quot;:{&quot;countrytype&quot;:111}},</text>
<text text-anchor="middle" x="22936" y="-90.8" font-family="Times,serif" font-size="14.00" fill="#000000">{$lookup: { from: &quot;productproducercountry&quot;, let: { &quot;country&quot;: &quot;$country&quot;}, pipeline: [ { $match: {$expr: {$eq: [&quot;$$country&quot;, &quot;$country&quot;] } } } ], as: &quot;mongojoin24&quot;}},</text>
<text text-anchor="middle" x="22936" y="-75.8" font-family="Times,serif" font-size="14.00" fill="#000000">{$unwind: &quot;$mongojoin24&quot;},</text>
<text text-anchor="middle" x="22936" y="-60.8" font-family="Times,serif" font-size="14.00" fill="#000000">{ &quot;$match&quot;: { &quot;mongojoin24.nr&quot;: %s, &quot;mongojoin24.producer&quot;: %s } }]</text>
<text text-anchor="middle" x="22936" y="-45.8" font-family="Times,serif" font-size="14.00" fill="#000000">[mongojoin24.nr, mongojoin24.producer, mongojoin24.country]</text>
<text text-anchor="middle" x="22936" y="-30.8" font-family="Times,serif" font-size="14.00" fill="#000000">11</text>
</g>
<!-- 64&#45;&gt;66 -->
<g id="edge54" class="edge">
<title>64&#45;&gt;66</title>
<path fill="none" stroke="#000000" d="M22084.7251,-206.5186C22160.8939,-195.8246 22314.0617,-174.3199 22469.7419,-152.4624"/>
<polygon fill="#000000" stroke="#000000" points="22470.5829,-155.8788 22479.9991,-151.0223 22469.6096,-148.9468 22470.5829,-155.8788"/>
</g>
<!-- 69 -->
<g id="node57" class="node">
<title>69</title>
<polygon fill="none" stroke="#ffff00" stroke-width="2" points="23886.5,-240 23787.5,-240 23787.5,-187 23886.5,-187 23886.5,-240"/>
<text text-anchor="middle" x="23837" y="-224.8" font-family="Times,serif" font-size="14.00" fill="#000000">RightBindJoin </text>
<text text-anchor="middle" x="23837" y="-209.8" font-family="Times,serif" font-size="14.00" fill="#000000">[0, 1]</text>
<text text-anchor="middle" x="23837" y="-194.8" font-family="Times,serif" font-size="14.00" fill="#000000">7</text>
</g>
<!-- 68&#45;&gt;69 -->
<g id="edge56" class="edge">
<title>68&#45;&gt;69</title>
<path fill="none" stroke="#000000" d="M22390.5102,-293.3165C22573.6427,-283.2113 23527.4414,-230.5813 23777.125,-216.8039"/>
<polygon fill="#000000" stroke="#000000" points="23777.652,-220.2802 23787.4439,-216.2345 23777.2662,-213.2908 23777.652,-220.2802"/>
</g>
<!-- 70 -->
<g id="node58" class="node">
<title>70</title>
<polygon fill="none" stroke="#ffff00" stroke-width="2" points="24248,-128.5 23426,-128.5 23426,-45.5 24248,-45.5 24248,-128.5"/>
<text text-anchor="middle" x="23837" y="-113.3" font-family="Times,serif" font-size="14.00" fill="#000000">SQLQuery</text>
<text text-anchor="middle" x="23837" y="-98.3" font-family="Times,serif" font-size="14.00" fill="#000000">SELECT tab_195.nr, tab_195.producer, tab_197.label, tab_197.propertyNum2 </text>
<text text-anchor="middle" x="23837" y="-83.3" font-family="Times,serif" font-size="14.00" fill="#000000">FROM PRODUCTTYPEPRODUCT AS tab_196, PRODUCT AS tab_195, Product AS tab_197 &#160;</text>
<text text-anchor="middle" x="23837" y="-68.3" font-family="Times,serif" font-size="14.00" fill="#000000">WHERE tab_196.producttype = 56 AND tab_196.product = tab_195.nr AND tab_195.nr = tab_197.nr AND tab_195.producer = tab_197.producer</text>
<text text-anchor="middle" x="23837" y="-53.3" font-family="Times,serif" font-size="14.00" fill="#000000">46</text>
</g>
<!-- 69&#45;&gt;70 -->
<g id="edge57" class="edge">
<title>69&#45;&gt;70</title>
<path fill="none" stroke="#000000" d="M23837,-186.9815C23837,-173.0622 23837,-155.511 23837,-139.0135"/>
<polygon fill="#000000" stroke="#000000" points="23840.5001,-138.9195 23837,-128.9195 23833.5001,-138.9196 23840.5001,-138.9195"/>
</g>
<!-- 71 -->
<g id="node59" class="node">
<title>71</title>
<polygon fill="none" stroke="#ffff00" stroke-width="2" points="25210,-151 24266,-151 24266,-23 25210,-23 25210,-151"/>
<text text-anchor="middle" x="24738" y="-135.8" font-family="Times,serif" font-size="14.00" fill="#000000">PhyMongoDBEval</text>
<text text-anchor="middle" x="24738" y="-120.8" font-family="Times,serif" font-size="14.00" fill="#000000">countrytype</text>
<text text-anchor="middle" x="24738" y="-105.8" font-family="Times,serif" font-size="14.00" fill="#000000">[{&quot;$match&quot;:{&quot;countrytype&quot;:121}},</text>
<text text-anchor="middle" x="24738" y="-90.8" font-family="Times,serif" font-size="14.00" fill="#000000">{$lookup: { from: &quot;productproducercountry&quot;, let: { &quot;country&quot;: &quot;$country&quot;}, pipeline: [ { $match: {$expr: {$eq: [&quot;$$country&quot;, &quot;$country&quot;] } } } ], as: &quot;mongojoin25&quot;}},</text>
<text text-anchor="middle" x="24738" y="-75.8" font-family="Times,serif" font-size="14.00" fill="#000000">{$unwind: &quot;$mongojoin25&quot;},</text>
<text text-anchor="middle" x="24738" y="-60.8" font-family="Times,serif" font-size="14.00" fill="#000000">{ &quot;$match&quot;: { &quot;mongojoin25.nr&quot;: %s, &quot;mongojoin25.producer&quot;: %s } }]</text>
<text text-anchor="middle" x="24738" y="-45.8" font-family="Times,serif" font-size="14.00" fill="#000000">[country, mongojoin25.nr, mongojoin25.producer]</text>
<text text-anchor="middle" x="24738" y="-30.8" font-family="Times,serif" font-size="14.00" fill="#000000">7</text>
</g>
<!-- 69&#45;&gt;71 -->
<g id="edge58" class="edge">
<title>69&#45;&gt;71</title>
<path fill="none" stroke="#000000" d="M23886.7251,-206.5186C23962.8939,-195.8246 24116.0617,-174.3199 24271.7419,-152.4624"/>
<polygon fill="#000000" stroke="#000000" points="24272.5829,-155.8788 24281.9991,-151.0223 24271.6096,-148.9468 24272.5829,-155.8788"/>
</g>
<!-- 74 -->
<g id="node61" class="node">
<title>74</title>
<polygon fill="none" stroke="#ffff00" stroke-width="2" points="25688.5,-240 25589.5,-240 25589.5,-187 25688.5,-187 25688.5,-240"/>
<text text-anchor="middle" x="25639" y="-224.8" font-family="Times,serif" font-size="14.00" fill="#000000">RightBindJoin </text>
<text text-anchor="middle" x="25639" y="-209.8" font-family="Times,serif" font-size="14.00" fill="#000000">[0, 2]</text>
<text text-anchor="middle" x="25639" y="-194.8" font-family="Times,serif" font-size="14.00" fill="#000000">19</text>
</g>
<!-- 73&#45;&gt;74 -->
<g id="edge60" class="edge">
<title>73&#45;&gt;74</title>
<path fill="none" stroke="#000000" d="M24171.6019,-293.3351C24356.771,-283.2608 25327.8378,-230.4291 25579.4273,-216.7411"/>
<polygon fill="#000000" stroke="#000000" points="25579.6756,-220.2329 25589.4707,-216.1947 25579.2953,-213.2432 25579.6756,-220.2329"/>
</g>
<!-- 75 -->
<g id="node62" class="node">
<title>75</title>
<polygon fill="none" stroke="#ffff00" stroke-width="2" points="26050,-128.5 25228,-128.5 25228,-45.5 26050,-45.5 26050,-128.5"/>
<text text-anchor="middle" x="25639" y="-113.3" font-family="Times,serif" font-size="14.00" fill="#000000">SQLQuery</text>
<text text-anchor="middle" x="25639" y="-98.3" font-family="Times,serif" font-size="14.00" fill="#000000">SELECT tab_177.nr, tab_177.label, tab_177.producer, tab_177.propertyNum2 </text>
<text text-anchor="middle" x="25639" y="-83.3" font-family="Times,serif" font-size="14.00" fill="#000000">FROM PRODUCT AS tab_178, PRODUCTTYPEPRODUCT AS tab_179, Product AS tab_177 &#160;</text>
<text text-anchor="middle" x="25639" y="-68.3" font-family="Times,serif" font-size="14.00" fill="#000000">WHERE tab_179.producttype = 56 AND tab_179.product = tab_178.nr AND tab_177.producer = tab_178.producer AND tab_177.nr = tab_178.nr</text>
<text text-anchor="middle" x="25639" y="-53.3" font-family="Times,serif" font-size="14.00" fill="#000000">46</text>
</g>
<!-- 74&#45;&gt;75 -->
<g id="edge61" class="edge">
<title>74&#45;&gt;75</title>
<path fill="none" stroke="#000000" d="M25639,-186.9815C25639,-173.0622 25639,-155.511 25639,-139.0135"/>
<polygon fill="#000000" stroke="#000000" points="25642.5001,-138.9195 25639,-128.9195 25635.5001,-138.9196 25642.5001,-138.9195"/>
</g>
<!-- 76 -->
<g id="node63" class="node">
<title>76</title>
<polygon fill="none" stroke="#ffff00" stroke-width="2" points="27012,-151 26068,-151 26068,-23 27012,-23 27012,-151"/>
<text text-anchor="middle" x="26540" y="-135.8" font-family="Times,serif" font-size="14.00" fill="#000000">PhyMongoDBEval</text>
<text text-anchor="middle" x="26540" y="-120.8" font-family="Times,serif" font-size="14.00" fill="#000000">countrytype</text>
<text text-anchor="middle" x="26540" y="-105.8" font-family="Times,serif" font-size="14.00" fill="#000000">[{&quot;$match&quot;:{&quot;countrytype&quot;:112}},</text>
<text text-anchor="middle" x="26540" y="-90.8" font-family="Times,serif" font-size="14.00" fill="#000000">{$lookup: { from: &quot;productproducercountry&quot;, let: { &quot;country&quot;: &quot;$country&quot;}, pipeline: [ { $match: {$expr: {$eq: [&quot;$$country&quot;, &quot;$country&quot;] } } } ], as: &quot;mongojoin26&quot;}},</text>
<text text-anchor="middle" x="26540" y="-75.8" font-family="Times,serif" font-size="14.00" fill="#000000">{$unwind: &quot;$mongojoin26&quot;},</text>
<text text-anchor="middle" x="26540" y="-60.8" font-family="Times,serif" font-size="14.00" fill="#000000">{ &quot;$match&quot;: { &quot;mongojoin26.nr&quot;: %s, &quot;mongojoin26.producer&quot;: %s } }]</text>
<text text-anchor="middle" x="26540" y="-45.8" font-family="Times,serif" font-size="14.00" fill="#000000">[mongojoin26.nr, mongojoin26.producer, mongojoin26.country]</text>
<text text-anchor="middle" x="26540" y="-30.8" font-family="Times,serif" font-size="14.00" fill="#000000">19</text>
</g>
<!-- 74&#45;&gt;76 -->
<g id="edge62" class="edge">
<title>74&#45;&gt;76</title>
<path fill="none" stroke="#000000" d="M25688.7251,-206.5186C25764.8939,-195.8246 25918.0617,-174.3199 26073.7419,-152.4624"/>
<polygon fill="#000000" stroke="#000000" points="26074.5829,-155.8788 26083.9991,-151.0223 26073.6096,-148.9468 26074.5829,-155.8788"/>
</g>
<!-- 79 -->
<g id="node65" class="node">
<title>79</title>
<polygon fill="none" stroke="#ffff00" stroke-width="2" points="27490.5,-240 27391.5,-240 27391.5,-187 27490.5,-187 27490.5,-240"/>
<text text-anchor="middle" x="27441" y="-224.8" font-family="Times,serif" font-size="14.00" fill="#000000">RightBindJoin </text>
<text text-anchor="middle" x="27441" y="-209.8" font-family="Times,serif" font-size="14.00" fill="#000000">[0, 2]</text>
<text text-anchor="middle" x="27441" y="-194.8" font-family="Times,serif" font-size="14.00" fill="#000000">8</text>
</g>
<!-- 78&#45;&gt;79 -->
<g id="edge64" class="edge">
<title>78&#45;&gt;79</title>
<path fill="none" stroke="#000000" d="M25963.8062,-293.3351C26150.2114,-283.2608 27127.7606,-230.4291 27381.0296,-216.7411"/>
<polygon fill="#000000" stroke="#000000" points="27381.3435,-220.2293 27391.1401,-216.1947 27380.9657,-213.2395 27381.3435,-220.2293"/>
</g>
<!-- 80 -->
<g id="node66" class="node">
<title>80</title>
<polygon fill="none" stroke="#ffff00" stroke-width="2" points="27852,-128.5 27030,-128.5 27030,-45.5 27852,-45.5 27852,-128.5"/>
<text text-anchor="middle" x="27441" y="-113.3" font-family="Times,serif" font-size="14.00" fill="#000000">SQLQuery</text>
<text text-anchor="middle" x="27441" y="-98.3" font-family="Times,serif" font-size="14.00" fill="#000000">SELECT tab_171.nr, tab_171.label, tab_171.producer, tab_171.propertyNum2 </text>
<text text-anchor="middle" x="27441" y="-83.3" font-family="Times,serif" font-size="14.00" fill="#000000">FROM Product AS tab_171, PRODUCT AS tab_172, PRODUCTTYPEPRODUCT AS tab_173 &#160;</text>
<text text-anchor="middle" x="27441" y="-68.3" font-family="Times,serif" font-size="14.00" fill="#000000">WHERE tab_173.producttype = 56 AND tab_173.product = tab_172.nr AND tab_171.producer = tab_172.producer AND tab_171.nr = tab_172.nr</text>
<text text-anchor="middle" x="27441" y="-53.3" font-family="Times,serif" font-size="14.00" fill="#000000">46</text>
</g>
<!-- 79&#45;&gt;80 -->
<g id="edge65" class="edge">
<title>79&#45;&gt;80</title>
<path fill="none" stroke="#000000" d="M27441,-186.9815C27441,-173.0622 27441,-155.511 27441,-139.0135"/>
<polygon fill="#000000" stroke="#000000" points="27444.5001,-138.9195 27441,-128.9195 27437.5001,-138.9196 27444.5001,-138.9195"/>
</g>
<!-- 81 -->
<g id="node67" class="node">
<title>81</title>
<polygon fill="none" stroke="#ffff00" stroke-width="2" points="28814,-151 27870,-151 27870,-23 28814,-23 28814,-151"/>
<text text-anchor="middle" x="28342" y="-135.8" font-family="Times,serif" font-size="14.00" fill="#000000">PhyMongoDBEval</text>
<text text-anchor="middle" x="28342" y="-120.8" font-family="Times,serif" font-size="14.00" fill="#000000">countrytype</text>
<text text-anchor="middle" x="28342" y="-105.8" font-family="Times,serif" font-size="14.00" fill="#000000">[{&quot;$match&quot;:{&quot;countrytype&quot;:111}},</text>
<text text-anchor="middle" x="28342" y="-90.8" font-family="Times,serif" font-size="14.00" fill="#000000">{$lookup: { from: &quot;productproducercountry&quot;, let: { &quot;country&quot;: &quot;$country&quot;}, pipeline: [ { $match: {$expr: {$eq: [&quot;$$country&quot;, &quot;$country&quot;] } } } ], as: &quot;mongojoin27&quot;}},</text>
<text text-anchor="middle" x="28342" y="-75.8" font-family="Times,serif" font-size="14.00" fill="#000000">{$unwind: &quot;$mongojoin27&quot;},</text>
<text text-anchor="middle" x="28342" y="-60.8" font-family="Times,serif" font-size="14.00" fill="#000000">{ &quot;$match&quot;: { &quot;mongojoin27.nr&quot;: %s, &quot;mongojoin27.producer&quot;: %s } }]</text>
<text text-anchor="middle" x="28342" y="-45.8" font-family="Times,serif" font-size="14.00" fill="#000000">[mongojoin27.nr, mongojoin27.producer, mongojoin27.country]</text>
<text text-anchor="middle" x="28342" y="-30.8" font-family="Times,serif" font-size="14.00" fill="#000000">8</text>
</g>
<!-- 79&#45;&gt;81 -->
<g id="edge66" class="edge">
<title>79&#45;&gt;81</title>
<path fill="none" stroke="#000000" d="M27490.7251,-206.5186C27566.8939,-195.8246 27720.0617,-174.3199 27875.7419,-152.4624"/>
<polygon fill="#000000" stroke="#000000" points="27876.5829,-155.8788 27885.9991,-151.0223 27875.6096,-148.9468 27876.5829,-155.8788"/>
</g>
</g>
</svg>
