<?xml version="1.0" encoding="UTF-8" standalone="no"?>
<!DOCTYPE svg PUBLIC "-//W3C//DTD SVG 1.1//EN"
 "http://www.w3.org/Graphics/SVG/1.1/DTD/svg11.dtd">
<!-- Generated by graphviz version 2.40.1 (20161225.0304)
 -->
<!-- Title: g Pages: 1 -->
<svg width="1648pt" height="330pt"
 viewBox="0.00 0.00 1648.00 330.00" xmlns="http://www.w3.org/2000/svg" xmlns:xlink="http://www.w3.org/1999/xlink">
<g id="graph0" class="graph" transform="scale(1 1) rotate(0) translate(4 326)">
<title>g</title>
<polygon fill="#ffffff" stroke="transparent" points="-4,4 -4,-326 1644,-326 1644,4 -4,4"/>
<text text-anchor="middle" x="820" y="-7.8" font-family="Times,serif" font-size="14.00" fill="#000000">17:57:26.224</text>
<!-- 0 -->
<g id="node1" class="node">
<title>0</title>
<polygon fill="none" stroke="#ffff00" stroke-width="2" points="768.5,-322 681.5,-322 681.5,-286 768.5,-286 768.5,-322"/>
<text text-anchor="middle" x="725" y="-300.3" font-family="Times,serif" font-size="14.00" fill="#000000">HashDistinct</text>
</g>
<!-- 1 -->
<g id="node2" class="node">
<title>1</title>
<polygon fill="none" stroke="#ffff00" stroke-width="2" points="752,-250 698,-250 698,-214 752,-214 752,-250"/>
<text text-anchor="middle" x="725" y="-228.3" font-family="Times,serif" font-size="14.00" fill="#000000">Union</text>
</g>
<!-- 0&#45;&gt;1 -->
<g id="edge1" class="edge">
<title>0&#45;&gt;1</title>
<path fill="none" stroke="#000000" d="M725,-285.8314C725,-278.131 725,-268.9743 725,-260.4166"/>
<polygon fill="#000000" stroke="#000000" points="728.5001,-260.4132 725,-250.4133 721.5001,-260.4133 728.5001,-260.4132"/>
</g>
<!-- 2 -->
<g id="node3" class="node">
<title>2</title>
<polygon fill="none" stroke="#ffff00" stroke-width="2" points="575,-178 469,-178 469,-142 575,-142 575,-178"/>
<text text-anchor="middle" x="522" y="-156.3" font-family="Times,serif" font-size="14.00" fill="#000000">BindAccessEval</text>
</g>
<!-- 1&#45;&gt;2 -->
<g id="edge2" class="edge">
<title>1&#45;&gt;2</title>
<path fill="none" stroke="#000000" d="M697.6225,-222.2898C668.2906,-211.8863 620.8,-195.0424 582.5949,-181.4918"/>
<polygon fill="#000000" stroke="#000000" points="583.6932,-178.1678 573.0985,-178.1236 581.3533,-184.7651 583.6932,-178.1678"/>
</g>
<!-- 6 -->
<g id="node6" class="node">
<title>6</title>
<polygon fill="none" stroke="#ffff00" stroke-width="2" points="982,-178 876,-178 876,-142 982,-142 982,-178"/>
<text text-anchor="middle" x="929" y="-156.3" font-family="Times,serif" font-size="14.00" fill="#000000">BindAccessEval</text>
</g>
<!-- 1&#45;&gt;6 -->
<g id="edge5" class="edge">
<title>1&#45;&gt;6</title>
<path fill="none" stroke="#000000" d="M752.0896,-222.439C781.5647,-212.036 829.6395,-195.0684 868.2394,-181.4449"/>
<polygon fill="#000000" stroke="#000000" points="869.5667,-184.6881 877.8317,-178.0594 867.2369,-178.0872 869.5667,-184.6881"/>
</g>
<!-- 3 -->
<g id="node4" class="node">
<title>3</title>
<polygon fill="none" stroke="#ffff00" stroke-width="2" points="182,-98.5 0,-98.5 0,-30.5 182,-30.5 182,-98.5"/>
<text text-anchor="middle" x="91" y="-83.3" font-family="Times,serif" font-size="14.00" fill="#000000">SQLQuery</text>
<text text-anchor="middle" x="91" y="-68.3" font-family="Times,serif" font-size="14.00" fill="#000000">SELECT nr, label, homepage </text>
<text text-anchor="middle" x="91" y="-53.3" font-family="Times,serif" font-size="14.00" fill="#000000">FROM Producer</text>
<text text-anchor="middle" x="91" y="-38.3" font-family="Times,serif" font-size="14.00" fill="#000000">61</text>
</g>
<!-- 2&#45;&gt;3 -->
<g id="edge3" class="edge">
<title>2&#45;&gt;3</title>
<path fill="none" stroke="#000000" d="M468.7184,-155.1464C402.6111,-148.2532 286.8945,-133.32 191,-106 186.6628,-104.7644 182.2603,-103.3958 177.8427,-101.9301"/>
<polygon fill="#000000" stroke="#000000" points="178.7621,-98.5447 168.1673,-98.5802 176.4718,-105.1594 178.7621,-98.5447"/>
</g>
<!-- 4 -->
<g id="node5" class="node">
<title>4</title>
<polygon fill="none" stroke="#ffff00" stroke-width="2" points="843.5,-83.5 200.5,-83.5 200.5,-45.5 843.5,-45.5 843.5,-83.5"/>
<text text-anchor="middle" x="522" y="-68.3" font-family="Times,serif" font-size="14.00" fill="#000000">FunctionCallBindAccess</text>
<text text-anchor="middle" x="522" y="-53.3" font-family="Times,serif" font-size="14.00" fill="#000000">(&lt;http://www4.wiwiss.fu&#45;berlin.de/bizer/bsbm/v01/instances/dataFromProducer{0}/Producer{0}&gt;, &quot;{1}&quot;, &lt;{2}&gt;)</text>
</g>
<!-- 2&#45;&gt;4 -->
<g id="edge4" class="edge">
<title>2&#45;&gt;4</title>
<path fill="none" stroke="#000000" d="M522,-141.5866C522,-128.0227 522,-109.3024 522,-93.7066"/>
<polygon fill="#000000" stroke="#000000" points="525.5001,-93.5105 522,-83.5105 518.5001,-93.5105 525.5001,-93.5105"/>
</g>
<!-- 7 -->
<g id="node7" class="node">
<title>7</title>
<polygon fill="none" stroke="#ffff00" stroke-width="2" points="996,-106 862,-106 862,-23 996,-23 996,-106"/>
<text text-anchor="middle" x="929" y="-90.8" font-family="Times,serif" font-size="14.00" fill="#000000">PhyMongoDBEval</text>
<text text-anchor="middle" x="929" y="-75.8" font-family="Times,serif" font-size="14.00" fill="#000000">vendor</text>
<text text-anchor="middle" x="929" y="-60.8" font-family="Times,serif" font-size="14.00" fill="#000000">[]</text>
<text text-anchor="middle" x="929" y="-45.8" font-family="Times,serif" font-size="14.00" fill="#000000">[nr, label, homepage]</text>
<text text-anchor="middle" x="929" y="-30.8" font-family="Times,serif" font-size="14.00" fill="#000000">30</text>
</g>
<!-- 6&#45;&gt;7 -->
<g id="edge6" class="edge">
<title>6&#45;&gt;7</title>
<path fill="none" stroke="#000000" d="M929,-141.5866C929,-134.2618 929,-125.4333 929,-116.4051"/>
<polygon fill="#000000" stroke="#000000" points="932.5001,-116.1966 929,-106.1967 925.5001,-116.1967 932.5001,-116.1966"/>
</g>
<!-- 8 -->
<g id="node8" class="node">
<title>8</title>
<polygon fill="none" stroke="#ffff00" stroke-width="2" points="1640,-83.5 1014,-83.5 1014,-45.5 1640,-45.5 1640,-83.5"/>
<text text-anchor="middle" x="1327" y="-68.3" font-family="Times,serif" font-size="14.00" fill="#000000">FunctionCallBindAccess</text>
<text text-anchor="middle" x="1327" y="-53.3" font-family="Times,serif" font-size="14.00" fill="#000000">(&lt;http://www4.wiwiss.fu&#45;berlin.de/bizer/bsbm/v01/instances/dataFromVendor{0}/Vendor{0}&gt;, &quot;{1}&quot;, &lt;{2}&gt;)</text>
</g>
<!-- 6&#45;&gt;8 -->
<g id="edge7" class="edge">
<title>6&#45;&gt;8</title>
<path fill="none" stroke="#000000" d="M982.2631,-147.2195C1047.5698,-131.5492 1159.231,-104.7561 1237.7385,-85.9183"/>
<polygon fill="#000000" stroke="#000000" points="1238.7163,-89.2831 1247.6236,-83.5463 1237.0829,-82.4763 1238.7163,-89.2831"/>
</g>
</g>
</svg>
