digraph  g{ graph[label = "17:57:43.703"]
node [shape=rectangle, color=black, fontcolor=black, style=bold] edge [color=black] 0 [label="BindAccessEval", color = yellow] ; 
1 [label="SQLQuery
SELECT tab_1407.publisher, tab_1407.nr, tab_1407.producer, tab_1407.product, tab_1407.rating1 
FROM Person AS tab_1408, Review AS tab_1409, Review AS tab_1407 
WHERE tab_1409.person = tab_1408.nr AND tab_1407.publisher = tab_1408.publisher AND tab_1407.nr = tab_1409.nr 
UNION
SELECT tab_1410.publisher, tab_1410.nr, tab_1410.producer, tab_1410.product, tab_1410.rating2 
FROM Review AS tab_1412, Review AS tab_1410, Person AS tab_1411 
WHERE tab_1412.person = tab_1411.nr AND tab_1410.publisher = tab_1411.publisher AND tab_1410.nr = tab_1412.nr
52208", color = yellow] ; 
0 -> 1 ; 
2 [label="FunctionCallBindAccess
(<http://www4.wiwiss.fu-berlin.de/bizer/bsbm/v01/instances/dataFromRatingSite{0}/Review{1}>, <http://www4.wiwiss.fu-berlin.de/bizer/bsbm/v01/instances/dataFromProducer{2}/Product{3}>, \"{4}\")", color = yellow] ; 
0 -> 2 ; 
}
