<?xml version="1.0" encoding="UTF-8" standalone="no"?>
<!DOCTYPE svg PUBLIC "-//W3C//DTD SVG 1.1//EN"
 "http://www.w3.org/Graphics/SVG/1.1/DTD/svg11.dtd">
<!-- Generated by graphviz version 2.40.1 (20161225.0304)
 -->
<!-- Title: g Pages: 1 -->
<svg width="862pt" height="260pt"
 viewBox="0.00 0.00 862.00 260.00" xmlns="http://www.w3.org/2000/svg" xmlns:xlink="http://www.w3.org/1999/xlink">
<g id="graph0" class="graph" transform="scale(1 1) rotate(0) translate(4 256)">
<title>g</title>
<polygon fill="#ffffff" stroke="transparent" points="-4,4 -4,-256 858,-256 858,4 -4,4"/>
<text text-anchor="middle" x="427" y="-7.8" font-family="Times,serif" font-size="14.00" fill="#000000">17:59:50.72</text>
<!-- 0 -->
<g id="node1" class="node">
<title>0</title>
<polygon fill="none" stroke="#ffff00" stroke-width="2" points="384.5,-252 278.5,-252 278.5,-216 384.5,-216 384.5,-252"/>
<text text-anchor="middle" x="331.5" y="-230.3" font-family="Times,serif" font-size="14.00" fill="#000000">BindAccessEval</text>
</g>
<!-- 1 -->
<g id="node2" class="node">
<title>1</title>
<polygon fill="none" stroke="#ffff00" stroke-width="2" points="181,-179 94,-179 94,-143 181,-143 181,-179"/>
<text text-anchor="middle" x="137.5" y="-157.3" font-family="Times,serif" font-size="14.00" fill="#000000">HashDistinct</text>
</g>
<!-- 0&#45;&gt;1 -->
<g id="edge1" class="edge">
<title>0&#45;&gt;1</title>
<path fill="none" stroke="#000000" d="M283.5449,-215.9551C255.4192,-205.3716 219.8279,-191.979 190.8224,-181.0646"/>
<polygon fill="#000000" stroke="#000000" points="191.8505,-177.7119 181.2585,-177.4658 189.3851,-184.2635 191.8505,-177.7119"/>
</g>
<!-- 3 -->
<g id="node4" class="node">
<title>3</title>
<polygon fill="none" stroke="#ffff00" stroke-width="2" points="854,-180 199,-180 199,-142 854,-142 854,-180"/>
<text text-anchor="middle" x="526.5" y="-164.8" font-family="Times,serif" font-size="14.00" fill="#000000">FunctionCallBindAccess</text>
<text text-anchor="middle" x="526.5" y="-149.8" font-family="Times,serif" font-size="14.00" fill="#000000">(&lt;http://www4.wiwiss.fu&#45;berlin.de/bizer/bsbm/v01/instances/dataFromVendor{1}/Offer{0}&gt;, &lt;{4}&gt;, &quot;{2}&quot;, &quot;{3}&quot;)</text>
</g>
<!-- 0&#45;&gt;3 -->
<g id="edge3" class="edge">
<title>0&#45;&gt;3</title>
<path fill="none" stroke="#000000" d="M379.7023,-215.9551C405.7314,-206.2108 438.1218,-194.0852 465.8499,-183.7049"/>
<polygon fill="#000000" stroke="#000000" points="467.307,-186.8967 475.4452,-180.1128 464.8528,-180.341 467.307,-186.8967"/>
</g>
<!-- 2 -->
<g id="node3" class="node">
<title>2</title>
<polygon fill="none" stroke="#ffff00" stroke-width="2" points="275,-106 0,-106 0,-23 275,-23 275,-106"/>
<text text-anchor="middle" x="137.5" y="-90.8" font-family="Times,serif" font-size="14.00" fill="#000000">PhyMongoDBEval</text>
<text text-anchor="middle" x="137.5" y="-75.8" font-family="Times,serif" font-size="14.00" fill="#000000">offer</text>
<text text-anchor="middle" x="137.5" y="-60.8" font-family="Times,serif" font-size="14.00" fill="#000000">[]</text>
<text text-anchor="middle" x="137.5" y="-45.8" font-family="Times,serif" font-size="14.00" fill="#000000">[nr, vendor, price, deliverydays, offerwebpage]</text>
<text text-anchor="middle" x="137.5" y="-30.8" font-family="Times,serif" font-size="14.00" fill="#000000">56200</text>
</g>
<!-- 1&#45;&gt;2 -->
<g id="edge2" class="edge">
<title>1&#45;&gt;2</title>
<path fill="none" stroke="#000000" d="M137.5,-142.8491C137.5,-135.2311 137.5,-125.9464 137.5,-116.4692"/>
<polygon fill="#000000" stroke="#000000" points="141.0001,-116.1796 137.5,-106.1796 134.0001,-116.1797 141.0001,-116.1796"/>
</g>
</g>
</svg>
