digraph  g{ graph[label = "17:59:50.72"]
node [shape=rectangle, color=black, fontcolor=black, style=bold] edge [color=black] 0 [label="BindAccessEval", color = yellow] ; 
1 [label="HashDistinct", color = yellow] ; 
0 -> 1 ; 
2 [label="PhyMongoDBEval
offer
[]
[nr, vendor, price, deliverydays, offerwebpage]
56200", color = yellow] ; 
1 -> 2 ; 
3 [label="FunctionCallBindAccess
(<http://www4.wiwiss.fu-berlin.de/bizer/bsbm/v01/instances/dataFromVendor{1}/Offer{0}>, <{4}>, \"{2}\", \"{3}\")", color = yellow] ; 
0 -> 3 ; 
}
