digraph  g{ graph[label = "18:3:6.15"]
node [shape=rectangle, color=black, fontcolor=black, style=bold] edge [color=black] 0 [label="HashDistinct", color = yellow] ; 
1 [label="Union", color = yellow] ; 
0 -> 1 ; 
2 [label="BindAccessEval", color = yellow] ; 
1 -> 2 ; 
3 [label="BindAccessEval", color = yellow] ; 
2 -> 3 ; 
4 [label="Project
[3, 6, 2]", color = yellow] ; 
3 -> 4 ; 
5 [label="RightBindJoin 
[1, 0]
915", color = yellow] ; 
4 -> 5 ; 
6 [label="SQLQuery
SELECT tab_1533.nr, tab_1533.producer, tab_1535.producer 
FROM PRODUCTTYPEPRODUCT AS tab_1534, PRODUCT AS tab_1533, Product AS tab_1535  
WHERE tab_1534.producttype = 56 AND tab_1534.product = tab_1533.nr AND tab_1533.producer = tab_1535.producer AND tab_1533.nr = tab_1535.nr
46", color = yellow] ; 
5 -> 6 ; 
7 [label="PhyMongoDBEval
offer
[{ \"$match\": { \"producer\": %s, \"product\": %s } }]
[nr, product, producer, vendor]
915", color = yellow] ; 
5 -> 7 ; 
8 [label="FunctionCallBindAccess
(<http://www4.wiwiss.fu-berlin.de/bizer/bsbm/v01/instances/dataFromVendor{1}/Offer{0}>, <http://www4.wiwiss.fu-berlin.de/bizer/bsbm/v01/instances/dataFromProducer{2}/Producer{2}>)", color = yellow] ; 
3 -> 8 ; 
9 [label="FunctionCallBindAccess
AddConstant{1=(\"<http://www4.wiwiss.fu-berlin.de/bizer/bsbm/v01/vocabulary/producer>\")}", color = yellow] ; 
2 -> 9 ; 
11 [label="BindAccessEval", color = yellow] ; 
1 -> 11 ; 
12 [label="BindAccessEval", color = yellow] ; 
11 -> 12 ; 
13 [label="SQLQuery
SELECT O.nr, O.vendor, P.propertyNum3 
FROM Offer AS O, Product AS P, Producer AS PR, PRODUCTTYPEPRODUCT AS PTP  
WHERE P.nr = O.product AND PR.nr = P.producer AND P.nr = PTP.product AND PTP.producttype=57
1203", color = yellow] ; 
12 -> 13 ; 
14 [label="FunctionCallBindAccess
(<http://www4.wiwiss.fu-berlin.de/bizer/bsbm/v01/instances/dataFromVendor{1}/Offer{0}>, \"{2}\")", color = yellow] ; 
12 -> 14 ; 
15 [label="FunctionCallBindAccess
AddConstant{1=(\"<http://www4.wiwiss.fu-berlin.de/bizer/bsbm/v01/vocabulary/productPropertyNumeric3>\")}", color = yellow] ; 
11 -> 15 ; 
17 [label="BindAccessEval", color = yellow] ; 
1 -> 17 ; 
18 [label="BindAccessEval", color = yellow] ; 
17 -> 18 ; 
19 [label="Project
[2, 3, 6]", color = yellow] ; 
18 -> 19 ; 
20 [label="RightBindJoin 
[1, 0]
915", color = yellow] ; 
19 -> 20 ; 
21 [label="SQLQuery
SELECT tab_1536.nr, tab_1536.producer, tab_1538.propertyNum2 
FROM PRODUCT AS tab_1536, PRODUCTTYPEPRODUCT AS tab_1537, Product AS tab_1538  
WHERE tab_1537.producttype = 56 AND tab_1537.product = tab_1536.nr AND tab_1536.producer = tab_1538.producer AND tab_1536.nr = tab_1538.nr
46", color = yellow] ; 
20 -> 21 ; 
22 [label="PhyMongoDBEval
offer
[{ \"$match\": { \"producer\": %s, \"product\": %s } }]
[nr, product, producer, vendor]
915", color = yellow] ; 
20 -> 22 ; 
23 [label="FunctionCallBindAccess
(<http://www4.wiwiss.fu-berlin.de/bizer/bsbm/v01/instances/dataFromVendor{2}/Offer{1}>, \"{0}\")", color = yellow] ; 
18 -> 23 ; 
24 [label="FunctionCallBindAccess
AddConstant{1=(\"<http://www4.wiwiss.fu-berlin.de/bizer/bsbm/v01/vocabulary/productPropertyNumeric2>\")}", color = yellow] ; 
17 -> 24 ; 
26 [label="BindAccessEval", color = yellow] ; 
1 -> 26 ; 
27 [label="BindAccessEval", color = yellow] ; 
26 -> 27 ; 
28 [label="Project
[3, 6, 2]", color = yellow] ; 
27 -> 28 ; 
29 [label="RightBindJoin 
[1, 0]
915", color = yellow] ; 
28 -> 29 ; 
30 [label="SQLQuery
SELECT tab_1539.nr, tab_1539.producer, tab_1541.propertyTex2 
FROM PRODUCTTYPEPRODUCT AS tab_1540, PRODUCT AS tab_1539, Product AS tab_1541  
WHERE tab_1540.producttype = 56 AND tab_1540.product = tab_1539.nr AND tab_1539.producer = tab_1541.producer AND tab_1539.nr = tab_1541.nr
46", color = yellow] ; 
29 -> 30 ; 
31 [label="PhyMongoDBEval
offer
[{ \"$match\": { \"producer\": %s, \"product\": %s } }]
[nr, product, producer, vendor]
915", color = yellow] ; 
29 -> 31 ; 
32 [label="FunctionCallBindAccess
(<http://www4.wiwiss.fu-berlin.de/bizer/bsbm/v01/instances/dataFromVendor{1}/Offer{0}>, \"{2}\")", color = yellow] ; 
27 -> 32 ; 
33 [label="FunctionCallBindAccess
AddConstant{1=(\"<http://www4.wiwiss.fu-berlin.de/bizer/bsbm/v01/vocabulary/productPropertyTextual>\")}", color = yellow] ; 
26 -> 33 ; 
35 [label="BindAccessEval", color = yellow] ; 
1 -> 35 ; 
36 [label="BindAccessEval", color = yellow] ; 
35 -> 36 ; 
37 [label="Project
[2, 3, 6]", color = yellow] ; 
36 -> 37 ; 
38 [label="RightBindJoin 
[1, 0]
1203", color = yellow] ; 
37 -> 38 ; 
39 [label="SQLQuery
SELECT tab_1500.nr, tab_1500.producer, tab_1500.propertyTex1 
FROM PRODUCT AS tab_1501, PRODUCTTYPEPRODUCT AS tab_1502, Product AS tab_1500  
WHERE tab_1502.producttype = 57 AND tab_1502.product = tab_1501.nr AND tab_1500.producer = tab_1501.producer AND tab_1500.nr = tab_1501.nr
56", color = yellow] ; 
38 -> 39 ; 
40 [label="PhyMongoDBEval
offer
[{ \"$match\": { \"producer\": %s, \"product\": %s } }]
[nr, product, producer, vendor]
1203", color = yellow] ; 
38 -> 40 ; 
41 [label="FunctionCallBindAccess
(<http://www4.wiwiss.fu-berlin.de/bizer/bsbm/v01/instances/dataFromVendor{2}/Offer{1}>, \"{0}\")", color = yellow] ; 
36 -> 41 ; 
42 [label="FunctionCallBindAccess
AddConstant{1=(\"<http://www4.wiwiss.fu-berlin.de/bizer/bsbm/v01/vocabulary/productPropertyTextual>\")}", color = yellow] ; 
35 -> 42 ; 
44 [label="BindAccessEval", color = yellow] ; 
1 -> 44 ; 
45 [label="BindAccessEval", color = yellow] ; 
44 -> 45 ; 
46 [label="Project
[3, 6, 2]", color = yellow] ; 
45 -> 46 ; 
47 [label="RightBindJoin 
[0, 1]
1203", color = yellow] ; 
46 -> 47 ; 
48 [label="SQLQuery
SELECT tab_1542.nr, tab_1542.producer, tab_1544.propertyTex6 
FROM PRODUCTTYPEPRODUCT AS tab_1543, PRODUCT AS tab_1542, Product AS tab_1544  
WHERE tab_1543.producttype = 57 AND tab_1543.product = tab_1542.nr AND tab_1542.producer = tab_1544.producer AND tab_1542.nr = tab_1544.nr
56", color = yellow] ; 
47 -> 48 ; 
49 [label="PhyMongoDBEval
offer
[{ \"$match\": { \"product\": %s, \"producer\": %s } }]
[nr, product, producer, vendor]
1203", color = yellow] ; 
47 -> 49 ; 
50 [label="FunctionCallBindAccess
(<http://www4.wiwiss.fu-berlin.de/bizer/bsbm/v01/instances/dataFromVendor{1}/Offer{0}>, \"{2}\")", color = yellow] ; 
45 -> 50 ; 
51 [label="FunctionCallBindAccess
AddConstant{1=(\"<http://www4.wiwiss.fu-berlin.de/bizer/bsbm/v01/vocabulary/productPropertyTextual6>\")}", color = yellow] ; 
44 -> 51 ; 
53 [label="BindAccessEval", color = yellow] ; 
1 -> 53 ; 
54 [label="BindAccessEval", color = yellow] ; 
53 -> 54 ; 
55 [label="Project
[3, 6, 2]", color = yellow] ; 
54 -> 55 ; 
56 [label="RightBindJoin 
[0, 1]
1203", color = yellow] ; 
55 -> 56 ; 
57 [label="SQLQuery
SELECT tab_1545.nr, tab_1545.producer, tab_1547.propertyTex2 
FROM PRODUCT AS tab_1545, PRODUCTTYPEPRODUCT AS tab_1546, Product AS tab_1547  
WHERE tab_1546.producttype = 57 AND tab_1546.product = tab_1545.nr AND tab_1545.producer = tab_1547.producer AND tab_1545.nr = tab_1547.nr
56", color = yellow] ; 
56 -> 57 ; 
58 [label="PhyMongoDBEval
offer
[{ \"$match\": { \"product\": %s, \"producer\": %s } }]
[nr, product, producer, vendor]
1203", color = yellow] ; 
56 -> 58 ; 
59 [label="FunctionCallBindAccess
(<http://www4.wiwiss.fu-berlin.de/bizer/bsbm/v01/instances/dataFromVendor{1}/Offer{0}>, \"{2}\")", color = yellow] ; 
54 -> 59 ; 
60 [label="FunctionCallBindAccess
AddConstant{1=(\"<http://www4.wiwiss.fu-berlin.de/bizer/bsbm/v01/vocabulary/productPropertyTextual2>\")}", color = yellow] ; 
53 -> 60 ; 
62 [label="BindAccessEval", color = yellow] ; 
1 -> 62 ; 
63 [label="BindAccessEval", color = yellow] ; 
62 -> 63 ; 
64 [label="Project
[3, 6, 2]", color = yellow] ; 
63 -> 64 ; 
65 [label="RightBindJoin 
[0, 1]
915", color = yellow] ; 
64 -> 65 ; 
66 [label="SQLQuery
SELECT tab_1548.nr, tab_1548.producer, tab_1550.propertyTex5 
FROM Product AS tab_1550, PRODUCT AS tab_1548, PRODUCTTYPEPRODUCT AS tab_1549  
WHERE tab_1549.producttype = 56 AND tab_1549.product = tab_1548.nr AND tab_1548.nr = tab_1550.nr AND tab_1548.producer = tab_1550.producer
46", color = yellow] ; 
65 -> 66 ; 
67 [label="PhyMongoDBEval
offer
[{ \"$match\": { \"product\": %s, \"producer\": %s } }]
[nr, product, producer, vendor]
915", color = yellow] ; 
65 -> 67 ; 
68 [label="FunctionCallBindAccess
(<http://www4.wiwiss.fu-berlin.de/bizer/bsbm/v01/instances/dataFromVendor{1}/Offer{0}>, \"{2}\")", color = yellow] ; 
63 -> 68 ; 
69 [label="FunctionCallBindAccess
AddConstant{1=(\"<http://www4.wiwiss.fu-berlin.de/bizer/bsbm/v01/vocabulary/productPropertyTextual5>\")}", color = yellow] ; 
62 -> 69 ; 
71 [label="BindAccessEval", color = yellow] ; 
1 -> 71 ; 
72 [label="BindAccessEval", color = yellow] ; 
71 -> 72 ; 
73 [label="Project
[2, 3, 6]", color = yellow] ; 
72 -> 73 ; 
74 [label="RightBindJoin 
[0, 1]
915", color = yellow] ; 
73 -> 74 ; 
75 [label="SQLQuery
SELECT tab_1551.nr, tab_1551.producer, tab_1553.propertyTex1 
FROM PRODUCT AS tab_1551, PRODUCTTYPEPRODUCT AS tab_1552, Product AS tab_1553  
WHERE tab_1552.producttype = 56 AND tab_1552.product = tab_1551.nr AND tab_1551.producer = tab_1553.producer AND tab_1551.nr = tab_1553.nr
46", color = yellow] ; 
74 -> 75 ; 
76 [label="PhyMongoDBEval
offer
[{ \"$match\": { \"product\": %s, \"producer\": %s } }]
[nr, product, producer, vendor]
915", color = yellow] ; 
74 -> 76 ; 
77 [label="FunctionCallBindAccess
(<http://www4.wiwiss.fu-berlin.de/bizer/bsbm/v01/instances/dataFromVendor{2}/Offer{1}>, \"{0}\")", color = yellow] ; 
72 -> 77 ; 
78 [label="FunctionCallBindAccess
AddConstant{1=(\"<http://www4.wiwiss.fu-berlin.de/bizer/bsbm/v01/vocabulary/productPropertyTextual1>\")}", color = yellow] ; 
71 -> 78 ; 
80 [label="BindAccessEval", color = yellow] ; 
1 -> 80 ; 
81 [label="BindAccessEval", color = yellow] ; 
80 -> 81 ; 
82 [label="Project
[2, 3, 6]", color = yellow] ; 
81 -> 82 ; 
83 [label="RightBindJoin 
[0, 1]
915", color = yellow] ; 
82 -> 83 ; 
84 [label="SQLQuery
SELECT tab_1554.nr, tab_1554.producer, tab_1556.propertyTex6 
FROM PRODUCTTYPEPRODUCT AS tab_1555, PRODUCT AS tab_1554, Product AS tab_1556  
WHERE tab_1555.producttype = 56 AND tab_1555.product = tab_1554.nr AND tab_1554.nr = tab_1556.nr AND tab_1554.producer = tab_1556.producer
46", color = yellow] ; 
83 -> 84 ; 
85 [label="PhyMongoDBEval
offer
[{ \"$match\": { \"product\": %s, \"producer\": %s } }]
[nr, product, producer, vendor]
915", color = yellow] ; 
83 -> 85 ; 
86 [label="FunctionCallBindAccess
(<http://www4.wiwiss.fu-berlin.de/bizer/bsbm/v01/instances/dataFromVendor{2}/Offer{1}>, \"{0}\")", color = yellow] ; 
81 -> 86 ; 
87 [label="FunctionCallBindAccess
AddConstant{1=(\"<http://www4.wiwiss.fu-berlin.de/bizer/bsbm/v01/vocabulary/productPropertyTextual>\")}", color = yellow] ; 
80 -> 87 ; 
89 [label="BindAccessEval", color = yellow] ; 
1 -> 89 ; 
90 [label="BindAccessEval", color = yellow] ; 
89 -> 90 ; 
91 [label="Project
[2, 3, 6]", color = yellow] ; 
90 -> 91 ; 
92 [label="RightBindJoin 
[0, 1]
1203", color = yellow] ; 
91 -> 92 ; 
93 [label="SQLQuery
SELECT tab_1503.nr, tab_1503.producer, tab_1505.propertyTex5 
FROM PRODUCT AS tab_1503, PRODUCTTYPEPRODUCT AS tab_1504, Product AS tab_1505  
WHERE tab_1504.producttype = 57 AND tab_1504.product = tab_1503.nr AND tab_1503.producer = tab_1505.producer AND tab_1503.nr = tab_1505.nr
56", color = yellow] ; 
92 -> 93 ; 
94 [label="PhyMongoDBEval
offer
[{ \"$match\": { \"product\": %s, \"producer\": %s } }]
[nr, product, producer, vendor]
1203", color = yellow] ; 
92 -> 94 ; 
95 [label="FunctionCallBindAccess
(<http://www4.wiwiss.fu-berlin.de/bizer/bsbm/v01/instances/dataFromVendor{2}/Offer{1}>, \"{0}\")", color = yellow] ; 
90 -> 95 ; 
96 [label="FunctionCallBindAccess
AddConstant{1=(\"<http://www4.wiwiss.fu-berlin.de/bizer/bsbm/v01/vocabulary/productPropertyTextual>\")}", color = yellow] ; 
89 -> 96 ; 
98 [label="BindAccessEval", color = yellow] ; 
1 -> 98 ; 
99 [label="BindAccessEval", color = yellow] ; 
98 -> 99 ; 
100 [label="SQLQuery
SELECT O.nr, O.vendor, P.propertyNum3 
FROM Offer AS O, Product AS P, Producer AS PR, PRODUCTTYPEPRODUCT AS PTP  
WHERE P.nr = O.product AND PR.nr = P.producer AND P.nr = PTP.product AND PTP.producttype=56
915", color = yellow] ; 
99 -> 100 ; 
101 [label="FunctionCallBindAccess
(<http://www4.wiwiss.fu-berlin.de/bizer/bsbm/v01/instances/dataFromVendor{1}/Offer{0}>, \"{2}\")", color = yellow] ; 
99 -> 101 ; 
102 [label="FunctionCallBindAccess
AddConstant{1=(\"<http://www4.wiwiss.fu-berlin.de/bizer/bsbm/v01/vocabulary/productPropertyNumeric>\")}", color = yellow] ; 
98 -> 102 ; 
104 [label="BindAccessEval", color = yellow] ; 
1 -> 104 ; 
105 [label="BindAccessEval", color = yellow] ; 
104 -> 105 ; 
106 [label="Project
[2, 3, 6]", color = yellow] ; 
105 -> 106 ; 
107 [label="RightBindJoin 
[1, 0]
1203", color = yellow] ; 
106 -> 107 ; 
108 [label="SQLQuery
SELECT tab_1506.nr, tab_1506.producer, tab_1506.propertyNum2 
FROM Product AS tab_1506, PRODUCTTYPEPRODUCT AS tab_1508, PRODUCT AS tab_1507  
WHERE tab_1508.producttype = 57 AND tab_1508.product = tab_1507.nr AND tab_1506.producer = tab_1507.producer AND tab_1506.nr = tab_1507.nr
56", color = yellow] ; 
107 -> 108 ; 
109 [label="PhyMongoDBEval
offer
[{ \"$match\": { \"producer\": %s, \"product\": %s } }]
[nr, product, producer, vendor]
1203", color = yellow] ; 
107 -> 109 ; 
110 [label="FunctionCallBindAccess
(<http://www4.wiwiss.fu-berlin.de/bizer/bsbm/v01/instances/dataFromVendor{2}/Offer{1}>, \"{0}\")", color = yellow] ; 
105 -> 110 ; 
111 [label="FunctionCallBindAccess
AddConstant{1=(\"<http://www4.wiwiss.fu-berlin.de/bizer/bsbm/v01/vocabulary/productPropertyNumeric>\")}", color = yellow] ; 
104 -> 111 ; 
113 [label="BindAccessEval", color = yellow] ; 
1 -> 113 ; 
114 [label="BindAccessEval", color = yellow] ; 
113 -> 114 ; 
115 [label="Project
[3, 6, 2]", color = yellow] ; 
114 -> 115 ; 
116 [label="RightBindJoin 
[0, 1]
1203", color = yellow] ; 
115 -> 116 ; 
117 [label="SQLQuery
SELECT tab_1557.nr, tab_1557.producer, tab_1559.propertyNum2 
FROM PRODUCT AS tab_1557, PRODUCTTYPEPRODUCT AS tab_1558, Product AS tab_1559  
WHERE tab_1558.producttype = 57 AND tab_1558.product = tab_1557.nr AND tab_1557.nr = tab_1559.nr AND tab_1557.producer = tab_1559.producer
56", color = yellow] ; 
116 -> 117 ; 
118 [label="PhyMongoDBEval
offer
[{ \"$match\": { \"product\": %s, \"producer\": %s } }]
[nr, product, producer, vendor]
1203", color = yellow] ; 
116 -> 118 ; 
119 [label="FunctionCallBindAccess
(<http://www4.wiwiss.fu-berlin.de/bizer/bsbm/v01/instances/dataFromVendor{1}/Offer{0}>, \"{2}\")", color = yellow] ; 
114 -> 119 ; 
120 [label="FunctionCallBindAccess
AddConstant{1=(\"<http://www4.wiwiss.fu-berlin.de/bizer/bsbm/v01/vocabulary/productPropertyNumeric2>\")}", color = yellow] ; 
113 -> 120 ; 
122 [label="BindAccessEval", color = yellow] ; 
1 -> 122 ; 
123 [label="BindAccessEval", color = yellow] ; 
122 -> 123 ; 
124 [label="Project
[3, 6, 2]", color = yellow] ; 
123 -> 124 ; 
125 [label="RightBindJoin 
[1, 0]
915", color = yellow] ; 
124 -> 125 ; 
126 [label="SQLQuery
SELECT tab_1560.nr, tab_1560.producer, tab_1562.propertyNum1 
FROM Product AS tab_1562, PRODUCT AS tab_1560, PRODUCTTYPEPRODUCT AS tab_1561  
WHERE tab_1561.producttype = 56 AND tab_1561.product = tab_1560.nr AND tab_1560.producer = tab_1562.producer AND tab_1560.nr = tab_1562.nr
46", color = yellow] ; 
125 -> 126 ; 
127 [label="PhyMongoDBEval
offer
[{ \"$match\": { \"producer\": %s, \"product\": %s } }]
[nr, product, producer, vendor]
915", color = yellow] ; 
125 -> 127 ; 
128 [label="FunctionCallBindAccess
(<http://www4.wiwiss.fu-berlin.de/bizer/bsbm/v01/instances/dataFromVendor{1}/Offer{0}>, \"{2}\")", color = yellow] ; 
123 -> 128 ; 
129 [label="FunctionCallBindAccess
AddConstant{1=(\"<http://www4.wiwiss.fu-berlin.de/bizer/bsbm/v01/vocabulary/productPropertyNumeric1>\")}", color = yellow] ; 
122 -> 129 ; 
131 [label="BindAccessEval", color = yellow] ; 
1 -> 131 ; 
132 [label="BindAccessEval", color = yellow] ; 
131 -> 132 ; 
133 [label="Project
[3, 6, 2]", color = yellow] ; 
132 -> 133 ; 
134 [label="RightBindJoin 
[0, 1]
1203", color = yellow] ; 
133 -> 134 ; 
135 [label="SQLQuery
SELECT tab_1563.nr, tab_1563.producer, tab_1565.propertyTex3 
FROM PRODUCTTYPEPRODUCT AS tab_1564, PRODUCT AS tab_1563, Product AS tab_1565  
WHERE tab_1564.producttype = 57 AND tab_1564.product = tab_1563.nr AND tab_1563.producer = tab_1565.producer AND tab_1563.nr = tab_1565.nr
56", color = yellow] ; 
134 -> 135 ; 
136 [label="PhyMongoDBEval
offer
[{ \"$match\": { \"product\": %s, \"producer\": %s } }]
[nr, product, producer, vendor]
1203", color = yellow] ; 
134 -> 136 ; 
137 [label="FunctionCallBindAccess
(<http://www4.wiwiss.fu-berlin.de/bizer/bsbm/v01/instances/dataFromVendor{1}/Offer{0}>, \"{2}\")", color = yellow] ; 
132 -> 137 ; 
138 [label="FunctionCallBindAccess
AddConstant{1=(\"<http://www4.wiwiss.fu-berlin.de/bizer/bsbm/v01/vocabulary/productPropertyTextual3>\")}", color = yellow] ; 
131 -> 138 ; 
140 [label="BindAccessEval", color = yellow] ; 
1 -> 140 ; 
141 [label="BindAccessEval", color = yellow] ; 
140 -> 141 ; 
142 [label="Project
[3, 6, 2]", color = yellow] ; 
141 -> 142 ; 
143 [label="RightBindJoin 
[0, 1]
915", color = yellow] ; 
142 -> 143 ; 
144 [label="SQLQuery
SELECT tab_1566.nr, tab_1566.producer, tab_1568.propertyTex3 
FROM PRODUCTTYPEPRODUCT AS tab_1567, PRODUCT AS tab_1566, Product AS tab_1568  
WHERE tab_1567.producttype = 56 AND tab_1567.product = tab_1566.nr AND tab_1566.producer = tab_1568.producer AND tab_1566.nr = tab_1568.nr
46", color = yellow] ; 
143 -> 144 ; 
145 [label="PhyMongoDBEval
offer
[{ \"$match\": { \"product\": %s, \"producer\": %s } }]
[nr, product, producer, vendor]
915", color = yellow] ; 
143 -> 145 ; 
146 [label="FunctionCallBindAccess
(<http://www4.wiwiss.fu-berlin.de/bizer/bsbm/v01/instances/dataFromVendor{1}/Offer{0}>, \"{2}\")", color = yellow] ; 
141 -> 146 ; 
147 [label="FunctionCallBindAccess
AddConstant{1=(\"<http://www4.wiwiss.fu-berlin.de/bizer/bsbm/v01/vocabulary/productPropertyTextual>\")}", color = yellow] ; 
140 -> 147 ; 
149 [label="BindAccessEval", color = yellow] ; 
1 -> 149 ; 
150 [label="BindAccessEval", color = yellow] ; 
149 -> 150 ; 
151 [label="Project
[2, 3, 6]", color = yellow] ; 
150 -> 151 ; 
152 [label="RightBindJoin 
[1, 0]
1203", color = yellow] ; 
151 -> 152 ; 
153 [label="SQLQuery
SELECT tab_1509.nr, tab_1509.producer, tab_1509.propertyTex2 
FROM PRODUCTTYPEPRODUCT AS tab_1511, Product AS tab_1509, PRODUCT AS tab_1510  
WHERE tab_1511.producttype = 57 AND tab_1511.product = tab_1510.nr AND tab_1509.producer = tab_1510.producer AND tab_1509.nr = tab_1510.nr
56", color = yellow] ; 
152 -> 153 ; 
154 [label="PhyMongoDBEval
offer
[{ \"$match\": { \"producer\": %s, \"product\": %s } }]
[nr, product, producer, vendor]
1203", color = yellow] ; 
152 -> 154 ; 
155 [label="FunctionCallBindAccess
(<http://www4.wiwiss.fu-berlin.de/bizer/bsbm/v01/instances/dataFromVendor{2}/Offer{1}>, \"{0}\")", color = yellow] ; 
150 -> 155 ; 
156 [label="FunctionCallBindAccess
AddConstant{1=(\"<http://www4.wiwiss.fu-berlin.de/bizer/bsbm/v01/vocabulary/productPropertyTextual>\")}", color = yellow] ; 
149 -> 156 ; 
158 [label="BindAccessEval", color = yellow] ; 
1 -> 158 ; 
159 [label="BindAccessEval", color = yellow] ; 
158 -> 159 ; 
160 [label="Project
[2, 3, 6]", color = yellow] ; 
159 -> 160 ; 
161 [label="RightBindJoin 
[1, 0]
915", color = yellow] ; 
160 -> 161 ; 
162 [label="SQLQuery
SELECT tab_1512.nr, tab_1512.producer, tab_1512.propertyTex6 
FROM PRODUCT AS tab_1513, PRODUCTTYPEPRODUCT AS tab_1514, Product AS tab_1512  
WHERE tab_1514.producttype = 56 AND tab_1514.product = tab_1513.nr AND tab_1512.producer = tab_1513.producer AND tab_1512.nr = tab_1513.nr
46", color = yellow] ; 
161 -> 162 ; 
163 [label="PhyMongoDBEval
offer
[{ \"$match\": { \"producer\": %s, \"product\": %s } }]
[nr, product, producer, vendor]
915", color = yellow] ; 
161 -> 163 ; 
164 [label="FunctionCallBindAccess
(<http://www4.wiwiss.fu-berlin.de/bizer/bsbm/v01/instances/dataFromVendor{2}/Offer{1}>, \"{0}\")", color = yellow] ; 
159 -> 164 ; 
165 [label="FunctionCallBindAccess
AddConstant{1=(\"<http://www4.wiwiss.fu-berlin.de/bizer/bsbm/v01/vocabulary/productPropertyTextual6>\")}", color = yellow] ; 
158 -> 165 ; 
167 [label="BindAccessEval", color = yellow] ; 
1 -> 167 ; 
168 [label="BindAccessEval", color = yellow] ; 
167 -> 168 ; 
169 [label="Project
[3, 6, 2]", color = yellow] ; 
168 -> 169 ; 
170 [label="RightBindJoin 
[1, 0]
915", color = yellow] ; 
169 -> 170 ; 
171 [label="SQLQuery
SELECT tab_1569.nr, tab_1569.producer, tab_1571.propertyTex2 
FROM PRODUCT AS tab_1569, Product AS tab_1571, PRODUCTTYPEPRODUCT AS tab_1570  
WHERE tab_1570.producttype = 56 AND tab_1570.product = tab_1569.nr AND tab_1569.producer = tab_1571.producer AND tab_1569.nr = tab_1571.nr
46", color = yellow] ; 
170 -> 171 ; 
172 [label="PhyMongoDBEval
offer
[{ \"$match\": { \"producer\": %s, \"product\": %s } }]
[nr, product, producer, vendor]
915", color = yellow] ; 
170 -> 172 ; 
173 [label="FunctionCallBindAccess
(<http://www4.wiwiss.fu-berlin.de/bizer/bsbm/v01/instances/dataFromVendor{1}/Offer{0}>, \"{2}\")", color = yellow] ; 
168 -> 173 ; 
174 [label="FunctionCallBindAccess
AddConstant{1=(\"<http://www4.wiwiss.fu-berlin.de/bizer/bsbm/v01/vocabulary/productPropertyTextual2>\")}", color = yellow] ; 
167 -> 174 ; 
176 [label="BindAccessEval", color = yellow] ; 
1 -> 176 ; 
177 [label="BindAccessEval", color = yellow] ; 
176 -> 177 ; 
178 [label="Project
[3, 6, 2]", color = yellow] ; 
177 -> 178 ; 
179 [label="RightBindJoin 
[0, 1]
915", color = yellow] ; 
178 -> 179 ; 
180 [label="SQLQuery
SELECT tab_1572.nr, tab_1572.producer, tab_1574.propertyNum2 
FROM PRODUCT AS tab_1572, PRODUCTTYPEPRODUCT AS tab_1573, Product AS tab_1574  
WHERE tab_1573.producttype = 56 AND tab_1573.product = tab_1572.nr AND tab_1572.producer = tab_1574.producer AND tab_1572.nr = tab_1574.nr
46", color = yellow] ; 
179 -> 180 ; 
181 [label="PhyMongoDBEval
offer
[{ \"$match\": { \"product\": %s, \"producer\": %s } }]
[nr, product, producer, vendor]
915", color = yellow] ; 
179 -> 181 ; 
182 [label="FunctionCallBindAccess
(<http://www4.wiwiss.fu-berlin.de/bizer/bsbm/v01/instances/dataFromVendor{1}/Offer{0}>, \"{2}\")", color = yellow] ; 
177 -> 182 ; 
183 [label="FunctionCallBindAccess
AddConstant{1=(\"<http://www4.wiwiss.fu-berlin.de/bizer/bsbm/v01/vocabulary/productPropertyNumeric>\")}", color = yellow] ; 
176 -> 183 ; 
185 [label="BindAccessEval", color = yellow] ; 
1 -> 185 ; 
186 [label="BindAccessEval", color = yellow] ; 
185 -> 186 ; 
187 [label="Project
[2, 3, 6]", color = yellow] ; 
186 -> 187 ; 
188 [label="RightBindJoin 
[1, 0]
1203", color = yellow] ; 
187 -> 188 ; 
189 [label="SQLQuery
SELECT tab_1515.nr, tab_1515.producer, tab_1517.propertyNum1 
FROM PRODUCT AS tab_1515, PRODUCTTYPEPRODUCT AS tab_1516, Product AS tab_1517  
WHERE tab_1516.producttype = 57 AND tab_1516.product = tab_1515.nr AND tab_1515.producer = tab_1517.producer AND tab_1515.nr = tab_1517.nr
56", color = yellow] ; 
188 -> 189 ; 
190 [label="PhyMongoDBEval
offer
[{ \"$match\": { \"producer\": %s, \"product\": %s } }]
[nr, product, producer, vendor]
1203", color = yellow] ; 
188 -> 190 ; 
191 [label="FunctionCallBindAccess
(<http://www4.wiwiss.fu-berlin.de/bizer/bsbm/v01/instances/dataFromVendor{2}/Offer{1}>, \"{0}\")", color = yellow] ; 
186 -> 191 ; 
192 [label="FunctionCallBindAccess
AddConstant{1=(\"<http://www4.wiwiss.fu-berlin.de/bizer/bsbm/v01/vocabulary/productPropertyNumeric>\")}", color = yellow] ; 
185 -> 192 ; 
194 [label="BindAccessEval", color = yellow] ; 
1 -> 194 ; 
195 [label="BindAccessEval", color = yellow] ; 
194 -> 195 ; 
196 [label="Project
[2, 3, 6]", color = yellow] ; 
195 -> 196 ; 
197 [label="RightBindJoin 
[0, 1]
1203", color = yellow] ; 
196 -> 197 ; 
198 [label="SQLQuery
SELECT tab_1518.nr, tab_1518.producer, tab_1520.propertyTex6 
FROM PRODUCTTYPEPRODUCT AS tab_1519, PRODUCT AS tab_1518, Product AS tab_1520  
WHERE tab_1519.producttype = 57 AND tab_1519.product = tab_1518.nr AND tab_1518.producer = tab_1520.producer AND tab_1518.nr = tab_1520.nr
56", color = yellow] ; 
197 -> 198 ; 
199 [label="PhyMongoDBEval
offer
[{ \"$match\": { \"product\": %s, \"producer\": %s } }]
[nr, product, producer, vendor]
1203", color = yellow] ; 
197 -> 199 ; 
200 [label="FunctionCallBindAccess
(<http://www4.wiwiss.fu-berlin.de/bizer/bsbm/v01/instances/dataFromVendor{2}/Offer{1}>, \"{0}\")", color = yellow] ; 
195 -> 200 ; 
201 [label="FunctionCallBindAccess
AddConstant{1=(\"<http://www4.wiwiss.fu-berlin.de/bizer/bsbm/v01/vocabulary/productPropertyTextual>\")}", color = yellow] ; 
194 -> 201 ; 
203 [label="BindAccessEval", color = yellow] ; 
1 -> 203 ; 
204 [label="BindAccessEval", color = yellow] ; 
203 -> 204 ; 
205 [label="Project
[3, 6, 2]", color = yellow] ; 
204 -> 205 ; 
206 [label="RightBindJoin 
[0, 1]
1203", color = yellow] ; 
205 -> 206 ; 
207 [label="SQLQuery
SELECT tab_1575.nr, tab_1575.producer, tab_1577.propertyNum1 
FROM PRODUCTTYPEPRODUCT AS tab_1576, PRODUCT AS tab_1575, Product AS tab_1577  
WHERE tab_1576.producttype = 57 AND tab_1576.product = tab_1575.nr AND tab_1575.producer = tab_1577.producer AND tab_1575.nr = tab_1577.nr
56", color = yellow] ; 
206 -> 207 ; 
208 [label="PhyMongoDBEval
offer
[{ \"$match\": { \"product\": %s, \"producer\": %s } }]
[nr, product, producer, vendor]
1203", color = yellow] ; 
206 -> 208 ; 
209 [label="FunctionCallBindAccess
(<http://www4.wiwiss.fu-berlin.de/bizer/bsbm/v01/instances/dataFromVendor{1}/Offer{0}>, \"{2}\")", color = yellow] ; 
204 -> 209 ; 
210 [label="FunctionCallBindAccess
AddConstant{1=(\"<http://www4.wiwiss.fu-berlin.de/bizer/bsbm/v01/vocabulary/productPropertyNumeric1>\")}", color = yellow] ; 
203 -> 210 ; 
212 [label="BindAccessEval", color = yellow] ; 
1 -> 212 ; 
213 [label="BindAccessEval", color = yellow] ; 
212 -> 213 ; 
214 [label="SQLQuery
SELECT O.nr, O.vendor, P.propertyNum4 
FROM Offer AS O, Product AS P, Producer AS PR, PRODUCTTYPEPRODUCT AS PTP  
WHERE P.nr = O.product AND PR.nr = P.producer AND P.nr = PTP.product AND PTP.producttype=56
915", color = yellow] ; 
213 -> 214 ; 
215 [label="FunctionCallBindAccess
(<http://www4.wiwiss.fu-berlin.de/bizer/bsbm/v01/instances/dataFromVendor{1}/Offer{0}>, \"{2}\")", color = yellow] ; 
213 -> 215 ; 
216 [label="FunctionCallBindAccess
AddConstant{1=(\"<http://www4.wiwiss.fu-berlin.de/bizer/bsbm/v01/vocabulary/productPropertyNumeric4>\")}", color = yellow] ; 
212 -> 216 ; 
218 [label="BindAccessEval", color = yellow] ; 
1 -> 218 ; 
219 [label="BindAccessEval", color = yellow] ; 
218 -> 219 ; 
220 [label="Project
[3, 6, 2]", color = yellow] ; 
219 -> 220 ; 
221 [label="RightBindJoin 
[1, 0]
1203", color = yellow] ; 
220 -> 221 ; 
222 [label="SQLQuery
SELECT tab_1578.nr, tab_1578.producer, tab_1580.propertyTex4 
FROM PRODUCT AS tab_1578, Product AS tab_1580, PRODUCTTYPEPRODUCT AS tab_1579  
WHERE tab_1579.producttype = 57 AND tab_1579.product = tab_1578.nr AND tab_1578.nr = tab_1580.nr AND tab_1578.producer = tab_1580.producer
56", color = yellow] ; 
221 -> 222 ; 
223 [label="PhyMongoDBEval
offer
[{ \"$match\": { \"producer\": %s, \"product\": %s } }]
[nr, product, producer, vendor]
1203", color = yellow] ; 
221 -> 223 ; 
224 [label="FunctionCallBindAccess
(<http://www4.wiwiss.fu-berlin.de/bizer/bsbm/v01/instances/dataFromVendor{1}/Offer{0}>, \"{2}\")", color = yellow] ; 
219 -> 224 ; 
225 [label="FunctionCallBindAccess
AddConstant{1=(\"<http://www4.wiwiss.fu-berlin.de/bizer/bsbm/v01/vocabulary/productPropertyTextual4>\")}", color = yellow] ; 
218 -> 225 ; 
227 [label="BindAccessEval", color = yellow] ; 
1 -> 227 ; 
228 [label="BindAccessEval", color = yellow] ; 
227 -> 228 ; 
229 [label="Project
[2, 3, 6]", color = yellow] ; 
228 -> 229 ; 
230 [label="RightBindJoin 
[1, 0]
915", color = yellow] ; 
229 -> 230 ; 
231 [label="SQLQuery
SELECT tab_1521.nr, tab_1521.producer, tab_1523.propertyTex4 
FROM PRODUCTTYPEPRODUCT AS tab_1522, PRODUCT AS tab_1521, Product AS tab_1523  
WHERE tab_1522.producttype = 56 AND tab_1522.product = tab_1521.nr AND tab_1521.producer = tab_1523.producer AND tab_1521.nr = tab_1523.nr
46", color = yellow] ; 
230 -> 231 ; 
232 [label="PhyMongoDBEval
offer
[{ \"$match\": { \"producer\": %s, \"product\": %s } }]
[nr, product, producer, vendor]
915", color = yellow] ; 
230 -> 232 ; 
233 [label="FunctionCallBindAccess
(<http://www4.wiwiss.fu-berlin.de/bizer/bsbm/v01/instances/dataFromVendor{2}/Offer{1}>, \"{0}\")", color = yellow] ; 
228 -> 233 ; 
234 [label="FunctionCallBindAccess
AddConstant{1=(\"<http://www4.wiwiss.fu-berlin.de/bizer/bsbm/v01/vocabulary/productPropertyTextual>\")}", color = yellow] ; 
227 -> 234 ; 
236 [label="BindAccessEval", color = yellow] ; 
1 -> 236 ; 
237 [label="BindAccessEval", color = yellow] ; 
236 -> 237 ; 
238 [label="Project
[2, 3, 6]", color = yellow] ; 
237 -> 238 ; 
239 [label="RightBindJoin 
[1, 0]
1203", color = yellow] ; 
238 -> 239 ; 
240 [label="SQLQuery
SELECT tab_1524.nr, tab_1524.producer, tab_1524.propertyTex3 
FROM PRODUCT AS tab_1525, PRODUCTTYPEPRODUCT AS tab_1526, Product AS tab_1524  
WHERE tab_1526.producttype = 57 AND tab_1526.product = tab_1525.nr AND tab_1524.producer = tab_1525.producer AND tab_1524.nr = tab_1525.nr
56", color = yellow] ; 
239 -> 240 ; 
241 [label="PhyMongoDBEval
offer
[{ \"$match\": { \"producer\": %s, \"product\": %s } }]
[nr, product, producer, vendor]
1203", color = yellow] ; 
239 -> 241 ; 
242 [label="FunctionCallBindAccess
(<http://www4.wiwiss.fu-berlin.de/bizer/bsbm/v01/instances/dataFromVendor{2}/Offer{1}>, \"{0}\")", color = yellow] ; 
237 -> 242 ; 
243 [label="FunctionCallBindAccess
AddConstant{1=(\"<http://www4.wiwiss.fu-berlin.de/bizer/bsbm/v01/vocabulary/productPropertyTextual>\")}", color = yellow] ; 
236 -> 243 ; 
245 [label="BindAccessEval", color = yellow] ; 
1 -> 245 ; 
246 [label="BindAccessEval", color = yellow] ; 
245 -> 246 ; 
247 [label="Project
[2, 3, 6]", color = yellow] ; 
246 -> 247 ; 
248 [label="RightBindJoin 
[0, 1]
915", color = yellow] ; 
247 -> 248 ; 
249 [label="SQLQuery
SELECT tab_1527.nr, tab_1527.producer, tab_1527.propertyTex3 
FROM Product AS tab_1527, PRODUCTTYPEPRODUCT AS tab_1529, PRODUCT AS tab_1528  
WHERE tab_1529.producttype = 56 AND tab_1529.product = tab_1528.nr AND tab_1527.producer = tab_1528.producer AND tab_1527.nr = tab_1528.nr
46", color = yellow] ; 
248 -> 249 ; 
250 [label="PhyMongoDBEval
offer
[{ \"$match\": { \"product\": %s, \"producer\": %s } }]
[nr, product, producer, vendor]
915", color = yellow] ; 
248 -> 250 ; 
251 [label="FunctionCallBindAccess
(<http://www4.wiwiss.fu-berlin.de/bizer/bsbm/v01/instances/dataFromVendor{2}/Offer{1}>, \"{0}\")", color = yellow] ; 
246 -> 251 ; 
252 [label="FunctionCallBindAccess
AddConstant{1=(\"<http://www4.wiwiss.fu-berlin.de/bizer/bsbm/v01/vocabulary/productPropertyTextual3>\")}", color = yellow] ; 
245 -> 252 ; 
254 [label="BindAccessEval", color = yellow] ; 
1 -> 254 ; 
255 [label="BindAccessEval", color = yellow] ; 
254 -> 255 ; 
256 [label="Project
[3, 6, 2]", color = yellow] ; 
255 -> 256 ; 
257 [label="RightBindJoin 
[0, 1]
915", color = yellow] ; 
256 -> 257 ; 
258 [label="SQLQuery
SELECT tab_1581.nr, tab_1581.producer, tab_1583.propertyNum1 
FROM Product AS tab_1583, PRODUCT AS tab_1581, PRODUCTTYPEPRODUCT AS tab_1582  
WHERE tab_1582.producttype = 56 AND tab_1582.product = tab_1581.nr AND tab_1581.producer = tab_1583.producer AND tab_1581.nr = tab_1583.nr
46", color = yellow] ; 
257 -> 258 ; 
259 [label="PhyMongoDBEval
offer
[{ \"$match\": { \"product\": %s, \"producer\": %s } }]
[nr, product, producer, vendor]
915", color = yellow] ; 
257 -> 259 ; 
260 [label="FunctionCallBindAccess
(<http://www4.wiwiss.fu-berlin.de/bizer/bsbm/v01/instances/dataFromVendor{1}/Offer{0}>, \"{2}\")", color = yellow] ; 
255 -> 260 ; 
261 [label="FunctionCallBindAccess
AddConstant{1=(\"<http://www4.wiwiss.fu-berlin.de/bizer/bsbm/v01/vocabulary/productPropertyNumeric>\")}", color = yellow] ; 
254 -> 261 ; 
263 [label="BindAccessEval", color = yellow] ; 
1 -> 263 ; 
264 [label="BindAccessEval", color = yellow] ; 
263 -> 264 ; 
265 [label="SQLQuery
SELECT O.nr, O.vendor, P.propertyNum4 
FROM Offer AS O, Product AS P, Producer AS PR, PRODUCTTYPEPRODUCT AS PTP  
WHERE P.nr = O.product AND PR.nr = P.producer AND P.nr = PTP.product AND PTP.producttype=57
1203", color = yellow] ; 
264 -> 265 ; 
266 [label="FunctionCallBindAccess
(<http://www4.wiwiss.fu-berlin.de/bizer/bsbm/v01/instances/dataFromVendor{1}/Offer{0}>, \"{2}\")", color = yellow] ; 
264 -> 266 ; 
267 [label="FunctionCallBindAccess
AddConstant{1=(\"<http://www4.wiwiss.fu-berlin.de/bizer/bsbm/v01/vocabulary/productPropertyNumeric>\")}", color = yellow] ; 
263 -> 267 ; 
269 [label="BindAccessEval", color = yellow] ; 
1 -> 269 ; 
270 [label="BindAccessEval", color = yellow] ; 
269 -> 270 ; 
271 [label="Project
[3, 6, 2]", color = yellow] ; 
270 -> 271 ; 
272 [label="RightBindJoin 
[0, 1]
1203", color = yellow] ; 
271 -> 272 ; 
273 [label="SQLQuery
SELECT tab_1584.nr, tab_1584.producer, tab_1586.producer 
FROM PRODUCT AS tab_1584, PRODUCTTYPEPRODUCT AS tab_1585, Product AS tab_1586  
WHERE tab_1585.producttype = 57 AND tab_1585.product = tab_1584.nr AND tab_1584.producer = tab_1586.producer AND tab_1584.nr = tab_1586.nr
56", color = yellow] ; 
272 -> 273 ; 
274 [label="PhyMongoDBEval
offer
[{ \"$match\": { \"product\": %s, \"producer\": %s } }]
[nr, product, producer, vendor]
1203", color = yellow] ; 
272 -> 274 ; 
275 [label="FunctionCallBindAccess
(<http://www4.wiwiss.fu-berlin.de/bizer/bsbm/v01/instances/dataFromVendor{1}/Offer{0}>, <http://www4.wiwiss.fu-berlin.de/bizer/bsbm/v01/instances/dataFromProducer{2}/Producer{2}>)", color = yellow] ; 
270 -> 275 ; 
276 [label="FunctionCallBindAccess
AddConstant{1=(\"<http://www4.wiwiss.fu-berlin.de/bizer/bsbm/v01/vocabulary/producer>\")}", color = yellow] ; 
269 -> 276 ; 
278 [label="BindAccessEval", color = yellow] ; 
1 -> 278 ; 
279 [label="BindAccessEval", color = yellow] ; 
278 -> 279 ; 
280 [label="SQLQuery
SELECT O.nr, O.vendor, P.propertyNum4 
FROM Offer AS O, Product AS P, Producer AS PR, PRODUCTTYPEPRODUCT AS PTP  
WHERE P.nr = O.product AND PR.nr = P.producer AND P.nr = PTP.product AND PTP.producttype=57
1203", color = yellow] ; 
279 -> 280 ; 
281 [label="FunctionCallBindAccess
(<http://www4.wiwiss.fu-berlin.de/bizer/bsbm/v01/instances/dataFromVendor{1}/Offer{0}>, \"{2}\")", color = yellow] ; 
279 -> 281 ; 
282 [label="FunctionCallBindAccess
AddConstant{1=(\"<http://www4.wiwiss.fu-berlin.de/bizer/bsbm/v01/vocabulary/productPropertyNumeric4>\")}", color = yellow] ; 
278 -> 282 ; 
284 [label="BindAccessEval", color = yellow] ; 
1 -> 284 ; 
285 [label="BindAccessEval", color = yellow] ; 
284 -> 285 ; 
286 [label="SQLQuery
SELECT O.nr, O.vendor, P.propertyNum3 
FROM Offer AS O, Product AS P, Producer AS PR, PRODUCTTYPEPRODUCT AS PTP  
WHERE P.nr = O.product AND PR.nr = P.producer AND P.nr = PTP.product AND PTP.producttype=56
915", color = yellow] ; 
285 -> 286 ; 
287 [label="FunctionCallBindAccess
(<http://www4.wiwiss.fu-berlin.de/bizer/bsbm/v01/instances/dataFromVendor{1}/Offer{0}>, \"{2}\")", color = yellow] ; 
285 -> 287 ; 
288 [label="FunctionCallBindAccess
AddConstant{1=(\"<http://www4.wiwiss.fu-berlin.de/bizer/bsbm/v01/vocabulary/productPropertyNumeric3>\")}", color = yellow] ; 
284 -> 288 ; 
290 [label="BindAccessEval", color = yellow] ; 
1 -> 290 ; 
291 [label="BindAccessEval", color = yellow] ; 
290 -> 291 ; 
292 [label="Project
[3, 6, 2]", color = yellow] ; 
291 -> 292 ; 
293 [label="RightBindJoin 
[1, 0]
1203", color = yellow] ; 
292 -> 293 ; 
294 [label="SQLQuery
SELECT tab_1587.nr, tab_1587.producer, tab_1589.propertyTex5 
FROM PRODUCTTYPEPRODUCT AS tab_1588, PRODUCT AS tab_1587, Product AS tab_1589  
WHERE tab_1588.producttype = 57 AND tab_1588.product = tab_1587.nr AND tab_1587.nr = tab_1589.nr AND tab_1587.producer = tab_1589.producer
56", color = yellow] ; 
293 -> 294 ; 
295 [label="PhyMongoDBEval
offer
[{ \"$match\": { \"producer\": %s, \"product\": %s } }]
[nr, product, producer, vendor]
1203", color = yellow] ; 
293 -> 295 ; 
296 [label="FunctionCallBindAccess
(<http://www4.wiwiss.fu-berlin.de/bizer/bsbm/v01/instances/dataFromVendor{1}/Offer{0}>, \"{2}\")", color = yellow] ; 
291 -> 296 ; 
297 [label="FunctionCallBindAccess
AddConstant{1=(\"<http://www4.wiwiss.fu-berlin.de/bizer/bsbm/v01/vocabulary/productPropertyTextual5>\")}", color = yellow] ; 
290 -> 297 ; 
299 [label="BindAccessEval", color = yellow] ; 
1 -> 299 ; 
300 [label="BindAccessEval", color = yellow] ; 
299 -> 300 ; 
301 [label="Project
[2, 3, 6]", color = yellow] ; 
300 -> 301 ; 
302 [label="RightBindJoin 
[0, 1]
1203", color = yellow] ; 
301 -> 302 ; 
303 [label="SQLQuery
SELECT tab_1590.nr, tab_1590.producer, tab_1592.propertyTex1 
FROM Product AS tab_1592, PRODUCTTYPEPRODUCT AS tab_1591, PRODUCT AS tab_1590  
WHERE tab_1591.producttype = 57 AND tab_1591.product = tab_1590.nr AND tab_1590.producer = tab_1592.producer AND tab_1590.nr = tab_1592.nr
56", color = yellow] ; 
302 -> 303 ; 
304 [label="PhyMongoDBEval
offer
[{ \"$match\": { \"product\": %s, \"producer\": %s } }]
[nr, product, producer, vendor]
1203", color = yellow] ; 
302 -> 304 ; 
305 [label="FunctionCallBindAccess
(<http://www4.wiwiss.fu-berlin.de/bizer/bsbm/v01/instances/dataFromVendor{2}/Offer{1}>, \"{0}\")", color = yellow] ; 
300 -> 305 ; 
306 [label="FunctionCallBindAccess
AddConstant{1=(\"<http://www4.wiwiss.fu-berlin.de/bizer/bsbm/v01/vocabulary/productPropertyTextual1>\")}", color = yellow] ; 
299 -> 306 ; 
308 [label="BindAccessEval", color = yellow] ; 
1 -> 308 ; 
309 [label="BindAccessEval", color = yellow] ; 
308 -> 309 ; 
310 [label="Project
[3, 6, 2]", color = yellow] ; 
309 -> 310 ; 
311 [label="RightBindJoin 
[0, 1]
915", color = yellow] ; 
310 -> 311 ; 
312 [label="SQLQuery
SELECT tab_1593.nr, tab_1593.producer, tab_1595.propertyTex1 
FROM Product AS tab_1595, PRODUCT AS tab_1593, PRODUCTTYPEPRODUCT AS tab_1594  
WHERE tab_1594.producttype = 56 AND tab_1594.product = tab_1593.nr AND tab_1593.producer = tab_1595.producer AND tab_1593.nr = tab_1595.nr
46", color = yellow] ; 
311 -> 312 ; 
313 [label="PhyMongoDBEval
offer
[{ \"$match\": { \"product\": %s, \"producer\": %s } }]
[nr, product, producer, vendor]
915", color = yellow] ; 
311 -> 313 ; 
314 [label="FunctionCallBindAccess
(<http://www4.wiwiss.fu-berlin.de/bizer/bsbm/v01/instances/dataFromVendor{1}/Offer{0}>, \"{2}\")", color = yellow] ; 
309 -> 314 ; 
315 [label="FunctionCallBindAccess
AddConstant{1=(\"<http://www4.wiwiss.fu-berlin.de/bizer/bsbm/v01/vocabulary/productPropertyTextual>\")}", color = yellow] ; 
308 -> 315 ; 
317 [label="BindAccessEval", color = yellow] ; 
1 -> 317 ; 
318 [label="BindAccessEval", color = yellow] ; 
317 -> 318 ; 
319 [label="Project
[3, 6, 2]", color = yellow] ; 
318 -> 319 ; 
320 [label="RightBindJoin 
[1, 0]
915", color = yellow] ; 
319 -> 320 ; 
321 [label="SQLQuery
SELECT tab_1596.nr, tab_1596.producer, tab_1598.propertyTex4 
FROM PRODUCTTYPEPRODUCT AS tab_1597, PRODUCT AS tab_1596, Product AS tab_1598  
WHERE tab_1597.producttype = 56 AND tab_1597.product = tab_1596.nr AND tab_1596.nr = tab_1598.nr AND tab_1596.producer = tab_1598.producer
46", color = yellow] ; 
320 -> 321 ; 
322 [label="PhyMongoDBEval
offer
[{ \"$match\": { \"producer\": %s, \"product\": %s } }]
[nr, product, producer, vendor]
915", color = yellow] ; 
320 -> 322 ; 
323 [label="FunctionCallBindAccess
(<http://www4.wiwiss.fu-berlin.de/bizer/bsbm/v01/instances/dataFromVendor{1}/Offer{0}>, \"{2}\")", color = yellow] ; 
318 -> 323 ; 
324 [label="FunctionCallBindAccess
AddConstant{1=(\"<http://www4.wiwiss.fu-berlin.de/bizer/bsbm/v01/vocabulary/productPropertyTextual4>\")}", color = yellow] ; 
317 -> 324 ; 
326 [label="BindAccessEval", color = yellow] ; 
1 -> 326 ; 
327 [label="BindAccessEval", color = yellow] ; 
326 -> 327 ; 
328 [label="Project
[2, 3, 6]", color = yellow] ; 
327 -> 328 ; 
329 [label="RightBindJoin 
[0, 1]
915", color = yellow] ; 
328 -> 329 ; 
330 [label="SQLQuery
SELECT tab_1530.nr, tab_1530.producer, tab_1532.propertyTex5 
FROM PRODUCTTYPEPRODUCT AS tab_1531, PRODUCT AS tab_1530, Product AS tab_1532  
WHERE tab_1531.producttype = 56 AND tab_1531.product = tab_1530.nr AND tab_1530.producer = tab_1532.producer AND tab_1530.nr = tab_1532.nr
46", color = yellow] ; 
329 -> 330 ; 
331 [label="PhyMongoDBEval
offer
[{ \"$match\": { \"product\": %s, \"producer\": %s } }]
[nr, product, producer, vendor]
915", color = yellow] ; 
329 -> 331 ; 
332 [label="FunctionCallBindAccess
(<http://www4.wiwiss.fu-berlin.de/bizer/bsbm/v01/instances/dataFromVendor{2}/Offer{1}>, \"{0}\")", color = yellow] ; 
327 -> 332 ; 
333 [label="FunctionCallBindAccess
AddConstant{1=(\"<http://www4.wiwiss.fu-berlin.de/bizer/bsbm/v01/vocabulary/productPropertyTextual>\")}", color = yellow] ; 
326 -> 333 ; 
335 [label="BindAccessEval", color = yellow] ; 
1 -> 335 ; 
336 [label="BindAccessEval", color = yellow] ; 
335 -> 336 ; 
337 [label="Project
[3, 6, 2]", color = yellow] ; 
336 -> 337 ; 
338 [label="RightBindJoin 
[0, 1]
1203", color = yellow] ; 
337 -> 338 ; 
339 [label="SQLQuery
SELECT tab_1599.nr, tab_1599.producer, tab_1601.propertyTex4 
FROM PRODUCTTYPEPRODUCT AS tab_1600, PRODUCT AS tab_1599, Product AS tab_1601  
WHERE tab_1600.producttype = 57 AND tab_1600.product = tab_1599.nr AND tab_1599.nr = tab_1601.nr AND tab_1599.producer = tab_1601.producer
56", color = yellow] ; 
338 -> 339 ; 
340 [label="PhyMongoDBEval
offer
[{ \"$match\": { \"product\": %s, \"producer\": %s } }]
[nr, product, producer, vendor]
1203", color = yellow] ; 
338 -> 340 ; 
341 [label="FunctionCallBindAccess
(<http://www4.wiwiss.fu-berlin.de/bizer/bsbm/v01/instances/dataFromVendor{1}/Offer{0}>, \"{2}\")", color = yellow] ; 
336 -> 341 ; 
342 [label="FunctionCallBindAccess
AddConstant{1=(\"<http://www4.wiwiss.fu-berlin.de/bizer/bsbm/v01/vocabulary/productPropertyTextual>\")}", color = yellow] ; 
335 -> 342 ; 
344 [label="BindAccessEval", color = yellow] ; 
1 -> 344 ; 
345 [label="BindAccessEval", color = yellow] ; 
344 -> 345 ; 
346 [label="SQLQuery
SELECT O.nr, O.vendor, P.propertyNum4 
FROM Offer AS O, Product AS P, Producer AS PR, PRODUCTTYPEPRODUCT AS PTP  
WHERE P.nr = O.product AND PR.nr = P.producer AND P.nr = PTP.product AND PTP.producttype=56
915", color = yellow] ; 
345 -> 346 ; 
347 [label="FunctionCallBindAccess
(<http://www4.wiwiss.fu-berlin.de/bizer/bsbm/v01/instances/dataFromVendor{1}/Offer{0}>, \"{2}\")", color = yellow] ; 
345 -> 347 ; 
348 [label="FunctionCallBindAccess
AddConstant{1=(\"<http://www4.wiwiss.fu-berlin.de/bizer/bsbm/v01/vocabulary/productPropertyNumeric>\")}", color = yellow] ; 
344 -> 348 ; 
350 [label="BindAccessEval", color = yellow] ; 
1 -> 350 ; 
351 [label="BindAccessEval", color = yellow] ; 
350 -> 351 ; 
352 [label="SQLQuery
SELECT O.nr, O.vendor, P.propertyNum3 
FROM Offer AS O, Product AS P, Producer AS PR, PRODUCTTYPEPRODUCT AS PTP  
WHERE P.nr = O.product AND PR.nr = P.producer AND P.nr = PTP.product AND PTP.producttype=57
1203", color = yellow] ; 
351 -> 352 ; 
353 [label="FunctionCallBindAccess
(<http://www4.wiwiss.fu-berlin.de/bizer/bsbm/v01/instances/dataFromVendor{1}/Offer{0}>, \"{2}\")", color = yellow] ; 
351 -> 353 ; 
354 [label="FunctionCallBindAccess
AddConstant{1=(\"<http://www4.wiwiss.fu-berlin.de/bizer/bsbm/v01/vocabulary/productPropertyNumeric>\")}", color = yellow] ; 
350 -> 354 ; 
}
