<?xml version="1.0" encoding="UTF-8" standalone="no"?>
<!DOCTYPE svg PUBLIC "-//W3C//DTD SVG 1.1//EN"
 "http://www.w3.org/Graphics/SVG/1.1/DTD/svg11.dtd">
<!-- Generated by graphviz version 2.40.1 (20161225.0304)
 -->
<!-- Title: g Pages: 1 -->
<svg width="2394pt" height="186pt"
 viewBox="0.00 0.00 2393.50 186.00" xmlns="http://www.w3.org/2000/svg" xmlns:xlink="http://www.w3.org/1999/xlink">
<g id="graph0" class="graph" transform="scale(1 1) rotate(0) translate(4 182)">
<title>g</title>
<polygon fill="#ffffff" stroke="transparent" points="-4,4 -4,-182 2389.5,-182 2389.5,4 -4,4"/>
<text text-anchor="middle" x="1192.75" y="-7.8" font-family="Times,serif" font-size="14.00" fill="#000000">18:3:21.178</text>
<!-- 0 -->
<g id="node1" class="node">
<title>0</title>
<polygon fill="none" stroke="#ffff00" stroke-width="2" points="1231,-178 1125,-178 1125,-142 1231,-142 1231,-178"/>
<text text-anchor="middle" x="1178" y="-156.3" font-family="Times,serif" font-size="14.00" fill="#000000">BindAccessEval</text>
</g>
<!-- 1 -->
<g id="node2" class="node">
<title>1</title>
<polygon fill="none" stroke="#ffff00" stroke-width="2" points="1154,-106 0,-106 0,-23 1154,-23 1154,-106"/>
<text text-anchor="middle" x="577" y="-90.8" font-family="Times,serif" font-size="14.00" fill="#000000">SQLQuery</text>
<text text-anchor="middle" x="577" y="-75.8" font-family="Times,serif" font-size="14.00" fill="#000000">SELECT DISTINCT tab_2423.nr, tab_2422.name, tab_2422.publisher, tab_2421.product, tab_2421.producer, tab_2421.title, tab_2424.label </text>
<text text-anchor="middle" x="577" y="-60.8" font-family="Times,serif" font-size="14.00" fill="#000000">FROM Person AS tab_2422, Product AS tab_2424, Review AS tab_2423, Review AS tab_2421 </text>
<text text-anchor="middle" x="577" y="-45.8" font-family="Times,serif" font-size="14.00" fill="#000000">WHERE tab_2423.person = tab_2422.nr AND tab_2422.publisher = tab_2421.publisher AND tab_2423.nr = tab_2421.nr AND tab_2421.producer = tab_2424.producer AND tab_2421.product = tab_2424.nr</text>
<text text-anchor="middle" x="577" y="-30.8" font-family="Times,serif" font-size="14.00" fill="#000000">28100</text>
</g>
<!-- 0&#45;&gt;1 -->
<g id="edge1" class="edge">
<title>0&#45;&gt;1</title>
<path fill="none" stroke="#000000" d="M1124.9289,-151.5669C1062.1248,-141.5872 952.8423,-124.222 848.3147,-107.6124"/>
<polygon fill="#000000" stroke="#000000" points="848.641,-104.1204 838.2157,-106.0076 847.5425,-111.0337 848.641,-104.1204"/>
</g>
<!-- 2 -->
<g id="node3" class="node">
<title>2</title>
<polygon fill="none" stroke="#ffff00" stroke-width="2" points="2385.5,-83.5 1172.5,-83.5 1172.5,-45.5 2385.5,-45.5 2385.5,-83.5"/>
<text text-anchor="middle" x="1779" y="-68.3" font-family="Times,serif" font-size="14.00" fill="#000000">FunctionCallBindAccess</text>
<text text-anchor="middle" x="1779" y="-53.3" font-family="Times,serif" font-size="14.00" fill="#000000">(&lt;http://www4.wiwiss.fu&#45;berlin.de/bizer/bsbm/v01/instances/dataFromRatingSite{2}/Review{0}&gt;, &lt;http://www4.wiwiss.fu&#45;berlin.de/bizer/bsbm/v01/instances/dataFromProducer{4}/Product{3}&gt;, &quot;{6}&quot;, &quot;{1}&quot;, &quot;{5}&quot;)</text>
</g>
<!-- 0&#45;&gt;2 -->
<g id="edge2" class="edge">
<title>0&#45;&gt;2</title>
<path fill="none" stroke="#000000" d="M1231.0711,-151.5669C1324.0298,-136.7956 1518.8138,-105.8441 1649.2888,-85.1113"/>
<polygon fill="#000000" stroke="#000000" points="1650.0256,-88.5383 1659.3524,-83.5122 1648.927,-81.625 1650.0256,-88.5383"/>
</g>
</g>
</svg>
