<?xml version="1.0" encoding="UTF-8" standalone="no"?>
<!DOCTYPE svg PUBLIC "-//W3C//DTD SVG 1.1//EN"
 "http://www.w3.org/Graphics/SVG/1.1/DTD/svg11.dtd">
<!-- Generated by graphviz version 2.40.1 (20161225.0304)
 -->
<!-- Title: g Pages: 1 -->
<svg width="1452pt" height="216pt"
 viewBox="0.00 0.00 1452.00 216.00" xmlns="http://www.w3.org/2000/svg" xmlns:xlink="http://www.w3.org/1999/xlink">
<g id="graph0" class="graph" transform="scale(1 1) rotate(0) translate(4 212)">
<title>g</title>
<polygon fill="#ffffff" stroke="transparent" points="-4,4 -4,-212 1448,-212 1448,4 -4,4"/>
<text text-anchor="middle" x="722" y="-7.8" font-family="Times,serif" font-size="14.00" fill="#000000">18:3:21.890</text>
<!-- 0 -->
<g id="node1" class="node">
<title>0</title>
<polygon fill="none" stroke="#ffff00" stroke-width="2" points="564.5,-208 458.5,-208 458.5,-172 564.5,-172 564.5,-208"/>
<text text-anchor="middle" x="511.5" y="-186.3" font-family="Times,serif" font-size="14.00" fill="#000000">BindAccessEval</text>
</g>
<!-- 1 -->
<g id="node2" class="node">
<title>1</title>
<polygon fill="none" stroke="#ffff00" stroke-width="2" points="293,-136 0,-136 0,-23 293,-23 293,-136"/>
<text text-anchor="middle" x="146.5" y="-120.8" font-family="Times,serif" font-size="14.00" fill="#000000">SQLQuery</text>
<text text-anchor="middle" x="146.5" y="-105.8" font-family="Times,serif" font-size="14.00" fill="#000000">SELECT publisher, nr, producer, product, rating2 </text>
<text text-anchor="middle" x="146.5" y="-90.8" font-family="Times,serif" font-size="14.00" fill="#000000">FROM Review </text>
<text text-anchor="middle" x="146.5" y="-75.8" font-family="Times,serif" font-size="14.00" fill="#000000">UNION</text>
<text text-anchor="middle" x="146.5" y="-60.8" font-family="Times,serif" font-size="14.00" fill="#000000">SELECT publisher, nr, producer, product, rating1 </text>
<text text-anchor="middle" x="146.5" y="-45.8" font-family="Times,serif" font-size="14.00" fill="#000000">FROM Review</text>
<text text-anchor="middle" x="146.5" y="-30.8" font-family="Times,serif" font-size="14.00" fill="#000000">52208</text>
</g>
<!-- 0&#45;&gt;1 -->
<g id="edge1" class="edge">
<title>0&#45;&gt;1</title>
<path fill="none" stroke="#000000" d="M458.4537,-177.8794C418.0044,-168.2927 360.779,-153.9928 302.9001,-136.3721"/>
<polygon fill="#000000" stroke="#000000" points="303.8175,-132.9925 293.2304,-133.3986 301.76,-139.6833 303.8175,-132.9925"/>
</g>
<!-- 2 -->
<g id="node3" class="node">
<title>2</title>
<polygon fill="none" stroke="#ffff00" stroke-width="2" points="1444,-98.5 311,-98.5 311,-60.5 1444,-60.5 1444,-98.5"/>
<text text-anchor="middle" x="877.5" y="-83.3" font-family="Times,serif" font-size="14.00" fill="#000000">FunctionCallBindAccess</text>
<text text-anchor="middle" x="877.5" y="-68.3" font-family="Times,serif" font-size="14.00" fill="#000000">(&lt;http://www4.wiwiss.fu&#45;berlin.de/bizer/bsbm/v01/instances/dataFromRatingSite{0}/Review{1}&gt;, &lt;http://www4.wiwiss.fu&#45;berlin.de/bizer/bsbm/v01/instances/dataFromProducer{2}/Product{3}&gt;, &quot;{4}&quot;)</text>
</g>
<!-- 0&#45;&gt;2 -->
<g id="edge2" class="edge">
<title>0&#45;&gt;2</title>
<path fill="none" stroke="#000000" d="M564.7195,-173.9324C627.9638,-154.8381 733.8152,-122.8802 804.6319,-101.4998"/>
<polygon fill="#000000" stroke="#000000" points="805.8222,-104.7965 814.3838,-98.5556 803.799,-98.0953 805.8222,-104.7965"/>
</g>
</g>
</svg>
