digraph  g{ graph[label = "18:3:23.38"]
node [shape=rectangle, color=black, fontcolor=black, style=bold] edge [color=black] 0 [label="BindAccessEval", color = yellow] ; 
1 [label="HashDistinct", color = yellow] ; 
0 -> 1 ; 
2 [label="Project
[3, 4, 5, 6, 7, 1]", color = yellow] ; 
1 -> 2 ; 
3 [label="RightBindJoin 
[0, 2]
56200", color = yellow] ; 
2 -> 3 ; 
4 [label="SQLQuery
SELECT nr, label, producer 
FROM Product
2810", color = yellow] ; 
3 -> 4 ; 
5 [label="PhyMongoDBEval
offer
[{ \"$match\": { \"product\": %s, \"producer\": %s } }]
[nr, product, producer, vendor, price]
56200", color = yellow] ; 
3 -> 5 ; 
6 [label="FunctionCallBindAccess
(<http://www4.wiwiss.fu-berlin.de/bizer/bsbm/v01/instances/dataFromVendor{3}/Offer{0}>, <http://www4.wiwiss.fu-berlin.de/bizer/bsbm/v01/instances/dataFromProducer{2}/Product{1}>, \"{5}\", <http://www4.wiwiss.fu-berlin.de/bizer/bsbm/v01/instances/dataFromVendor{3}/Vendor{3}>, \"{4}\")", color = yellow] ; 
0 -> 6 ; 
}
