<?xml version="1.0" encoding="UTF-8" standalone="no"?>
<!DOCTYPE svg PUBLIC "-//W3C//DTD SVG 1.1//EN"
 "http://www.w3.org/Graphics/SVG/1.1/DTD/svg11.dtd">
<!-- Generated by graphviz version 2.40.1 (20161225.0304)
 -->
<!-- Title: g Pages: 1 -->
<svg width="12118pt" height="600pt"
 viewBox="0.00 0.00 12118.00 600.00" xmlns="http://www.w3.org/2000/svg" xmlns:xlink="http://www.w3.org/1999/xlink">
<g id="graph0" class="graph" transform="scale(1 1) rotate(0) translate(4 596)">
<title>g</title>
<polygon fill="#ffffff" stroke="transparent" points="-4,4 -4,-596 12114,-596 12114,4 -4,4"/>
<text text-anchor="middle" x="6055" y="-7.8" font-family="Times,serif" font-size="14.00" fill="#000000">18:4:6.334</text>
<!-- 0 -->
<g id="node1" class="node">
<title>0</title>
<polygon fill="none" stroke="#ffff00" stroke-width="2" points="6380,-592 6274,-592 6274,-556 6380,-556 6380,-592"/>
<text text-anchor="middle" x="6327" y="-570.3" font-family="Times,serif" font-size="14.00" fill="#000000">BindAccessEval</text>
</g>
<!-- 1 -->
<g id="node2" class="node">
<title>1</title>
<polygon fill="none" stroke="#ffff00" stroke-width="2" points="6166.5,-519 6079.5,-519 6079.5,-483 6166.5,-483 6166.5,-519"/>
<text text-anchor="middle" x="6123" y="-497.3" font-family="Times,serif" font-size="14.00" fill="#000000">HashDistinct</text>
</g>
<!-- 0&#45;&gt;1 -->
<g id="edge1" class="edge">
<title>0&#45;&gt;1</title>
<path fill="none" stroke="#000000" d="M6275.9459,-555.9906C6248.7331,-546.3617 6214.4529,-534.1857 6176.4284,-520.5034"/>
<polygon fill="#000000" stroke="#000000" points="6177.2769,-517.089 6166.6825,-516.993 6174.9047,-523.6748 6177.2769,-517.089"/>
</g>
<!-- 22 -->
<g id="node20" class="node">
<title>22</title>
<polygon fill="none" stroke="#ffff00" stroke-width="2" points="6879.5,-520 6184.5,-520 6184.5,-482 6879.5,-482 6879.5,-520"/>
<text text-anchor="middle" x="6532" y="-504.8" font-family="Times,serif" font-size="14.00" fill="#000000">FunctionCallBindAccess</text>
<text text-anchor="middle" x="6532" y="-489.8" font-family="Times,serif" font-size="14.00" fill="#000000">(&lt;http://www4.wiwiss.fu&#45;berlin.de/bizer/bsbm/v01/instances/dataFromVendor{0}/Offer{1}&gt;, &lt;{2}&gt;, &quot;{3}&quot;, &quot;{4}&quot;, &quot;{5}&quot;)</text>
</g>
<!-- 0&#45;&gt;22 -->
<g id="edge19" class="edge">
<title>0&#45;&gt;22</title>
<path fill="none" stroke="#000000" d="M6377.6742,-555.9551C6405.1577,-546.1682 6439.3871,-533.9792 6468.6213,-523.569"/>
<polygon fill="#000000" stroke="#000000" points="6470.0806,-526.7647 6478.327,-520.1128 6467.7323,-520.1703 6470.0806,-526.7647"/>
</g>
<!-- 2 -->
<g id="node3" class="node">
<title>2</title>
<polygon fill="none" stroke="#ffff00" stroke-width="2" points="6150,-446 6096,-446 6096,-410 6150,-410 6150,-446"/>
<text text-anchor="middle" x="6123" y="-424.3" font-family="Times,serif" font-size="14.00" fill="#000000">Union</text>
</g>
<!-- 1&#45;&gt;2 -->
<g id="edge2" class="edge">
<title>1&#45;&gt;2</title>
<path fill="none" stroke="#000000" d="M6123,-482.9551C6123,-474.8828 6123,-465.1764 6123,-456.1817"/>
<polygon fill="#000000" stroke="#000000" points="6126.5001,-456.0903 6123,-446.0904 6119.5001,-456.0904 6126.5001,-456.0903"/>
</g>
<!-- 3 -->
<g id="node4" class="node">
<title>3</title>
<polygon fill="none" stroke="#ffff00" stroke-width="2" points="3840,-374 3736,-374 3736,-336 3840,-336 3840,-374"/>
<text text-anchor="middle" x="3788" y="-358.8" font-family="Times,serif" font-size="14.00" fill="#000000">Project</text>
<text text-anchor="middle" x="3788" y="-343.8" font-family="Times,serif" font-size="14.00" fill="#000000">[6, 5, 9, 7, 8, 2]</text>
</g>
<!-- 2&#45;&gt;3 -->
<g id="edge3" class="edge">
<title>2&#45;&gt;3</title>
<path fill="none" stroke="#000000" d="M6095.9694,-427.1549C5863.0202,-419.8722 4194.7507,-367.7164 3850.1721,-356.9437"/>
<polygon fill="#000000" stroke="#000000" points="3850.2334,-353.444 3840.1289,-356.6297 3850.0146,-360.4406 3850.2334,-353.444"/>
</g>
<!-- 8 -->
<g id="node8" class="node">
<title>8</title>
<polygon fill="none" stroke="#ffff00" stroke-width="2" points="5417,-374 5313,-374 5313,-336 5417,-336 5417,-374"/>
<text text-anchor="middle" x="5365" y="-358.8" font-family="Times,serif" font-size="14.00" fill="#000000">Project</text>
<text text-anchor="middle" x="5365" y="-343.8" font-family="Times,serif" font-size="14.00" fill="#000000">[6, 5, 9, 7, 8, 2]</text>
</g>
<!-- 2&#45;&gt;8 -->
<g id="edge7" class="edge">
<title>2&#45;&gt;8</title>
<path fill="none" stroke="#000000" d="M6095.5746,-425.3588C5986.7327,-414.8766 5583.5821,-376.0508 5427.3872,-361.0083"/>
<polygon fill="#000000" stroke="#000000" points="5427.3077,-357.4845 5417.0182,-360.0097 5426.6366,-364.4523 5427.3077,-357.4845"/>
</g>
<!-- 13 -->
<g id="node12" class="node">
<title>13</title>
<polygon fill="none" stroke="#ffff00" stroke-width="2" points="6365,-374 6261,-374 6261,-336 6365,-336 6365,-374"/>
<text text-anchor="middle" x="6313" y="-358.8" font-family="Times,serif" font-size="14.00" fill="#000000">Project</text>
<text text-anchor="middle" x="6313" y="-343.8" font-family="Times,serif" font-size="14.00" fill="#000000">[6, 5, 9, 7, 8, 2]</text>
</g>
<!-- 2&#45;&gt;13 -->
<g id="edge11" class="edge">
<title>2&#45;&gt;13</title>
<path fill="none" stroke="#000000" d="M6150.2224,-417.5409C6177.1409,-407.1985 6219.2083,-391.0358 6253.834,-377.7322"/>
<polygon fill="#000000" stroke="#000000" points="6255.3047,-380.9167 6263.3841,-374.063 6252.7941,-374.3824 6255.3047,-380.9167"/>
</g>
<!-- 18 -->
<g id="node16" class="node">
<title>18</title>
<polygon fill="none" stroke="#ffff00" stroke-width="2" points="8037,-374 7933,-374 7933,-336 8037,-336 8037,-374"/>
<text text-anchor="middle" x="7985" y="-358.8" font-family="Times,serif" font-size="14.00" fill="#000000">Project</text>
<text text-anchor="middle" x="7985" y="-343.8" font-family="Times,serif" font-size="14.00" fill="#000000">[6, 5, 9, 7, 8, 2]</text>
</g>
<!-- 2&#45;&gt;18 -->
<g id="edge15" class="edge">
<title>2&#45;&gt;18</title>
<path fill="none" stroke="#000000" d="M6150.0396,-426.9399C6351.9147,-419.0254 7624.1099,-369.1488 7922.4467,-357.4524"/>
<polygon fill="#000000" stroke="#000000" points="7922.7901,-360.9417 7932.6453,-357.0526 7922.5158,-353.9471 7922.7901,-360.9417"/>
</g>
<!-- 4 -->
<g id="node5" class="node">
<title>4</title>
<polygon fill="none" stroke="#ffff00" stroke-width="2" points="2003.5,-300 1904.5,-300 1904.5,-247 2003.5,-247 2003.5,-300"/>
<text text-anchor="middle" x="1954" y="-284.8" font-family="Times,serif" font-size="14.00" fill="#000000">RightBindJoin </text>
<text text-anchor="middle" x="1954" y="-269.8" font-family="Times,serif" font-size="14.00" fill="#000000">[1, 0]</text>
<text text-anchor="middle" x="1954" y="-254.8" font-family="Times,serif" font-size="14.00" fill="#000000">0</text>
</g>
<!-- 3&#45;&gt;4 -->
<g id="edge4" class="edge">
<title>3&#45;&gt;4</title>
<path fill="none" stroke="#000000" d="M3735.5791,-352.6705C3472.1501,-340.9641 2294.479,-288.6303 2014.0687,-276.1694"/>
<polygon fill="#000000" stroke="#000000" points="2013.8462,-272.6561 2003.7006,-275.7086 2013.5354,-279.6492 2013.8462,-272.6561"/>
</g>
<!-- 5 -->
<g id="node6" class="node">
<title>5</title>
<polygon fill="none" stroke="#ffff00" stroke-width="2" points="876,-158.5 0,-158.5 0,-75.5 876,-75.5 876,-158.5"/>
<text text-anchor="middle" x="438" y="-143.3" font-family="Times,serif" font-size="14.00" fill="#000000">SQLQuery</text>
<text text-anchor="middle" x="438" y="-128.3" font-family="Times,serif" font-size="14.00" fill="#000000">SELECT tab_2737.nr, tab_2737.producer, tab_2737.propertyNum2 </text>
<text text-anchor="middle" x="438" y="-113.3" font-family="Times,serif" font-size="14.00" fill="#000000">FROM Product AS tab_2737, PRODUCTTYPEPRODUCT AS tab_2739, PRODUCT AS tab_2738 &#160;</text>
<text text-anchor="middle" x="438" y="-98.3" font-family="Times,serif" font-size="14.00" fill="#000000">WHERE tab_2739.producttype = 110 AND tab_2739.product = tab_2738.nr AND tab_2737.producer = tab_2738.producer AND tab_2737.nr = tab_2738.nr</text>
<text text-anchor="middle" x="438" y="-83.3" font-family="Times,serif" font-size="14.00" fill="#000000">30</text>
</g>
<!-- 4&#45;&gt;5 -->
<g id="edge5" class="edge">
<title>4&#45;&gt;5</title>
<path fill="none" stroke="#000000" d="M1904.2377,-271.5765C1721.2777,-264.3508 1086.084,-237.8692 885,-211 795.5884,-199.0527 697.3804,-179.1635 615.8463,-160.7492"/>
<polygon fill="#000000" stroke="#000000" points="616.5142,-157.3118 605.9875,-158.5114 614.9648,-164.1382 616.5142,-157.3118"/>
</g>
<!-- 6 -->
<g id="node7" class="node">
<title>6</title>
<polygon fill="none" stroke="#ffff00" stroke-width="2" points="3014,-211 894,-211 894,-23 3014,-23 3014,-211"/>
<text text-anchor="middle" x="1954" y="-195.8" font-family="Times,serif" font-size="14.00" fill="#000000">PhyMongoDBEval</text>
<text text-anchor="middle" x="1954" y="-180.8" font-family="Times,serif" font-size="14.00" fill="#000000">countrytype</text>
<text text-anchor="middle" x="1954" y="-165.8" font-family="Times,serif" font-size="14.00" fill="#000000">[{&quot;$match&quot;:{&quot;countrytype&quot;:122}},</text>
<text text-anchor="middle" x="1954" y="-150.8" font-family="Times,serif" font-size="14.00" fill="#000000">{$lookup: { from: &quot;productproducercountry&quot;, let: { &quot;country&quot;: &quot;$country&quot;}, pipeline: [ { $match: {$expr: {$eq: [&quot;$$country&quot;, &quot;$country&quot;] } } } ], as: &quot;mongojoin377&quot;}},</text>
<text text-anchor="middle" x="1954" y="-135.8" font-family="Times,serif" font-size="14.00" fill="#000000">{$unwind: &quot;$mongojoin377&quot;},</text>
<text text-anchor="middle" x="1954" y="-120.8" font-family="Times,serif" font-size="14.00" fill="#000000">{$lookup: { from: &quot;productfeatureproduct&quot;, let: { &quot;mongojoin377_nr&quot;: &quot;$mongojoin377.nr&quot;, &quot;mongojoin377_producer&quot;: &quot;$mongojoin377.producer&quot;}, pipeline: [ { $match: {$expr: {$eq: [&quot;$label&quot;, &quot;biographies&quot;] } } }, { $match: {$expr: {$eq: [&quot;$$mongojoin377_nr&quot;, &quot;$nr&quot;] } } }, { $match: {$expr: {$eq: [&quot;$$mongojoin377_producer&quot;, &quot;$producer&quot;] } } } ], as: &quot;mongojoin378&quot;}},</text>
<text text-anchor="middle" x="1954" y="-105.8" font-family="Times,serif" font-size="14.00" fill="#000000">{$unwind: &quot;$mongojoin378&quot;},</text>
<text text-anchor="middle" x="1954" y="-90.8" font-family="Times,serif" font-size="14.00" fill="#000000">{$lookup: { from: &quot;offer&quot;, let: { &quot;mongojoin378_nr&quot;: &quot;$mongojoin378.nr&quot;, &quot;mongojoin378_producer&quot;: &quot;$mongojoin378.producer&quot;}, pipeline: [ { $match: {$expr: {$eq: [&quot;$$mongojoin378_nr&quot;, &quot;$product&quot;] } } }, { $match: {$expr: {$eq: [&quot;$$mongojoin378_producer&quot;, &quot;$producer&quot;] } } } ], as: &quot;mongojoin379&quot;}},</text>
<text text-anchor="middle" x="1954" y="-75.8" font-family="Times,serif" font-size="14.00" fill="#000000">{$unwind: &quot;$mongojoin379&quot;},</text>
<text text-anchor="middle" x="1954" y="-60.8" font-family="Times,serif" font-size="14.00" fill="#000000">{ &quot;$match&quot;: { &quot;mongojoin377.producer&quot;: %s, &quot;mongojoin377.nr&quot;: %s } }]</text>
<text text-anchor="middle" x="1954" y="-45.8" font-family="Times,serif" font-size="14.00" fill="#000000">[mongojoin377.nr, mongojoin377.producer, mongojoin379.nr, mongojoin379.vendor, mongojoin379.price, mongojoin379.deliverydays, mongojoin379.offerwebpage]</text>
<text text-anchor="middle" x="1954" y="-30.8" font-family="Times,serif" font-size="14.00" fill="#000000">0</text>
</g>
<!-- 4&#45;&gt;6 -->
<g id="edge6" class="edge">
<title>4&#45;&gt;6</title>
<path fill="none" stroke="#000000" d="M1954,-246.9519C1954,-239.3948 1954,-230.6733 1954,-221.3979"/>
<polygon fill="#000000" stroke="#000000" points="1957.5001,-221.1446 1954,-211.1446 1950.5001,-221.1447 1957.5001,-221.1446"/>
</g>
<!-- 9 -->
<g id="node9" class="node">
<title>9</title>
<polygon fill="none" stroke="#ffff00" stroke-width="2" points="5035.5,-300 4936.5,-300 4936.5,-247 5035.5,-247 5035.5,-300"/>
<text text-anchor="middle" x="4986" y="-284.8" font-family="Times,serif" font-size="14.00" fill="#000000">RightBindJoin </text>
<text text-anchor="middle" x="4986" y="-269.8" font-family="Times,serif" font-size="14.00" fill="#000000">[0, 1]</text>
<text text-anchor="middle" x="4986" y="-254.8" font-family="Times,serif" font-size="14.00" fill="#000000">0</text>
</g>
<!-- 8&#45;&gt;9 -->
<g id="edge8" class="edge">
<title>8&#45;&gt;9</title>
<path fill="none" stroke="#000000" d="M5312.6996,-343.7533C5242.7829,-328.7185 5119.1606,-302.1348 5045.6814,-286.3339"/>
<polygon fill="#000000" stroke="#000000" points="5046.1691,-282.8588 5035.6567,-284.1782 5044.6974,-289.7024 5046.1691,-282.8588"/>
</g>
<!-- 10 -->
<g id="node10" class="node">
<title>10</title>
<polygon fill="none" stroke="#ffff00" stroke-width="2" points="3908,-158.5 3032,-158.5 3032,-75.5 3908,-75.5 3908,-158.5"/>
<text text-anchor="middle" x="3470" y="-143.3" font-family="Times,serif" font-size="14.00" fill="#000000">SQLQuery</text>
<text text-anchor="middle" x="3470" y="-128.3" font-family="Times,serif" font-size="14.00" fill="#000000">SELECT tab_2740.nr, tab_2740.producer, tab_2742.propertyNum2 </text>
<text text-anchor="middle" x="3470" y="-113.3" font-family="Times,serif" font-size="14.00" fill="#000000">FROM Product AS tab_2742, PRODUCTTYPEPRODUCT AS tab_2741, PRODUCT AS tab_2740 &#160;</text>
<text text-anchor="middle" x="3470" y="-98.3" font-family="Times,serif" font-size="14.00" fill="#000000">WHERE tab_2741.producttype = 110 AND tab_2741.product = tab_2740.nr AND tab_2740.nr = tab_2742.nr AND tab_2740.producer = tab_2742.producer</text>
<text text-anchor="middle" x="3470" y="-83.3" font-family="Times,serif" font-size="14.00" fill="#000000">30</text>
</g>
<!-- 9&#45;&gt;10 -->
<g id="edge9" class="edge">
<title>9&#45;&gt;10</title>
<path fill="none" stroke="#000000" d="M4936.2377,-271.5765C4753.2777,-264.3508 4118.084,-237.8692 3917,-211 3827.5884,-199.0527 3729.3804,-179.1635 3647.8463,-160.7492"/>
<polygon fill="#000000" stroke="#000000" points="3648.5142,-157.3118 3637.9875,-158.5114 3646.9648,-164.1382 3648.5142,-157.3118"/>
</g>
<!-- 11 -->
<g id="node11" class="node">
<title>11</title>
<polygon fill="none" stroke="#ffff00" stroke-width="2" points="6046,-211 3926,-211 3926,-23 6046,-23 6046,-211"/>
<text text-anchor="middle" x="4986" y="-195.8" font-family="Times,serif" font-size="14.00" fill="#000000">PhyMongoDBEval</text>
<text text-anchor="middle" x="4986" y="-180.8" font-family="Times,serif" font-size="14.00" fill="#000000">countrytype</text>
<text text-anchor="middle" x="4986" y="-165.8" font-family="Times,serif" font-size="14.00" fill="#000000">[{&quot;$match&quot;:{&quot;countrytype&quot;:121}},</text>
<text text-anchor="middle" x="4986" y="-150.8" font-family="Times,serif" font-size="14.00" fill="#000000">{$lookup: { from: &quot;productproducercountry&quot;, let: { &quot;country&quot;: &quot;$country&quot;}, pipeline: [ { $match: {$expr: {$eq: [&quot;$$country&quot;, &quot;$country&quot;] } } } ], as: &quot;mongojoin380&quot;}},</text>
<text text-anchor="middle" x="4986" y="-135.8" font-family="Times,serif" font-size="14.00" fill="#000000">{$unwind: &quot;$mongojoin380&quot;},</text>
<text text-anchor="middle" x="4986" y="-120.8" font-family="Times,serif" font-size="14.00" fill="#000000">{$lookup: { from: &quot;productfeatureproduct&quot;, let: { &quot;mongojoin380_producer&quot;: &quot;$mongojoin380.producer&quot;, &quot;mongojoin380_nr&quot;: &quot;$mongojoin380.nr&quot;}, pipeline: [ { $match: {$expr: {$eq: [&quot;$label&quot;, &quot;biographies&quot;] } } }, { $match: {$expr: {$eq: [&quot;$$mongojoin380_producer&quot;, &quot;$producer&quot;] } } }, { $match: {$expr: {$eq: [&quot;$$mongojoin380_nr&quot;, &quot;$nr&quot;] } } } ], as: &quot;mongojoin381&quot;}},</text>
<text text-anchor="middle" x="4986" y="-105.8" font-family="Times,serif" font-size="14.00" fill="#000000">{$unwind: &quot;$mongojoin381&quot;},</text>
<text text-anchor="middle" x="4986" y="-90.8" font-family="Times,serif" font-size="14.00" fill="#000000">{$lookup: { from: &quot;offer&quot;, let: { &quot;mongojoin381_nr&quot;: &quot;$mongojoin381.nr&quot;, &quot;mongojoin381_producer&quot;: &quot;$mongojoin381.producer&quot;}, pipeline: [ { $match: {$expr: {$eq: [&quot;$$mongojoin381_nr&quot;, &quot;$product&quot;] } } }, { $match: {$expr: {$eq: [&quot;$$mongojoin381_producer&quot;, &quot;$producer&quot;] } } } ], as: &quot;mongojoin382&quot;}},</text>
<text text-anchor="middle" x="4986" y="-75.8" font-family="Times,serif" font-size="14.00" fill="#000000">{$unwind: &quot;$mongojoin382&quot;},</text>
<text text-anchor="middle" x="4986" y="-60.8" font-family="Times,serif" font-size="14.00" fill="#000000">{ &quot;$match&quot;: { &quot;mongojoin380.nr&quot;: %s, &quot;mongojoin380.producer&quot;: %s } }]</text>
<text text-anchor="middle" x="4986" y="-45.8" font-family="Times,serif" font-size="14.00" fill="#000000">[mongojoin380.nr, mongojoin380.producer, mongojoin382.nr, mongojoin382.vendor, mongojoin382.price, mongojoin382.deliverydays, mongojoin382.offerwebpage]</text>
<text text-anchor="middle" x="4986" y="-30.8" font-family="Times,serif" font-size="14.00" fill="#000000">0</text>
</g>
<!-- 9&#45;&gt;11 -->
<g id="edge10" class="edge">
<title>9&#45;&gt;11</title>
<path fill="none" stroke="#000000" d="M4986,-246.9519C4986,-239.3948 4986,-230.6733 4986,-221.3979"/>
<polygon fill="#000000" stroke="#000000" points="4989.5001,-221.1446 4986,-211.1446 4982.5001,-221.1447 4989.5001,-221.1446"/>
</g>
<!-- 14 -->
<g id="node13" class="node">
<title>14</title>
<polygon fill="none" stroke="#ffff00" stroke-width="2" points="6551.5,-300 6452.5,-300 6452.5,-247 6551.5,-247 6551.5,-300"/>
<text text-anchor="middle" x="6502" y="-284.8" font-family="Times,serif" font-size="14.00" fill="#000000">RightBindJoin </text>
<text text-anchor="middle" x="6502" y="-269.8" font-family="Times,serif" font-size="14.00" fill="#000000">[1, 0]</text>
<text text-anchor="middle" x="6502" y="-254.8" font-family="Times,serif" font-size="14.00" fill="#000000">0</text>
</g>
<!-- 13&#45;&gt;14 -->
<g id="edge12" class="edge">
<title>13&#45;&gt;14</title>
<path fill="none" stroke="#000000" d="M6357.3121,-335.8919C6382.8968,-324.8593 6415.3956,-310.8453 6443.1088,-298.8949"/>
<polygon fill="#000000" stroke="#000000" points="6444.51,-302.1023 6452.3068,-294.9286 6441.7382,-295.6744 6444.51,-302.1023"/>
</g>
<!-- 15 -->
<g id="node14" class="node">
<title>15</title>
<polygon fill="none" stroke="#ffff00" stroke-width="2" points="6940,-158.5 6064,-158.5 6064,-75.5 6940,-75.5 6940,-158.5"/>
<text text-anchor="middle" x="6502" y="-143.3" font-family="Times,serif" font-size="14.00" fill="#000000">SQLQuery</text>
<text text-anchor="middle" x="6502" y="-128.3" font-family="Times,serif" font-size="14.00" fill="#000000">SELECT tab_2743.nr, tab_2743.producer, tab_2745.propertyNum1 </text>
<text text-anchor="middle" x="6502" y="-113.3" font-family="Times,serif" font-size="14.00" fill="#000000">FROM PRODUCTTYPEPRODUCT AS tab_2744, Product AS tab_2745, PRODUCT AS tab_2743 &#160;</text>
<text text-anchor="middle" x="6502" y="-98.3" font-family="Times,serif" font-size="14.00" fill="#000000">WHERE tab_2744.producttype = 110 AND tab_2744.product = tab_2743.nr AND tab_2743.nr = tab_2745.nr AND tab_2743.producer = tab_2745.producer</text>
<text text-anchor="middle" x="6502" y="-83.3" font-family="Times,serif" font-size="14.00" fill="#000000">30</text>
</g>
<!-- 14&#45;&gt;15 -->
<g id="edge13" class="edge">
<title>14&#45;&gt;15</title>
<path fill="none" stroke="#000000" d="M6502,-246.9519C6502,-225.6263 6502,-195.0274 6502,-168.8781"/>
<polygon fill="#000000" stroke="#000000" points="6505.5001,-168.7319 6502,-158.7319 6498.5001,-168.732 6505.5001,-168.7319"/>
</g>
<!-- 16 -->
<g id="node15" class="node">
<title>16</title>
<polygon fill="none" stroke="#ffff00" stroke-width="2" points="9078,-211 6958,-211 6958,-23 9078,-23 9078,-211"/>
<text text-anchor="middle" x="8018" y="-195.8" font-family="Times,serif" font-size="14.00" fill="#000000">PhyMongoDBEval</text>
<text text-anchor="middle" x="8018" y="-180.8" font-family="Times,serif" font-size="14.00" fill="#000000">countrytype</text>
<text text-anchor="middle" x="8018" y="-165.8" font-family="Times,serif" font-size="14.00" fill="#000000">[{&quot;$match&quot;:{&quot;countrytype&quot;:121}},</text>
<text text-anchor="middle" x="8018" y="-150.8" font-family="Times,serif" font-size="14.00" fill="#000000">{$lookup: { from: &quot;productproducercountry&quot;, let: { &quot;country&quot;: &quot;$country&quot;}, pipeline: [ { $match: {$expr: {$eq: [&quot;$$country&quot;, &quot;$country&quot;] } } } ], as: &quot;mongojoin383&quot;}},</text>
<text text-anchor="middle" x="8018" y="-135.8" font-family="Times,serif" font-size="14.00" fill="#000000">{$unwind: &quot;$mongojoin383&quot;},</text>
<text text-anchor="middle" x="8018" y="-120.8" font-family="Times,serif" font-size="14.00" fill="#000000">{$lookup: { from: &quot;productfeatureproduct&quot;, let: { &quot;mongojoin383_nr&quot;: &quot;$mongojoin383.nr&quot;, &quot;mongojoin383_producer&quot;: &quot;$mongojoin383.producer&quot;}, pipeline: [ { $match: {$expr: {$eq: [&quot;$label&quot;, &quot;biographies&quot;] } } }, { $match: {$expr: {$eq: [&quot;$$mongojoin383_nr&quot;, &quot;$nr&quot;] } } }, { $match: {$expr: {$eq: [&quot;$$mongojoin383_producer&quot;, &quot;$producer&quot;] } } } ], as: &quot;mongojoin384&quot;}},</text>
<text text-anchor="middle" x="8018" y="-105.8" font-family="Times,serif" font-size="14.00" fill="#000000">{$unwind: &quot;$mongojoin384&quot;},</text>
<text text-anchor="middle" x="8018" y="-90.8" font-family="Times,serif" font-size="14.00" fill="#000000">{$lookup: { from: &quot;offer&quot;, let: { &quot;mongojoin384_producer&quot;: &quot;$mongojoin384.producer&quot;, &quot;mongojoin384_nr&quot;: &quot;$mongojoin384.nr&quot;}, pipeline: [ { $match: {$expr: {$eq: [&quot;$$mongojoin384_producer&quot;, &quot;$producer&quot;] } } }, { $match: {$expr: {$eq: [&quot;$$mongojoin384_nr&quot;, &quot;$product&quot;] } } } ], as: &quot;mongojoin385&quot;}},</text>
<text text-anchor="middle" x="8018" y="-75.8" font-family="Times,serif" font-size="14.00" fill="#000000">{$unwind: &quot;$mongojoin385&quot;},</text>
<text text-anchor="middle" x="8018" y="-60.8" font-family="Times,serif" font-size="14.00" fill="#000000">{ &quot;$match&quot;: { &quot;mongojoin383.producer&quot;: %s, &quot;mongojoin383.nr&quot;: %s } }]</text>
<text text-anchor="middle" x="8018" y="-45.8" font-family="Times,serif" font-size="14.00" fill="#000000">[mongojoin383.nr, mongojoin383.producer, mongojoin385.nr, mongojoin385.vendor, mongojoin385.price, mongojoin385.deliverydays, mongojoin385.offerwebpage]</text>
<text text-anchor="middle" x="8018" y="-30.8" font-family="Times,serif" font-size="14.00" fill="#000000">0</text>
</g>
<!-- 14&#45;&gt;16 -->
<g id="edge14" class="edge">
<title>14&#45;&gt;16</title>
<path fill="none" stroke="#000000" d="M6551.5781,-268.3819C6645.1495,-258.7224 6859.7847,-236.5651 7096.767,-212.1009"/>
<polygon fill="#000000" stroke="#000000" points="7097.4046,-215.5538 7106.9923,-211.0453 7096.6857,-208.5908 7097.4046,-215.5538"/>
</g>
<!-- 19 -->
<g id="node17" class="node">
<title>19</title>
<polygon fill="none" stroke="#ffff00" stroke-width="2" points="9583.5,-300 9484.5,-300 9484.5,-247 9583.5,-247 9583.5,-300"/>
<text text-anchor="middle" x="9534" y="-284.8" font-family="Times,serif" font-size="14.00" fill="#000000">RightBindJoin </text>
<text text-anchor="middle" x="9534" y="-269.8" font-family="Times,serif" font-size="14.00" fill="#000000">[0, 1]</text>
<text text-anchor="middle" x="9534" y="-254.8" font-family="Times,serif" font-size="14.00" fill="#000000">0</text>
</g>
<!-- 18&#45;&gt;19 -->
<g id="edge16" class="edge">
<title>18&#45;&gt;19</title>
<path fill="none" stroke="#000000" d="M8037.4256,-352.2416C8272.0034,-339.8994 9224.6589,-289.7759 9474.0224,-276.6557"/>
<polygon fill="#000000" stroke="#000000" points="9474.5258,-280.1341 9484.3281,-276.1135 9474.158,-273.1438 9474.5258,-280.1341"/>
</g>
<!-- 20 -->
<g id="node18" class="node">
<title>20</title>
<polygon fill="none" stroke="#ffff00" stroke-width="2" points="9972,-158.5 9096,-158.5 9096,-75.5 9972,-75.5 9972,-158.5"/>
<text text-anchor="middle" x="9534" y="-143.3" font-family="Times,serif" font-size="14.00" fill="#000000">SQLQuery</text>
<text text-anchor="middle" x="9534" y="-128.3" font-family="Times,serif" font-size="14.00" fill="#000000">SELECT tab_2746.nr, tab_2746.producer, tab_2748.propertyNum1 </text>
<text text-anchor="middle" x="9534" y="-113.3" font-family="Times,serif" font-size="14.00" fill="#000000">FROM PRODUCT AS tab_2746, PRODUCTTYPEPRODUCT AS tab_2747, Product AS tab_2748 &#160;</text>
<text text-anchor="middle" x="9534" y="-98.3" font-family="Times,serif" font-size="14.00" fill="#000000">WHERE tab_2747.producttype = 110 AND tab_2747.product = tab_2746.nr AND tab_2746.producer = tab_2748.producer AND tab_2746.nr = tab_2748.nr</text>
<text text-anchor="middle" x="9534" y="-83.3" font-family="Times,serif" font-size="14.00" fill="#000000">30</text>
</g>
<!-- 19&#45;&gt;20 -->
<g id="edge17" class="edge">
<title>19&#45;&gt;20</title>
<path fill="none" stroke="#000000" d="M9534,-246.9519C9534,-225.6263 9534,-195.0274 9534,-168.8781"/>
<polygon fill="#000000" stroke="#000000" points="9537.5001,-168.7319 9534,-158.7319 9530.5001,-168.732 9537.5001,-168.7319"/>
</g>
<!-- 21 -->
<g id="node19" class="node">
<title>21</title>
<polygon fill="none" stroke="#ffff00" stroke-width="2" points="12110,-211 9990,-211 9990,-23 12110,-23 12110,-211"/>
<text text-anchor="middle" x="11050" y="-195.8" font-family="Times,serif" font-size="14.00" fill="#000000">PhyMongoDBEval</text>
<text text-anchor="middle" x="11050" y="-180.8" font-family="Times,serif" font-size="14.00" fill="#000000">countrytype</text>
<text text-anchor="middle" x="11050" y="-165.8" font-family="Times,serif" font-size="14.00" fill="#000000">[{&quot;$match&quot;:{&quot;countrytype&quot;:122}},</text>
<text text-anchor="middle" x="11050" y="-150.8" font-family="Times,serif" font-size="14.00" fill="#000000">{$lookup: { from: &quot;productproducercountry&quot;, let: { &quot;country&quot;: &quot;$country&quot;}, pipeline: [ { $match: {$expr: {$eq: [&quot;$$country&quot;, &quot;$country&quot;] } } } ], as: &quot;mongojoin386&quot;}},</text>
<text text-anchor="middle" x="11050" y="-135.8" font-family="Times,serif" font-size="14.00" fill="#000000">{$unwind: &quot;$mongojoin386&quot;},</text>
<text text-anchor="middle" x="11050" y="-120.8" font-family="Times,serif" font-size="14.00" fill="#000000">{$lookup: { from: &quot;productfeatureproduct&quot;, let: { &quot;mongojoin386_producer&quot;: &quot;$mongojoin386.producer&quot;, &quot;mongojoin386_nr&quot;: &quot;$mongojoin386.nr&quot;}, pipeline: [ { $match: {$expr: {$eq: [&quot;$label&quot;, &quot;biographies&quot;] } } }, { $match: {$expr: {$eq: [&quot;$$mongojoin386_producer&quot;, &quot;$producer&quot;] } } }, { $match: {$expr: {$eq: [&quot;$$mongojoin386_nr&quot;, &quot;$nr&quot;] } } } ], as: &quot;mongojoin387&quot;}},</text>
<text text-anchor="middle" x="11050" y="-105.8" font-family="Times,serif" font-size="14.00" fill="#000000">{$unwind: &quot;$mongojoin387&quot;},</text>
<text text-anchor="middle" x="11050" y="-90.8" font-family="Times,serif" font-size="14.00" fill="#000000">{$lookup: { from: &quot;offer&quot;, let: { &quot;mongojoin387_nr&quot;: &quot;$mongojoin387.nr&quot;, &quot;mongojoin387_producer&quot;: &quot;$mongojoin387.producer&quot;}, pipeline: [ { $match: {$expr: {$eq: [&quot;$$mongojoin387_nr&quot;, &quot;$product&quot;] } } }, { $match: {$expr: {$eq: [&quot;$$mongojoin387_producer&quot;, &quot;$producer&quot;] } } } ], as: &quot;mongojoin388&quot;}},</text>
<text text-anchor="middle" x="11050" y="-75.8" font-family="Times,serif" font-size="14.00" fill="#000000">{$unwind: &quot;$mongojoin388&quot;},</text>
<text text-anchor="middle" x="11050" y="-60.8" font-family="Times,serif" font-size="14.00" fill="#000000">{ &quot;$match&quot;: { &quot;mongojoin386.nr&quot;: %s, &quot;mongojoin386.producer&quot;: %s } }]</text>
<text text-anchor="middle" x="11050" y="-45.8" font-family="Times,serif" font-size="14.00" fill="#000000">[mongojoin386.nr, mongojoin386.producer, mongojoin388.nr, mongojoin388.vendor, mongojoin388.price, mongojoin388.deliverydays, mongojoin388.offerwebpage]</text>
<text text-anchor="middle" x="11050" y="-30.8" font-family="Times,serif" font-size="14.00" fill="#000000">0</text>
</g>
<!-- 19&#45;&gt;21 -->
<g id="edge18" class="edge">
<title>19&#45;&gt;21</title>
<path fill="none" stroke="#000000" d="M9583.5781,-268.3819C9677.1495,-258.7224 9891.7847,-236.5651 10128.767,-212.1009"/>
<polygon fill="#000000" stroke="#000000" points="10129.4046,-215.5538 10138.9923,-211.0453 10128.6857,-208.5908 10129.4046,-215.5538"/>
</g>
</g>
</svg>
