<?xml version="1.0" encoding="UTF-8" standalone="no"?>
<!DOCTYPE svg PUBLIC "-//W3C//DTD SVG 1.1//EN"
 "http://www.w3.org/Graphics/SVG/1.1/DTD/svg11.dtd">
<!-- Generated by graphviz version 2.40.1 (20161225.0304)
 -->
<!-- Title: g Pages: 1 -->
<svg width="1846pt" height="582pt"
 viewBox="0.00 0.00 1846.00 582.00" xmlns="http://www.w3.org/2000/svg" xmlns:xlink="http://www.w3.org/1999/xlink">
<g id="graph0" class="graph" transform="scale(1 1) rotate(0) translate(4 578)">
<title>g</title>
<polygon fill="#ffffff" stroke="transparent" points="-4,4 -4,-578 1842,-578 1842,4 -4,4"/>
<text text-anchor="middle" x="919" y="-7.8" font-family="Times,serif" font-size="14.00" fill="#000000">18:6:9.30</text>
<!-- 0 -->
<g id="node1" class="node">
<title>0</title>
<polygon fill="none" stroke="#ffff00" stroke-width="2" points="1074.5,-574 987.5,-574 987.5,-538 1074.5,-538 1074.5,-574"/>
<text text-anchor="middle" x="1031" y="-552.3" font-family="Times,serif" font-size="14.00" fill="#000000">HashDistinct</text>
</g>
<!-- 1 -->
<g id="node2" class="node">
<title>1</title>
<polygon fill="none" stroke="#ffff00" stroke-width="2" points="1058,-502 1004,-502 1004,-466 1058,-466 1058,-502"/>
<text text-anchor="middle" x="1031" y="-480.3" font-family="Times,serif" font-size="14.00" fill="#000000">Union</text>
</g>
<!-- 0&#45;&gt;1 -->
<g id="edge1" class="edge">
<title>0&#45;&gt;1</title>
<path fill="none" stroke="#000000" d="M1031,-537.8314C1031,-530.131 1031,-520.9743 1031,-512.4166"/>
<polygon fill="#000000" stroke="#000000" points="1034.5001,-512.4132 1031,-502.4133 1027.5001,-512.4133 1034.5001,-512.4132"/>
</g>
<!-- 2 -->
<g id="node3" class="node">
<title>2</title>
<polygon fill="none" stroke="#ffff00" stroke-width="2" points="909,-430 803,-430 803,-394 909,-394 909,-430"/>
<text text-anchor="middle" x="856" y="-408.3" font-family="Times,serif" font-size="14.00" fill="#000000">BindAccessEval</text>
</g>
<!-- 1&#45;&gt;2 -->
<g id="edge2" class="edge">
<title>1&#45;&gt;2</title>
<path fill="none" stroke="#000000" d="M1003.6563,-472.75C978.4791,-462.3914 940.423,-446.734 909.252,-433.9094"/>
<polygon fill="#000000" stroke="#000000" points="910.4008,-430.5974 899.8212,-430.0293 907.7374,-437.071 910.4008,-430.5974"/>
</g>
<!-- 11 -->
<g id="node11" class="node">
<title>11</title>
<polygon fill="none" stroke="#ffff00" stroke-width="2" points="1260,-430 1154,-430 1154,-394 1260,-394 1260,-430"/>
<text text-anchor="middle" x="1207" y="-408.3" font-family="Times,serif" font-size="14.00" fill="#000000">BindAccessEval</text>
</g>
<!-- 1&#45;&gt;11 -->
<g id="edge10" class="edge">
<title>1&#45;&gt;11</title>
<path fill="none" stroke="#000000" d="M1058.1143,-472.9078C1083.3685,-462.5765 1121.7446,-446.8772 1153.2097,-434.0051"/>
<polygon fill="#000000" stroke="#000000" points="1154.8004,-437.136 1162.7307,-430.1102 1152.15,-430.6571 1154.8004,-437.136"/>
</g>
<!-- 3 -->
<g id="node4" class="node">
<title>3</title>
<polygon fill="none" stroke="#ffff00" stroke-width="2" points="558,-357 452,-357 452,-321 558,-321 558,-357"/>
<text text-anchor="middle" x="505" y="-335.3" font-family="Times,serif" font-size="14.00" fill="#000000">BindAccessEval</text>
</g>
<!-- 2&#45;&gt;3 -->
<g id="edge3" class="edge">
<title>2&#45;&gt;3</title>
<path fill="none" stroke="#000000" d="M802.8813,-403.9175C746.7212,-394.9607 655.4305,-379.2323 568.1275,-358.1529"/>
<polygon fill="#000000" stroke="#000000" points="568.873,-354.7322 558.3281,-355.7598 567.2123,-361.5324 568.873,-354.7322"/>
</g>
<!-- 9 -->
<g id="node10" class="node">
<title>9</title>
<polygon fill="none" stroke="#ffff00" stroke-width="2" points="1136,-358 576,-358 576,-320 1136,-320 1136,-358"/>
<text text-anchor="middle" x="856" y="-342.8" font-family="Times,serif" font-size="14.00" fill="#000000">FunctionCallBindAccess</text>
<text text-anchor="middle" x="856" y="-327.8" font-family="Times,serif" font-size="14.00" fill="#000000">AddConstant{1=(&quot;&lt;http://www4.wiwiss.fu&#45;berlin.de/bizer/bsbm/v01/instances/ProductType65&gt;&quot;)}</text>
</g>
<!-- 2&#45;&gt;9 -->
<g id="edge9" class="edge">
<title>2&#45;&gt;9</title>
<path fill="none" stroke="#000000" d="M856,-393.9551C856,-386.2107 856,-376.9622 856,-368.2811"/>
<polygon fill="#000000" stroke="#000000" points="859.5001,-368.1128 856,-358.1128 852.5001,-368.1129 859.5001,-368.1128"/>
</g>
<!-- 4 -->
<g id="node5" class="node">
<title>4</title>
<polygon fill="none" stroke="#ffff00" stroke-width="2" points="258.5,-284 203.5,-284 203.5,-246 258.5,-246 258.5,-284"/>
<text text-anchor="middle" x="231" y="-268.8" font-family="Times,serif" font-size="14.00" fill="#000000">Project</text>
<text text-anchor="middle" x="231" y="-253.8" font-family="Times,serif" font-size="14.00" fill="#000000">[2, 3]</text>
</g>
<!-- 3&#45;&gt;4 -->
<g id="edge4" class="edge">
<title>3&#45;&gt;4</title>
<path fill="none" stroke="#000000" d="M451.6717,-330.5063C402.9126,-321.8364 329.2759,-306.4519 268,-284 267.9025,-283.9643 267.805,-283.9284 267.7074,-283.8923"/>
<polygon fill="#000000" stroke="#000000" points="269.1259,-280.6917 258.5491,-280.0731 266.4316,-287.1525 269.1259,-280.6917"/>
</g>
<!-- 8 -->
<g id="node9" class="node">
<title>8</title>
<polygon fill="none" stroke="#ffff00" stroke-width="2" points="829,-284 277,-284 277,-246 829,-246 829,-284"/>
<text text-anchor="middle" x="553" y="-268.8" font-family="Times,serif" font-size="14.00" fill="#000000">FunctionCallBindAccess</text>
<text text-anchor="middle" x="553" y="-253.8" font-family="Times,serif" font-size="14.00" fill="#000000">(&lt;http://www4.wiwiss.fu&#45;berlin.de/bizer/bsbm/v01/instances/dataFromProducer{1}/Product{0}&gt;)</text>
</g>
<!-- 3&#45;&gt;8 -->
<g id="edge8" class="edge">
<title>3&#45;&gt;8</title>
<path fill="none" stroke="#000000" d="M516.8652,-320.7079C522.3352,-312.275 528.9464,-302.0826 535.0105,-292.7338"/>
<polygon fill="#000000" stroke="#000000" points="538.0962,-294.4083 540.6018,-284.114 532.2234,-290.5989 538.0962,-294.4083"/>
</g>
<!-- 5 -->
<g id="node6" class="node">
<title>5</title>
<polygon fill="none" stroke="#ffff00" stroke-width="2" points="280.5,-210 181.5,-210 181.5,-157 280.5,-157 280.5,-210"/>
<text text-anchor="middle" x="231" y="-194.8" font-family="Times,serif" font-size="14.00" fill="#000000">RightBindJoin </text>
<text text-anchor="middle" x="231" y="-179.8" font-family="Times,serif" font-size="14.00" fill="#000000">[1, 0]</text>
<text text-anchor="middle" x="231" y="-164.8" font-family="Times,serif" font-size="14.00" fill="#000000">17</text>
</g>
<!-- 4&#45;&gt;5 -->
<g id="edge5" class="edge">
<title>4&#45;&gt;5</title>
<path fill="none" stroke="#000000" d="M231,-245.6856C231,-238.0394 231,-228.9857 231,-220.1871"/>
<polygon fill="#000000" stroke="#000000" points="234.5001,-220.0751 231,-210.0751 227.5001,-220.0752 234.5001,-220.0751"/>
</g>
<!-- 6 -->
<g id="node7" class="node">
<title>6</title>
<polygon fill="none" stroke="#ffff00" stroke-width="2" points="370,-113.5 0,-113.5 0,-30.5 370,-30.5 370,-113.5"/>
<text text-anchor="middle" x="185" y="-98.3" font-family="Times,serif" font-size="14.00" fill="#000000">SQLQuery</text>
<text text-anchor="middle" x="185" y="-83.3" font-family="Times,serif" font-size="14.00" fill="#000000">SELECT P.nr, P.producer </text>
<text text-anchor="middle" x="185" y="-68.3" font-family="Times,serif" font-size="14.00" fill="#000000">FROM PRODUCT AS P, PRODUCTTYPEPRODUCT AS PT &#160;</text>
<text text-anchor="middle" x="185" y="-53.3" font-family="Times,serif" font-size="14.00" fill="#000000">WHERE PT.producttype = 65 AND PT.product = P.nr</text>
<text text-anchor="middle" x="185" y="-38.3" font-family="Times,serif" font-size="14.00" fill="#000000">54</text>
</g>
<!-- 5&#45;&gt;6 -->
<g id="edge6" class="edge">
<title>5&#45;&gt;6</title>
<path fill="none" stroke="#000000" d="M219.9819,-156.793C215.7873,-146.6257 210.855,-134.6704 206.0384,-122.9952"/>
<polygon fill="#000000" stroke="#000000" points="209.2659,-121.641 202.2166,-113.7316 202.795,-124.3106 209.2659,-121.641"/>
</g>
<!-- 7 -->
<g id="node8" class="node">
<title>7</title>
<polygon fill="none" stroke="#ffff00" stroke-width="2" points="718,-121 388,-121 388,-23 718,-23 718,-121"/>
<text text-anchor="middle" x="553" y="-105.8" font-family="Times,serif" font-size="14.00" fill="#000000">PhyMongoDBEval</text>
<text text-anchor="middle" x="553" y="-90.8" font-family="Times,serif" font-size="14.00" fill="#000000">productfeatureproduct</text>
<text text-anchor="middle" x="553" y="-75.8" font-family="Times,serif" font-size="14.00" fill="#000000">[{ $match: {$expr: {$eq: [&quot;$label&quot;, &quot;biographies&quot;] } } },</text>
<text text-anchor="middle" x="553" y="-60.8" font-family="Times,serif" font-size="14.00" fill="#000000">{ &quot;$match&quot;: { &quot;producer&quot;: %s, &quot;nr&quot;: %s } }]</text>
<text text-anchor="middle" x="553" y="-45.8" font-family="Times,serif" font-size="14.00" fill="#000000">[nr, producer]</text>
<text text-anchor="middle" x="553" y="-30.8" font-family="Times,serif" font-size="14.00" fill="#000000">17</text>
</g>
<!-- 5&#45;&gt;7 -->
<g id="edge7" class="edge">
<title>5&#45;&gt;7</title>
<path fill="none" stroke="#000000" d="M280.6068,-166.3225C313.3132,-154.9971 358.0492,-139.5063 401.8145,-124.3515"/>
<polygon fill="#000000" stroke="#000000" points="403.1232,-127.6023 411.4275,-121.0228 400.8327,-120.9876 403.1232,-127.6023"/>
</g>
<!-- 12 -->
<g id="node12" class="node">
<title>12</title>
<polygon fill="none" stroke="#ffff00" stroke-width="2" points="1260,-357 1154,-357 1154,-321 1260,-321 1260,-357"/>
<text text-anchor="middle" x="1207" y="-335.3" font-family="Times,serif" font-size="14.00" fill="#000000">BindAccessEval</text>
</g>
<!-- 11&#45;&gt;12 -->
<g id="edge11" class="edge">
<title>11&#45;&gt;12</title>
<path fill="none" stroke="#000000" d="M1207,-393.9551C1207,-385.8828 1207,-376.1764 1207,-367.1817"/>
<polygon fill="#000000" stroke="#000000" points="1210.5001,-367.0903 1207,-357.0904 1203.5001,-367.0904 1210.5001,-367.0903"/>
</g>
<!-- 18 -->
<g id="node18" class="node">
<title>18</title>
<polygon fill="none" stroke="#ffff00" stroke-width="2" points="1838,-358 1278,-358 1278,-320 1838,-320 1838,-358"/>
<text text-anchor="middle" x="1558" y="-342.8" font-family="Times,serif" font-size="14.00" fill="#000000">FunctionCallBindAccess</text>
<text text-anchor="middle" x="1558" y="-327.8" font-family="Times,serif" font-size="14.00" fill="#000000">AddConstant{1=(&quot;&lt;http://www4.wiwiss.fu&#45;berlin.de/bizer/bsbm/v01/instances/ProductType64&gt;&quot;)}</text>
</g>
<!-- 11&#45;&gt;18 -->
<g id="edge17" class="edge">
<title>11&#45;&gt;18</title>
<path fill="none" stroke="#000000" d="M1260.3093,-400.9129C1312.191,-390.1227 1392.3557,-373.4502 1456.4313,-360.124"/>
<polygon fill="#000000" stroke="#000000" points="1457.4922,-363.4783 1466.57,-358.0153 1456.0668,-356.6249 1457.4922,-363.4783"/>
</g>
<!-- 13 -->
<g id="node13" class="node">
<title>13</title>
<polygon fill="none" stroke="#ffff00" stroke-width="2" points="1090.5,-284 1035.5,-284 1035.5,-246 1090.5,-246 1090.5,-284"/>
<text text-anchor="middle" x="1063" y="-268.8" font-family="Times,serif" font-size="14.00" fill="#000000">Project</text>
<text text-anchor="middle" x="1063" y="-253.8" font-family="Times,serif" font-size="14.00" fill="#000000">[2, 3]</text>
</g>
<!-- 12&#45;&gt;13 -->
<g id="edge12" class="edge">
<title>12&#45;&gt;13</title>
<path fill="none" stroke="#000000" d="M1171.7736,-320.8976C1149.9169,-309.6656 1121.88,-295.2578 1099.7452,-283.883"/>
<polygon fill="#000000" stroke="#000000" points="1101.1495,-280.6696 1090.6555,-279.2118 1097.95,-286.8956 1101.1495,-280.6696"/>
</g>
<!-- 17 -->
<g id="node17" class="node">
<title>17</title>
<polygon fill="none" stroke="#ffff00" stroke-width="2" points="1661,-284 1109,-284 1109,-246 1661,-246 1661,-284"/>
<text text-anchor="middle" x="1385" y="-268.8" font-family="Times,serif" font-size="14.00" fill="#000000">FunctionCallBindAccess</text>
<text text-anchor="middle" x="1385" y="-253.8" font-family="Times,serif" font-size="14.00" fill="#000000">(&lt;http://www4.wiwiss.fu&#45;berlin.de/bizer/bsbm/v01/instances/dataFromProducer{1}/Product{0}&gt;)</text>
</g>
<!-- 12&#45;&gt;17 -->
<g id="edge16" class="edge">
<title>12&#45;&gt;17</title>
<path fill="none" stroke="#000000" d="M1250.5437,-320.8976C1274.3636,-310.9949 1304.1216,-298.6236 1329.5826,-288.0387"/>
<polygon fill="#000000" stroke="#000000" points="1331.2188,-291.1489 1339.1091,-284.0783 1328.5316,-284.6853 1331.2188,-291.1489"/>
</g>
<!-- 14 -->
<g id="node14" class="node">
<title>14</title>
<polygon fill="none" stroke="#ffff00" stroke-width="2" points="1112.5,-210 1013.5,-210 1013.5,-157 1112.5,-157 1112.5,-210"/>
<text text-anchor="middle" x="1063" y="-194.8" font-family="Times,serif" font-size="14.00" fill="#000000">RightBindJoin </text>
<text text-anchor="middle" x="1063" y="-179.8" font-family="Times,serif" font-size="14.00" fill="#000000">[0, 1]</text>
<text text-anchor="middle" x="1063" y="-164.8" font-family="Times,serif" font-size="14.00" fill="#000000">11</text>
</g>
<!-- 13&#45;&gt;14 -->
<g id="edge13" class="edge">
<title>13&#45;&gt;14</title>
<path fill="none" stroke="#000000" d="M1063,-245.6856C1063,-238.0394 1063,-228.9857 1063,-220.1871"/>
<polygon fill="#000000" stroke="#000000" points="1066.5001,-220.0751 1063,-210.0751 1059.5001,-220.0752 1066.5001,-220.0751"/>
</g>
<!-- 15 -->
<g id="node15" class="node">
<title>15</title>
<polygon fill="none" stroke="#ffff00" stroke-width="2" points="1201,-113.5 831,-113.5 831,-30.5 1201,-30.5 1201,-113.5"/>
<text text-anchor="middle" x="1016" y="-98.3" font-family="Times,serif" font-size="14.00" fill="#000000">SQLQuery</text>
<text text-anchor="middle" x="1016" y="-83.3" font-family="Times,serif" font-size="14.00" fill="#000000">SELECT P.nr, P.producer </text>
<text text-anchor="middle" x="1016" y="-68.3" font-family="Times,serif" font-size="14.00" fill="#000000">FROM PRODUCT AS P, PRODUCTTYPEPRODUCT AS PT &#160;</text>
<text text-anchor="middle" x="1016" y="-53.3" font-family="Times,serif" font-size="14.00" fill="#000000">WHERE PT.producttype = 64 AND PT.product = P.nr</text>
<text text-anchor="middle" x="1016" y="-38.3" font-family="Times,serif" font-size="14.00" fill="#000000">47</text>
</g>
<!-- 14&#45;&gt;15 -->
<g id="edge14" class="edge">
<title>14&#45;&gt;15</title>
<path fill="none" stroke="#000000" d="M1051.7423,-156.793C1047.4566,-146.6257 1042.4171,-134.6704 1037.4958,-122.9952"/>
<polygon fill="#000000" stroke="#000000" points="1040.7004,-121.5869 1033.5909,-113.7316 1034.25,-124.3059 1040.7004,-121.5869"/>
</g>
<!-- 16 -->
<g id="node16" class="node">
<title>16</title>
<polygon fill="none" stroke="#ffff00" stroke-width="2" points="1549,-121 1219,-121 1219,-23 1549,-23 1549,-121"/>
<text text-anchor="middle" x="1384" y="-105.8" font-family="Times,serif" font-size="14.00" fill="#000000">PhyMongoDBEval</text>
<text text-anchor="middle" x="1384" y="-90.8" font-family="Times,serif" font-size="14.00" fill="#000000">productfeatureproduct</text>
<text text-anchor="middle" x="1384" y="-75.8" font-family="Times,serif" font-size="14.00" fill="#000000">[{ $match: {$expr: {$eq: [&quot;$label&quot;, &quot;biographies&quot;] } } },</text>
<text text-anchor="middle" x="1384" y="-60.8" font-family="Times,serif" font-size="14.00" fill="#000000">{ &quot;$match&quot;: { &quot;nr&quot;: %s, &quot;producer&quot;: %s } }]</text>
<text text-anchor="middle" x="1384" y="-45.8" font-family="Times,serif" font-size="14.00" fill="#000000">[nr, producer]</text>
<text text-anchor="middle" x="1384" y="-30.8" font-family="Times,serif" font-size="14.00" fill="#000000">11</text>
</g>
<!-- 14&#45;&gt;16 -->
<g id="edge15" class="edge">
<title>14&#45;&gt;16</title>
<path fill="none" stroke="#000000" d="M1112.804,-166.2005C1145.3702,-154.8885 1189.7914,-139.4588 1233.255,-124.3616"/>
<polygon fill="#000000" stroke="#000000" points="1234.504,-127.6329 1242.8019,-121.0454 1232.2071,-121.0205 1234.504,-127.6329"/>
</g>
</g>
</svg>
