digraph  g{ graph[label = "12:36:14.381"]
node [shape=rectangle, color=black, fontcolor=black, style=bold] edge [color=black] 0 [label="BindAccessEval", color = yellow] ; 
1 [label="SQLQuery
SELECT tab_58.label, tab_53.label, tab_58.propertyNum2 
FROM ProductFeature AS tab_53, Product AS tab_54, PRODUCTTYPEPRODUCT AS tab_56, ProductFeatureProduct AS tab_55, Product AS tab_58, PRODUCT AS tab_57 
WHERE tab_56.producttype = 57 AND tab_56.product = tab_57.nr AND tab_54.nr = tab_55.product AND tab_55.productFeature = tab_53.nr AND tab_57.producer = tab_54.producer AND tab_57.nr = tab_54.nr AND tab_57.producer = tab_58.producer AND tab_57.nr = tab_58.nr 
UNION
SELECT tab_33.label, tab_37.label, tab_33.propertyNum2 
FROM Product AS tab_33, PRODUCTTYPEPRODUCT AS tab_32, ProductFeatureProduct AS tab_36, Product AS tab_35, PRODUCT AS tab_34, ProductFeature AS tab_37 
WHERE tab_32.producttype = 56 AND tab_32.product = tab_34.nr AND tab_34.producer = tab_33.producer AND tab_34.nr = tab_33.nr AND tab_35.nr = tab_36.product AND tab_36.productFeature = tab_37.nr AND tab_34.producer = tab_35.producer AND tab_34.nr = tab_35.nr 
UNION
SELECT tab_24.label, tab_23.label, tab_24.propertyNum1 
FROM ProductFeatureProduct AS tab_25, PRODUCT AS tab_27, ProductFeature AS tab_23, Product AS tab_24, PRODUCTTYPEPRODUCT AS tab_28, Product AS tab_26 
WHERE tab_26.nr = tab_25.product AND tab_25.productFeature = tab_23.nr AND tab_26.producer = tab_24.producer AND tab_26.nr = tab_24.nr AND tab_28.producttype = 56 AND tab_28.product = tab_27.nr AND tab_26.producer = tab_27.producer AND tab_26.nr = tab_27.nr 
UNION
SELECT tab_42.label, tab_43.label, tab_42.propertyNum1 
FROM Product AS tab_42, ProductFeature AS tab_43, Product AS tab_44, ProductFeatureProduct AS tab_45, PRODUCTTYPEPRODUCT AS tab_47, PRODUCT AS tab_46 
WHERE tab_44.nr = tab_45.product AND tab_45.productFeature = tab_43.nr AND tab_44.producer = tab_42.producer AND tab_44.nr = tab_42.nr AND tab_47.producttype = 57 AND tab_47.product = tab_46.nr AND tab_44.producer = tab_46.producer AND tab_44.nr = tab_46.nr
4376", color = yellow] ; 
0 -> 1 ; 
2 [label="FunctionCallBindAccess
(\"{0}\", \"{1}\", \"{2}\")", color = yellow] ; 
0 -> 2 ; 
}
