digraph  g{ graph[label = "12:36:15.762"]
node [shape=rectangle, color=black, fontcolor=black, style=bold] edge [color=black] 0 [label="BindAccessEval", color = yellow] ; 
1 [label="SQLQuery
SELECT tab_237.label, tab_235.label, tab_237.propertyNum1 
FROM PRODUCT AS tab_236, ProductFeatureProduct AS tab_233, PRODUCTTYPEPRODUCT AS tab_234, Product AS tab_232, Product AS tab_237, ProductFeature AS tab_235 
WHERE tab_234.producttype = 92 AND tab_234.product = tab_236.nr AND tab_232.nr = tab_233.product AND tab_233.productFeature = tab_235.nr AND tab_236.producer = tab_232.producer AND tab_236.nr = tab_232.nr AND tab_236.producer = tab_237.producer AND tab_236.nr = tab_237.nr 
UNION
SELECT tab_69.label, tab_67.label, tab_69.propertyNum2 
FROM PRODUCT AS tab_66, ProductFeatureProduct AS tab_64, PRODUCTTYPEPRODUCT AS tab_65, ProductFeature AS tab_67, Product AS tab_68, Product AS tab_69 
WHERE tab_68.nr = tab_64.product AND tab_64.productFeature = tab_67.nr AND tab_65.producttype = 93 AND tab_65.product = tab_66.nr AND tab_68.producer = tab_66.producer AND tab_68.nr = tab_66.nr AND tab_68.producer = tab_69.producer AND tab_68.nr = tab_69.nr 
UNION
SELECT tab_351.label, tab_350.label, tab_351.propertyNum2 
FROM ProductFeatureProduct AS tab_347, Product AS tab_349, ProductFeature AS tab_350, PRODUCTTYPEPRODUCT AS tab_346, Product AS tab_351, PRODUCT AS tab_348 
WHERE tab_346.producttype = 98 AND tab_346.product = tab_348.nr AND tab_349.nr = tab_347.product AND tab_347.productFeature = tab_350.nr AND tab_348.producer = tab_349.producer AND tab_348.nr = tab_349.nr AND tab_348.producer = tab_351.producer AND tab_348.nr = tab_351.nr 
UNION
SELECT tab_186.label, tab_184.label, tab_186.propertyNum2 
FROM PRODUCTTYPEPRODUCT AS tab_188, ProductFeature AS tab_184, Product AS tab_183, PRODUCT AS tab_187, ProductFeatureProduct AS tab_185, Product AS tab_186 
WHERE tab_183.nr = tab_185.product AND tab_185.productFeature = tab_184.nr AND tab_186.producer = tab_183.producer AND tab_186.nr = tab_183.nr AND tab_188.producttype = 92 AND tab_188.product = tab_187.nr AND tab_186.producer = tab_187.producer AND tab_186.nr = tab_187.nr 
UNION
SELECT tab_133.label, tab_135.label, tab_133.propertyNum2 
FROM PRODUCT AS tab_136, ProductFeatureProduct AS tab_134, PRODUCTTYPEPRODUCT AS tab_137, Product AS tab_133, Product AS tab_132, ProductFeature AS tab_135 
WHERE tab_132.nr = tab_134.product AND tab_134.productFeature = tab_135.nr AND tab_133.producer = tab_132.producer AND tab_133.nr = tab_132.nr AND tab_137.producttype = 99 AND tab_137.product = tab_136.nr AND tab_133.producer = tab_136.producer AND tab_133.nr = tab_136.nr 
UNION
SELECT tab_213.label, tab_217.label, tab_213.propertyNum1 
FROM ProductFeatureProduct AS tab_216, PRODUCT AS tab_214, ProductFeature AS tab_217, PRODUCTTYPEPRODUCT AS tab_212, Product AS tab_215, Product AS tab_213 
WHERE tab_212.producttype = 102 AND tab_212.product = tab_214.nr AND tab_214.producer = tab_213.producer AND tab_214.nr = tab_213.nr AND tab_215.nr = tab_216.product AND tab_216.productFeature = tab_217.nr AND tab_214.producer = tab_215.producer AND tab_214.nr = tab_215.nr 
UNION
SELECT tab_221.label, tab_226.label, tab_221.pr... (31 UNIONs)
22738", color = yellow] ; 
0 -> 1 ; 
2 [label="FunctionCallBindAccess
(\"{0}\", \"{1}\", \"{2}\")", color = yellow] ; 
0 -> 2 ; 
}
