digraph  g{ graph[label = "12:36:16.327"]
node [shape=rectangle, color=black, fontcolor=black, style=bold] edge [color=black] 0 [label="BindAccessEval", color = yellow] ; 
1 [label="SQLQuery
SELECT tab_412.label, tab_412.propertyNum2, tab_409.country 
FROM PRODUCT AS tab_411, PRODUCTTYPEPRODUCT AS tab_410, Product AS tab_408, Producer AS tab_407, CountryType AS tab_409, Product AS tab_412 
WHERE tab_409.countryType = 122 AND tab_408.producer = tab_407.nr AND tab_409.country = tab_407.country AND tab_410.producttype = 110 AND tab_410.product = tab_411.nr AND tab_408.producer = tab_411.producer AND tab_408.nr = tab_411.nr AND tab_408.producer = tab_412.producer AND tab_408.nr = tab_412.nr 
UNION
SELECT tab_426.label, tab_426.propertyNum1, tab_424.country 
FROM Producer AS tab_424, PRODUCT AS tab_422, Product AS tab_426, PRODUCTTYPEPRODUCT AS tab_425, CountryType AS tab_427, Product AS tab_423 
WHERE tab_423.producer = tab_424.nr AND tab_425.producttype = 110 AND tab_425.product = tab_422.nr AND tab_423.producer = tab_422.producer AND tab_423.nr = tab_422.nr AND tab_423.producer = tab_426.producer AND tab_423.nr = tab_426.nr AND tab_427.countryType = 121 AND tab_424.country = tab_427.country 
UNION
SELECT tab_398.label, tab_398.propertyNum2, tab_394.country 
FROM PRODUCTTYPEPRODUCT AS tab_397, Product AS tab_393, PRODUCT AS tab_396, Product AS tab_398, Producer AS tab_395, CountryType AS tab_394 
WHERE tab_394.countryType = 121 AND tab_393.producer = tab_395.nr AND tab_394.country = tab_395.country AND tab_397.producttype = 110 AND tab_397.product = tab_396.nr AND tab_393.producer = tab_396.producer AND tab_393.nr = tab_396.nr AND tab_393.producer = tab_398.producer AND tab_393.nr = tab_398.nr 
UNION
SELECT tab_441.label, tab_441.propertyNum1, tab_437.country 
FROM Product AS tab_439, PRODUCTTYPEPRODUCT AS tab_440, Producer AS tab_438, CountryType AS tab_437, Product AS tab_441, PRODUCT AS tab_436 
WHERE tab_437.countryType = 122 AND tab_439.producer = tab_438.nr AND tab_437.country = tab_438.country AND tab_440.producttype = 110 AND tab_440.product = tab_436.nr AND tab_439.producer = tab_436.producer AND tab_439.nr = tab_436.nr AND tab_439.producer = tab_441.producer AND tab_439.nr = tab_441.nr
16", color = yellow] ; 
0 -> 1 ; 
2 [label="FunctionCallBindAccess
(\"{0}\", \"{1}\", <http://downlode.org/rdf/iso-3166/countries#{2}>)", color = yellow] ; 
0 -> 2 ; 
}
