digraph  g{ graph[label = "12:36:20.708"]
node [shape=rectangle, color=black, fontcolor=black, style=bold] edge [color=black] 0 [label="BindAccessEval", color = yellow] ; 
1 [label="SQLQuery
SELECT tab_741.label, tab_741.propertyNum2, tab_737.country 
FROM PRODUCT AS tab_740, Product AS tab_739, CountryType AS tab_737, Producer AS tab_736, PRODUCTTYPEPRODUCT AS tab_738, Product AS tab_741 
WHERE tab_737.countryType = 111 AND tab_739.producer = tab_736.nr AND tab_737.country = tab_736.country AND tab_738.producttype = 56 AND tab_738.product = tab_740.nr AND tab_739.producer = tab_740.producer AND tab_739.nr = tab_740.nr AND tab_739.producer = tab_741.producer AND tab_739.nr = tab_741.nr 
UNION
SELECT tab_695.label, tab_695.propertyNum1, tab_698.country 
FROM PRODUCT AS tab_697, PRODUCTTYPEPRODUCT AS tab_694, CountryType AS tab_699, Producer AS tab_698, Product AS tab_695, Product AS tab_696 
WHERE tab_696.producer = tab_698.nr AND tab_694.producttype = 57 AND tab_694.product = tab_697.nr AND tab_696.producer = tab_697.producer AND tab_696.nr = tab_697.nr AND tab_696.producer = tab_695.producer AND tab_696.nr = tab_695.nr AND tab_699.countryType = 121 AND tab_698.country = tab_699.country 
UNION
SELECT tab_651.label, tab_651.propertyNum1, tab_653.country 
FROM PRODUCTTYPEPRODUCT AS tab_652, CountryType AS tab_654, Producer AS tab_653, Product AS tab_651, Product AS tab_650, PRODUCT AS tab_649 
WHERE tab_652.producttype = 56 AND tab_652.product = tab_649.nr AND tab_651.producer = tab_649.producer AND tab_651.nr = tab_649.nr AND tab_650.producer = tab_653.nr AND tab_651.producer = tab_650.producer AND tab_651.nr = tab_650.nr AND tab_654.countryType = 112 AND tab_653.country = tab_654.country 
UNION
SELECT tab_750.label, tab_750.propertyNum1, tab_752.country 
FROM PRODUCT AS tab_753, Producer AS tab_752, CountryType AS tab_755, Product AS tab_750, PRODUCTTYPEPRODUCT AS tab_754, Product AS tab_751 
WHERE tab_751.producer = tab_752.nr AND tab_750.producer = tab_751.producer AND tab_750.nr = tab_751.nr AND tab_754.producttype = 57 AND tab_754.product = tab_753.nr AND tab_750.producer = tab_753.producer AND tab_750.nr = tab_753.nr AND tab_755.countryType = 111 AND tab_752.country = tab_755.country 
UNION
SELECT tab_724.label, tab_724.propertyNum1, tab_722.country 
FROM Producer AS tab_722, Product AS tab_724, Product AS tab_726, PRODUCTTYPEPRODUCT AS tab_723, PRODUCT AS tab_725, CountryType AS tab_727 
WHERE tab_723.producttype = 57 AND tab_723.product = tab_725.nr AND tab_725.producer = tab_724.producer AND tab_725.nr = tab_724.nr AND tab_726.producer = tab_722.nr AND tab_725.producer = tab_726.producer AND tab_725.nr = tab_726.nr AND tab_727.countryType = 122 AND tab_722.country = tab_727.country 
UNION
SELECT tab_782.label, tab_782.propertyNum1, tab_778.country 
FROM PRODUCTTYPEPRODUCT AS tab_780, Producer AS tab_778, CountryType AS tab_783, Product AS tab_782, Product AS tab_781, PRODUCT AS tab_779 
WHERE tab_780.producttype = 57 AND tab_780.product = tab_779.nr AND tab_782.producer = tab_779.producer AND tab_782.nr = tab_779.nr AND tab_781.producer = tab_778.nr AND tab_782.producer = tab_781.producer AND tab_782.nr = tab_781.nr AND tab_7... (15 UNIONs)
174", color = yellow] ; 
0 -> 1 ; 
2 [label="FunctionCallBindAccess
(\"{0}\", \"{1}\", <http://downlode.org/rdf/iso-3166/countries#{2}>)", color = yellow] ; 
0 -> 2 ; 
}
