<?xml version="1.0" encoding="UTF-8" standalone="no"?>
<!DOCTYPE svg PUBLIC "-//W3C//DTD SVG 1.1//EN"
 "http://www.w3.org/Graphics/SVG/1.1/DTD/svg11.dtd">
<!-- Generated by graphviz version 2.40.1 (20161225.0304)
 -->
<!-- Title: g Pages: 1 -->
<svg width="3290pt" height="471pt"
 viewBox="0.00 0.00 3290.00 471.00" xmlns="http://www.w3.org/2000/svg" xmlns:xlink="http://www.w3.org/1999/xlink">
<g id="graph0" class="graph" transform="scale(1 1) rotate(0) translate(4 467)">
<title>g</title>
<polygon fill="#ffffff" stroke="transparent" points="-4,4 -4,-467 3286,-467 3286,4 -4,4"/>
<text text-anchor="middle" x="1641" y="-7.8" font-family="Times,serif" font-size="14.00" fill="#000000">12:36:53.829</text>
<!-- 0 -->
<g id="node1" class="node">
<title>0</title>
<polygon fill="none" stroke="#ffff00" stroke-width="2" points="1967,-463 1861,-463 1861,-427 1967,-427 1967,-463"/>
<text text-anchor="middle" x="1914" y="-441.3" font-family="Times,serif" font-size="14.00" fill="#000000">BindAccessEval</text>
</g>
<!-- 1 -->
<g id="node2" class="node">
<title>1</title>
<polygon fill="none" stroke="#ffff00" stroke-width="2" points="2178,-391 0,-391 0,-23 2178,-23 2178,-391"/>
<text text-anchor="middle" x="1089" y="-375.8" font-family="Times,serif" font-size="14.00" fill="#000000">SQLQuery</text>
<text text-anchor="middle" x="1089" y="-360.8" font-family="Times,serif" font-size="14.00" fill="#000000">SELECT tab_2803.producer, tab_2803.nr, tab_2804.producer, tab_2804.nr </text>
<text text-anchor="middle" x="1089" y="-345.8" font-family="Times,serif" font-size="14.00" fill="#000000">FROM PRODUCTTYPEPRODUCT AS tab_2801, Product AS tab_2802, Product AS tab_2803, PRODUCTTYPEPRODUCT AS tab_2806, PRODUCT AS tab_2804, PRODUCT AS tab_2805 </text>
<text text-anchor="middle" x="1089" y="-330.8" font-family="Times,serif" font-size="14.00" fill="#000000">WHERE tab_2801.producttype = 71 AND tab_2801.product = tab_2804.nr AND tab_2804.producer = tab_2802.producer AND tab_2804.nr = tab_2802.nr AND tab_2803.propertyNum1 = &#39;774&#39; AND tab_2802.producer = tab_2803.producer AND tab_2806.producttype = 64 AND tab_2806.product = tab_2805.nr AND tab_2803.producer = tab_2805.producer AND tab_2803.nr = tab_2805.nr </text>
<text text-anchor="middle" x="1089" y="-315.8" font-family="Times,serif" font-size="14.00" fill="#000000">UNION</text>
<text text-anchor="middle" x="1089" y="-300.8" font-family="Times,serif" font-size="14.00" fill="#000000">SELECT tab_3359.producer, tab_3359.nr, tab_3356.producer, tab_3356.nr </text>
<text text-anchor="middle" x="1089" y="-285.8" font-family="Times,serif" font-size="14.00" fill="#000000">FROM Product AS tab_3357, PRODUCTTYPEPRODUCT AS tab_3358, Product AS tab_3359, PRODUCT AS tab_3356, PRODUCTTYPEPRODUCT AS tab_3361, PRODUCT AS tab_3360 </text>
<text text-anchor="middle" x="1089" y="-270.8" font-family="Times,serif" font-size="14.00" fill="#000000">WHERE tab_3358.producttype = 61 AND tab_3358.product = tab_3356.nr AND tab_3356.producer = tab_3357.producer AND tab_3356.nr = tab_3357.nr AND tab_3359.propertyNum2 = &#39;774&#39; AND tab_3357.producer = tab_3359.producer AND tab_3361.producttype = 64 AND tab_3361.product = tab_3360.nr AND tab_3359.producer = tab_3360.producer AND tab_3359.nr = tab_3360.nr </text>
<text text-anchor="middle" x="1089" y="-255.8" font-family="Times,serif" font-size="14.00" fill="#000000">UNION</text>
<text text-anchor="middle" x="1089" y="-240.8" font-family="Times,serif" font-size="14.00" fill="#000000">SELECT tab_2920.producer, tab_2920.nr, tab_2921.producer, tab_2921.nr </text>
<text text-anchor="middle" x="1089" y="-225.8" font-family="Times,serif" font-size="14.00" fill="#000000">FROM PRODUCT AS tab_2920, PRODUCT AS tab_2922, Product AS tab_2921, PRODUCTTYPEPRODUCT AS tab_2923, Product AS tab_2919, PRODUCTTYPEPRODUCT AS tab_2918 </text>
<text text-anchor="middle" x="1089" y="-210.8" font-family="Times,serif" font-size="14.00" fill="#000000">WHERE tab_2918.producttype = 64 AND tab_2918.product = tab_2920.nr AND tab_2919.propertyNum2 = &#39;774&#39; AND tab_2920.producer = tab_2919.producer AND tab_2920.nr = tab_2919.nr AND tab_2919.producer = tab_2921.producer AND tab_2923.producttype = 65 AND tab_2923.product = tab_2922.nr AND tab_2921.producer = tab_2922.producer AND tab_2921.nr = tab_2922.nr </text>
<text text-anchor="middle" x="1089" y="-195.8" font-family="Times,serif" font-size="14.00" fill="#000000">UNION</text>
<text text-anchor="middle" x="1089" y="-180.8" font-family="Times,serif" font-size="14.00" fill="#000000">SELECT tab_3020.producer, tab_3020.nr, tab_3019.producer, tab_3019.nr </text>
<text text-anchor="middle" x="1089" y="-165.8" font-family="Times,serif" font-size="14.00" fill="#000000">FROM Product AS tab_3019, PRODUCT AS tab_3023, PRODUCTTYPEPRODUCT AS tab_3021, PRODUCT AS tab_3022, Product AS tab_3020, PRODUCTTYPEPRODUCT AS tab_3024 </text>
<text text-anchor="middle" x="1089" y="-150.8" font-family="Times,serif" font-size="14.00" fill="#000000">WHERE tab_3020.propertyNum1 = &#39;774&#39; AND tab_3019.producer = tab_3020.producer AND tab_3021.producttype = 67 AND tab_3021.product = tab_3022.nr AND tab_3019.producer = tab_3022.producer AND tab_3019.nr = tab_3022.nr AND tab_3024.producttype = 65 AND tab_3024.product = tab_3023.nr AND tab_3020.producer = tab_3023.producer AND tab_3020.nr = tab_3023.nr </text>
<text text-anchor="middle" x="1089" y="-135.8" font-family="Times,serif" font-size="14.00" fill="#000000">UNION</text>
<text text-anchor="middle" x="1089" y="-120.8" font-family="Times,serif" font-size="14.00" fill="#000000">SELECT tab_3228.producer, tab_3228.nr, tab_3227.producer, tab_3227.nr </text>
<text text-anchor="middle" x="1089" y="-105.8" font-family="Times,serif" font-size="14.00" fill="#000000">FROM Product AS tab_3227, Product AS tab_3228, PRODUCTTYPEPRODUCT AS tab_3229, PRODUCT AS tab_3231, PRODUCT AS tab_3230, PRODUCTTYPEPRODUCT AS tab_3232 </text>
<text text-anchor="middle" x="1089" y="-90.8" font-family="Times,serif" font-size="14.00" fill="#000000">WHERE tab_3229.producttype = 60 AND tab_3229.product = tab_3230.nr AND tab_3227.producer = tab_3230.producer AND tab_3227.nr = tab_3230.nr AND tab_3228.propertyNum2 = &#39;774&#39; AND tab_3227.producer = tab_3228.producer AND tab_3232.producttype = 65 AND tab_3232.product = tab_3231.nr AND tab_3228.producer = tab_3231.producer AND tab_3228.nr = tab_3231.nr </text>
<text text-anchor="middle" x="1089" y="-75.8" font-family="Times,serif" font-size="14.00" fill="#000000">UNION</text>
<text text-anchor="middle" x="1089" y="-60.8" font-family="Times,serif" font-size="14.00" fill="#000000">SELECT tab_3346.producer, tab_3346.nr, tab_3344.producer, tab_3344.nr </text>
<text text-anchor="middle" x="1089" y="-45.8" font-family="Times,serif" font-size="14.00" fill="#000000">FROM Product A... (63 UNIONs)</text>
<text text-anchor="middle" x="1089" y="-30.8" font-family="Times,serif" font-size="14.00" fill="#000000">19</text>
</g>
<!-- 0&#45;&gt;1 -->
<g id="edge1" class="edge">
<title>0&#45;&gt;1</title>
<path fill="none" stroke="#000000" d="M1860.8217,-429.6589C1829.6877,-420.6772 1786.7046,-408.2772 1736.8229,-393.8871"/>
<polygon fill="#000000" stroke="#000000" points="1737.6721,-390.4894 1727.0938,-391.0804 1735.7318,-397.2151 1737.6721,-390.4894"/>
</g>
<!-- 2 -->
<g id="node3" class="node">
<title>2</title>
<polygon fill="none" stroke="#ffff00" stroke-width="2" points="3282,-226 2196,-226 2196,-188 3282,-188 3282,-226"/>
<text text-anchor="middle" x="2739" y="-210.8" font-family="Times,serif" font-size="14.00" fill="#000000">FunctionCallBindAccess</text>
<text text-anchor="middle" x="2739" y="-195.8" font-family="Times,serif" font-size="14.00" fill="#000000">(&lt;http://www4.wiwiss.fu&#45;berlin.de/bizer/bsbm/v01/instances/dataFromProducer{0}/Product{1}&gt;, &lt;http://www4.wiwiss.fu&#45;berlin.de/bizer/bsbm/v01/instances/dataFromProducer{2}/Product{3}&gt;)</text>
</g>
<!-- 0&#45;&gt;2 -->
<g id="edge2" class="edge">
<title>0&#45;&gt;2</title>
<path fill="none" stroke="#000000" d="M1967.0425,-436.5551C2022.3833,-427.2683 2111.4487,-410.9783 2187,-391 2369.1742,-342.8271 2578.9465,-267.1627 2679.3714,-229.6485"/>
<polygon fill="#000000" stroke="#000000" points="2680.8972,-232.8146 2689.0349,-226.0302 2678.4425,-226.259 2680.8972,-232.8146"/>
</g>
</g>
</svg>
