digraph  g{ graph[label = "12:36:53.829"]
node [shape=rectangle, color=black, fontcolor=black, style=bold] edge [color=black] 0 [label="BindAccessEval", color = yellow] ; 
1 [label="SQLQuery
SELECT tab_2803.producer, tab_2803.nr, tab_2804.producer, tab_2804.nr 
FROM PRODUCTTYPEPRODUCT AS tab_2801, Product AS tab_2802, Product AS tab_2803, PRODUCTTYPEPRODUCT AS tab_2806, PRODUCT AS tab_2804, PRODUCT AS tab_2805 
WHERE tab_2801.producttype = 71 AND tab_2801.product = tab_2804.nr AND tab_2804.producer = tab_2802.producer AND tab_2804.nr = tab_2802.nr AND tab_2803.propertyNum1 = '774' AND tab_2802.producer = tab_2803.producer AND tab_2806.producttype = 64 AND tab_2806.product = tab_2805.nr AND tab_2803.producer = tab_2805.producer AND tab_2803.nr = tab_2805.nr 
UNION
SELECT tab_3359.producer, tab_3359.nr, tab_3356.producer, tab_3356.nr 
FROM Product AS tab_3357, PRODUCTTYPEPRODUCT AS tab_3358, Product AS tab_3359, PRODUCT AS tab_3356, PRODUCTTYPEPRODUCT AS tab_3361, PRODUCT AS tab_3360 
WHERE tab_3358.producttype = 61 AND tab_3358.product = tab_3356.nr AND tab_3356.producer = tab_3357.producer AND tab_3356.nr = tab_3357.nr AND tab_3359.propertyNum2 = '774' AND tab_3357.producer = tab_3359.producer AND tab_3361.producttype = 64 AND tab_3361.product = tab_3360.nr AND tab_3359.producer = tab_3360.producer AND tab_3359.nr = tab_3360.nr 
UNION
SELECT tab_2920.producer, tab_2920.nr, tab_2921.producer, tab_2921.nr 
FROM PRODUCT AS tab_2920, PRODUCT AS tab_2922, Product AS tab_2921, PRODUCTTYPEPRODUCT AS tab_2923, Product AS tab_2919, PRODUCTTYPEPRODUCT AS tab_2918 
WHERE tab_2918.producttype = 64 AND tab_2918.product = tab_2920.nr AND tab_2919.propertyNum2 = '774' AND tab_2920.producer = tab_2919.producer AND tab_2920.nr = tab_2919.nr AND tab_2919.producer = tab_2921.producer AND tab_2923.producttype = 65 AND tab_2923.product = tab_2922.nr AND tab_2921.producer = tab_2922.producer AND tab_2921.nr = tab_2922.nr 
UNION
SELECT tab_3020.producer, tab_3020.nr, tab_3019.producer, tab_3019.nr 
FROM Product AS tab_3019, PRODUCT AS tab_3023, PRODUCTTYPEPRODUCT AS tab_3021, PRODUCT AS tab_3022, Product AS tab_3020, PRODUCTTYPEPRODUCT AS tab_3024 
WHERE tab_3020.propertyNum1 = '774' AND tab_3019.producer = tab_3020.producer AND tab_3021.producttype = 67 AND tab_3021.product = tab_3022.nr AND tab_3019.producer = tab_3022.producer AND tab_3019.nr = tab_3022.nr AND tab_3024.producttype = 65 AND tab_3024.product = tab_3023.nr AND tab_3020.producer = tab_3023.producer AND tab_3020.nr = tab_3023.nr 
UNION
SELECT tab_3228.producer, tab_3228.nr, tab_3227.producer, tab_3227.nr 
FROM Product AS tab_3227, Product AS tab_3228, PRODUCTTYPEPRODUCT AS tab_3229, PRODUCT AS tab_3231, PRODUCT AS tab_3230, PRODUCTTYPEPRODUCT AS tab_3232 
WHERE tab_3229.producttype = 60 AND tab_3229.product = tab_3230.nr AND tab_3227.producer = tab_3230.producer AND tab_3227.nr = tab_3230.nr AND tab_3228.propertyNum2 = '774' AND tab_3227.producer = tab_3228.producer AND tab_3232.producttype = 65 AND tab_3232.product = tab_3231.nr AND tab_3228.producer = tab_3231.producer AND tab_3228.nr = tab_3231.nr 
UNION
SELECT tab_3346.producer, tab_3346.nr, tab_3344.producer, tab_3344.nr 
FROM Product A... (63 UNIONs)
19", color = yellow] ; 
0 -> 1 ; 
2 [label="FunctionCallBindAccess
(<http://www4.wiwiss.fu-berlin.de/bizer/bsbm/v01/instances/dataFromProducer{0}/Product{1}>, <http://www4.wiwiss.fu-berlin.de/bizer/bsbm/v01/instances/dataFromProducer{2}/Product{3}>)", color = yellow] ; 
0 -> 2 ; 
}
