<?xml version="1.0" encoding="UTF-8" standalone="no"?>
<!DOCTYPE svg PUBLIC "-//W3C//DTD SVG 1.1//EN"
 "http://www.w3.org/Graphics/SVG/1.1/DTD/svg11.dtd">
<!-- Generated by graphviz version 2.40.1 (20161225.0304)
 -->
<!-- Title: g Pages: 1 -->
<svg width="1696pt" height="315pt"
 viewBox="0.00 0.00 1696.00 315.00" xmlns="http://www.w3.org/2000/svg" xmlns:xlink="http://www.w3.org/1999/xlink">
<g id="graph0" class="graph" transform="scale(1 1) rotate(0) translate(4 311)">
<title>g</title>
<polygon fill="#ffffff" stroke="transparent" points="-4,4 -4,-311 1692,-311 1692,4 -4,4"/>
<text text-anchor="middle" x="844" y="-7.8" font-family="Times,serif" font-size="14.00" fill="#000000">12:36:53.856</text>
<!-- 0 -->
<g id="node1" class="node">
<title>0</title>
<polygon fill="none" stroke="#ffff00" stroke-width="2" points="780.5,-307 693.5,-307 693.5,-271 780.5,-271 780.5,-307"/>
<text text-anchor="middle" x="737" y="-285.3" font-family="Times,serif" font-size="14.00" fill="#000000">HashDistinct</text>
</g>
<!-- 1 -->
<g id="node2" class="node">
<title>1</title>
<polygon fill="none" stroke="#ffff00" stroke-width="2" points="764,-235 710,-235 710,-199 764,-199 764,-235"/>
<text text-anchor="middle" x="737" y="-213.3" font-family="Times,serif" font-size="14.00" fill="#000000">Union</text>
</g>
<!-- 0&#45;&gt;1 -->
<g id="edge1" class="edge">
<title>0&#45;&gt;1</title>
<path fill="none" stroke="#000000" d="M737,-270.8314C737,-263.131 737,-253.9743 737,-245.4166"/>
<polygon fill="#000000" stroke="#000000" points="740.5001,-245.4132 737,-235.4133 733.5001,-245.4133 740.5001,-245.4132"/>
</g>
<!-- 2 -->
<g id="node3" class="node">
<title>2</title>
<polygon fill="none" stroke="#ffff00" stroke-width="2" points="575,-163 469,-163 469,-127 575,-127 575,-163"/>
<text text-anchor="middle" x="522" y="-141.3" font-family="Times,serif" font-size="14.00" fill="#000000">BindAccessEval</text>
</g>
<!-- 1&#45;&gt;2 -->
<g id="edge2" class="edge">
<title>1&#45;&gt;2</title>
<path fill="none" stroke="#000000" d="M709.7701,-207.8812C678.5967,-197.4417 626.5004,-179.9955 585.08,-166.1245"/>
<polygon fill="#000000" stroke="#000000" points="585.9341,-162.7195 575.3403,-162.8628 583.7112,-169.3572 585.9341,-162.7195"/>
</g>
<!-- 6 -->
<g id="node6" class="node">
<title>6</title>
<polygon fill="none" stroke="#ffff00" stroke-width="2" points="1006,-163 900,-163 900,-127 1006,-127 1006,-163"/>
<text text-anchor="middle" x="953" y="-141.3" font-family="Times,serif" font-size="14.00" fill="#000000">BindAccessEval</text>
</g>
<!-- 1&#45;&gt;6 -->
<g id="edge5" class="edge">
<title>1&#45;&gt;6</title>
<path fill="none" stroke="#000000" d="M764.3565,-207.8812C795.8463,-197.3846 848.5871,-179.8043 890.3088,-165.8971"/>
<polygon fill="#000000" stroke="#000000" points="891.4627,-169.2018 899.8427,-162.7191 889.249,-162.561 891.4627,-169.2018"/>
</g>
<!-- 3 -->
<g id="node4" class="node">
<title>3</title>
<polygon fill="none" stroke="#ffff00" stroke-width="2" points="182,-91 0,-91 0,-23 182,-23 182,-91"/>
<text text-anchor="middle" x="91" y="-75.8" font-family="Times,serif" font-size="14.00" fill="#000000">SQLQuery</text>
<text text-anchor="middle" x="91" y="-60.8" font-family="Times,serif" font-size="14.00" fill="#000000">SELECT nr, label, homepage </text>
<text text-anchor="middle" x="91" y="-45.8" font-family="Times,serif" font-size="14.00" fill="#000000">FROM Producer</text>
<text text-anchor="middle" x="91" y="-30.8" font-family="Times,serif" font-size="14.00" fill="#000000">61</text>
</g>
<!-- 2&#45;&gt;3 -->
<g id="edge3" class="edge">
<title>2&#45;&gt;3</title>
<path fill="none" stroke="#000000" d="M468.9962,-139.1071C405.2275,-131.4086 294.9053,-116.1513 192.0301,-91.1223"/>
<polygon fill="#000000" stroke="#000000" points="192.647,-87.6696 182.0995,-88.6696 190.9685,-94.4654 192.647,-87.6696"/>
</g>
<!-- 4 -->
<g id="node5" class="node">
<title>4</title>
<polygon fill="none" stroke="#ffff00" stroke-width="2" points="843.5,-76 200.5,-76 200.5,-38 843.5,-38 843.5,-76"/>
<text text-anchor="middle" x="522" y="-60.8" font-family="Times,serif" font-size="14.00" fill="#000000">FunctionCallBindAccess</text>
<text text-anchor="middle" x="522" y="-45.8" font-family="Times,serif" font-size="14.00" fill="#000000">(&lt;http://www4.wiwiss.fu&#45;berlin.de/bizer/bsbm/v01/instances/dataFromProducer{0}/Producer{0}&gt;, &quot;{1}&quot;, &lt;{2}&gt;)</text>
</g>
<!-- 2&#45;&gt;4 -->
<g id="edge4" class="edge">
<title>2&#45;&gt;4</title>
<path fill="none" stroke="#000000" d="M522,-126.7663C522,-115.0875 522,-99.6692 522,-86.2978"/>
<polygon fill="#000000" stroke="#000000" points="525.5001,-86.1235 522,-76.1235 518.5001,-86.1235 525.5001,-86.1235"/>
</g>
<!-- 7 -->
<g id="node7" class="node">
<title>7</title>
<polygon fill="none" stroke="#ffff00" stroke-width="2" points="1044,-91 862,-91 862,-23 1044,-23 1044,-91"/>
<text text-anchor="middle" x="953" y="-75.8" font-family="Times,serif" font-size="14.00" fill="#000000">SQLQuery</text>
<text text-anchor="middle" x="953" y="-60.8" font-family="Times,serif" font-size="14.00" fill="#000000">SELECT nr, label, homepage </text>
<text text-anchor="middle" x="953" y="-45.8" font-family="Times,serif" font-size="14.00" fill="#000000">FROM Vendor</text>
<text text-anchor="middle" x="953" y="-30.8" font-family="Times,serif" font-size="14.00" fill="#000000">30</text>
</g>
<!-- 6&#45;&gt;7 -->
<g id="edge6" class="edge">
<title>6&#45;&gt;7</title>
<path fill="none" stroke="#000000" d="M953,-126.7663C953,-119.3045 953,-110.3162 953,-101.3106"/>
<polygon fill="#000000" stroke="#000000" points="956.5001,-101.216 953,-91.216 949.5001,-101.216 956.5001,-101.216"/>
</g>
<!-- 8 -->
<g id="node8" class="node">
<title>8</title>
<polygon fill="none" stroke="#ffff00" stroke-width="2" points="1688,-76 1062,-76 1062,-38 1688,-38 1688,-76"/>
<text text-anchor="middle" x="1375" y="-60.8" font-family="Times,serif" font-size="14.00" fill="#000000">FunctionCallBindAccess</text>
<text text-anchor="middle" x="1375" y="-45.8" font-family="Times,serif" font-size="14.00" fill="#000000">(&lt;http://www4.wiwiss.fu&#45;berlin.de/bizer/bsbm/v01/instances/dataFromVendor{0}/Vendor{0}&gt;, &quot;{1}&quot;, &lt;{2}&gt;)</text>
</g>
<!-- 6&#45;&gt;8 -->
<g id="edge7" class="edge">
<title>6&#45;&gt;8</title>
<path fill="none" stroke="#000000" d="M1006.0193,-133.9438C1072.988,-119.9788 1189.6363,-95.654 1273.8765,-78.0874"/>
<polygon fill="#000000" stroke="#000000" points="1274.6503,-81.5014 1283.7252,-76.0336 1273.2212,-74.6488 1274.6503,-81.5014"/>
</g>
</g>
</svg>
