<?xml version="1.0" encoding="UTF-8" standalone="no"?>
<!DOCTYPE svg PUBLIC "-//W3C//DTD SVG 1.1//EN"
 "http://www.w3.org/Graphics/SVG/1.1/DTD/svg11.dtd">
<!-- Generated by graphviz version 2.40.1 (20161225.0304)
 -->
<!-- Title: g Pages: 1 -->
<svg width="1932pt" height="186pt"
 viewBox="0.00 0.00 1931.50 186.00" xmlns="http://www.w3.org/2000/svg" xmlns:xlink="http://www.w3.org/1999/xlink">
<g id="graph0" class="graph" transform="scale(1 1) rotate(0) translate(4 182)">
<title>g</title>
<polygon fill="#ffffff" stroke="transparent" points="-4,4 -4,-182 1927.5,-182 1927.5,4 -4,4"/>
<text text-anchor="middle" x="961.75" y="-7.8" font-family="Times,serif" font-size="14.00" fill="#000000">12:36:54.149</text>
<!-- 0 -->
<g id="node1" class="node">
<title>0</title>
<polygon fill="none" stroke="#ffff00" stroke-width="2" points="898.5,-178 792.5,-178 792.5,-142 898.5,-142 898.5,-178"/>
<text text-anchor="middle" x="845.5" y="-156.3" font-family="Times,serif" font-size="14.00" fill="#000000">BindAccessEval</text>
</g>
<!-- 1 -->
<g id="node2" class="node">
<title>1</title>
<polygon fill="none" stroke="#ffff00" stroke-width="2" points="721,-106 0,-106 0,-23 721,-23 721,-106"/>
<text text-anchor="middle" x="360.5" y="-90.8" font-family="Times,serif" font-size="14.00" fill="#000000">SQLQuery</text>
<text text-anchor="middle" x="360.5" y="-75.8" font-family="Times,serif" font-size="14.00" fill="#000000">SELECT DISTINCT tab_3427.nr, tab_3427.label, tab_3427.homepage, tab_3428.nr, tab_3428.vendor, tab_3428.offerWebpage </text>
<text text-anchor="middle" x="360.5" y="-60.8" font-family="Times,serif" font-size="14.00" fill="#000000">FROM Vendor AS tab_3427, Offer AS tab_3428 </text>
<text text-anchor="middle" x="360.5" y="-45.8" font-family="Times,serif" font-size="14.00" fill="#000000">WHERE tab_3427.nr = tab_3428.vendor</text>
<text text-anchor="middle" x="360.5" y="-30.8" font-family="Times,serif" font-size="14.00" fill="#000000">56200</text>
</g>
<!-- 0&#45;&gt;1 -->
<g id="edge1" class="edge">
<title>0&#45;&gt;1</title>
<path fill="none" stroke="#000000" d="M792.2091,-149.5066C740.8243,-139.3886 659.543,-123.3837 581.2992,-107.977"/>
<polygon fill="#000000" stroke="#000000" points="581.7669,-104.5019 571.2791,-106.0039 580.4144,-111.37 581.7669,-104.5019"/>
</g>
<!-- 2 -->
<g id="node3" class="node">
<title>2</title>
<polygon fill="none" stroke="#ffff00" stroke-width="2" points="1923.5,-83.5 739.5,-83.5 739.5,-45.5 1923.5,-45.5 1923.5,-83.5"/>
<text text-anchor="middle" x="1331.5" y="-68.3" font-family="Times,serif" font-size="14.00" fill="#000000">FunctionCallBindAccess</text>
<text text-anchor="middle" x="1331.5" y="-53.3" font-family="Times,serif" font-size="14.00" fill="#000000">(&lt;http://www4.wiwiss.fu&#45;berlin.de/bizer/bsbm/v01/instances/dataFromVendor{4}/Offer{3}&gt;, &lt;{5}&gt;, &lt;http://www4.wiwiss.fu&#45;berlin.de/bizer/bsbm/v01/instances/dataFromVendor{0}/Vendor{0}&gt;, &quot;{1}&quot;, &lt;{2}&gt;)</text>
</g>
<!-- 0&#45;&gt;2 -->
<g id="edge2" class="edge">
<title>0&#45;&gt;2</title>
<path fill="none" stroke="#000000" d="M898.9007,-149.5066C976.9343,-134.1729 1123.7724,-105.3189 1224.5487,-85.5161"/>
<polygon fill="#000000" stroke="#000000" points="1225.3212,-88.9314 1234.4587,-83.5688 1223.9715,-82.0627 1225.3212,-88.9314"/>
</g>
</g>
</svg>
