digraph  g{ graph[label = "12:36:56.526"]
node [shape=rectangle, color=black, fontcolor=black, style=bold] edge [color=black] 0 [label="BindAccessEval", color = yellow] ; 
1 [label="SQLQuery
SELECT tab_3554.publisher, tab_3554.nr, tab_3552.producer, tab_3552.nr, tab_3554.rating2 
FROM Producer AS tab_3553, Review AS tab_3554, CountryType AS tab_3555, Review AS tab_3557, Product AS tab_3552, Person AS tab_3556 
WHERE tab_3555.countryType = 222 AND tab_3552.producer = tab_3553.nr AND tab_3555.country = tab_3553.country AND tab_3552.producer = tab_3554.producer AND tab_3552.nr = tab_3554.product AND tab_3557.person = tab_3556.nr AND tab_3554.publisher = tab_3556.publisher AND tab_3554.nr = tab_3557.nr 
UNION
SELECT tab_3542.publisher, tab_3542.nr, tab_3540.producer, tab_3540.nr, tab_3542.rating1 
FROM Producer AS tab_3539, Person AS tab_3543, CountryType AS tab_3541, Review AS tab_3542, Review AS tab_3544, Product AS tab_3540 
WHERE tab_3541.countryType = 222 AND tab_3540.producer = tab_3539.nr AND tab_3541.country = tab_3539.country AND tab_3540.producer = tab_3542.producer AND tab_3540.nr = tab_3542.product AND tab_3544.person = tab_3543.nr AND tab_3542.publisher = tab_3543.publisher AND tab_3542.nr = tab_3544.nr 
UNION
SELECT tab_3620.publisher, tab_3620.nr, tab_3622.producer, tab_3622.nr, tab_3620.rating2 
FROM Product AS tab_3622, Producer AS tab_3619, Review AS tab_3620, CountryType AS tab_3621, Review AS tab_3624, Person AS tab_3623 
WHERE tab_3622.producer = tab_3619.nr AND tab_3622.producer = tab_3620.producer AND tab_3622.nr = tab_3620.product AND tab_3621.countryType = 212 AND tab_3619.country = tab_3621.country AND tab_3624.person = tab_3623.nr AND tab_3620.publisher = tab_3623.publisher AND tab_3620.nr = tab_3624.nr 
UNION
SELECT tab_3635.publisher, tab_3635.nr, tab_3634.producer, tab_3634.nr, tab_3635.rating2 
FROM Product AS tab_3634, CountryType AS tab_3633, Review AS tab_3635, Person AS tab_3636, Producer AS tab_3632, Review AS tab_3637 
WHERE tab_3633.countryType = 211 AND tab_3634.producer = tab_3632.nr AND tab_3633.country = tab_3632.country AND tab_3634.producer = tab_3635.producer AND tab_3634.nr = tab_3635.product AND tab_3637.person = tab_3636.nr AND tab_3635.publisher = tab_3636.publisher AND tab_3635.nr = tab_3637.nr 
UNION
SELECT tab_3567.publisher, tab_3568.nr, tab_3566.producer, tab_3566.product, tab_3566.rating2 
FROM CountryType AS tab_3571, Review AS tab_3566, Product AS tab_3570, Review AS tab_3568, Producer AS tab_3569, Person AS tab_3567 
WHERE tab_3568.person = tab_3567.nr AND tab_3567.publisher = tab_3566.publisher AND tab_3568.nr = tab_3566.nr AND tab_3570.producer = tab_3569.nr AND tab_3566.producer = tab_3570.producer AND tab_3566.product = tab_3570.nr AND tab_3571.countryType = 221 AND tab_3569.country = tab_3571.country 
UNION
SELECT tab_3580.publisher, tab_3580.nr, tab_3579.producer, tab_3579.nr, tab_3580.rating1 
FROM Review AS tab_3580, Product AS tab_3579, CountryType AS tab_3582, Person AS tab_3583, Review AS tab_3584, Producer AS tab_3581 
WHERE tab_3579.producer = tab_3581.nr AND tab_3579.producer = tab_3580.producer AND tab_3579.nr = tab_3580.product AND tab_3582.countryType = 221 AND ta... (7 UNIONs)
17815", color = yellow] ; 
0 -> 1 ; 
2 [label="FunctionCallBindAccess
(<http://www4.wiwiss.fu-berlin.de/bizer/bsbm/v01/instances/dataFromRatingSite{0}/Review{1}>, <http://www4.wiwiss.fu-berlin.de/bizer/bsbm/v01/instances/dataFromProducer{2}/Product{3}>, \"{4}\")", color = yellow] ; 
0 -> 2 ; 
}
