<?xml version="1.0" encoding="UTF-8" standalone="no"?>
<!DOCTYPE svg PUBLIC "-//W3C//DTD SVG 1.1//EN"
 "http://www.w3.org/Graphics/SVG/1.1/DTD/svg11.dtd">
<!-- Generated by graphviz version 2.40.1 (20161225.0304)
 -->
<!-- Title: g Pages: 1 -->
<svg width="2976pt" height="486pt"
 viewBox="0.00 0.00 2975.50 486.00" xmlns="http://www.w3.org/2000/svg" xmlns:xlink="http://www.w3.org/1999/xlink">
<g id="graph0" class="graph" transform="scale(1 1) rotate(0) translate(4 482)">
<title>g</title>
<polygon fill="#ffffff" stroke="transparent" points="-4,4 -4,-482 2971.5,-482 2971.5,4 -4,4"/>
<text text-anchor="middle" x="1483.75" y="-7.8" font-family="Times,serif" font-size="14.00" fill="#000000">12:36:56.526</text>
<!-- 0 -->
<g id="node1" class="node">
<title>0</title>
<polygon fill="none" stroke="#ffff00" stroke-width="2" points="1707,-478 1601,-478 1601,-442 1707,-442 1707,-478"/>
<text text-anchor="middle" x="1654" y="-456.3" font-family="Times,serif" font-size="14.00" fill="#000000">BindAccessEval</text>
</g>
<!-- 1 -->
<g id="node2" class="node">
<title>1</title>
<polygon fill="none" stroke="#ffff00" stroke-width="2" points="1816,-406 0,-406 0,-23 1816,-23 1816,-406"/>
<text text-anchor="middle" x="908" y="-390.8" font-family="Times,serif" font-size="14.00" fill="#000000">SQLQuery</text>
<text text-anchor="middle" x="908" y="-375.8" font-family="Times,serif" font-size="14.00" fill="#000000">SELECT tab_3554.publisher, tab_3554.nr, tab_3552.producer, tab_3552.nr, tab_3554.rating2 </text>
<text text-anchor="middle" x="908" y="-360.8" font-family="Times,serif" font-size="14.00" fill="#000000">FROM Producer AS tab_3553, Review AS tab_3554, CountryType AS tab_3555, Review AS tab_3557, Product AS tab_3552, Person AS tab_3556 </text>
<text text-anchor="middle" x="908" y="-345.8" font-family="Times,serif" font-size="14.00" fill="#000000">WHERE tab_3555.countryType = 222 AND tab_3552.producer = tab_3553.nr AND tab_3555.country = tab_3553.country AND tab_3552.producer = tab_3554.producer AND tab_3552.nr = tab_3554.product AND tab_3557.person = tab_3556.nr AND tab_3554.publisher = tab_3556.publisher AND tab_3554.nr = tab_3557.nr </text>
<text text-anchor="middle" x="908" y="-330.8" font-family="Times,serif" font-size="14.00" fill="#000000">UNION</text>
<text text-anchor="middle" x="908" y="-315.8" font-family="Times,serif" font-size="14.00" fill="#000000">SELECT tab_3542.publisher, tab_3542.nr, tab_3540.producer, tab_3540.nr, tab_3542.rating1 </text>
<text text-anchor="middle" x="908" y="-300.8" font-family="Times,serif" font-size="14.00" fill="#000000">FROM Producer AS tab_3539, Person AS tab_3543, CountryType AS tab_3541, Review AS tab_3542, Review AS tab_3544, Product AS tab_3540 </text>
<text text-anchor="middle" x="908" y="-285.8" font-family="Times,serif" font-size="14.00" fill="#000000">WHERE tab_3541.countryType = 222 AND tab_3540.producer = tab_3539.nr AND tab_3541.country = tab_3539.country AND tab_3540.producer = tab_3542.producer AND tab_3540.nr = tab_3542.product AND tab_3544.person = tab_3543.nr AND tab_3542.publisher = tab_3543.publisher AND tab_3542.nr = tab_3544.nr </text>
<text text-anchor="middle" x="908" y="-270.8" font-family="Times,serif" font-size="14.00" fill="#000000">UNION</text>
<text text-anchor="middle" x="908" y="-255.8" font-family="Times,serif" font-size="14.00" fill="#000000">SELECT tab_3620.publisher, tab_3620.nr, tab_3622.producer, tab_3622.nr, tab_3620.rating2 </text>
<text text-anchor="middle" x="908" y="-240.8" font-family="Times,serif" font-size="14.00" fill="#000000">FROM Product AS tab_3622, Producer AS tab_3619, Review AS tab_3620, CountryType AS tab_3621, Review AS tab_3624, Person AS tab_3623 </text>
<text text-anchor="middle" x="908" y="-225.8" font-family="Times,serif" font-size="14.00" fill="#000000">WHERE tab_3622.producer = tab_3619.nr AND tab_3622.producer = tab_3620.producer AND tab_3622.nr = tab_3620.product AND tab_3621.countryType = 212 AND tab_3619.country = tab_3621.country AND tab_3624.person = tab_3623.nr AND tab_3620.publisher = tab_3623.publisher AND tab_3620.nr = tab_3624.nr </text>
<text text-anchor="middle" x="908" y="-210.8" font-family="Times,serif" font-size="14.00" fill="#000000">UNION</text>
<text text-anchor="middle" x="908" y="-195.8" font-family="Times,serif" font-size="14.00" fill="#000000">SELECT tab_3635.publisher, tab_3635.nr, tab_3634.producer, tab_3634.nr, tab_3635.rating2 </text>
<text text-anchor="middle" x="908" y="-180.8" font-family="Times,serif" font-size="14.00" fill="#000000">FROM Product AS tab_3634, CountryType AS tab_3633, Review AS tab_3635, Person AS tab_3636, Producer AS tab_3632, Review AS tab_3637 </text>
<text text-anchor="middle" x="908" y="-165.8" font-family="Times,serif" font-size="14.00" fill="#000000">WHERE tab_3633.countryType = 211 AND tab_3634.producer = tab_3632.nr AND tab_3633.country = tab_3632.country AND tab_3634.producer = tab_3635.producer AND tab_3634.nr = tab_3635.product AND tab_3637.person = tab_3636.nr AND tab_3635.publisher = tab_3636.publisher AND tab_3635.nr = tab_3637.nr </text>
<text text-anchor="middle" x="908" y="-150.8" font-family="Times,serif" font-size="14.00" fill="#000000">UNION</text>
<text text-anchor="middle" x="908" y="-135.8" font-family="Times,serif" font-size="14.00" fill="#000000">SELECT tab_3567.publisher, tab_3568.nr, tab_3566.producer, tab_3566.product, tab_3566.rating2 </text>
<text text-anchor="middle" x="908" y="-120.8" font-family="Times,serif" font-size="14.00" fill="#000000">FROM CountryType AS tab_3571, Review AS tab_3566, Product AS tab_3570, Review AS tab_3568, Producer AS tab_3569, Person AS tab_3567 </text>
<text text-anchor="middle" x="908" y="-105.8" font-family="Times,serif" font-size="14.00" fill="#000000">WHERE tab_3568.person = tab_3567.nr AND tab_3567.publisher = tab_3566.publisher AND tab_3568.nr = tab_3566.nr AND tab_3570.producer = tab_3569.nr AND tab_3566.producer = tab_3570.producer AND tab_3566.product = tab_3570.nr AND tab_3571.countryType = 221 AND tab_3569.country = tab_3571.country </text>
<text text-anchor="middle" x="908" y="-90.8" font-family="Times,serif" font-size="14.00" fill="#000000">UNION</text>
<text text-anchor="middle" x="908" y="-75.8" font-family="Times,serif" font-size="14.00" fill="#000000">SELECT tab_3580.publisher, tab_3580.nr, tab_3579.producer, tab_3579.nr, tab_3580.rating1 </text>
<text text-anchor="middle" x="908" y="-60.8" font-family="Times,serif" font-size="14.00" fill="#000000">FROM Review AS tab_3580, Product AS tab_3579, CountryType AS tab_3582, Person AS tab_3583, Review AS tab_3584, Producer AS tab_3581 </text>
<text text-anchor="middle" x="908" y="-45.8" font-family="Times,serif" font-size="14.00" fill="#000000">WHERE tab_3579.producer = tab_3581.nr AND tab_3579.producer = tab_3580.producer AND tab_3579.nr = tab_3580.product AND tab_3582.countryType = 221 AND ta... (7 UNIONs)</text>
<text text-anchor="middle" x="908" y="-30.8" font-family="Times,serif" font-size="14.00" fill="#000000">17815</text>
</g>
<!-- 0&#45;&gt;1 -->
<g id="edge1" class="edge">
<title>0&#45;&gt;1</title>
<path fill="none" stroke="#000000" d="M1600.9476,-442.5411C1574.5993,-433.8702 1539.836,-422.4299 1499.8892,-409.2839"/>
<polygon fill="#000000" stroke="#000000" points="1500.7765,-405.8913 1490.1835,-406.0899 1498.5883,-412.5405 1500.7765,-405.8913"/>
</g>
<!-- 2 -->
<g id="node3" class="node">
<title>2</title>
<polygon fill="none" stroke="#ffff00" stroke-width="2" points="2967.5,-233.5 1834.5,-233.5 1834.5,-195.5 2967.5,-195.5 2967.5,-233.5"/>
<text text-anchor="middle" x="2401" y="-218.3" font-family="Times,serif" font-size="14.00" fill="#000000">FunctionCallBindAccess</text>
<text text-anchor="middle" x="2401" y="-203.3" font-family="Times,serif" font-size="14.00" fill="#000000">(&lt;http://www4.wiwiss.fu&#45;berlin.de/bizer/bsbm/v01/instances/dataFromRatingSite{0}/Review{1}&gt;, &lt;http://www4.wiwiss.fu&#45;berlin.de/bizer/bsbm/v01/instances/dataFromProducer{2}/Product{3}&gt;, &quot;{4}&quot;)</text>
</g>
<!-- 0&#45;&gt;2 -->
<g id="edge2" class="edge">
<title>0&#45;&gt;2</title>
<path fill="none" stroke="#000000" d="M1707.2138,-443.4225C1740.9944,-432.8429 1785.6108,-418.7663 1825,-406 2010.191,-345.9783 2228.0473,-272.8626 2334.9919,-236.8053"/>
<polygon fill="#000000" stroke="#000000" points="2336.3221,-240.0504 2344.6792,-233.5382 2334.085,-233.4175 2336.3221,-240.0504"/>
</g>
</g>
</svg>
