digraph  g{ graph[label = "12:36:56.878"]
node [shape=rectangle, color=black, fontcolor=black, style=bold] edge [color=black] 0 [label="BindAccessEval", color = yellow] ; 
1 [label="SQLQuery
SELECT tab_4273.country 
FROM CountryType AS tab_4275, Producer AS tab_4273, Product AS tab_4272, Offer AS tab_4271, PRODUCTTYPEPRODUCT AS tab_4274 
WHERE tab_4272.nr = tab_4271.product AND tab_4273.nr = tab_4272.producer AND tab_4272.nr = tab_4274.product AND tab_4274.producttype = 59 AND tab_4275.countryType = 222 AND tab_4273.country = tab_4275.country 
UNION
SELECT tab_4466.country 
FROM Product AS tab_4468, Offer AS tab_4467, PRODUCTTYPEPRODUCT AS tab_4470, CountryType AS tab_4466, Producer AS tab_4469 
WHERE tab_4466.countryType = 222 AND tab_4468.nr = tab_4467.product AND tab_4469.nr = tab_4468.producer AND tab_4468.nr = tab_4470.product AND tab_4470.producttype = 81 AND tab_4466.country = tab_4469.country 
UNION
SELECT tab_3726.country 
FROM CountryType AS tab_3726, Review AS tab_3727, Producer AS tab_3729, Product AS tab_3728, Producttypeproduct AS tab_3730 
WHERE tab_3726.countryType = 222 AND tab_3728.nr = tab_3727.product AND tab_3728.producer = tab_3729.nr AND tab_3728.nr = tab_3730.product AND tab_3730.producttype = 140 AND tab_3726.country = tab_3729.country 
UNION
SELECT tab_3971.country 
FROM Offer AS tab_3972, Product AS tab_3973, PRODUCTTYPEPRODUCT AS tab_3975, CountryType AS tab_3971, Producer AS tab_3974 
WHERE tab_3971.countryType = 222 AND tab_3973.nr = tab_3972.product AND tab_3974.nr = tab_3973.producer AND tab_3973.nr = tab_3975.product AND tab_3975.producttype = 95 AND tab_3971.country = tab_3974.country 
UNION
SELECT tab_3691.country 
FROM CountryType AS tab_3691, Offer AS tab_3692, Producer AS tab_3694, Product AS tab_3693, PRODUCTTYPEPRODUCT AS tab_3695 
WHERE tab_3691.countryType = 222 AND tab_3693.nr = tab_3692.product AND tab_3694.nr = tab_3693.producer AND tab_3693.nr = tab_3695.product AND tab_3695.producttype = 62 AND tab_3691.country = tab_3694.country 
UNION
SELECT tab_4411.country 
FROM Product AS tab_4413, PRODUCTTYPEPRODUCT AS tab_4415, Offer AS tab_4412, CountryType AS tab_4411, Producer AS tab_4414 
WHERE tab_4411.countryType = 222 AND tab_4413.nr = tab_4412.product AND tab_4414.nr = tab_4413.producer AND tab_4413.nr = tab_4415.product AND tab_4415.producttype = 66 AND tab_4411.country = tab_4414.country 
UNION
SELECT tab_3931.country 
FROM Producer AS tab_3934, Product AS tab_3933, PRODUCTTYPEPRODUCT AS tab_3935, CountryType AS tab_3931, Offer AS tab_3932 
WHERE tab_3931.countryType = 222 AND tab_3933.nr = tab_3932.product AND tab_3934.nr = tab_3933.producer AND tab_3933.nr = tab_3935.product AND tab_3935.producttype = 72 AND tab_3931.country = tab_3934.country 
UNION
SELECT tab_4093.country 
FROM CountryType AS tab_4095, Producttypeproduct AS tab_4094, Producer AS tab_4093, Product AS tab_4092, Review AS tab_4091 
WHERE tab_4092.nr = tab_4091.product AND tab_4092.producer = tab_4093.nr AND tab_4092.nr = tab_4094.product AND tab_4094.producttype = 143 AND tab_4095.countryType = 222 AND tab_4093.country = tab_4095.country 
UNION
SELECT tab_4211.country 
FROM PRODUCTTYPEPRODUCT AS tab_4215, Offer AS tab_4... (193 UNIONs)
2", color = yellow] ; 
0 -> 1 ; 
2 [label="FunctionCallBindAccess
(<http://downlode.org/rdf/iso-3166/countries#{0}>)", color = yellow] ; 
0 -> 2 ; 
}
