digraph  g{ graph[label = "12:39:51.584"]
node [shape=rectangle, color=black, fontcolor=black, style=bold] edge [color=black] 0 [label="HashDistinct", color = yellow] ; 
1 [label="Union", color = yellow] ; 
0 -> 1 ; 
2 [label="BindAccessEval", color = yellow] ; 
1 -> 2 ; 
3 [label="BindAccessEval", color = yellow] ; 
2 -> 3 ; 
4 [label="SQLQuery
SELECT tab_26951.country, tab_26954.label 
FROM Product AS tab_26954, Product AS tab_26952, CountryType AS tab_26953, Producer AS tab_26951  
WHERE tab_26952.producer = tab_26951.nr AND tab_26953.countryType = 112 AND tab_26951.country = tab_26953.country AND tab_26952.producer = tab_26954.producer AND tab_26952.nr = tab_26954.nr
1314", color = yellow] ; 
3 -> 4 ; 
5 [label="FunctionCallBindAccess
(\"{1}\", <http://downlode.org/rdf/iso-3166/countries#{0}>)", color = yellow] ; 
3 -> 5 ; 
6 [label="FunctionCallBindAccess
AddConstant{1=(\"<http://www4.wiwiss.fu-berlin.de/bizer/bsbm/v01/vocabulary/producer>\")}", color = yellow] ; 
2 -> 6 ; 
8 [label="BindAccessEval", color = yellow] ; 
1 -> 8 ; 
9 [label="BindAccessEval", color = yellow] ; 
8 -> 9 ; 
10 [label="SQLQuery
SELECT tab_26959.country, tab_26961.label 
FROM CountryType AS tab_26960, Product AS tab_26961, Producer AS tab_26959, Product AS tab_26958  
WHERE tab_26958.producer = tab_26959.nr AND tab_26960.countryType = 122 AND tab_26959.country = tab_26960.country AND tab_26958.producer = tab_26961.producer AND tab_26958.nr = tab_26961.nr
477", color = yellow] ; 
9 -> 10 ; 
11 [label="FunctionCallBindAccess
(\"{1}\", <http://downlode.org/rdf/iso-3166/countries#{0}>)", color = yellow] ; 
9 -> 11 ; 
12 [label="FunctionCallBindAccess
AddConstant{1=(\"<http://www4.wiwiss.fu-berlin.de/bizer/bsbm/v01/vocabulary/producer>\")}", color = yellow] ; 
8 -> 12 ; 
14 [label="BindAccessEval", color = yellow] ; 
1 -> 14 ; 
15 [label="BindAccessEval", color = yellow] ; 
14 -> 15 ; 
16 [label="SQLQuery
SELECT tab_26967.label, tab_26965.country 
FROM Product AS tab_26967, Product AS tab_26966, Producer AS tab_26965, CountryType AS tab_26968  
WHERE tab_26966.producer = tab_26965.nr AND tab_26967.producer = tab_26966.producer AND tab_26967.nr = tab_26966.nr AND tab_26968.countryType = 111 AND tab_26965.country = tab_26968.country
277", color = yellow] ; 
15 -> 16 ; 
17 [label="FunctionCallBindAccess
(\"{0}\", <http://downlode.org/rdf/iso-3166/countries#{1}>)", color = yellow] ; 
15 -> 17 ; 
18 [label="FunctionCallBindAccess
AddConstant{1=(\"<http://www4.wiwiss.fu-berlin.de/bizer/bsbm/v01/vocabulary/producer>\")}", color = yellow] ; 
14 -> 18 ; 
20 [label="BindAccessEval", color = yellow] ; 
1 -> 20 ; 
21 [label="BindAccessEval", color = yellow] ; 
20 -> 21 ; 
22 [label="SQLQuery
SELECT tab_26974.label, tab_26973.country 
FROM Product AS tab_26974, Product AS tab_26972, CountryType AS tab_26975, Producer AS tab_26973  
WHERE tab_26972.producer = tab_26973.nr AND tab_26974.producer = tab_26972.producer AND tab_26974.nr = tab_26972.nr AND tab_26975.countryType = 121 AND tab_26973.country = tab_26975.country
553", color = yellow] ; 
21 -> 22 ; 
23 [label="FunctionCallBindAccess
(\"{0}\", <http://downlode.org/rdf/iso-3166/countries#{1}>)", color = yellow] ; 
21 -> 23 ; 
24 [label="FunctionCallBindAccess
AddConstant{1=(\"<http://www4.wiwiss.fu-berlin.de/bizer/bsbm/v01/vocabulary/producer>\")}", color = yellow] ; 
20 -> 24 ; 
}
