<?xml version="1.0" encoding="UTF-8" standalone="no"?>
<!DOCTYPE svg PUBLIC "-//W3C//DTD SVG 1.1//EN"
 "http://www.w3.org/Graphics/SVG/1.1/DTD/svg11.dtd">
<!-- Generated by graphviz version 2.40.1 (20161225.0304)
 -->
<!-- Title: g Pages: 1 -->
<svg width="3298pt" height="426pt"
 viewBox="0.00 0.00 3297.50 426.00" xmlns="http://www.w3.org/2000/svg" xmlns:xlink="http://www.w3.org/1999/xlink">
<g id="graph0" class="graph" transform="scale(1 1) rotate(0) translate(4 422)">
<title>g</title>
<polygon fill="#ffffff" stroke="transparent" points="-4,4 -4,-422 3293.5,-422 3293.5,4 -4,4"/>
<text text-anchor="middle" x="1644.75" y="-7.8" font-family="Times,serif" font-size="14.00" fill="#000000">12:40:38.186</text>
<!-- 0 -->
<g id="node1" class="node">
<title>0</title>
<polygon fill="none" stroke="#ffff00" stroke-width="2" points="2168,-418 2062,-418 2062,-382 2168,-382 2168,-418"/>
<text text-anchor="middle" x="2115" y="-396.3" font-family="Times,serif" font-size="14.00" fill="#000000">BindAccessEval</text>
</g>
<!-- 1 -->
<g id="node2" class="node">
<title>1</title>
<polygon fill="none" stroke="#ffff00" stroke-width="2" points="2576,-346 0,-346 0,-23 2576,-23 2576,-346"/>
<text text-anchor="middle" x="1288" y="-330.8" font-family="Times,serif" font-size="14.00" fill="#000000">SQLQuery</text>
<text text-anchor="middle" x="1288" y="-315.8" font-family="Times,serif" font-size="14.00" fill="#000000">SELECT tab_30019.vendor, tab_30019.nr, tab_30019.offerWebpage, tab_30019.price, tab_30019.deliveryDays, tab_30016.propertyNum2 </text>
<text text-anchor="middle" x="1288" y="-300.8" font-family="Times,serif" font-size="14.00" fill="#000000">FROM CountryType AS tab_30017, Producer AS tab_30018, Offer AS tab_30019, Product AS tab_30015, Product AS tab_30016, PRODUCTTYPEPRODUCT AS tab_30021, PRODUCT AS tab_30020 </text>
<text text-anchor="middle" x="1288" y="-285.8" font-family="Times,serif" font-size="14.00" fill="#000000">WHERE tab_30015.producer = tab_30018.nr AND tab_30017.countryType = 122 AND tab_30018.country = tab_30017.country AND tab_30015.producer = tab_30019.producer AND tab_30015.nr = tab_30019.product AND tab_30015.producer = tab_30016.producer AND tab_30015.nr = tab_30016.nr AND tab_30021.producttype = 74 AND tab_30021.product = tab_30020.nr AND tab_30015.producer = tab_30020.producer AND tab_30015.nr = tab_30020.nr </text>
<text text-anchor="middle" x="1288" y="-270.8" font-family="Times,serif" font-size="14.00" fill="#000000">UNION</text>
<text text-anchor="middle" x="1288" y="-255.8" font-family="Times,serif" font-size="14.00" fill="#000000">SELECT tab_31870.vendor, tab_31870.nr, tab_31870.offerWebpage, tab_31870.price, tab_31870.deliveryDays, tab_31867.propertyNum3 </text>
<text text-anchor="middle" x="1288" y="-240.8" font-family="Times,serif" font-size="14.00" fill="#000000">FROM Producer AS tab_31869, Offer AS tab_31870, PRODUCTTYPEPRODUCT AS tab_31866, Offer AS tab_31868, CountryType AS tab_31871, Product AS tab_31867 </text>
<text text-anchor="middle" x="1288" y="-225.8" font-family="Times,serif" font-size="14.00" fill="#000000">WHERE tab_31867.nr = tab_31868.product AND tab_31869.nr = tab_31867.producer AND tab_31867.nr = tab_31866.product AND tab_31866.producttype = 76 AND tab_31870.vendor = tab_31868.vendor AND tab_31870.nr = tab_31868.nr AND tab_31871.countryType = 122 AND tab_31869.country = tab_31871.country </text>
<text text-anchor="middle" x="1288" y="-210.8" font-family="Times,serif" font-size="14.00" fill="#000000">UNION</text>
<text text-anchor="middle" x="1288" y="-195.8" font-family="Times,serif" font-size="14.00" fill="#000000">SELECT tab_31159.vendor, tab_31159.nr, tab_31159.offerWebpage, tab_31159.price, tab_31159.deliveryDays, tab_31160.propertyNum3 </text>
<text text-anchor="middle" x="1288" y="-180.8" font-family="Times,serif" font-size="14.00" fill="#000000">FROM Producer AS tab_31161, PRODUCTTYPEPRODUCT AS tab_31162, CountryType AS tab_31163, Offer AS tab_31159, Offer AS tab_31158, Product AS tab_31160 </text>
<text text-anchor="middle" x="1288" y="-165.8" font-family="Times,serif" font-size="14.00" fill="#000000">WHERE tab_31160.nr = tab_31158.product AND tab_31161.nr = tab_31160.producer AND tab_31160.nr = tab_31162.product AND tab_31162.producttype = 77 AND tab_31159.vendor = tab_31158.vendor AND tab_31159.nr = tab_31158.nr AND tab_31163.countryType = 122 AND tab_31161.country = tab_31163.country </text>
<text text-anchor="middle" x="1288" y="-150.8" font-family="Times,serif" font-size="14.00" fill="#000000">UNION</text>
<text text-anchor="middle" x="1288" y="-135.8" font-family="Times,serif" font-size="14.00" fill="#000000">SELECT tab_31450.vendor, tab_31450.nr, tab_31450.offerWebpage, tab_31450.price, tab_31450.deliveryDays, tab_31445.propertyNum2 </text>
<text text-anchor="middle" x="1288" y="-120.8" font-family="Times,serif" font-size="14.00" fill="#000000">FROM PRODUCTTYPEPRODUCT AS tab_31447, Producer AS tab_31449, Offer AS tab_31450, PRODUCT AS tab_31448, Product AS tab_31446, CountryType AS tab_31451, Product AS tab_31445 </text>
<text text-anchor="middle" x="1288" y="-105.8" font-family="Times,serif" font-size="14.00" fill="#000000">WHERE tab_31447.producttype = 76 AND tab_31447.product = tab_31448.nr AND tab_31448.producer = tab_31445.producer AND tab_31448.nr = tab_31445.nr AND tab_31446.producer = tab_31449.nr AND tab_31448.producer = tab_31446.producer AND tab_31448.nr = tab_31446.nr AND tab_31448.producer = tab_31450.producer AND tab_31448.nr = tab_31450.product AND tab_31451.countryType = 122 AND tab_31449.country = tab_31451.country </text>
<text text-anchor="middle" x="1288" y="-90.8" font-family="Times,serif" font-size="14.00" fill="#000000">UNION</text>
<text text-anchor="middle" x="1288" y="-75.8" font-family="Times,serif" font-size="14.00" fill="#000000">SELECT tab_30576.vendor, tab_30576.nr, tab_30576.offerWebpage, tab_30576.price, tab_30576.deliveryDays, tab_30582.propertyNum2 </text>
<text text-anchor="middle" x="1288" y="-60.8" font-family="Times,serif" font-size="14.00" fill="#000000">FROM Product AS tab_30582, CountryType AS tab_30579, PRODUCTTYPEPRODUCT AS tab_30577, Producer AS tab_30580, Product AS tab_30578, Offer AS tab_30576, PRODUCT AS tab_30581 </text>
<text text-anchor="middle" x="1288" y="-45.8" font-family="Times,serif" font-size="14.00" fill="#000000">WHERE tab_30578.producer = tab_30580.nr AND tab_30579.countryType = 122 AND tab_30580.country = tab_305... (127 UNIONs)</text>
<text text-anchor="middle" x="1288" y="-30.8" font-family="Times,serif" font-size="14.00" fill="#000000">15511</text>
</g>
<!-- 0&#45;&gt;1 -->
<g id="edge1" class="edge">
<title>0&#45;&gt;1</title>
<path fill="none" stroke="#000000" d="M2061.6928,-386.1092C2026.5016,-376.9391 1976.2086,-363.8337 1917.9282,-348.6469"/>
<polygon fill="#000000" stroke="#000000" points="1918.6811,-345.2263 1908.1217,-346.0916 1916.916,-352.0001 1918.6811,-345.2263"/>
</g>
<!-- 2 -->
<g id="node3" class="node">
<title>2</title>
<polygon fill="none" stroke="#ffff00" stroke-width="2" points="3289.5,-203.5 2594.5,-203.5 2594.5,-165.5 3289.5,-165.5 3289.5,-203.5"/>
<text text-anchor="middle" x="2942" y="-188.3" font-family="Times,serif" font-size="14.00" fill="#000000">FunctionCallBindAccess</text>
<text text-anchor="middle" x="2942" y="-173.3" font-family="Times,serif" font-size="14.00" fill="#000000">(&lt;http://www4.wiwiss.fu&#45;berlin.de/bizer/bsbm/v01/instances/dataFromVendor{0}/Offer{1}&gt;, &lt;{2}&gt;, &quot;{3}&quot;, &quot;{4}&quot;, &quot;{5}&quot;)</text>
</g>
<!-- 0&#45;&gt;2 -->
<g id="edge2" class="edge">
<title>0&#45;&gt;2</title>
<path fill="none" stroke="#000000" d="M2168.3765,-395.9607C2274.3217,-387.6002 2507.6144,-367.3848 2585,-346 2704.6103,-312.9468 2835.0302,-244.9952 2900.1201,-208.6641"/>
<polygon fill="#000000" stroke="#000000" points="2901.8576,-211.7026 2908.8631,-203.7544 2898.4301,-205.5991 2901.8576,-211.7026"/>
</g>
</g>
</svg>
