{
  "description": "Mapping of offer's properties from product of type $type",
  "head": "Q2<$offer, $propertyNum3, $propertyNum4, $country> :- triple($offer, <http://www4.wiwiss.fu-berlin.de/bizer/bsbm/v01/vocabulary/product>, $product), triple($product, <http://www.w3.org/1999/02/22-rdf-syntax-ns#type>, <http://www4.wiwiss.fu-berlin.de/bizer/bsbm/v01/instances/ProductType$type>), triple($product, <http://www4.wiwiss.fu-berlin.de/bizer/bsbm/v01/vocabulary/productPropertyNumeric3>, $propertyNum3), triple($product, <http://www4.wiwiss.fu-berlin.de/bizer/bsbm/v01/vocabulary/productPropertyNumeric4>, $propertyNum4), triple($product, <http://www4.wiwiss.fu-berlin.de/bizer/bsbm/v01/vocabulary/producer>, $producer), triple($producer, <http://www4.wiwiss.fu-berlin.de/bizer/bsbm/v01/vocabulary/country>, $country);",
  "body": {
    "columnTypes": ["IRI", "LITERAL", "LITERAL", "IRI"],
    "functions": ["http://www4.wiwiss.fu-berlin.de/bizer/bsbm/v01/instances/dataFromVendor{vendor}/Offer{offer}", "propertyNum3", "propertyNum4", "http://downlode.org/rdf/iso-3166/countries#{country}"],
    "query": "SELECT O.nr AS offer, O.vendor AS vendor, P.propertyNum3 AS propertyNum3, P.propertyNum4 AS propertyNum4, PR.country AS country FROM Offer AS O, Product AS P, Producer AS PR, PRODUCTTYPEPRODUCT AS PTP WHERE P.nr = O.product AND PR.nr = P.producer AND P.nr = PTP.product AND PTP.producttype=$type",
    "datasource": "postgreSQLSource"
  }
},
