{
  "description": "Mapping of product ratings for review's country type %s",
  "head": "Q2<$product, $rating3, $rating4, $country> :-  triple($review, <http://www4.wiwiss.fu-berlin.de/bizer/bsbm/v01/vocabulary/reviewFor>, $product), triple($review, <http://www4.wiwiss.fu-berlin.de/bizer/bsbm/v01/vocabulary/rating3>, $rating3), triple($review, <http://www4.wiwiss.fu-berlin.de/bizer/bsbm/v01/vocabulary/rating4>, $rating4), triple($review, <http://purl.org/stuff/rev#reviewer>, $person), triple($person, <http://www4.wiwiss.fu-berlin.de/bizer/bsbm/v01/vocabulary/country>, $country), ;",
  "body": {
    "columnTypes": ["IRI", "LITERAL", "LITERAL", "IRI"],
    "functions": ["http://www4.wiwiss.fu-berlin.de/bizer/bsbm/v01/instances/dataFromProducer{producer}/Product{nr}", "rating3", "rating4","http://downlode.org/rdf/iso-3166/countries#{country}"],
    "query": "SELECT P.nr AS nr, P.producer AS producer, R.rating3 AS rating3, R.rating4 AS rating4, PE.country AS country FROM Product AS P, Review AS R, Person AS PE WHERE P.nr = R.product AND R.person = PE.nr",
    "datasource": "postgreSQLSource"
  }
},
