digraph  g{ graph[label = "1:30:19.614"]
node [shape=rectangle, color=black, fontcolor=black, style=bold] edge [color=black] 0 [label="BindAccessEval", color = yellow] ; 
1 [label="HashDistinct", color = yellow] ; 
0 -> 1 ; 
2 [label="Union", color = yellow] ; 
1 -> 2 ; 
3 [label="Project
[2, 6, 3]", color = yellow] ; 
2 -> 3 ; 
4 [label="RightBindJoin 
[1, 0]
3612", color = yellow] ; 
3 -> 4 ; 
5 [label="SQLQuery
SELECT tab_3.nr, tab_3.producer, tab_5.label, tab_5.propertyNum2 
FROM Product AS tab_5, PRODUCT AS tab_3, PRODUCTTYPEPRODUCT AS tab_4  
WHERE tab_4.producttype = 1059 AND tab_4.product = tab_3.nr AND tab_3.producer = tab_5.producer AND tab_3.nr = tab_5.nr
183", color = yellow] ; 
4 -> 5 ; 
6 [label="PhyMongoDBEval
productfeatureproduct
[{ \"$match\": { \"producer\": %s, \"nr\": %s } }]
[nr, producer, label]
3612", color = yellow] ; 
4 -> 6 ; 
8 [label="Project
[2, 6, 3]", color = yellow] ; 
2 -> 8 ; 
9 [label="RightBindJoin 
[0, 1]
4145", color = yellow] ; 
8 -> 9 ; 
10 [label="SQLQuery
SELECT tab_6.nr, tab_6.producer, tab_8.label, tab_8.propertyNum1 
FROM PRODUCTTYPEPRODUCT AS tab_7, Product AS tab_8, PRODUCT AS tab_6  
WHERE tab_7.producttype = 1058 AND tab_7.product = tab_6.nr AND tab_6.nr = tab_8.nr AND tab_6.producer = tab_8.producer
182", color = yellow] ; 
9 -> 10 ; 
11 [label="PhyMongoDBEval
productfeatureproduct
[{ \"$match\": { \"nr\": %s, \"producer\": %s } }]
[nr, producer, label]
4145", color = yellow] ; 
9 -> 11 ; 
13 [label="Project
[2, 6, 3]", color = yellow] ; 
2 -> 13 ; 
14 [label="RightBindJoin 
[0, 1]
3612", color = yellow] ; 
13 -> 14 ; 
15 [label="SQLQuery
SELECT tab_0.nr, tab_0.producer, tab_2.label, tab_2.propertyNum1 
FROM PRODUCTTYPEPRODUCT AS tab_1, Product AS tab_2, PRODUCT AS tab_0  
WHERE tab_1.producttype = 1059 AND tab_1.product = tab_0.nr AND tab_0.producer = tab_2.producer AND tab_0.nr = tab_2.nr
183", color = yellow] ; 
14 -> 15 ; 
16 [label="PhyMongoDBEval
productfeatureproduct
[{ \"$match\": { \"nr\": %s, \"producer\": %s } }]
[nr, producer, label]
3612", color = yellow] ; 
14 -> 16 ; 
18 [label="Project
[2, 6, 3]", color = yellow] ; 
2 -> 18 ; 
19 [label="RightBindJoin 
[1, 0]
4145", color = yellow] ; 
18 -> 19 ; 
20 [label="SQLQuery
SELECT tab_9.nr, tab_9.producer, tab_11.label, tab_11.propertyNum2 
FROM Product AS tab_11, PRODUCT AS tab_9, PRODUCTTYPEPRODUCT AS tab_10  
WHERE tab_10.producttype = 1058 AND tab_10.product = tab_9.nr AND tab_9.producer = tab_11.producer AND tab_9.nr = tab_11.nr
182", color = yellow] ; 
19 -> 20 ; 
21 [label="PhyMongoDBEval
productfeatureproduct
[{ \"$match\": { \"producer\": %s, \"nr\": %s } }]
[nr, producer, label]
4145", color = yellow] ; 
19 -> 21 ; 
22 [label="FunctionCallBindAccess
(\"{0}\", \"{1}\", \"{2}\")", color = yellow] ; 
0 -> 22 ; 
}
