<?xml version="1.0" encoding="UTF-8" standalone="no"?>
<!DOCTYPE svg PUBLIC "-//W3C//DTD SVG 1.1//EN"
 "http://www.w3.org/Graphics/SVG/1.1/DTD/svg11.dtd">
<!-- Generated by graphviz version 2.40.1 (20161225.0304)
 -->
<!-- Title: g Pages: 1 -->
<svg width="14506pt" height="540pt"
 viewBox="0.00 0.00 14506.00 540.00" xmlns="http://www.w3.org/2000/svg" xmlns:xlink="http://www.w3.org/1999/xlink">
<g id="graph0" class="graph" transform="scale(1 1) rotate(0) translate(4 536)">
<title>g</title>
<polygon fill="#ffffff" stroke="transparent" points="-4,4 -4,-536 14502,-536 14502,4 -4,4"/>
<text text-anchor="middle" x="7249" y="-7.8" font-family="Times,serif" font-size="14.00" fill="#000000">1:31:34.77</text>
<!-- 0 -->
<g id="node1" class="node">
<title>0</title>
<polygon fill="none" stroke="#ffff00" stroke-width="2" points="7187,-532 7081,-532 7081,-496 7187,-496 7187,-532"/>
<text text-anchor="middle" x="7134" y="-510.3" font-family="Times,serif" font-size="14.00" fill="#000000">BindAccessEval</text>
</g>
<!-- 1 -->
<g id="node2" class="node">
<title>1</title>
<polygon fill="none" stroke="#ffff00" stroke-width="2" points="7051.5,-459 6964.5,-459 6964.5,-423 7051.5,-423 7051.5,-459"/>
<text text-anchor="middle" x="7008" y="-437.3" font-family="Times,serif" font-size="14.00" fill="#000000">HashDistinct</text>
</g>
<!-- 0&#45;&gt;1 -->
<g id="edge1" class="edge">
<title>0&#45;&gt;1</title>
<path fill="none" stroke="#000000" d="M7102.8539,-495.9551C7086.3465,-486.3912 7065.8796,-474.5334 7048.1876,-464.2833"/>
<polygon fill="#000000" stroke="#000000" points="7049.6318,-461.075 7039.2245,-459.0904 7046.1226,-467.1319 7049.6318,-461.075"/>
</g>
<!-- 42 -->
<g id="node36" class="node">
<title>42</title>
<polygon fill="none" stroke="#ffff00" stroke-width="2" points="7450,-460 7070,-460 7070,-422 7450,-422 7450,-460"/>
<text text-anchor="middle" x="7260" y="-444.8" font-family="Times,serif" font-size="14.00" fill="#000000">FunctionCallBindAccess</text>
<text text-anchor="middle" x="7260" y="-429.8" font-family="Times,serif" font-size="14.00" fill="#000000">(&quot;{0}&quot;, &quot;{1}&quot;, &lt;http://downlode.org/rdf/iso&#45;3166/countries#{2}&gt;)</text>
</g>
<!-- 0&#45;&gt;42 -->
<g id="edge35" class="edge">
<title>0&#45;&gt;42</title>
<path fill="none" stroke="#000000" d="M7165.1461,-495.9551C7181.157,-486.6789 7200.8929,-475.2446 7218.2088,-465.2124"/>
<polygon fill="#000000" stroke="#000000" points="7220.1126,-468.1544 7227.0107,-460.1128 7216.6034,-462.0975 7220.1126,-468.1544"/>
</g>
<!-- 2 -->
<g id="node3" class="node">
<title>2</title>
<polygon fill="none" stroke="#ffff00" stroke-width="2" points="7035,-386 6981,-386 6981,-350 7035,-350 7035,-386"/>
<text text-anchor="middle" x="7008" y="-364.3" font-family="Times,serif" font-size="14.00" fill="#000000">Union</text>
</g>
<!-- 1&#45;&gt;2 -->
<g id="edge2" class="edge">
<title>1&#45;&gt;2</title>
<path fill="none" stroke="#000000" d="M7008,-422.9551C7008,-414.8828 7008,-405.1764 7008,-396.1817"/>
<polygon fill="#000000" stroke="#000000" points="7011.5001,-396.0903 7008,-386.0904 7004.5001,-396.0904 7011.5001,-396.0903"/>
</g>
<!-- 3 -->
<g id="node4" class="node">
<title>3</title>
<polygon fill="none" stroke="#ffff00" stroke-width="2" points="3086.5,-314 3025.5,-314 3025.5,-276 3086.5,-276 3086.5,-314"/>
<text text-anchor="middle" x="3056" y="-298.8" font-family="Times,serif" font-size="14.00" fill="#000000">Project</text>
<text text-anchor="middle" x="3056" y="-283.8" font-family="Times,serif" font-size="14.00" fill="#000000">[2, 3, 4]</text>
</g>
<!-- 2&#45;&gt;3 -->
<g id="edge3" class="edge">
<title>2&#45;&gt;3</title>
<path fill="none" stroke="#000000" d="M6980.8473,-367.5532C6758.5057,-363.8871 5214.0866,-338.288 3960,-314 3626.8237,-307.5474 3224.5985,-298.7314 3096.9369,-295.9085"/>
<polygon fill="#000000" stroke="#000000" points="3096.9039,-292.407 3086.8289,-295.6848 3096.7489,-299.4053 3096.9039,-292.407"/>
</g>
<!-- 8 -->
<g id="node8" class="node">
<title>8</title>
<polygon fill="none" stroke="#ffff00" stroke-width="2" points="4030.5,-314 3969.5,-314 3969.5,-276 4030.5,-276 4030.5,-314"/>
<text text-anchor="middle" x="4000" y="-298.8" font-family="Times,serif" font-size="14.00" fill="#000000">Project</text>
<text text-anchor="middle" x="4000" y="-283.8" font-family="Times,serif" font-size="14.00" fill="#000000">[2, 3, 4]</text>
</g>
<!-- 2&#45;&gt;8 -->
<g id="edge7" class="edge">
<title>2&#45;&gt;8</title>
<path fill="none" stroke="#000000" d="M6980.6117,-367.3353C6701.6568,-360.5655 4378.8257,-304.1936 4040.931,-295.9933"/>
<polygon fill="#000000" stroke="#000000" points="4040.7129,-292.4871 4030.6309,-295.7434 4040.543,-299.485 4040.7129,-292.4871"/>
</g>
<!-- 13 -->
<g id="node12" class="node">
<title>13</title>
<polygon fill="none" stroke="#ffff00" stroke-width="2" points="5844.5,-314 5783.5,-314 5783.5,-276 5844.5,-276 5844.5,-314"/>
<text text-anchor="middle" x="5814" y="-298.8" font-family="Times,serif" font-size="14.00" fill="#000000">Project</text>
<text text-anchor="middle" x="5814" y="-283.8" font-family="Times,serif" font-size="14.00" fill="#000000">[2, 3, 4]</text>
</g>
<!-- 2&#45;&gt;13 -->
<g id="edge11" class="edge">
<title>2&#45;&gt;13</title>
<path fill="none" stroke="#000000" d="M6980.8183,-366.3381C6824.7003,-356.7932 6042.527,-308.9719 5854.6303,-297.4841"/>
<polygon fill="#000000" stroke="#000000" points="5854.8139,-293.9889 5844.6189,-296.872 5854.3867,-300.9758 5854.8139,-293.9889"/>
</g>
<!-- 18 -->
<g id="node16" class="node">
<title>18</title>
<polygon fill="none" stroke="#ffff00" stroke-width="2" points="6999.5,-314 6938.5,-314 6938.5,-276 6999.5,-276 6999.5,-314"/>
<text text-anchor="middle" x="6969" y="-298.8" font-family="Times,serif" font-size="14.00" fill="#000000">Project</text>
<text text-anchor="middle" x="6969" y="-283.8" font-family="Times,serif" font-size="14.00" fill="#000000">[2, 3, 6]</text>
</g>
<!-- 2&#45;&gt;18 -->
<g id="edge15" class="edge">
<title>2&#45;&gt;18</title>
<path fill="none" stroke="#000000" d="M6998.3595,-349.9551C6994.0403,-341.8703 6988.8452,-332.1462 6984.0336,-323.1398"/>
<polygon fill="#000000" stroke="#000000" points="6987.0102,-321.2838 6979.211,-314.1128 6980.8361,-324.5823 6987.0102,-321.2838"/>
</g>
<!-- 23 -->
<g id="node20" class="node">
<title>23</title>
<polygon fill="none" stroke="#ffff00" stroke-width="2" points="7492.5,-314 7431.5,-314 7431.5,-276 7492.5,-276 7492.5,-314"/>
<text text-anchor="middle" x="7462" y="-298.8" font-family="Times,serif" font-size="14.00" fill="#000000">Project</text>
<text text-anchor="middle" x="7462" y="-283.8" font-family="Times,serif" font-size="14.00" fill="#000000">[2, 3, 6]</text>
</g>
<!-- 2&#45;&gt;23 -->
<g id="edge19" class="edge">
<title>2&#45;&gt;23</title>
<path fill="none" stroke="#000000" d="M7035.0402,-363.6521C7111.5971,-351.3423 7330.1792,-316.1958 7421.3222,-301.5407"/>
<polygon fill="#000000" stroke="#000000" points="7421.9592,-304.9833 7431.2767,-299.9401 7420.8479,-298.0721 7421.9592,-304.9833"/>
</g>
<!-- 28 -->
<g id="node24" class="node">
<title>28</title>
<polygon fill="none" stroke="#ffff00" stroke-width="2" points="8647.5,-314 8586.5,-314 8586.5,-276 8647.5,-276 8647.5,-314"/>
<text text-anchor="middle" x="8617" y="-298.8" font-family="Times,serif" font-size="14.00" fill="#000000">Project</text>
<text text-anchor="middle" x="8617" y="-283.8" font-family="Times,serif" font-size="14.00" fill="#000000">[2, 3, 6]</text>
</g>
<!-- 2&#45;&gt;28 -->
<g id="edge23" class="edge">
<title>2&#45;&gt;28</title>
<path fill="none" stroke="#000000" d="M7035.2521,-366.7636C7224.8874,-358.1599 8346.7508,-307.2612 8576.0713,-296.8569"/>
<polygon fill="#000000" stroke="#000000" points="8576.4783,-300.3422 8586.3094,-296.3924 8576.161,-293.3493 8576.4783,-300.3422"/>
</g>
<!-- 33 -->
<g id="node28" class="node">
<title>33</title>
<polygon fill="none" stroke="#ffff00" stroke-width="2" points="10132.5,-314 10071.5,-314 10071.5,-276 10132.5,-276 10132.5,-314"/>
<text text-anchor="middle" x="10102" y="-298.8" font-family="Times,serif" font-size="14.00" fill="#000000">Project</text>
<text text-anchor="middle" x="10102" y="-283.8" font-family="Times,serif" font-size="14.00" fill="#000000">[2, 3, 6]</text>
</g>
<!-- 2&#45;&gt;33 -->
<g id="edge27" class="edge">
<title>2&#45;&gt;33</title>
<path fill="none" stroke="#000000" d="M7035.2184,-367.3578C7318.1066,-360.6833 9717.7416,-304.0662 10061.1505,-295.9638"/>
<polygon fill="#000000" stroke="#000000" points="10061.4666,-299.4574 10071.3813,-295.7224 10061.3014,-292.4594 10061.4666,-299.4574"/>
</g>
<!-- 38 -->
<g id="node32" class="node">
<title>38</title>
<polygon fill="none" stroke="#ffff00" stroke-width="2" points="11783.5,-314 11722.5,-314 11722.5,-276 11783.5,-276 11783.5,-314"/>
<text text-anchor="middle" x="11753" y="-298.8" font-family="Times,serif" font-size="14.00" fill="#000000">Project</text>
<text text-anchor="middle" x="11753" y="-283.8" font-family="Times,serif" font-size="14.00" fill="#000000">[1, 3, 6]</text>
</g>
<!-- 2&#45;&gt;38 -->
<g id="edge31" class="edge">
<title>2&#45;&gt;38</title>
<path fill="none" stroke="#000000" d="M7035.2723,-367.5804C7398.3689,-361.9943 11272.0983,-302.3985 11712.3367,-295.6256"/>
<polygon fill="#000000" stroke="#000000" points="11712.4355,-299.1246 11722.3804,-295.4711 11712.3277,-292.1254 11712.4355,-299.1246"/>
</g>
<!-- 4 -->
<g id="node5" class="node">
<title>4</title>
<polygon fill="none" stroke="#ffff00" stroke-width="2" points="1372.5,-240 1273.5,-240 1273.5,-187 1372.5,-187 1372.5,-240"/>
<text text-anchor="middle" x="1323" y="-224.8" font-family="Times,serif" font-size="14.00" fill="#000000">RightBindJoin </text>
<text text-anchor="middle" x="1323" y="-209.8" font-family="Times,serif" font-size="14.00" fill="#000000">[0, 1]</text>
<text text-anchor="middle" x="1323" y="-194.8" font-family="Times,serif" font-size="14.00" fill="#000000">22</text>
</g>
<!-- 3&#45;&gt;4 -->
<g id="edge4" class="edge">
<title>3&#45;&gt;4</title>
<path fill="none" stroke="#000000" d="M3025.185,-293.5508C2820.849,-283.9413 1660.9811,-229.3947 1382.9127,-216.3176"/>
<polygon fill="#000000" stroke="#000000" points="1382.7808,-212.8076 1372.6274,-215.8339 1382.4519,-219.7999 1382.7808,-212.8076"/>
</g>
<!-- 5 -->
<g id="node6" class="node">
<title>5</title>
<polygon fill="none" stroke="#ffff00" stroke-width="2" points="836,-128.5 0,-128.5 0,-45.5 836,-45.5 836,-128.5"/>
<text text-anchor="middle" x="418" y="-113.3" font-family="Times,serif" font-size="14.00" fill="#000000">SQLQuery</text>
<text text-anchor="middle" x="418" y="-98.3" font-family="Times,serif" font-size="14.00" fill="#000000">SELECT tab_906.nr, tab_906.producer, tab_908.label, tab_908.propertyNum2 </text>
<text text-anchor="middle" x="418" y="-83.3" font-family="Times,serif" font-size="14.00" fill="#000000">FROM PRODUCTTYPEPRODUCT AS tab_907, PRODUCT AS tab_906, Product AS tab_908 &#160;</text>
<text text-anchor="middle" x="418" y="-68.3" font-family="Times,serif" font-size="14.00" fill="#000000">WHERE tab_907.producttype = 1059 AND tab_907.product = tab_906.nr AND tab_906.nr = tab_908.nr AND tab_906.producer = tab_908.producer</text>
<text text-anchor="middle" x="418" y="-53.3" font-family="Times,serif" font-size="14.00" fill="#000000">183</text>
</g>
<!-- 4&#45;&gt;5 -->
<g id="edge5" class="edge">
<title>4&#45;&gt;5</title>
<path fill="none" stroke="#000000" d="M1273.4136,-207.3277C1186.5486,-196.4455 1001.2301,-172.9199 845,-151 798.0355,-144.4106 748.205,-137.1694 699.7933,-130.0008"/>
<polygon fill="#000000" stroke="#000000" points="700.2144,-126.5251 689.8091,-128.5205 699.1877,-133.4494 700.2144,-126.5251"/>
</g>
<!-- 6 -->
<g id="node7" class="node">
<title>6</title>
<polygon fill="none" stroke="#ffff00" stroke-width="2" points="1792,-151 854,-151 854,-23 1792,-23 1792,-151"/>
<text text-anchor="middle" x="1323" y="-135.8" font-family="Times,serif" font-size="14.00" fill="#000000">PhyMongoDBEval</text>
<text text-anchor="middle" x="1323" y="-120.8" font-family="Times,serif" font-size="14.00" fill="#000000">countrytype</text>
<text text-anchor="middle" x="1323" y="-105.8" font-family="Times,serif" font-size="14.00" fill="#000000">[{&quot;$match&quot;:{&quot;countrytype&quot;:121}},</text>
<text text-anchor="middle" x="1323" y="-90.8" font-family="Times,serif" font-size="14.00" fill="#000000">{$lookup: { from: &quot;productproducercountry&quot;, let: { &quot;country&quot;: &quot;$country&quot;}, pipeline: [ { $match: {$expr: {$eq: [&quot;$$country&quot;, &quot;$country&quot;] } } } ], as: &quot;mongojoin8&quot;}},</text>
<text text-anchor="middle" x="1323" y="-75.8" font-family="Times,serif" font-size="14.00" fill="#000000">{$unwind: &quot;$mongojoin8&quot;},</text>
<text text-anchor="middle" x="1323" y="-60.8" font-family="Times,serif" font-size="14.00" fill="#000000">{ &quot;$match&quot;: { &quot;mongojoin8.nr&quot;: %s, &quot;mongojoin8.producer&quot;: %s } }]</text>
<text text-anchor="middle" x="1323" y="-45.8" font-family="Times,serif" font-size="14.00" fill="#000000">[country, mongojoin8.nr, mongojoin8.producer]</text>
<text text-anchor="middle" x="1323" y="-30.8" font-family="Times,serif" font-size="14.00" fill="#000000">22</text>
</g>
<!-- 4&#45;&gt;6 -->
<g id="edge6" class="edge">
<title>4&#45;&gt;6</title>
<path fill="none" stroke="#000000" d="M1323,-186.9815C1323,-179.2136 1323,-170.3145 1323,-161.0988"/>
<polygon fill="#000000" stroke="#000000" points="1326.5001,-161.0129 1323,-151.0129 1319.5001,-161.0129 1326.5001,-161.0129"/>
</g>
<!-- 9 -->
<g id="node9" class="node">
<title>9</title>
<polygon fill="none" stroke="#ffff00" stroke-width="2" points="3182.5,-240 3083.5,-240 3083.5,-187 3182.5,-187 3182.5,-240"/>
<text text-anchor="middle" x="3133" y="-224.8" font-family="Times,serif" font-size="14.00" fill="#000000">RightBindJoin </text>
<text text-anchor="middle" x="3133" y="-209.8" font-family="Times,serif" font-size="14.00" fill="#000000">[0, 1]</text>
<text text-anchor="middle" x="3133" y="-194.8" font-family="Times,serif" font-size="14.00" fill="#000000">22</text>
</g>
<!-- 8&#45;&gt;9 -->
<g id="edge8" class="edge">
<title>8&#45;&gt;9</title>
<path fill="none" stroke="#000000" d="M3969.3977,-292.1233C3843.2811,-280.2681 3362.4942,-235.073 3192.7665,-219.1182"/>
<polygon fill="#000000" stroke="#000000" points="3193.0435,-215.6289 3182.7598,-218.1775 3192.3883,-222.5982 3193.0435,-215.6289"/>
</g>
<!-- 10 -->
<g id="node10" class="node">
<title>10</title>
<polygon fill="none" stroke="#ffff00" stroke-width="2" points="2646,-128.5 1810,-128.5 1810,-45.5 2646,-45.5 2646,-128.5"/>
<text text-anchor="middle" x="2228" y="-113.3" font-family="Times,serif" font-size="14.00" fill="#000000">SQLQuery</text>
<text text-anchor="middle" x="2228" y="-98.3" font-family="Times,serif" font-size="14.00" fill="#000000">SELECT tab_909.nr, tab_909.producer, tab_911.label, tab_911.propertyNum1 </text>
<text text-anchor="middle" x="2228" y="-83.3" font-family="Times,serif" font-size="14.00" fill="#000000">FROM Product AS tab_911, PRODUCTTYPEPRODUCT AS tab_910, PRODUCT AS tab_909 &#160;</text>
<text text-anchor="middle" x="2228" y="-68.3" font-family="Times,serif" font-size="14.00" fill="#000000">WHERE tab_910.producttype = 1059 AND tab_910.product = tab_909.nr AND tab_909.nr = tab_911.nr AND tab_909.producer = tab_911.producer</text>
<text text-anchor="middle" x="2228" y="-53.3" font-family="Times,serif" font-size="14.00" fill="#000000">183</text>
</g>
<!-- 9&#45;&gt;10 -->
<g id="edge9" class="edge">
<title>9&#45;&gt;10</title>
<path fill="none" stroke="#000000" d="M3083.4136,-207.3277C2996.5486,-196.4455 2811.2301,-172.9199 2655,-151 2608.0355,-144.4106 2558.205,-137.1694 2509.7933,-130.0008"/>
<polygon fill="#000000" stroke="#000000" points="2510.2144,-126.5251 2499.8091,-128.5205 2509.1877,-133.4494 2510.2144,-126.5251"/>
</g>
<!-- 11 -->
<g id="node11" class="node">
<title>11</title>
<polygon fill="none" stroke="#ffff00" stroke-width="2" points="3602,-151 2664,-151 2664,-23 3602,-23 3602,-151"/>
<text text-anchor="middle" x="3133" y="-135.8" font-family="Times,serif" font-size="14.00" fill="#000000">PhyMongoDBEval</text>
<text text-anchor="middle" x="3133" y="-120.8" font-family="Times,serif" font-size="14.00" fill="#000000">countrytype</text>
<text text-anchor="middle" x="3133" y="-105.8" font-family="Times,serif" font-size="14.00" fill="#000000">[{&quot;$match&quot;:{&quot;countrytype&quot;:122}},</text>
<text text-anchor="middle" x="3133" y="-90.8" font-family="Times,serif" font-size="14.00" fill="#000000">{$lookup: { from: &quot;productproducercountry&quot;, let: { &quot;country&quot;: &quot;$country&quot;}, pipeline: [ { $match: {$expr: {$eq: [&quot;$$country&quot;, &quot;$country&quot;] } } } ], as: &quot;mongojoin9&quot;}},</text>
<text text-anchor="middle" x="3133" y="-75.8" font-family="Times,serif" font-size="14.00" fill="#000000">{$unwind: &quot;$mongojoin9&quot;},</text>
<text text-anchor="middle" x="3133" y="-60.8" font-family="Times,serif" font-size="14.00" fill="#000000">{ &quot;$match&quot;: { &quot;mongojoin9.nr&quot;: %s, &quot;mongojoin9.producer&quot;: %s } }]</text>
<text text-anchor="middle" x="3133" y="-45.8" font-family="Times,serif" font-size="14.00" fill="#000000">[country, mongojoin9.nr, mongojoin9.producer]</text>
<text text-anchor="middle" x="3133" y="-30.8" font-family="Times,serif" font-size="14.00" fill="#000000">22</text>
</g>
<!-- 9&#45;&gt;11 -->
<g id="edge10" class="edge">
<title>9&#45;&gt;11</title>
<path fill="none" stroke="#000000" d="M3133,-186.9815C3133,-179.2136 3133,-170.3145 3133,-161.0988"/>
<polygon fill="#000000" stroke="#000000" points="3136.5001,-161.0129 3133,-151.0129 3129.5001,-161.0129 3136.5001,-161.0129"/>
</g>
<!-- 14 -->
<g id="node13" class="node">
<title>14</title>
<polygon fill="none" stroke="#ffff00" stroke-width="2" points="4995.5,-240 4896.5,-240 4896.5,-187 4995.5,-187 4995.5,-240"/>
<text text-anchor="middle" x="4946" y="-224.8" font-family="Times,serif" font-size="14.00" fill="#000000">RightBindJoin </text>
<text text-anchor="middle" x="4946" y="-209.8" font-family="Times,serif" font-size="14.00" fill="#000000">[0, 1]</text>
<text text-anchor="middle" x="4946" y="-194.8" font-family="Times,serif" font-size="14.00" fill="#000000">23</text>
</g>
<!-- 13&#45;&gt;14 -->
<g id="edge12" class="edge">
<title>13&#45;&gt;14</title>
<path fill="none" stroke="#000000" d="M5783.3624,-292.1233C5657.0266,-280.2611 5175.1965,-235.0202 5005.538,-219.0903"/>
<polygon fill="#000000" stroke="#000000" points="5005.8203,-215.6015 4995.5369,-218.1512 5005.1659,-222.5708 5005.8203,-215.6015"/>
</g>
<!-- 15 -->
<g id="node14" class="node">
<title>15</title>
<polygon fill="none" stroke="#ffff00" stroke-width="2" points="4456,-128.5 3620,-128.5 3620,-45.5 4456,-45.5 4456,-128.5"/>
<text text-anchor="middle" x="4038" y="-113.3" font-family="Times,serif" font-size="14.00" fill="#000000">SQLQuery</text>
<text text-anchor="middle" x="4038" y="-98.3" font-family="Times,serif" font-size="14.00" fill="#000000">SELECT tab_912.nr, tab_912.producer, tab_914.label, tab_914.propertyNum1 </text>
<text text-anchor="middle" x="4038" y="-83.3" font-family="Times,serif" font-size="14.00" fill="#000000">FROM PRODUCT AS tab_912, Product AS tab_914, PRODUCTTYPEPRODUCT AS tab_913 &#160;</text>
<text text-anchor="middle" x="4038" y="-68.3" font-family="Times,serif" font-size="14.00" fill="#000000">WHERE tab_913.producttype = 1058 AND tab_913.product = tab_912.nr AND tab_912.nr = tab_914.nr AND tab_912.producer = tab_914.producer</text>
<text text-anchor="middle" x="4038" y="-53.3" font-family="Times,serif" font-size="14.00" fill="#000000">182</text>
</g>
<!-- 14&#45;&gt;15 -->
<g id="edge13" class="edge">
<title>14&#45;&gt;15</title>
<path fill="none" stroke="#000000" d="M4896.448,-207.3859C4809.1829,-196.5459 4622.4115,-173.0213 4465,-151 4417.9461,-144.4173 4368.0168,-137.171 4319.5204,-129.9931"/>
<polygon fill="#000000" stroke="#000000" points="4319.924,-126.5148 4309.5189,-128.5108 4318.8977,-133.4392 4319.924,-126.5148"/>
</g>
<!-- 16 -->
<g id="node15" class="node">
<title>16</title>
<polygon fill="none" stroke="#ffff00" stroke-width="2" points="5418,-151 4474,-151 4474,-23 5418,-23 5418,-151"/>
<text text-anchor="middle" x="4946" y="-135.8" font-family="Times,serif" font-size="14.00" fill="#000000">PhyMongoDBEval</text>
<text text-anchor="middle" x="4946" y="-120.8" font-family="Times,serif" font-size="14.00" fill="#000000">countrytype</text>
<text text-anchor="middle" x="4946" y="-105.8" font-family="Times,serif" font-size="14.00" fill="#000000">[{&quot;$match&quot;:{&quot;countrytype&quot;:122}},</text>
<text text-anchor="middle" x="4946" y="-90.8" font-family="Times,serif" font-size="14.00" fill="#000000">{$lookup: { from: &quot;productproducercountry&quot;, let: { &quot;country&quot;: &quot;$country&quot;}, pipeline: [ { $match: {$expr: {$eq: [&quot;$$country&quot;, &quot;$country&quot;] } } } ], as: &quot;mongojoin10&quot;}},</text>
<text text-anchor="middle" x="4946" y="-75.8" font-family="Times,serif" font-size="14.00" fill="#000000">{$unwind: &quot;$mongojoin10&quot;},</text>
<text text-anchor="middle" x="4946" y="-60.8" font-family="Times,serif" font-size="14.00" fill="#000000">{ &quot;$match&quot;: { &quot;mongojoin10.nr&quot;: %s, &quot;mongojoin10.producer&quot;: %s } }]</text>
<text text-anchor="middle" x="4946" y="-45.8" font-family="Times,serif" font-size="14.00" fill="#000000">[country, mongojoin10.nr, mongojoin10.producer]</text>
<text text-anchor="middle" x="4946" y="-30.8" font-family="Times,serif" font-size="14.00" fill="#000000">23</text>
</g>
<!-- 14&#45;&gt;16 -->
<g id="edge14" class="edge">
<title>14&#45;&gt;16</title>
<path fill="none" stroke="#000000" d="M4946,-186.9815C4946,-179.2136 4946,-170.3145 4946,-161.0988"/>
<polygon fill="#000000" stroke="#000000" points="4949.5001,-161.0129 4946,-151.0129 4942.5001,-161.0129 4949.5001,-161.0129"/>
</g>
<!-- 19 -->
<g id="node17" class="node">
<title>19</title>
<polygon fill="none" stroke="#ffff00" stroke-width="2" points="6811.5,-240 6712.5,-240 6712.5,-187 6811.5,-187 6811.5,-240"/>
<text text-anchor="middle" x="6762" y="-224.8" font-family="Times,serif" font-size="14.00" fill="#000000">RightBindJoin </text>
<text text-anchor="middle" x="6762" y="-209.8" font-family="Times,serif" font-size="14.00" fill="#000000">[0, 1]</text>
<text text-anchor="middle" x="6762" y="-194.8" font-family="Times,serif" font-size="14.00" fill="#000000">23</text>
</g>
<!-- 18&#45;&gt;19 -->
<g id="edge16" class="edge">
<title>18&#45;&gt;19</title>
<path fill="none" stroke="#000000" d="M6938.4564,-282.9744C6907.6647,-270.8511 6859.3445,-251.8264 6821.0482,-236.7485"/>
<polygon fill="#000000" stroke="#000000" points="6822.1317,-233.4136 6811.5446,-233.0067 6819.5672,-239.9269 6822.1317,-233.4136"/>
</g>
<!-- 20 -->
<g id="node18" class="node">
<title>20</title>
<polygon fill="none" stroke="#ffff00" stroke-width="2" points="6272,-128.5 5436,-128.5 5436,-45.5 6272,-45.5 6272,-128.5"/>
<text text-anchor="middle" x="5854" y="-113.3" font-family="Times,serif" font-size="14.00" fill="#000000">SQLQuery</text>
<text text-anchor="middle" x="5854" y="-98.3" font-family="Times,serif" font-size="14.00" fill="#000000">SELECT tab_915.nr, tab_915.producer, tab_917.label, tab_917.propertyNum2 </text>
<text text-anchor="middle" x="5854" y="-83.3" font-family="Times,serif" font-size="14.00" fill="#000000">FROM PRODUCTTYPEPRODUCT AS tab_916, PRODUCT AS tab_915, Product AS tab_917 &#160;</text>
<text text-anchor="middle" x="5854" y="-68.3" font-family="Times,serif" font-size="14.00" fill="#000000">WHERE tab_916.producttype = 1058 AND tab_916.product = tab_915.nr AND tab_915.nr = tab_917.nr AND tab_915.producer = tab_917.producer</text>
<text text-anchor="middle" x="5854" y="-53.3" font-family="Times,serif" font-size="14.00" fill="#000000">182</text>
</g>
<!-- 19&#45;&gt;20 -->
<g id="edge17" class="edge">
<title>19&#45;&gt;20</title>
<path fill="none" stroke="#000000" d="M6712.448,-207.3859C6625.1829,-196.5459 6438.4115,-173.0213 6281,-151 6233.9461,-144.4173 6184.0168,-137.171 6135.5204,-129.9931"/>
<polygon fill="#000000" stroke="#000000" points="6135.924,-126.5148 6125.5189,-128.5108 6134.8977,-133.4392 6135.924,-126.5148"/>
</g>
<!-- 21 -->
<g id="node19" class="node">
<title>21</title>
<polygon fill="none" stroke="#ffff00" stroke-width="2" points="7234,-151 6290,-151 6290,-23 7234,-23 7234,-151"/>
<text text-anchor="middle" x="6762" y="-135.8" font-family="Times,serif" font-size="14.00" fill="#000000">PhyMongoDBEval</text>
<text text-anchor="middle" x="6762" y="-120.8" font-family="Times,serif" font-size="14.00" fill="#000000">countrytype</text>
<text text-anchor="middle" x="6762" y="-105.8" font-family="Times,serif" font-size="14.00" fill="#000000">[{&quot;$match&quot;:{&quot;countrytype&quot;:122}},</text>
<text text-anchor="middle" x="6762" y="-90.8" font-family="Times,serif" font-size="14.00" fill="#000000">{$lookup: { from: &quot;productproducercountry&quot;, let: { &quot;country&quot;: &quot;$country&quot;}, pipeline: [ { $match: {$expr: {$eq: [&quot;$$country&quot;, &quot;$country&quot;] } } } ], as: &quot;mongojoin11&quot;}},</text>
<text text-anchor="middle" x="6762" y="-75.8" font-family="Times,serif" font-size="14.00" fill="#000000">{$unwind: &quot;$mongojoin11&quot;},</text>
<text text-anchor="middle" x="6762" y="-60.8" font-family="Times,serif" font-size="14.00" fill="#000000">{ &quot;$match&quot;: { &quot;mongojoin11.nr&quot;: %s, &quot;mongojoin11.producer&quot;: %s } }]</text>
<text text-anchor="middle" x="6762" y="-45.8" font-family="Times,serif" font-size="14.00" fill="#000000">[mongojoin11.nr, mongojoin11.producer, mongojoin11.country]</text>
<text text-anchor="middle" x="6762" y="-30.8" font-family="Times,serif" font-size="14.00" fill="#000000">23</text>
</g>
<!-- 19&#45;&gt;21 -->
<g id="edge18" class="edge">
<title>19&#45;&gt;21</title>
<path fill="none" stroke="#000000" d="M6762,-186.9815C6762,-179.2136 6762,-170.3145 6762,-161.0988"/>
<polygon fill="#000000" stroke="#000000" points="6765.5001,-161.0129 6762,-151.0129 6758.5001,-161.0129 6765.5001,-161.0129"/>
</g>
<!-- 24 -->
<g id="node21" class="node">
<title>24</title>
<polygon fill="none" stroke="#ffff00" stroke-width="2" points="7719.5,-240 7620.5,-240 7620.5,-187 7719.5,-187 7719.5,-240"/>
<text text-anchor="middle" x="7670" y="-224.8" font-family="Times,serif" font-size="14.00" fill="#000000">RightBindJoin </text>
<text text-anchor="middle" x="7670" y="-209.8" font-family="Times,serif" font-size="14.00" fill="#000000">[1, 0]</text>
<text text-anchor="middle" x="7670" y="-194.8" font-family="Times,serif" font-size="14.00" fill="#000000">24</text>
</g>
<!-- 23&#45;&gt;24 -->
<g id="edge20" class="edge">
<title>23&#45;&gt;24</title>
<path fill="none" stroke="#000000" d="M7492.6911,-282.9744C7523.6316,-270.8511 7572.1853,-251.8264 7610.6665,-236.7485"/>
<polygon fill="#000000" stroke="#000000" points="7612.1821,-239.9138 7620.216,-233.0067 7609.6283,-233.3962 7612.1821,-239.9138"/>
</g>
<!-- 25 -->
<g id="node22" class="node">
<title>25</title>
<polygon fill="none" stroke="#ffff00" stroke-width="2" points="8088,-128.5 7252,-128.5 7252,-45.5 8088,-45.5 8088,-128.5"/>
<text text-anchor="middle" x="7670" y="-113.3" font-family="Times,serif" font-size="14.00" fill="#000000">SQLQuery</text>
<text text-anchor="middle" x="7670" y="-98.3" font-family="Times,serif" font-size="14.00" fill="#000000">SELECT tab_918.nr, tab_918.producer, tab_920.label, tab_920.propertyNum2 </text>
<text text-anchor="middle" x="7670" y="-83.3" font-family="Times,serif" font-size="14.00" fill="#000000">FROM PRODUCTTYPEPRODUCT AS tab_919, Product AS tab_920, PRODUCT AS tab_918 &#160;</text>
<text text-anchor="middle" x="7670" y="-68.3" font-family="Times,serif" font-size="14.00" fill="#000000">WHERE tab_919.producttype = 1058 AND tab_919.product = tab_918.nr AND tab_918.producer = tab_920.producer AND tab_918.nr = tab_920.nr</text>
<text text-anchor="middle" x="7670" y="-53.3" font-family="Times,serif" font-size="14.00" fill="#000000">182</text>
</g>
<!-- 24&#45;&gt;25 -->
<g id="edge21" class="edge">
<title>24&#45;&gt;25</title>
<path fill="none" stroke="#000000" d="M7670,-186.9815C7670,-173.0622 7670,-155.511 7670,-139.0135"/>
<polygon fill="#000000" stroke="#000000" points="7673.5001,-138.9195 7670,-128.9195 7666.5001,-138.9196 7673.5001,-138.9195"/>
</g>
<!-- 26 -->
<g id="node23" class="node">
<title>26</title>
<polygon fill="none" stroke="#ffff00" stroke-width="2" points="9050,-151 8106,-151 8106,-23 9050,-23 9050,-151"/>
<text text-anchor="middle" x="8578" y="-135.8" font-family="Times,serif" font-size="14.00" fill="#000000">PhyMongoDBEval</text>
<text text-anchor="middle" x="8578" y="-120.8" font-family="Times,serif" font-size="14.00" fill="#000000">countrytype</text>
<text text-anchor="middle" x="8578" y="-105.8" font-family="Times,serif" font-size="14.00" fill="#000000">[{&quot;$match&quot;:{&quot;countrytype&quot;:121}},</text>
<text text-anchor="middle" x="8578" y="-90.8" font-family="Times,serif" font-size="14.00" fill="#000000">{$lookup: { from: &quot;productproducercountry&quot;, let: { &quot;country&quot;: &quot;$country&quot;}, pipeline: [ { $match: {$expr: {$eq: [&quot;$$country&quot;, &quot;$country&quot;] } } } ], as: &quot;mongojoin12&quot;}},</text>
<text text-anchor="middle" x="8578" y="-75.8" font-family="Times,serif" font-size="14.00" fill="#000000">{$unwind: &quot;$mongojoin12&quot;},</text>
<text text-anchor="middle" x="8578" y="-60.8" font-family="Times,serif" font-size="14.00" fill="#000000">{ &quot;$match&quot;: { &quot;mongojoin12.producer&quot;: %s, &quot;mongojoin12.nr&quot;: %s } }]</text>
<text text-anchor="middle" x="8578" y="-45.8" font-family="Times,serif" font-size="14.00" fill="#000000">[mongojoin12.nr, mongojoin12.producer, mongojoin12.country]</text>
<text text-anchor="middle" x="8578" y="-30.8" font-family="Times,serif" font-size="14.00" fill="#000000">24</text>
</g>
<!-- 24&#45;&gt;26 -->
<g id="edge22" class="edge">
<title>24&#45;&gt;26</title>
<path fill="none" stroke="#000000" d="M7719.7867,-206.5639C7796.4169,-195.888 7950.9311,-174.3615 8108.0018,-152.4788"/>
<polygon fill="#000000" stroke="#000000" points="8108.9293,-155.8835 8118.3507,-151.037 8107.9634,-148.9505 8108.9293,-155.8835"/>
</g>
<!-- 29 -->
<g id="node25" class="node">
<title>29</title>
<polygon fill="none" stroke="#ffff00" stroke-width="2" points="9535.5,-240 9436.5,-240 9436.5,-187 9535.5,-187 9535.5,-240"/>
<text text-anchor="middle" x="9486" y="-224.8" font-family="Times,serif" font-size="14.00" fill="#000000">RightBindJoin </text>
<text text-anchor="middle" x="9486" y="-209.8" font-family="Times,serif" font-size="14.00" fill="#000000">[0, 1]</text>
<text text-anchor="middle" x="9486" y="-194.8" font-family="Times,serif" font-size="14.00" fill="#000000">24</text>
</g>
<!-- 28&#45;&gt;29 -->
<g id="edge24" class="edge">
<title>28&#45;&gt;29</title>
<path fill="none" stroke="#000000" d="M8647.6729,-292.1233C8774.1543,-280.2611 9256.5395,-235.0202 9426.3934,-219.0903"/>
<polygon fill="#000000" stroke="#000000" points="9426.7766,-222.5698 9436.406,-218.1512 9426.1229,-215.6004 9426.7766,-222.5698"/>
</g>
<!-- 30 -->
<g id="node26" class="node">
<title>30</title>
<polygon fill="none" stroke="#ffff00" stroke-width="2" points="9904,-128.5 9068,-128.5 9068,-45.5 9904,-45.5 9904,-128.5"/>
<text text-anchor="middle" x="9486" y="-113.3" font-family="Times,serif" font-size="14.00" fill="#000000">SQLQuery</text>
<text text-anchor="middle" x="9486" y="-98.3" font-family="Times,serif" font-size="14.00" fill="#000000">SELECT tab_921.nr, tab_921.producer, tab_923.label, tab_923.propertyNum1 </text>
<text text-anchor="middle" x="9486" y="-83.3" font-family="Times,serif" font-size="14.00" fill="#000000">FROM Product AS tab_923, PRODUCT AS tab_921, PRODUCTTYPEPRODUCT AS tab_922 &#160;</text>
<text text-anchor="middle" x="9486" y="-68.3" font-family="Times,serif" font-size="14.00" fill="#000000">WHERE tab_922.producttype = 1058 AND tab_922.product = tab_921.nr AND tab_921.producer = tab_923.producer AND tab_921.nr = tab_923.nr</text>
<text text-anchor="middle" x="9486" y="-53.3" font-family="Times,serif" font-size="14.00" fill="#000000">182</text>
</g>
<!-- 29&#45;&gt;30 -->
<g id="edge25" class="edge">
<title>29&#45;&gt;30</title>
<path fill="none" stroke="#000000" d="M9486,-186.9815C9486,-173.0622 9486,-155.511 9486,-139.0135"/>
<polygon fill="#000000" stroke="#000000" points="9489.5001,-138.9195 9486,-128.9195 9482.5001,-138.9196 9489.5001,-138.9195"/>
</g>
<!-- 31 -->
<g id="node27" class="node">
<title>31</title>
<polygon fill="none" stroke="#ffff00" stroke-width="2" points="10866,-151 9922,-151 9922,-23 10866,-23 10866,-151"/>
<text text-anchor="middle" x="10394" y="-135.8" font-family="Times,serif" font-size="14.00" fill="#000000">PhyMongoDBEval</text>
<text text-anchor="middle" x="10394" y="-120.8" font-family="Times,serif" font-size="14.00" fill="#000000">countrytype</text>
<text text-anchor="middle" x="10394" y="-105.8" font-family="Times,serif" font-size="14.00" fill="#000000">[{&quot;$match&quot;:{&quot;countrytype&quot;:121}},</text>
<text text-anchor="middle" x="10394" y="-90.8" font-family="Times,serif" font-size="14.00" fill="#000000">{$lookup: { from: &quot;productproducercountry&quot;, let: { &quot;country&quot;: &quot;$country&quot;}, pipeline: [ { $match: {$expr: {$eq: [&quot;$$country&quot;, &quot;$country&quot;] } } } ], as: &quot;mongojoin13&quot;}},</text>
<text text-anchor="middle" x="10394" y="-75.8" font-family="Times,serif" font-size="14.00" fill="#000000">{$unwind: &quot;$mongojoin13&quot;},</text>
<text text-anchor="middle" x="10394" y="-60.8" font-family="Times,serif" font-size="14.00" fill="#000000">{ &quot;$match&quot;: { &quot;mongojoin13.nr&quot;: %s, &quot;mongojoin13.producer&quot;: %s } }]</text>
<text text-anchor="middle" x="10394" y="-45.8" font-family="Times,serif" font-size="14.00" fill="#000000">[mongojoin13.nr, mongojoin13.producer, mongojoin13.country]</text>
<text text-anchor="middle" x="10394" y="-30.8" font-family="Times,serif" font-size="14.00" fill="#000000">24</text>
</g>
<!-- 29&#45;&gt;31 -->
<g id="edge26" class="edge">
<title>29&#45;&gt;31</title>
<path fill="none" stroke="#000000" d="M9535.7867,-206.5639C9612.4169,-195.888 9766.9311,-174.3615 9924.0018,-152.4788"/>
<polygon fill="#000000" stroke="#000000" points="9924.9293,-155.8835 9934.3507,-151.037 9923.9634,-148.9505 9924.9293,-155.8835"/>
</g>
<!-- 34 -->
<g id="node29" class="node">
<title>34</title>
<polygon fill="none" stroke="#ffff00" stroke-width="2" points="11351.5,-240 11252.5,-240 11252.5,-187 11351.5,-187 11351.5,-240"/>
<text text-anchor="middle" x="11302" y="-224.8" font-family="Times,serif" font-size="14.00" fill="#000000">RightBindJoin </text>
<text text-anchor="middle" x="11302" y="-209.8" font-family="Times,serif" font-size="14.00" fill="#000000">[1, 0]</text>
<text text-anchor="middle" x="11302" y="-194.8" font-family="Times,serif" font-size="14.00" fill="#000000">22</text>
</g>
<!-- 33&#45;&gt;34 -->
<g id="edge28" class="edge">
<title>33&#45;&gt;34</title>
<path fill="none" stroke="#000000" d="M10132.5654,-292.9241C10291.7279,-282.1143 11026.5875,-232.2051 11242.3093,-217.554"/>
<polygon fill="#000000" stroke="#000000" points="11242.7457,-221.0325 11252.4855,-216.8629 11242.2713,-214.0486 11242.7457,-221.0325"/>
</g>
<!-- 35 -->
<g id="node30" class="node">
<title>35</title>
<polygon fill="none" stroke="#ffff00" stroke-width="2" points="11720,-128.5 10884,-128.5 10884,-45.5 11720,-45.5 11720,-128.5"/>
<text text-anchor="middle" x="11302" y="-113.3" font-family="Times,serif" font-size="14.00" fill="#000000">SQLQuery</text>
<text text-anchor="middle" x="11302" y="-98.3" font-family="Times,serif" font-size="14.00" fill="#000000">SELECT tab_900.nr, tab_900.producer, tab_902.label, tab_902.propertyNum1 </text>
<text text-anchor="middle" x="11302" y="-83.3" font-family="Times,serif" font-size="14.00" fill="#000000">FROM PRODUCT AS tab_900, Product AS tab_902, PRODUCTTYPEPRODUCT AS tab_901 &#160;</text>
<text text-anchor="middle" x="11302" y="-68.3" font-family="Times,serif" font-size="14.00" fill="#000000">WHERE tab_901.producttype = 1059 AND tab_901.product = tab_900.nr AND tab_900.producer = tab_902.producer AND tab_900.nr = tab_902.nr</text>
<text text-anchor="middle" x="11302" y="-53.3" font-family="Times,serif" font-size="14.00" fill="#000000">183</text>
</g>
<!-- 34&#45;&gt;35 -->
<g id="edge29" class="edge">
<title>34&#45;&gt;35</title>
<path fill="none" stroke="#000000" d="M11302,-186.9815C11302,-173.0622 11302,-155.511 11302,-139.0135"/>
<polygon fill="#000000" stroke="#000000" points="11305.5001,-138.9195 11302,-128.9195 11298.5001,-138.9196 11305.5001,-138.9195"/>
</g>
<!-- 36 -->
<g id="node31" class="node">
<title>36</title>
<polygon fill="none" stroke="#ffff00" stroke-width="2" points="12682,-151 11738,-151 11738,-23 12682,-23 12682,-151"/>
<text text-anchor="middle" x="12210" y="-135.8" font-family="Times,serif" font-size="14.00" fill="#000000">PhyMongoDBEval</text>
<text text-anchor="middle" x="12210" y="-120.8" font-family="Times,serif" font-size="14.00" fill="#000000">countrytype</text>
<text text-anchor="middle" x="12210" y="-105.8" font-family="Times,serif" font-size="14.00" fill="#000000">[{&quot;$match&quot;:{&quot;countrytype&quot;:121}},</text>
<text text-anchor="middle" x="12210" y="-90.8" font-family="Times,serif" font-size="14.00" fill="#000000">{$lookup: { from: &quot;productproducercountry&quot;, let: { &quot;country&quot;: &quot;$country&quot;}, pipeline: [ { $match: {$expr: {$eq: [&quot;$$country&quot;, &quot;$country&quot;] } } } ], as: &quot;mongojoin14&quot;}},</text>
<text text-anchor="middle" x="12210" y="-75.8" font-family="Times,serif" font-size="14.00" fill="#000000">{$unwind: &quot;$mongojoin14&quot;},</text>
<text text-anchor="middle" x="12210" y="-60.8" font-family="Times,serif" font-size="14.00" fill="#000000">{ &quot;$match&quot;: { &quot;mongojoin14.producer&quot;: %s, &quot;mongojoin14.nr&quot;: %s } }]</text>
<text text-anchor="middle" x="12210" y="-45.8" font-family="Times,serif" font-size="14.00" fill="#000000">[mongojoin14.nr, mongojoin14.producer, mongojoin14.country]</text>
<text text-anchor="middle" x="12210" y="-30.8" font-family="Times,serif" font-size="14.00" fill="#000000">22</text>
</g>
<!-- 34&#45;&gt;36 -->
<g id="edge30" class="edge">
<title>34&#45;&gt;36</title>
<path fill="none" stroke="#000000" d="M11351.7867,-206.5639C11428.4169,-195.888 11582.9311,-174.3615 11740.0018,-152.4788"/>
<polygon fill="#000000" stroke="#000000" points="11740.9293,-155.8835 11750.3507,-151.037 11739.9634,-148.9505 11740.9293,-155.8835"/>
</g>
<!-- 39 -->
<g id="node33" class="node">
<title>39</title>
<polygon fill="none" stroke="#ffff00" stroke-width="2" points="13167.5,-240 13068.5,-240 13068.5,-187 13167.5,-187 13167.5,-240"/>
<text text-anchor="middle" x="13118" y="-224.8" font-family="Times,serif" font-size="14.00" fill="#000000">RightBindJoin </text>
<text text-anchor="middle" x="13118" y="-209.8" font-family="Times,serif" font-size="14.00" fill="#000000">[0, 2]</text>
<text text-anchor="middle" x="13118" y="-194.8" font-family="Times,serif" font-size="14.00" fill="#000000">22</text>
</g>
<!-- 38&#45;&gt;39 -->
<g id="edge32" class="edge">
<title>38&#45;&gt;39</title>
<path fill="none" stroke="#000000" d="M11783.7484,-293.1641C11957.9675,-282.762 12821.7196,-231.19 13058.1066,-217.0761"/>
<polygon fill="#000000" stroke="#000000" points="13058.4553,-220.5616 13068.2289,-216.4717 13058.038,-213.574 13058.4553,-220.5616"/>
</g>
<!-- 40 -->
<g id="node34" class="node">
<title>40</title>
<polygon fill="none" stroke="#ffff00" stroke-width="2" points="13536,-128.5 12700,-128.5 12700,-45.5 13536,-45.5 13536,-128.5"/>
<text text-anchor="middle" x="13118" y="-113.3" font-family="Times,serif" font-size="14.00" fill="#000000">SQLQuery</text>
<text text-anchor="middle" x="13118" y="-98.3" font-family="Times,serif" font-size="14.00" fill="#000000">SELECT tab_903.nr, tab_903.label, tab_903.producer, tab_903.propertyNum2 </text>
<text text-anchor="middle" x="13118" y="-83.3" font-family="Times,serif" font-size="14.00" fill="#000000">FROM PRODUCTTYPEPRODUCT AS tab_905, Product AS tab_903, PRODUCT AS tab_904 &#160;</text>
<text text-anchor="middle" x="13118" y="-68.3" font-family="Times,serif" font-size="14.00" fill="#000000">WHERE tab_905.producttype = 1059 AND tab_905.product = tab_904.nr AND tab_903.producer = tab_904.producer AND tab_903.nr = tab_904.nr</text>
<text text-anchor="middle" x="13118" y="-53.3" font-family="Times,serif" font-size="14.00" fill="#000000">183</text>
</g>
<!-- 39&#45;&gt;40 -->
<g id="edge33" class="edge">
<title>39&#45;&gt;40</title>
<path fill="none" stroke="#000000" d="M13118,-186.9815C13118,-173.0622 13118,-155.511 13118,-139.0135"/>
<polygon fill="#000000" stroke="#000000" points="13121.5001,-138.9195 13118,-128.9195 13114.5001,-138.9196 13121.5001,-138.9195"/>
</g>
<!-- 41 -->
<g id="node35" class="node">
<title>41</title>
<polygon fill="none" stroke="#ffff00" stroke-width="2" points="14498,-151 13554,-151 13554,-23 14498,-23 14498,-151"/>
<text text-anchor="middle" x="14026" y="-135.8" font-family="Times,serif" font-size="14.00" fill="#000000">PhyMongoDBEval</text>
<text text-anchor="middle" x="14026" y="-120.8" font-family="Times,serif" font-size="14.00" fill="#000000">countrytype</text>
<text text-anchor="middle" x="14026" y="-105.8" font-family="Times,serif" font-size="14.00" fill="#000000">[{&quot;$match&quot;:{&quot;countrytype&quot;:122}},</text>
<text text-anchor="middle" x="14026" y="-90.8" font-family="Times,serif" font-size="14.00" fill="#000000">{$lookup: { from: &quot;productproducercountry&quot;, let: { &quot;country&quot;: &quot;$country&quot;}, pipeline: [ { $match: {$expr: {$eq: [&quot;$$country&quot;, &quot;$country&quot;] } } } ], as: &quot;mongojoin15&quot;}},</text>
<text text-anchor="middle" x="14026" y="-75.8" font-family="Times,serif" font-size="14.00" fill="#000000">{$unwind: &quot;$mongojoin15&quot;},</text>
<text text-anchor="middle" x="14026" y="-60.8" font-family="Times,serif" font-size="14.00" fill="#000000">{ &quot;$match&quot;: { &quot;mongojoin15.nr&quot;: %s, &quot;mongojoin15.producer&quot;: %s } }]</text>
<text text-anchor="middle" x="14026" y="-45.8" font-family="Times,serif" font-size="14.00" fill="#000000">[mongojoin15.nr, mongojoin15.producer, mongojoin15.country]</text>
<text text-anchor="middle" x="14026" y="-30.8" font-family="Times,serif" font-size="14.00" fill="#000000">22</text>
</g>
<!-- 39&#45;&gt;41 -->
<g id="edge34" class="edge">
<title>39&#45;&gt;41</title>
<path fill="none" stroke="#000000" d="M13167.7867,-206.5639C13244.4169,-195.888 13398.9311,-174.3615 13556.0018,-152.4788"/>
<polygon fill="#000000" stroke="#000000" points="13556.9293,-155.8835 13566.3507,-151.037 13555.9634,-148.9505 13556.9293,-155.8835"/>
</g>
</g>
</svg>
