digraph  g{ graph[label = "1:34:40.591"]
node [shape=rectangle, color=black, fontcolor=black, style=bold] edge [color=black] 0 [label="BindAccessEval", color = yellow] ; 
1 [label="SQLQuery
SELECT tab_8568.producer, tab_8568.nr, tab_8571.producer, tab_8571.nr 
FROM PRODUCT AS tab_8572, PRODUCTTYPEPRODUCT AS tab_8570, PRODUCTTYPEPRODUCT AS tab_8573, Product AS tab_8571, PRODUCT AS tab_8568, Product AS tab_8569 
WHERE tab_8570.producttype = 1067 AND tab_8570.product = tab_8568.nr AND tab_8569.propertyNum1 = '1265' AND tab_8568.producer = tab_8569.producer AND tab_8568.nr = tab_8569.nr AND tab_8569.producer = tab_8571.producer AND tab_8573.producttype = 957 AND tab_8573.product = tab_8572.nr AND tab_8571.producer = tab_8572.producer AND tab_8571.nr = tab_8572.nr 
UNION
SELECT tab_12208.producer, tab_12208.nr, tab_12211.producer, tab_12211.nr 
FROM PRODUCT AS tab_12212, Product AS tab_12211, PRODUCT AS tab_12209, PRODUCTTYPEPRODUCT AS tab_12213, PRODUCTTYPEPRODUCT AS tab_12210, Product AS tab_12208 
WHERE tab_12208.propertyNum1 = '1265' AND tab_12210.producttype = 1059 AND tab_12210.product = tab_12209.nr AND tab_12208.producer = tab_12209.producer AND tab_12208.nr = tab_12209.nr AND tab_12208.producer = tab_12211.producer AND tab_12213.producttype = 961 AND tab_12213.product = tab_12212.nr AND tab_12211.producer = tab_12212.producer AND tab_12211.nr = tab_12212.nr 
UNION
SELECT tab_12678.producer, tab_12678.nr, tab_12677.producer, tab_12677.nr 
FROM Product AS tab_12678, Product AS tab_12677, PRODUCT AS tab_12676, PRODUCTTYPEPRODUCT AS tab_12679, PRODUCTTYPEPRODUCT AS tab_12681, PRODUCT AS tab_12680 
WHERE tab_12678.propertyNum2 = '1265' AND tab_12679.producttype = 1065 AND tab_12679.product = tab_12676.nr AND tab_12678.producer = tab_12676.producer AND tab_12678.nr = tab_12676.nr AND tab_12678.producer = tab_12677.producer AND tab_12681.producttype = 959 AND tab_12681.product = tab_12680.nr AND tab_12677.producer = tab_12680.producer AND tab_12677.nr = tab_12680.nr 
UNION
SELECT tab_10389.producer, tab_10389.nr, tab_10388.producer, tab_10388.nr 
FROM Product AS tab_10388, PRODUCTTYPEPRODUCT AS tab_10391, PRODUCT AS tab_10389, Product AS tab_10390, PRODUCTTYPEPRODUCT AS tab_10393, PRODUCT AS tab_10392 
WHERE tab_10391.producttype = 1067 AND tab_10391.product = tab_10389.nr AND tab_10390.propertyNum2 = '1265' AND tab_10389.producer = tab_10390.producer AND tab_10389.nr = tab_10390.nr AND tab_10390.producer = tab_10388.producer AND tab_10393.producttype = 969 AND tab_10393.product = tab_10392.nr AND tab_10388.producer = tab_10392.producer AND tab_10388.nr = tab_10392.nr 
UNION
SELECT tab_11623.producer, tab_11623.nr, tab_11624.producer, tab_11624.nr 
FROM PRODUCTTYPEPRODUCT AS tab_11626, PRODUCTTYPEPRODUCT AS tab_11628, PRODUCT AS tab_11625, PRODUCT AS tab_11627, Product AS tab_11623, Product AS tab_11624 
WHERE tab_11626.producttype = 967 AND tab_11626.product = tab_11625.nr AND tab_11624.producer = tab_11625.producer AND tab_11624.nr = tab_11625.nr AND tab_11623.propertyNum2 = '1265' AND tab_11624.producer = tab_11623.producer AND tab_11628.producttype = 1067 AND tab_11628.product = tab_11627.nr AND tab_11623.producer = tab_11627.produ... (511 UNIONs)
5", color = yellow] ; 
0 -> 1 ; 
2 [label="FunctionCallBindAccess
(<http://www4.wiwiss.fu-berlin.de/bizer/bsbm/v01/instances/dataFromProducer{0}/Product{1}>, <http://www4.wiwiss.fu-berlin.de/bizer/bsbm/v01/instances/dataFromProducer{2}/Product{3}>)", color = yellow] ; 
0 -> 2 ; 
}
