<?xml version="1.0" encoding="UTF-8" standalone="no"?>
<!DOCTYPE svg PUBLIC "-//W3C//DTD SVG 1.1//EN"
 "http://www.w3.org/Graphics/SVG/1.1/DTD/svg11.dtd">
<!-- Generated by graphviz version 2.40.1 (20161225.0304)
 -->
<!-- Title: g Pages: 1 -->
<svg width="1636pt" height="275pt"
 viewBox="0.00 0.00 1636.00 275.00" xmlns="http://www.w3.org/2000/svg" xmlns:xlink="http://www.w3.org/1999/xlink">
<g id="graph0" class="graph" transform="scale(1 1) rotate(0) translate(4 271)">
<title>g</title>
<polygon fill="#ffffff" stroke="transparent" points="-4,4 -4,-271 1632,-271 1632,4 -4,4"/>
<text text-anchor="middle" x="814" y="-7.8" font-family="Times,serif" font-size="14.00" fill="#000000">1:35:34.744</text>
<!-- 0 -->
<g id="node1" class="node">
<title>0</title>
<polygon fill="none" stroke="#ffff00" stroke-width="2" points="762,-267 656,-267 656,-231 762,-231 762,-267"/>
<text text-anchor="middle" x="709" y="-245.3" font-family="Times,serif" font-size="14.00" fill="#000000">BindAccessEval</text>
</g>
<!-- 1 -->
<g id="node2" class="node">
<title>1</title>
<polygon fill="none" stroke="#ffff00" stroke-width="2" points="425.5,-194 338.5,-194 338.5,-158 425.5,-158 425.5,-194"/>
<text text-anchor="middle" x="382" y="-172.3" font-family="Times,serif" font-size="14.00" fill="#000000">HashDistinct</text>
</g>
<!-- 0&#45;&gt;1 -->
<g id="edge1" class="edge">
<title>0&#45;&gt;1</title>
<path fill="none" stroke="#000000" d="M655.926,-240.9605C602.4422,-232.3188 517.4884,-217.1191 435.2592,-194.8574"/>
<polygon fill="#000000" stroke="#000000" points="436.0767,-191.4524 425.5069,-192.1799 434.2234,-198.2026 436.0767,-191.4524"/>
</g>
<!-- 3 -->
<g id="node4" class="node">
<title>3</title>
<polygon fill="none" stroke="#ffff00" stroke-width="2" points="1628,-195 444,-195 444,-157 1628,-157 1628,-195"/>
<text text-anchor="middle" x="1036" y="-179.8" font-family="Times,serif" font-size="14.00" fill="#000000">FunctionCallBindAccess</text>
<text text-anchor="middle" x="1036" y="-164.8" font-family="Times,serif" font-size="14.00" fill="#000000">(&lt;http://www4.wiwiss.fu&#45;berlin.de/bizer/bsbm/v01/instances/dataFromVendor{1}/Offer{0}&gt;, &lt;{2}&gt;, &lt;http://www4.wiwiss.fu&#45;berlin.de/bizer/bsbm/v01/instances/dataFromVendor{1}/Vendor{1}&gt;, &quot;{3}&quot;, &lt;{4}&gt;)</text>
</g>
<!-- 0&#45;&gt;3 -->
<g id="edge3" class="edge">
<title>0&#45;&gt;3</title>
<path fill="none" stroke="#000000" d="M762.266,-237.1088C810.51,-226.3387 882.7223,-210.2179 940.8659,-197.2379"/>
<polygon fill="#000000" stroke="#000000" points="941.8112,-200.6131 950.8083,-195.0183 940.286,-193.7813 941.8112,-200.6131"/>
</g>
<!-- 2 -->
<g id="node3" class="node">
<title>2</title>
<polygon fill="none" stroke="#ffff00" stroke-width="2" points="764,-121 0,-121 0,-23 764,-23 764,-121"/>
<text text-anchor="middle" x="382" y="-105.8" font-family="Times,serif" font-size="14.00" fill="#000000">PhyMongoDBEval</text>
<text text-anchor="middle" x="382" y="-90.8" font-family="Times,serif" font-size="14.00" fill="#000000">vendor</text>
<text text-anchor="middle" x="382" y="-75.8" font-family="Times,serif" font-size="14.00" fill="#000000">[{$lookup: { from: &quot;offer&quot;, let: { &quot;nr&quot;: &quot;$nr&quot;}, pipeline: [ { $match: {$expr: {$eq: [&quot;$$nr&quot;, &quot;$vendor&quot;] } } } ], as: &quot;mongojoin1760&quot;}},</text>
<text text-anchor="middle" x="382" y="-60.8" font-family="Times,serif" font-size="14.00" fill="#000000">{$unwind: &quot;$mongojoin1760&quot;}]</text>
<text text-anchor="middle" x="382" y="-45.8" font-family="Times,serif" font-size="14.00" fill="#000000">[mongojoin1760.nr, mongojoin1760.vendor, mongojoin1760.offerwebpage, label, homepage]</text>
<text text-anchor="middle" x="382" y="-30.8" font-family="Times,serif" font-size="14.00" fill="#000000">3000000</text>
</g>
<!-- 1&#45;&gt;2 -->
<g id="edge2" class="edge">
<title>1&#45;&gt;2</title>
<path fill="none" stroke="#000000" d="M382,-157.8846C382,-150.2826 382,-140.9694 382,-131.3129"/>
<polygon fill="#000000" stroke="#000000" points="385.5001,-131.1828 382,-121.1829 378.5001,-131.1829 385.5001,-131.1828"/>
</g>
</g>
</svg>
