<?xml version="1.0" encoding="UTF-8" standalone="no"?>
<!DOCTYPE svg PUBLIC "-//W3C//DTD SVG 1.1//EN"
 "http://www.w3.org/Graphics/SVG/1.1/DTD/svg11.dtd">
<!-- Generated by graphviz version 2.40.1 (20161225.0304)
 -->
<!-- Title: g Pages: 1 -->
<svg width="4806pt" height="597pt"
 viewBox="0.00 0.00 4805.50 597.00" xmlns="http://www.w3.org/2000/svg" xmlns:xlink="http://www.w3.org/1999/xlink">
<g id="graph0" class="graph" transform="scale(1 1) rotate(0) translate(4 593)">
<title>g</title>
<polygon fill="#ffffff" stroke="transparent" points="-4,4 -4,-593 4801.5,-593 4801.5,4 -4,4"/>
<text text-anchor="middle" x="2398.75" y="-7.8" font-family="Times,serif" font-size="14.00" fill="#000000">3:33:59.483</text>
<!-- 0 -->
<g id="node1" class="node">
<title>0</title>
<polygon fill="none" stroke="#ffff00" stroke-width="2" points="2898.5,-589 2811.5,-589 2811.5,-553 2898.5,-553 2898.5,-589"/>
<text text-anchor="middle" x="2855" y="-567.3" font-family="Times,serif" font-size="14.00" fill="#000000">HashDistinct</text>
</g>
<!-- 1 -->
<g id="node2" class="node">
<title>1</title>
<polygon fill="none" stroke="#ffff00" stroke-width="2" points="2882,-517 2828,-517 2828,-481 2882,-481 2882,-517"/>
<text text-anchor="middle" x="2855" y="-495.3" font-family="Times,serif" font-size="14.00" fill="#000000">Union</text>
</g>
<!-- 0&#45;&gt;1 -->
<g id="edge1" class="edge">
<title>0&#45;&gt;1</title>
<path fill="none" stroke="#000000" d="M2855,-552.8314C2855,-545.131 2855,-535.9743 2855,-527.4166"/>
<polygon fill="#000000" stroke="#000000" points="2858.5001,-527.4132 2855,-517.4133 2851.5001,-527.4133 2858.5001,-527.4132"/>
</g>
<!-- 2 -->
<g id="node3" class="node">
<title>2</title>
<polygon fill="none" stroke="#ffff00" stroke-width="2" points="2003,-445 1897,-445 1897,-409 2003,-409 2003,-445"/>
<text text-anchor="middle" x="1950" y="-423.3" font-family="Times,serif" font-size="14.00" fill="#000000">BindAccessEval</text>
</g>
<!-- 1&#45;&gt;2 -->
<g id="edge2" class="edge">
<title>1&#45;&gt;2</title>
<path fill="none" stroke="#000000" d="M2827.9151,-496.8452C2704.5081,-487.0272 2193.7273,-446.3905 2013.3949,-432.0436"/>
<polygon fill="#000000" stroke="#000000" points="2013.5177,-428.5424 2003.2716,-431.2382 2012.9625,-435.5203 2013.5177,-428.5424"/>
</g>
<!-- 11 -->
<g id="node11" class="node">
<title>11</title>
<polygon fill="none" stroke="#ffff00" stroke-width="2" points="2739,-445 2633,-445 2633,-409 2739,-409 2739,-445"/>
<text text-anchor="middle" x="2686" y="-423.3" font-family="Times,serif" font-size="14.00" fill="#000000">BindAccessEval</text>
</g>
<!-- 1&#45;&gt;11 -->
<g id="edge10" class="edge">
<title>1&#45;&gt;11</title>
<path fill="none" stroke="#000000" d="M2827.8472,-487.432C2803.5995,-477.1016 2767.423,-461.6891 2737.674,-449.0149"/>
<polygon fill="#000000" stroke="#000000" points="2738.836,-445.7057 2728.2643,-445.0061 2736.0924,-452.1456 2738.836,-445.7057"/>
</g>
<!-- 20 -->
<g id="node19" class="node">
<title>20</title>
<polygon fill="none" stroke="#ffff00" stroke-width="2" points="3078,-445 2972,-445 2972,-409 3078,-409 3078,-445"/>
<text text-anchor="middle" x="3025" y="-423.3" font-family="Times,serif" font-size="14.00" fill="#000000">BindAccessEval</text>
</g>
<!-- 1&#45;&gt;20 -->
<g id="edge18" class="edge">
<title>1&#45;&gt;20</title>
<path fill="none" stroke="#000000" d="M2882.3134,-487.432C2906.7047,-477.1016 2943.0952,-461.6891 2973.0203,-449.0149"/>
<polygon fill="#000000" stroke="#000000" points="2974.6424,-452.129 2982.4856,-445.0061 2971.9124,-445.6832 2974.6424,-452.129"/>
</g>
<!-- 29 -->
<g id="node27" class="node">
<title>29</title>
<polygon fill="none" stroke="#ffff00" stroke-width="2" points="3950,-445 3844,-445 3844,-409 3950,-409 3950,-445"/>
<text text-anchor="middle" x="3897" y="-423.3" font-family="Times,serif" font-size="14.00" fill="#000000">BindAccessEval</text>
</g>
<!-- 1&#45;&gt;29 -->
<g id="edge26" class="edge">
<title>1&#45;&gt;29</title>
<path fill="none" stroke="#000000" d="M2882.0694,-497.1296C3018.6599,-487.6914 3633.5428,-445.2043 3833.7663,-431.3693"/>
<polygon fill="#000000" stroke="#000000" points="3834.0945,-434.8551 3843.8294,-430.674 3833.6119,-427.8717 3834.0945,-434.8551"/>
</g>
<!-- 3 -->
<g id="node4" class="node">
<title>3</title>
<polygon fill="none" stroke="#ffff00" stroke-width="2" points="1547,-372 1441,-372 1441,-336 1547,-336 1547,-372"/>
<text text-anchor="middle" x="1494" y="-350.3" font-family="Times,serif" font-size="14.00" fill="#000000">BindAccessEval</text>
</g>
<!-- 2&#45;&gt;3 -->
<g id="edge3" class="edge">
<title>2&#45;&gt;3</title>
<path fill="none" stroke="#000000" d="M1896.7986,-418.4831C1812.3059,-404.9569 1647.7731,-378.6172 1557.3322,-364.1387"/>
<polygon fill="#000000" stroke="#000000" points="1557.6421,-360.6438 1547.2146,-362.519 1556.5355,-367.5558 1557.6421,-360.6438"/>
</g>
<!-- 9 -->
<g id="node10" class="node">
<title>9</title>
<polygon fill="none" stroke="#ffff00" stroke-width="2" points="2217.5,-373 1682.5,-373 1682.5,-335 2217.5,-335 2217.5,-373"/>
<text text-anchor="middle" x="1950" y="-357.8" font-family="Times,serif" font-size="14.00" fill="#000000">FunctionCallBindAccess</text>
<text text-anchor="middle" x="1950" y="-342.8" font-family="Times,serif" font-size="14.00" fill="#000000">AddConstant{1=(&quot;&lt;http://www4.wiwiss.fu&#45;berlin.de/bizer/bsbm/v01/vocabulary/producer&gt;&quot;)}</text>
</g>
<!-- 2&#45;&gt;9 -->
<g id="edge9" class="edge">
<title>2&#45;&gt;9</title>
<path fill="none" stroke="#000000" d="M1950,-408.9551C1950,-401.2107 1950,-391.9622 1950,-383.2811"/>
<polygon fill="#000000" stroke="#000000" points="1953.5001,-383.1128 1950,-373.1128 1946.5001,-383.1129 1953.5001,-383.1128"/>
</g>
<!-- 4 -->
<g id="node5" class="node">
<title>4</title>
<polygon fill="none" stroke="#ffff00" stroke-width="2" points="1276.5,-299 1221.5,-299 1221.5,-261 1276.5,-261 1276.5,-299"/>
<text text-anchor="middle" x="1249" y="-283.8" font-family="Times,serif" font-size="14.00" fill="#000000">Project</text>
<text text-anchor="middle" x="1249" y="-268.8" font-family="Times,serif" font-size="14.00" fill="#000000">[2, 4]</text>
</g>
<!-- 3&#45;&gt;4 -->
<g id="edge4" class="edge">
<title>3&#45;&gt;4</title>
<path fill="none" stroke="#000000" d="M1440.8386,-337.9431C1394.1632,-323.8452 1327.4622,-303.6988 1286.2641,-291.2553"/>
<polygon fill="#000000" stroke="#000000" points="1287.204,-287.8831 1276.6191,-288.3421 1285.18,-294.5841 1287.204,-287.8831"/>
</g>
<!-- 8 -->
<g id="node9" class="node">
<title>8</title>
<polygon fill="none" stroke="#ffff00" stroke-width="2" points="1664,-299 1324,-299 1324,-261 1664,-261 1664,-299"/>
<text text-anchor="middle" x="1494" y="-283.8" font-family="Times,serif" font-size="14.00" fill="#000000">FunctionCallBindAccess</text>
<text text-anchor="middle" x="1494" y="-268.8" font-family="Times,serif" font-size="14.00" fill="#000000">(&quot;{1}&quot;, &lt;http://downlode.org/rdf/iso&#45;3166/countries#{0}&gt;)</text>
</g>
<!-- 3&#45;&gt;8 -->
<g id="edge8" class="edge">
<title>3&#45;&gt;8</title>
<path fill="none" stroke="#000000" d="M1494,-335.7079C1494,-327.7096 1494,-318.1287 1494,-309.1859"/>
<polygon fill="#000000" stroke="#000000" points="1497.5001,-309.1139 1494,-299.114 1490.5001,-309.114 1497.5001,-309.1139"/>
</g>
<!-- 5 -->
<g id="node6" class="node">
<title>5</title>
<polygon fill="none" stroke="#ffff00" stroke-width="2" points="1130.5,-225 1031.5,-225 1031.5,-172 1130.5,-172 1130.5,-225"/>
<text text-anchor="middle" x="1081" y="-209.8" font-family="Times,serif" font-size="14.00" fill="#000000">RightBindJoin </text>
<text text-anchor="middle" x="1081" y="-194.8" font-family="Times,serif" font-size="14.00" fill="#000000">[0, 1]</text>
<text text-anchor="middle" x="1081" y="-179.8" font-family="Times,serif" font-size="14.00" fill="#000000">23884</text>
</g>
<!-- 4&#45;&gt;5 -->
<g id="edge5" class="edge">
<title>4&#45;&gt;5</title>
<path fill="none" stroke="#000000" d="M1221.2582,-266.5419C1199.1531,-255.8183 1167.4283,-240.428 1139.7405,-226.9961"/>
<polygon fill="#000000" stroke="#000000" points="1141.0501,-223.7414 1130.5252,-222.5256 1137.9947,-230.0394 1141.0501,-223.7414"/>
</g>
<!-- 6 -->
<g id="node7" class="node">
<title>6</title>
<polygon fill="none" stroke="#ffff00" stroke-width="2" points="958,-136 0,-136 0,-23 958,-23 958,-136"/>
<text text-anchor="middle" x="479" y="-120.8" font-family="Times,serif" font-size="14.00" fill="#000000">PhyMongoDBEval</text>
<text text-anchor="middle" x="479" y="-105.8" font-family="Times,serif" font-size="14.00" fill="#000000">countrytype</text>
<text text-anchor="middle" x="479" y="-90.8" font-family="Times,serif" font-size="14.00" fill="#000000">[{&quot;$match&quot;:{&quot;countrytype&quot;:121}},</text>
<text text-anchor="middle" x="479" y="-75.8" font-family="Times,serif" font-size="14.00" fill="#000000">{$lookup: { from: &quot;productproducercountry&quot;, let: { &quot;country&quot;: &quot;$country&quot;}, pipeline: [ { $match: {$expr: {$eq: [&quot;$$country&quot;, &quot;$country&quot;] } } } ], as: &quot;mongojoin1789&quot;}},</text>
<text text-anchor="middle" x="479" y="-60.8" font-family="Times,serif" font-size="14.00" fill="#000000">{$unwind: &quot;$mongojoin1789&quot;}]</text>
<text text-anchor="middle" x="479" y="-45.8" font-family="Times,serif" font-size="14.00" fill="#000000">[mongojoin1789.nr, mongojoin1789.producer, mongojoin1789.country]</text>
<text text-anchor="middle" x="479" y="-30.8" font-family="Times,serif" font-size="14.00" fill="#000000">23884</text>
</g>
<!-- 5&#45;&gt;6 -->
<g id="edge6" class="edge">
<title>5&#45;&gt;6</title>
<path fill="none" stroke="#000000" d="M1031.48,-188.7112C973.9111,-177.3313 874.0745,-157.5961 774.9658,-138.0049"/>
<polygon fill="#000000" stroke="#000000" points="775.5578,-134.5542 765.0689,-136.0485 774.2003,-141.4214 775.5578,-134.5542"/>
</g>
<!-- 7 -->
<g id="node8" class="node">
<title>7</title>
<polygon fill="none" stroke="#ffff00" stroke-width="2" points="1185.5,-121 976.5,-121 976.5,-38 1185.5,-38 1185.5,-121"/>
<text text-anchor="middle" x="1081" y="-105.8" font-family="Times,serif" font-size="14.00" fill="#000000">SQLQuery</text>
<text text-anchor="middle" x="1081" y="-90.8" font-family="Times,serif" font-size="14.00" fill="#000000">SELECT nr, label, producer </text>
<text text-anchor="middle" x="1081" y="-75.8" font-family="Times,serif" font-size="14.00" fill="#000000">FROM Product </text>
<text text-anchor="middle" x="1081" y="-60.8" font-family="Times,serif" font-size="14.00" fill="#000000">WHERE nr = ? AND producer = ?</text>
<text text-anchor="middle" x="1081" y="-45.8" font-family="Times,serif" font-size="14.00" fill="#000000">23884</text>
</g>
<!-- 5&#45;&gt;7 -->
<g id="edge7" class="edge">
<title>5&#45;&gt;7</title>
<path fill="none" stroke="#000000" d="M1081,-171.7941C1081,-159.7732 1081,-145.1552 1081,-131.1309"/>
<polygon fill="#000000" stroke="#000000" points="1084.5001,-131.0695 1081,-121.0695 1077.5001,-131.0695 1084.5001,-131.0695"/>
</g>
<!-- 12 -->
<g id="node12" class="node">
<title>12</title>
<polygon fill="none" stroke="#ffff00" stroke-width="2" points="2400,-372 2294,-372 2294,-336 2400,-336 2400,-372"/>
<text text-anchor="middle" x="2347" y="-350.3" font-family="Times,serif" font-size="14.00" fill="#000000">BindAccessEval</text>
</g>
<!-- 11&#45;&gt;12 -->
<g id="edge11" class="edge">
<title>11&#45;&gt;12</title>
<path fill="none" stroke="#000000" d="M2632.7914,-418.3345C2578.8881,-409.1736 2492.9758,-393.5273 2410.1556,-373.1727"/>
<polygon fill="#000000" stroke="#000000" points="2410.8837,-369.7473 2400.3348,-370.7329 2409.1959,-376.5408 2410.8837,-369.7473"/>
</g>
<!-- 18 -->
<g id="node18" class="node">
<title>18</title>
<polygon fill="none" stroke="#ffff00" stroke-width="2" points="2953.5,-373 2418.5,-373 2418.5,-335 2953.5,-335 2953.5,-373"/>
<text text-anchor="middle" x="2686" y="-357.8" font-family="Times,serif" font-size="14.00" fill="#000000">FunctionCallBindAccess</text>
<text text-anchor="middle" x="2686" y="-342.8" font-family="Times,serif" font-size="14.00" fill="#000000">AddConstant{1=(&quot;&lt;http://www4.wiwiss.fu&#45;berlin.de/bizer/bsbm/v01/vocabulary/producer&gt;&quot;)}</text>
</g>
<!-- 11&#45;&gt;18 -->
<g id="edge17" class="edge">
<title>11&#45;&gt;18</title>
<path fill="none" stroke="#000000" d="M2686,-408.9551C2686,-401.2107 2686,-391.9622 2686,-383.2811"/>
<polygon fill="#000000" stroke="#000000" points="2689.5001,-383.1128 2686,-373.1128 2682.5001,-383.1129 2689.5001,-383.1128"/>
</g>
<!-- 13 -->
<g id="node13" class="node">
<title>13</title>
<polygon fill="none" stroke="#ffff00" stroke-width="2" points="2266.5,-299 2211.5,-299 2211.5,-261 2266.5,-261 2266.5,-299"/>
<text text-anchor="middle" x="2239" y="-283.8" font-family="Times,serif" font-size="14.00" fill="#000000">Project</text>
<text text-anchor="middle" x="2239" y="-268.8" font-family="Times,serif" font-size="14.00" fill="#000000">[0, 4]</text>
</g>
<!-- 12&#45;&gt;13 -->
<g id="edge12" class="edge">
<title>12&#45;&gt;13</title>
<path fill="none" stroke="#000000" d="M2320.5802,-335.8976C2306.9032,-326.5263 2289.9995,-314.9441 2275.1323,-304.7573"/>
<polygon fill="#000000" stroke="#000000" points="2276.8815,-301.7131 2266.6538,-298.948 2272.9248,-307.4876 2276.8815,-301.7131"/>
</g>
<!-- 17 -->
<g id="node17" class="node">
<title>17</title>
<polygon fill="none" stroke="#ffff00" stroke-width="2" points="2625,-299 2285,-299 2285,-261 2625,-261 2625,-299"/>
<text text-anchor="middle" x="2455" y="-283.8" font-family="Times,serif" font-size="14.00" fill="#000000">FunctionCallBindAccess</text>
<text text-anchor="middle" x="2455" y="-268.8" font-family="Times,serif" font-size="14.00" fill="#000000">(&quot;{1}&quot;, &lt;http://downlode.org/rdf/iso&#45;3166/countries#{0}&gt;)</text>
</g>
<!-- 12&#45;&gt;17 -->
<g id="edge16" class="edge">
<title>12&#45;&gt;17</title>
<path fill="none" stroke="#000000" d="M2373.4198,-335.8976C2386.9924,-326.5978 2403.7426,-315.1208 2418.5269,-304.9908"/>
<polygon fill="#000000" stroke="#000000" points="2420.6946,-307.7484 2426.9656,-299.2088 2416.7379,-301.9739 2420.6946,-307.7484"/>
</g>
<!-- 14 -->
<g id="node14" class="node">
<title>14</title>
<polygon fill="none" stroke="#ffff00" stroke-width="2" points="2288.5,-225 2189.5,-225 2189.5,-172 2288.5,-172 2288.5,-225"/>
<text text-anchor="middle" x="2239" y="-209.8" font-family="Times,serif" font-size="14.00" fill="#000000">RightBindJoin </text>
<text text-anchor="middle" x="2239" y="-194.8" font-family="Times,serif" font-size="14.00" fill="#000000">[1, 2]</text>
<text text-anchor="middle" x="2239" y="-179.8" font-family="Times,serif" font-size="14.00" fill="#000000">66838</text>
</g>
<!-- 13&#45;&gt;14 -->
<g id="edge13" class="edge">
<title>13&#45;&gt;14</title>
<path fill="none" stroke="#000000" d="M2239,-260.6856C2239,-253.0394 2239,-243.9857 2239,-235.1871"/>
<polygon fill="#000000" stroke="#000000" points="2242.5001,-235.0751 2239,-225.0751 2235.5001,-235.0752 2242.5001,-235.0751"/>
</g>
<!-- 15 -->
<g id="node15" class="node">
<title>15</title>
<polygon fill="none" stroke="#ffff00" stroke-width="2" points="2162,-136 1204,-136 1204,-23 2162,-23 2162,-136"/>
<text text-anchor="middle" x="1683" y="-120.8" font-family="Times,serif" font-size="14.00" fill="#000000">PhyMongoDBEval</text>
<text text-anchor="middle" x="1683" y="-105.8" font-family="Times,serif" font-size="14.00" fill="#000000">countrytype</text>
<text text-anchor="middle" x="1683" y="-90.8" font-family="Times,serif" font-size="14.00" fill="#000000">[{&quot;$match&quot;:{&quot;countrytype&quot;:112}},</text>
<text text-anchor="middle" x="1683" y="-75.8" font-family="Times,serif" font-size="14.00" fill="#000000">{$lookup: { from: &quot;productproducercountry&quot;, let: { &quot;country&quot;: &quot;$country&quot;}, pipeline: [ { $match: {$expr: {$eq: [&quot;$$country&quot;, &quot;$country&quot;] } } } ], as: &quot;mongojoin1790&quot;}},</text>
<text text-anchor="middle" x="1683" y="-60.8" font-family="Times,serif" font-size="14.00" fill="#000000">{$unwind: &quot;$mongojoin1790&quot;}]</text>
<text text-anchor="middle" x="1683" y="-45.8" font-family="Times,serif" font-size="14.00" fill="#000000">[country, mongojoin1790.nr, mongojoin1790.producer]</text>
<text text-anchor="middle" x="1683" y="-30.8" font-family="Times,serif" font-size="14.00" fill="#000000">66838</text>
</g>
<!-- 14&#45;&gt;15 -->
<g id="edge14" class="edge">
<title>14&#45;&gt;15</title>
<path fill="none" stroke="#000000" d="M2189.1694,-187.8348C2135.6029,-176.3701 2046.104,-157.2147 1957.1333,-138.1724"/>
<polygon fill="#000000" stroke="#000000" points="1957.6427,-134.7022 1947.1316,-136.0318 1956.1776,-141.5472 1957.6427,-134.7022"/>
</g>
<!-- 16 -->
<g id="node16" class="node">
<title>16</title>
<polygon fill="none" stroke="#ffff00" stroke-width="2" points="2389.5,-121 2180.5,-121 2180.5,-38 2389.5,-38 2389.5,-121"/>
<text text-anchor="middle" x="2285" y="-105.8" font-family="Times,serif" font-size="14.00" fill="#000000">SQLQuery</text>
<text text-anchor="middle" x="2285" y="-90.8" font-family="Times,serif" font-size="14.00" fill="#000000">SELECT nr, label, producer </text>
<text text-anchor="middle" x="2285" y="-75.8" font-family="Times,serif" font-size="14.00" fill="#000000">FROM Product </text>
<text text-anchor="middle" x="2285" y="-60.8" font-family="Times,serif" font-size="14.00" fill="#000000">WHERE nr = ? AND producer = ?</text>
<text text-anchor="middle" x="2285" y="-45.8" font-family="Times,serif" font-size="14.00" fill="#000000">66838</text>
</g>
<!-- 14&#45;&gt;16 -->
<g id="edge15" class="edge">
<title>14&#45;&gt;16</title>
<path fill="none" stroke="#000000" d="M2249.3233,-171.7941C2254.0151,-159.6565 2259.7305,-144.8711 2265.1997,-130.7225"/>
<polygon fill="#000000" stroke="#000000" points="2268.5901,-131.6589 2268.9311,-121.0695 2262.0609,-129.1349 2268.5901,-131.6589"/>
</g>
<!-- 21 -->
<g id="node20" class="node">
<title>21</title>
<polygon fill="none" stroke="#ffff00" stroke-width="2" points="3078,-372 2972,-372 2972,-336 3078,-336 3078,-372"/>
<text text-anchor="middle" x="3025" y="-350.3" font-family="Times,serif" font-size="14.00" fill="#000000">BindAccessEval</text>
</g>
<!-- 20&#45;&gt;21 -->
<g id="edge19" class="edge">
<title>20&#45;&gt;21</title>
<path fill="none" stroke="#000000" d="M3025,-408.9551C3025,-400.8828 3025,-391.1764 3025,-382.1817"/>
<polygon fill="#000000" stroke="#000000" points="3028.5001,-382.0903 3025,-372.0904 3021.5001,-382.0904 3028.5001,-382.0903"/>
</g>
<!-- 27 -->
<g id="node26" class="node">
<title>27</title>
<polygon fill="none" stroke="#ffff00" stroke-width="2" points="3631.5,-373 3096.5,-373 3096.5,-335 3631.5,-335 3631.5,-373"/>
<text text-anchor="middle" x="3364" y="-357.8" font-family="Times,serif" font-size="14.00" fill="#000000">FunctionCallBindAccess</text>
<text text-anchor="middle" x="3364" y="-342.8" font-family="Times,serif" font-size="14.00" fill="#000000">AddConstant{1=(&quot;&lt;http://www4.wiwiss.fu&#45;berlin.de/bizer/bsbm/v01/vocabulary/producer&gt;&quot;)}</text>
</g>
<!-- 20&#45;&gt;27 -->
<g id="edge25" class="edge">
<title>20&#45;&gt;27</title>
<path fill="none" stroke="#000000" d="M3078.3417,-415.5134C3128.4152,-404.7306 3204.5486,-388.3361 3265.6285,-375.1832"/>
<polygon fill="#000000" stroke="#000000" points="3266.6434,-378.545 3275.6825,-373.0182 3265.1697,-371.7019 3266.6434,-378.545"/>
</g>
<!-- 22 -->
<g id="node21" class="node">
<title>22</title>
<polygon fill="none" stroke="#ffff00" stroke-width="2" points="2960.5,-299 2905.5,-299 2905.5,-261 2960.5,-261 2960.5,-299"/>
<text text-anchor="middle" x="2933" y="-283.8" font-family="Times,serif" font-size="14.00" fill="#000000">Project</text>
<text text-anchor="middle" x="2933" y="-268.8" font-family="Times,serif" font-size="14.00" fill="#000000">[2, 4]</text>
</g>
<!-- 21&#45;&gt;22 -->
<g id="edge20" class="edge">
<title>21&#45;&gt;22</title>
<path fill="none" stroke="#000000" d="M3002.2584,-335.7079C2990.9096,-326.5795 2976.9977,-315.3894 2964.6273,-305.4394"/>
<polygon fill="#000000" stroke="#000000" points="2966.7491,-302.6543 2956.7633,-299.114 2962.3618,-308.1088 2966.7491,-302.6543"/>
</g>
<!-- 26 -->
<g id="node25" class="node">
<title>26</title>
<polygon fill="none" stroke="#ffff00" stroke-width="2" points="3319,-299 2979,-299 2979,-261 3319,-261 3319,-299"/>
<text text-anchor="middle" x="3149" y="-283.8" font-family="Times,serif" font-size="14.00" fill="#000000">FunctionCallBindAccess</text>
<text text-anchor="middle" x="3149" y="-268.8" font-family="Times,serif" font-size="14.00" fill="#000000">(&quot;{1}&quot;, &lt;http://downlode.org/rdf/iso&#45;3166/countries#{0}&gt;)</text>
</g>
<!-- 21&#45;&gt;26 -->
<g id="edge24" class="edge">
<title>21&#45;&gt;26</title>
<path fill="none" stroke="#000000" d="M3055.3338,-335.8976C3071.2085,-326.424 3090.8692,-314.691 3108.0729,-304.4242"/>
<polygon fill="#000000" stroke="#000000" points="3110.0188,-307.3389 3116.8123,-299.2088 3106.4316,-301.3279 3110.0188,-307.3389"/>
</g>
<!-- 23 -->
<g id="node22" class="node">
<title>23</title>
<polygon fill="none" stroke="#ffff00" stroke-width="2" points="2982.5,-225 2883.5,-225 2883.5,-172 2982.5,-172 2982.5,-225"/>
<text text-anchor="middle" x="2933" y="-209.8" font-family="Times,serif" font-size="14.00" fill="#000000">RightBindJoin </text>
<text text-anchor="middle" x="2933" y="-194.8" font-family="Times,serif" font-size="14.00" fill="#000000">[0, 1]</text>
<text text-anchor="middle" x="2933" y="-179.8" font-family="Times,serif" font-size="14.00" fill="#000000">22374</text>
</g>
<!-- 22&#45;&gt;23 -->
<g id="edge21" class="edge">
<title>22&#45;&gt;23</title>
<path fill="none" stroke="#000000" d="M2933,-260.6856C2933,-253.0394 2933,-243.9857 2933,-235.1871"/>
<polygon fill="#000000" stroke="#000000" points="2936.5001,-235.0751 2933,-225.0751 2929.5001,-235.0752 2936.5001,-235.0751"/>
</g>
<!-- 24 -->
<g id="node23" class="node">
<title>24</title>
<polygon fill="none" stroke="#ffff00" stroke-width="2" points="3366,-136 2408,-136 2408,-23 3366,-23 3366,-136"/>
<text text-anchor="middle" x="2887" y="-120.8" font-family="Times,serif" font-size="14.00" fill="#000000">PhyMongoDBEval</text>
<text text-anchor="middle" x="2887" y="-105.8" font-family="Times,serif" font-size="14.00" fill="#000000">countrytype</text>
<text text-anchor="middle" x="2887" y="-90.8" font-family="Times,serif" font-size="14.00" fill="#000000">[{&quot;$match&quot;:{&quot;countrytype&quot;:122}},</text>
<text text-anchor="middle" x="2887" y="-75.8" font-family="Times,serif" font-size="14.00" fill="#000000">{$lookup: { from: &quot;productproducercountry&quot;, let: { &quot;country&quot;: &quot;$country&quot;}, pipeline: [ { $match: {$expr: {$eq: [&quot;$$country&quot;, &quot;$country&quot;] } } } ], as: &quot;mongojoin1791&quot;}},</text>
<text text-anchor="middle" x="2887" y="-60.8" font-family="Times,serif" font-size="14.00" fill="#000000">{$unwind: &quot;$mongojoin1791&quot;}]</text>
<text text-anchor="middle" x="2887" y="-45.8" font-family="Times,serif" font-size="14.00" fill="#000000">[mongojoin1791.nr, mongojoin1791.producer, mongojoin1791.country]</text>
<text text-anchor="middle" x="2887" y="-30.8" font-family="Times,serif" font-size="14.00" fill="#000000">22374</text>
</g>
<!-- 23&#45;&gt;24 -->
<g id="edge22" class="edge">
<title>23&#45;&gt;24</title>
<path fill="none" stroke="#000000" d="M2922.6767,-171.7941C2919.6491,-163.9618 2916.1953,-155.027 2912.6565,-145.8722"/>
<polygon fill="#000000" stroke="#000000" points="2915.8224,-144.3548 2908.9522,-136.2894 2909.2932,-146.8787 2915.8224,-144.3548"/>
</g>
<!-- 25 -->
<g id="node24" class="node">
<title>25</title>
<polygon fill="none" stroke="#ffff00" stroke-width="2" points="3593.5,-121 3384.5,-121 3384.5,-38 3593.5,-38 3593.5,-121"/>
<text text-anchor="middle" x="3489" y="-105.8" font-family="Times,serif" font-size="14.00" fill="#000000">SQLQuery</text>
<text text-anchor="middle" x="3489" y="-90.8" font-family="Times,serif" font-size="14.00" fill="#000000">SELECT nr, label, producer </text>
<text text-anchor="middle" x="3489" y="-75.8" font-family="Times,serif" font-size="14.00" fill="#000000">FROM Product </text>
<text text-anchor="middle" x="3489" y="-60.8" font-family="Times,serif" font-size="14.00" fill="#000000">WHERE nr = ? AND producer = ?</text>
<text text-anchor="middle" x="3489" y="-45.8" font-family="Times,serif" font-size="14.00" fill="#000000">22374</text>
</g>
<!-- 23&#45;&gt;25 -->
<g id="edge23" class="edge">
<title>23&#45;&gt;25</title>
<path fill="none" stroke="#000000" d="M2982.5144,-196.6354C3065.4485,-192.3857 3236.9319,-178.7552 3375,-136 3384.6741,-133.0042 3394.5395,-129.2693 3404.2175,-125.1561"/>
<polygon fill="#000000" stroke="#000000" points="3405.6802,-128.3365 3413.4265,-121.1084 3402.8634,-121.9282 3405.6802,-128.3365"/>
</g>
<!-- 30 -->
<g id="node28" class="node">
<title>30</title>
<polygon fill="none" stroke="#ffff00" stroke-width="2" points="3950,-372 3844,-372 3844,-336 3950,-336 3950,-372"/>
<text text-anchor="middle" x="3897" y="-350.3" font-family="Times,serif" font-size="14.00" fill="#000000">BindAccessEval</text>
</g>
<!-- 29&#45;&gt;30 -->
<g id="edge27" class="edge">
<title>29&#45;&gt;30</title>
<path fill="none" stroke="#000000" d="M3897,-408.9551C3897,-400.8828 3897,-391.1764 3897,-382.1817"/>
<polygon fill="#000000" stroke="#000000" points="3900.5001,-382.0903 3897,-372.0904 3893.5001,-382.0904 3900.5001,-382.0903"/>
</g>
<!-- 36 -->
<g id="node34" class="node">
<title>36</title>
<polygon fill="none" stroke="#ffff00" stroke-width="2" points="4503.5,-373 3968.5,-373 3968.5,-335 4503.5,-335 4503.5,-373"/>
<text text-anchor="middle" x="4236" y="-357.8" font-family="Times,serif" font-size="14.00" fill="#000000">FunctionCallBindAccess</text>
<text text-anchor="middle" x="4236" y="-342.8" font-family="Times,serif" font-size="14.00" fill="#000000">AddConstant{1=(&quot;&lt;http://www4.wiwiss.fu&#45;berlin.de/bizer/bsbm/v01/vocabulary/producer&gt;&quot;)}</text>
</g>
<!-- 29&#45;&gt;36 -->
<g id="edge33" class="edge">
<title>29&#45;&gt;36</title>
<path fill="none" stroke="#000000" d="M3950.3417,-415.5134C4000.4152,-404.7306 4076.5486,-388.3361 4137.6285,-375.1832"/>
<polygon fill="#000000" stroke="#000000" points="4138.6434,-378.545 4147.6825,-373.0182 4137.1697,-371.7019 4138.6434,-378.545"/>
</g>
<!-- 31 -->
<g id="node29" class="node">
<title>31</title>
<polygon fill="none" stroke="#ffff00" stroke-width="2" points="3924.5,-299 3869.5,-299 3869.5,-261 3924.5,-261 3924.5,-299"/>
<text text-anchor="middle" x="3897" y="-283.8" font-family="Times,serif" font-size="14.00" fill="#000000">Project</text>
<text text-anchor="middle" x="3897" y="-268.8" font-family="Times,serif" font-size="14.00" fill="#000000">[4, 2]</text>
</g>
<!-- 30&#45;&gt;31 -->
<g id="edge28" class="edge">
<title>30&#45;&gt;31</title>
<path fill="none" stroke="#000000" d="M3897,-335.7079C3897,-327.7096 3897,-318.1287 3897,-309.1859"/>
<polygon fill="#000000" stroke="#000000" points="3900.5001,-309.1139 3897,-299.114 3893.5001,-309.114 3900.5001,-309.1139"/>
</g>
<!-- 35 -->
<g id="node33" class="node">
<title>35</title>
<polygon fill="none" stroke="#ffff00" stroke-width="2" points="4283,-299 3943,-299 3943,-261 4283,-261 4283,-299"/>
<text text-anchor="middle" x="4113" y="-283.8" font-family="Times,serif" font-size="14.00" fill="#000000">FunctionCallBindAccess</text>
<text text-anchor="middle" x="4113" y="-268.8" font-family="Times,serif" font-size="14.00" fill="#000000">(&quot;{0}&quot;, &lt;http://downlode.org/rdf/iso&#45;3166/countries#{1}&gt;)</text>
</g>
<!-- 30&#45;&gt;35 -->
<g id="edge32" class="edge">
<title>30&#45;&gt;35</title>
<path fill="none" stroke="#000000" d="M3949.5633,-335.9922C3979.1004,-325.873 4016.2276,-313.1535 4047.628,-302.396"/>
<polygon fill="#000000" stroke="#000000" points="4048.8486,-305.6776 4057.1744,-299.1254 4046.5798,-299.0554 4048.8486,-305.6776"/>
</g>
<!-- 32 -->
<g id="node30" class="node">
<title>32</title>
<polygon fill="none" stroke="#ffff00" stroke-width="2" points="4140.5,-225 4041.5,-225 4041.5,-172 4140.5,-172 4140.5,-225"/>
<text text-anchor="middle" x="4091" y="-209.8" font-family="Times,serif" font-size="14.00" fill="#000000">RightBindJoin </text>
<text text-anchor="middle" x="4091" y="-194.8" font-family="Times,serif" font-size="14.00" fill="#000000">[1, 0]</text>
<text text-anchor="middle" x="4091" y="-179.8" font-family="Times,serif" font-size="14.00" fill="#000000">22104</text>
</g>
<!-- 31&#45;&gt;32 -->
<g id="edge29" class="edge">
<title>31&#45;&gt;32</title>
<path fill="none" stroke="#000000" d="M3924.7408,-265.3947C3927.8442,-263.8685 3930.9761,-262.3745 3934,-261 3965.9319,-246.4855 4002.2821,-231.896 4031.9587,-220.4674"/>
<polygon fill="#000000" stroke="#000000" points="4033.2589,-223.7174 4041.3454,-216.872 4030.755,-217.1806 4033.2589,-223.7174"/>
</g>
<!-- 33 -->
<g id="node31" class="node">
<title>33</title>
<polygon fill="none" stroke="#ffff00" stroke-width="2" points="4570,-136 3612,-136 3612,-23 4570,-23 4570,-136"/>
<text text-anchor="middle" x="4091" y="-120.8" font-family="Times,serif" font-size="14.00" fill="#000000">PhyMongoDBEval</text>
<text text-anchor="middle" x="4091" y="-105.8" font-family="Times,serif" font-size="14.00" fill="#000000">countrytype</text>
<text text-anchor="middle" x="4091" y="-90.8" font-family="Times,serif" font-size="14.00" fill="#000000">[{&quot;$match&quot;:{&quot;countrytype&quot;:111}},</text>
<text text-anchor="middle" x="4091" y="-75.8" font-family="Times,serif" font-size="14.00" fill="#000000">{$lookup: { from: &quot;productproducercountry&quot;, let: { &quot;country&quot;: &quot;$country&quot;}, pipeline: [ { $match: {$expr: {$eq: [&quot;$$country&quot;, &quot;$country&quot;] } } } ], as: &quot;mongojoin1792&quot;}},</text>
<text text-anchor="middle" x="4091" y="-60.8" font-family="Times,serif" font-size="14.00" fill="#000000">{$unwind: &quot;$mongojoin1792&quot;}]</text>
<text text-anchor="middle" x="4091" y="-45.8" font-family="Times,serif" font-size="14.00" fill="#000000">[mongojoin1792.nr, mongojoin1792.producer, mongojoin1792.country]</text>
<text text-anchor="middle" x="4091" y="-30.8" font-family="Times,serif" font-size="14.00" fill="#000000">22104</text>
</g>
<!-- 32&#45;&gt;33 -->
<g id="edge30" class="edge">
<title>32&#45;&gt;33</title>
<path fill="none" stroke="#000000" d="M4091,-171.7941C4091,-164.1267 4091,-155.4027 4091,-146.4501"/>
<polygon fill="#000000" stroke="#000000" points="4094.5001,-146.2894 4091,-136.2894 4087.5001,-146.2894 4094.5001,-146.2894"/>
</g>
<!-- 34 -->
<g id="node32" class="node">
<title>34</title>
<polygon fill="none" stroke="#ffff00" stroke-width="2" points="4797.5,-121 4588.5,-121 4588.5,-38 4797.5,-38 4797.5,-121"/>
<text text-anchor="middle" x="4693" y="-105.8" font-family="Times,serif" font-size="14.00" fill="#000000">SQLQuery</text>
<text text-anchor="middle" x="4693" y="-90.8" font-family="Times,serif" font-size="14.00" fill="#000000">SELECT nr, label, producer </text>
<text text-anchor="middle" x="4693" y="-75.8" font-family="Times,serif" font-size="14.00" fill="#000000">FROM Product </text>
<text text-anchor="middle" x="4693" y="-60.8" font-family="Times,serif" font-size="14.00" fill="#000000">WHERE producer = ? AND nr = ?</text>
<text text-anchor="middle" x="4693" y="-45.8" font-family="Times,serif" font-size="14.00" fill="#000000">22104</text>
</g>
<!-- 32&#45;&gt;34 -->
<g id="edge31" class="edge">
<title>32&#45;&gt;34</title>
<path fill="none" stroke="#000000" d="M4140.7071,-194.2442C4247.8949,-184.7247 4497.6534,-160.608 4579,-136 4588.7736,-133.0434 4598.7347,-129.3123 4608.4968,-125.1828"/>
<polygon fill="#000000" stroke="#000000" points="4610.0282,-128.3331 4617.7828,-121.1138 4607.2188,-121.9216 4610.0282,-128.3331"/>
</g>
</g>
</svg>
