<?xml version="1.0" encoding="UTF-8" standalone="no"?>
<!DOCTYPE svg PUBLIC "-//W3C//DTD SVG 1.1//EN"
 "http://www.w3.org/Graphics/SVG/1.1/DTD/svg11.dtd">
<!-- Generated by graphviz version 2.40.1 (20161225.0304)
 -->
<!-- Title: g Pages: 1 -->
<svg width="2156pt" height="651pt"
 viewBox="0.00 0.00 2156.00 651.00" xmlns="http://www.w3.org/2000/svg" xmlns:xlink="http://www.w3.org/1999/xlink">
<g id="graph0" class="graph" transform="scale(1 1) rotate(0) translate(4 647)">
<title>g</title>
<polygon fill="#ffffff" stroke="transparent" points="-4,4 -4,-647 2152,-647 2152,4 -4,4"/>
<text text-anchor="middle" x="1074" y="-7.8" font-family="Times,serif" font-size="14.00" fill="#000000">3:43:59.156</text>
<!-- 0 -->
<g id="node1" class="node">
<title>0</title>
<polygon fill="none" stroke="#ffff00" stroke-width="2" points="1072.5,-643 966.5,-643 966.5,-607 1072.5,-607 1072.5,-643"/>
<text text-anchor="middle" x="1019.5" y="-621.3" font-family="Times,serif" font-size="14.00" fill="#000000">BindAccessEval</text>
</g>
<!-- 1 -->
<g id="node2" class="node">
<title>1</title>
<polygon fill="none" stroke="#ffff00" stroke-width="2" points="957,-571 0,-571 0,-23 957,-23 957,-571"/>
<text text-anchor="middle" x="478.5" y="-555.8" font-family="Times,serif" font-size="14.00" fill="#000000">SQLQuery</text>
<text text-anchor="middle" x="478.5" y="-540.8" font-family="Times,serif" font-size="14.00" fill="#000000">SELECT tab_26058.publisher, tab_26058.nr, tab_26058.producer, tab_26058.product, tab_26058.title, tab_26058.text </text>
<text text-anchor="middle" x="478.5" y="-525.8" font-family="Times,serif" font-size="14.00" fill="#000000">FROM PRODUCT AS tab_26059, PRODUCTTYPEPRODUCT AS tab_26060, Review AS tab_26058 </text>
<text text-anchor="middle" x="478.5" y="-510.8" font-family="Times,serif" font-size="14.00" fill="#000000">WHERE tab_26060.producttype = 858 AND tab_26060.product = tab_26059.nr AND tab_26058.producer = tab_26059.producer AND tab_26058.product = tab_26059.nr </text>
<text text-anchor="middle" x="478.5" y="-495.8" font-family="Times,serif" font-size="14.00" fill="#000000">UNION</text>
<text text-anchor="middle" x="478.5" y="-480.8" font-family="Times,serif" font-size="14.00" fill="#000000">SELECT tab_26124.publisher, tab_26124.nr, tab_26124.producer, tab_26124.product, tab_26124.title, tab_26124.text </text>
<text text-anchor="middle" x="478.5" y="-465.8" font-family="Times,serif" font-size="14.00" fill="#000000">FROM PRODUCT AS tab_26125, Review AS tab_26124, PRODUCTTYPEPRODUCT AS tab_26126 </text>
<text text-anchor="middle" x="478.5" y="-450.8" font-family="Times,serif" font-size="14.00" fill="#000000">WHERE tab_26126.producttype = 788 AND tab_26126.product = tab_26125.nr AND tab_26124.producer = tab_26125.producer AND tab_26124.product = tab_26125.nr </text>
<text text-anchor="middle" x="478.5" y="-435.8" font-family="Times,serif" font-size="14.00" fill="#000000">UNION</text>
<text text-anchor="middle" x="478.5" y="-420.8" font-family="Times,serif" font-size="14.00" fill="#000000">SELECT tab_26360.publisher, tab_26360.nr, tab_26358.producer, tab_26358.nr, tab_26360.title, tab_26360.text </text>
<text text-anchor="middle" x="478.5" y="-405.8" font-family="Times,serif" font-size="14.00" fill="#000000">FROM Review AS tab_26360, PRODUCT AS tab_26358, PRODUCTTYPEPRODUCT AS tab_26359 </text>
<text text-anchor="middle" x="478.5" y="-390.8" font-family="Times,serif" font-size="14.00" fill="#000000">WHERE tab_26359.producttype = 743 AND tab_26359.product = tab_26358.nr AND tab_26358.producer = tab_26360.producer AND tab_26358.nr = tab_26360.product </text>
<text text-anchor="middle" x="478.5" y="-375.8" font-family="Times,serif" font-size="14.00" fill="#000000">UNION</text>
<text text-anchor="middle" x="478.5" y="-360.8" font-family="Times,serif" font-size="14.00" fill="#000000">SELECT tab_26027.publisher, tab_26027.nr, tab_26025.producer, tab_26025.nr, tab_26027.title, tab_26027.text </text>
<text text-anchor="middle" x="478.5" y="-345.8" font-family="Times,serif" font-size="14.00" fill="#000000">FROM PRODUCT AS tab_26025, Review AS tab_26027, PRODUCTTYPEPRODUCT AS tab_26026 </text>
<text text-anchor="middle" x="478.5" y="-330.8" font-family="Times,serif" font-size="14.00" fill="#000000">WHERE tab_26026.producttype = 849 AND tab_26026.product = tab_26025.nr AND tab_26025.producer = tab_26027.producer AND tab_26025.nr = tab_26027.product </text>
<text text-anchor="middle" x="478.5" y="-315.8" font-family="Times,serif" font-size="14.00" fill="#000000">UNION</text>
<text text-anchor="middle" x="478.5" y="-300.8" font-family="Times,serif" font-size="14.00" fill="#000000">SELECT tab_26258.publisher, tab_26258.nr, tab_26256.producer, tab_26256.nr, tab_26258.title, tab_26258.text </text>
<text text-anchor="middle" x="478.5" y="-285.8" font-family="Times,serif" font-size="14.00" fill="#000000">FROM PRODUCT AS tab_26256, Review AS tab_26258, PRODUCTTYPEPRODUCT AS tab_26257 </text>
<text text-anchor="middle" x="478.5" y="-270.8" font-family="Times,serif" font-size="14.00" fill="#000000">WHERE tab_26257.producttype = 847 AND tab_26257.product = tab_26256.nr AND tab_26256.producer = tab_26258.producer AND tab_26256.nr = tab_26258.product </text>
<text text-anchor="middle" x="478.5" y="-255.8" font-family="Times,serif" font-size="14.00" fill="#000000">UNION</text>
<text text-anchor="middle" x="478.5" y="-240.8" font-family="Times,serif" font-size="14.00" fill="#000000">SELECT tab_26289.publisher, tab_26289.nr, tab_26289.producer, tab_26289.product, tab_26289.title, tab_26289.text </text>
<text text-anchor="middle" x="478.5" y="-225.8" font-family="Times,serif" font-size="14.00" fill="#000000">FROM PRODUCT AS tab_26290, PRODUCTTYPEPRODUCT AS tab_26291, Review AS tab_26289 </text>
<text text-anchor="middle" x="478.5" y="-210.8" font-family="Times,serif" font-size="14.00" fill="#000000">WHERE tab_26291.producttype = 733 AND tab_26291.product = tab_26290.nr AND tab_26289.producer = tab_26290.producer AND tab_26289.product = tab_26290.nr </text>
<text text-anchor="middle" x="478.5" y="-195.8" font-family="Times,serif" font-size="14.00" fill="#000000">UNION</text>
<text text-anchor="middle" x="478.5" y="-180.8" font-family="Times,serif" font-size="14.00" fill="#000000">SELECT tab_26007.publisher, tab_26007.nr, tab_26007.producer, tab_26007.product, tab_26007.title, tab_26007.text </text>
<text text-anchor="middle" x="478.5" y="-165.8" font-family="Times,serif" font-size="14.00" fill="#000000">FROM PRODUCT AS tab_26008, PRODUCTTYPEPRODUCT AS tab_26009, Review AS tab_26007 </text>
<text text-anchor="middle" x="478.5" y="-150.8" font-family="Times,serif" font-size="14.00" fill="#000000">WHERE tab_26009.producttype = 758 AND tab_26009.product = tab_26008.nr AND tab_26007.producer = tab_26008.producer AND tab_26007.product = tab_26008.nr </text>
<text text-anchor="middle" x="478.5" y="-135.8" font-family="Times,serif" font-size="14.00" fill="#000000">UNION</text>
<text text-anchor="middle" x="478.5" y="-120.8" font-family="Times,serif" font-size="14.00" fill="#000000">SELECT tab_26162.publisher, tab_26162.nr, tab_26160.producer, tab_26160.nr, tab_26162.title, tab_26162.text </text>
<text text-anchor="middle" x="478.5" y="-105.8" font-family="Times,serif" font-size="14.00" fill="#000000">FROM Review AS tab_26162, PRODUCTTYPEPRODUCT AS tab_26161, PRODUCT AS tab_26160 </text>
<text text-anchor="middle" x="478.5" y="-90.8" font-family="Times,serif" font-size="14.00" fill="#000000">WHERE tab_26161.producttype = 774 AND tab_26161.product = tab_26160.nr AND tab_26160.producer = tab_26162.producer AND tab_26160.nr = tab_26162.product </text>
<text text-anchor="middle" x="478.5" y="-75.8" font-family="Times,serif" font-size="14.00" fill="#000000">UNION</text>
<text text-anchor="middle" x="478.5" y="-60.8" font-family="Times,serif" font-size="14.00" fill="#000000">SELECT tab_26072.publisher, tab_26072.nr, tab_26070.producer, tab_26070.nr, tab_26072.title, tab_26072.text </text>
<text text-anchor="middle" x="478.5" y="-45.8" font-family="Times,serif" font-size="14.00" fill="#000000">FROM PRODUCT AS tab_26070, PRODUCTTYPEPRODUCT AS tab_26071, Review AS tab_26072... (127 UNIONs)</text>
<text text-anchor="middle" x="478.5" y="-30.8" font-family="Times,serif" font-size="14.00" fill="#000000">249004</text>
</g>
<!-- 0&#45;&gt;1 -->
<g id="edge1" class="edge">
<title>0&#45;&gt;1</title>
<path fill="none" stroke="#000000" d="M989.6429,-606.8981C976.3659,-598.8485 959.1927,-588.4366 939.2173,-576.3258"/>
<polygon fill="#000000" stroke="#000000" points="940.8538,-573.225 930.4881,-571.0334 937.2246,-579.2108 940.8538,-573.225"/>
</g>
<!-- 2 -->
<g id="node3" class="node">
<title>2</title>
<polygon fill="none" stroke="#ffff00" stroke-width="2" points="2148,-316 975,-316 975,-278 2148,-278 2148,-316"/>
<text text-anchor="middle" x="1561.5" y="-300.8" font-family="Times,serif" font-size="14.00" fill="#000000">FunctionCallBindAccess</text>
<text text-anchor="middle" x="1561.5" y="-285.8" font-family="Times,serif" font-size="14.00" fill="#000000">(&lt;http://www4.wiwiss.fu&#45;berlin.de/bizer/bsbm/v01/instances/dataFromRatingSite{0}/Review{1}&gt;, &lt;http://www4.wiwiss.fu&#45;berlin.de/bizer/bsbm/v01/instances/dataFromProducer{2}/Product{3}&gt;, &quot;{4}&quot;, &quot;{5}&quot;)</text>
</g>
<!-- 0&#45;&gt;2 -->
<g id="edge2" class="edge">
<title>0&#45;&gt;2</title>
<path fill="none" stroke="#000000" d="M1049.4123,-606.8981C1140.9505,-551.5023 1417.3564,-384.2308 1521.3527,-321.2958"/>
<polygon fill="#000000" stroke="#000000" points="1523.2544,-324.236 1529.9977,-316.0641 1519.6302,-318.2472 1523.2544,-324.236"/>
</g>
</g>
</svg>
