<?xml version="1.0" encoding="UTF-8" standalone="no"?>
<!DOCTYPE svg PUBLIC "-//W3C//DTD SVG 1.1//EN"
 "http://www.w3.org/Graphics/SVG/1.1/DTD/svg11.dtd">
<!-- Generated by graphviz version 2.40.1 (20161225.0304)
 -->
<!-- Title: g Pages: 1 -->
<svg width="1953pt" height="423pt"
 viewBox="0.00 0.00 1952.50 423.00" xmlns="http://www.w3.org/2000/svg" xmlns:xlink="http://www.w3.org/1999/xlink">
<g id="graph0" class="graph" transform="scale(1 1) rotate(0) translate(4 419)">
<title>g</title>
<polygon fill="#ffffff" stroke="transparent" points="-4,4 -4,-419 1948.5,-419 1948.5,4 -4,4"/>
<text text-anchor="middle" x="972.25" y="-7.8" font-family="Times,serif" font-size="14.00" fill="#000000">3:45:24.122</text>
<!-- 0 -->
<g id="node1" class="node">
<title>0</title>
<polygon fill="none" stroke="#ffff00" stroke-width="2" points="715,-415 609,-415 609,-379 715,-379 715,-415"/>
<text text-anchor="middle" x="662" y="-393.3" font-family="Times,serif" font-size="14.00" fill="#000000">BindAccessEval</text>
</g>
<!-- 1 -->
<g id="node2" class="node">
<title>1</title>
<polygon fill="none" stroke="#ffff00" stroke-width="2" points="257.5,-342 170.5,-342 170.5,-306 257.5,-306 257.5,-342"/>
<text text-anchor="middle" x="214" y="-320.3" font-family="Times,serif" font-size="14.00" fill="#000000">HashDistinct</text>
</g>
<!-- 0&#45;&gt;1 -->
<g id="edge1" class="edge">
<title>0&#45;&gt;1</title>
<path fill="none" stroke="#000000" d="M608.9525,-393.2771C534.4519,-387.2763 394.6688,-373.1942 267.6446,-342.8781"/>
<polygon fill="#000000" stroke="#000000" points="268.2876,-339.4326 257.7442,-340.4755 266.6367,-346.2352 268.2876,-339.4326"/>
</g>
<!-- 6 -->
<g id="node7" class="node">
<title>6</title>
<polygon fill="none" stroke="#ffff00" stroke-width="2" points="1944.5,-343 275.5,-343 275.5,-305 1944.5,-305 1944.5,-343"/>
<text text-anchor="middle" x="1110" y="-327.8" font-family="Times,serif" font-size="14.00" fill="#000000">FunctionCallBindAccess</text>
<text text-anchor="middle" x="1110" y="-312.8" font-family="Times,serif" font-size="14.00" fill="#000000">(&lt;http://www4.wiwiss.fu&#45;berlin.de/bizer/bsbm/v01/instances/dataFromVendor{4}/Offer{3}&gt;, &lt;http://www4.wiwiss.fu&#45;berlin.de/bizer/bsbm/v01/instances/dataFromProducer{2}/Product{0}&gt;, &quot;{1}&quot;, &lt;http://www4.wiwiss.fu&#45;berlin.de/bizer/bsbm/v01/instances/dataFromVendor{4}/Vendor{4}&gt;, &quot;{5}&quot;)</text>
</g>
<!-- 0&#45;&gt;6 -->
<g id="edge6" class="edge">
<title>0&#45;&gt;6</title>
<path fill="none" stroke="#000000" d="M715.1507,-388.3393C780.7649,-377.6477 894.5307,-359.11 983.1423,-344.671"/>
<polygon fill="#000000" stroke="#000000" points="983.9642,-348.0833 993.2711,-343.0206 982.8384,-341.1744 983.9642,-348.0833"/>
</g>
<!-- 2 -->
<g id="node3" class="node">
<title>2</title>
<polygon fill="none" stroke="#ffff00" stroke-width="2" points="266,-269 162,-269 162,-231 266,-231 266,-269"/>
<text text-anchor="middle" x="214" y="-253.8" font-family="Times,serif" font-size="14.00" fill="#000000">Project</text>
<text text-anchor="middle" x="214" y="-238.8" font-family="Times,serif" font-size="14.00" fill="#000000">[0, 1, 2, 3, 6, 7]</text>
</g>
<!-- 1&#45;&gt;2 -->
<g id="edge2" class="edge">
<title>1&#45;&gt;2</title>
<path fill="none" stroke="#000000" d="M214,-305.7079C214,-297.7096 214,-288.1287 214,-279.1859"/>
<polygon fill="#000000" stroke="#000000" points="217.5001,-279.1139 214,-269.114 210.5001,-279.114 217.5001,-279.1139"/>
</g>
<!-- 3 -->
<g id="node4" class="node">
<title>3</title>
<polygon fill="none" stroke="#ffff00" stroke-width="2" points="263.5,-195 164.5,-195 164.5,-142 263.5,-142 263.5,-195"/>
<text text-anchor="middle" x="214" y="-179.8" font-family="Times,serif" font-size="14.00" fill="#000000">RightBindJoin </text>
<text text-anchor="middle" x="214" y="-164.8" font-family="Times,serif" font-size="14.00" fill="#000000">[0, 2]</text>
<text text-anchor="middle" x="214" y="-149.8" font-family="Times,serif" font-size="14.00" fill="#000000">3000000</text>
</g>
<!-- 2&#45;&gt;3 -->
<g id="edge3" class="edge">
<title>2&#45;&gt;3</title>
<path fill="none" stroke="#000000" d="M214,-230.6856C214,-223.0394 214,-213.9857 214,-205.1871"/>
<polygon fill="#000000" stroke="#000000" points="217.5001,-205.0751 214,-195.0751 210.5001,-205.0752 217.5001,-205.0751"/>
</g>
<!-- 4 -->
<g id="node5" class="node">
<title>4</title>
<polygon fill="none" stroke="#ffff00" stroke-width="2" points="174,-98.5 0,-98.5 0,-30.5 174,-30.5 174,-98.5"/>
<text text-anchor="middle" x="87" y="-83.3" font-family="Times,serif" font-size="14.00" fill="#000000">SQLQuery</text>
<text text-anchor="middle" x="87" y="-68.3" font-family="Times,serif" font-size="14.00" fill="#000000">SELECT nr, label, producer </text>
<text text-anchor="middle" x="87" y="-53.3" font-family="Times,serif" font-size="14.00" fill="#000000">FROM Product</text>
<text text-anchor="middle" x="87" y="-38.3" font-family="Times,serif" font-size="14.00" fill="#000000">150000</text>
</g>
<!-- 3&#45;&gt;4 -->
<g id="edge4" class="edge">
<title>3&#45;&gt;4</title>
<path fill="none" stroke="#000000" d="M181.6239,-141.9873C167.9812,-130.8153 151.792,-117.558 136.6964,-105.1963"/>
<polygon fill="#000000" stroke="#000000" points="138.8758,-102.4571 128.9214,-98.8293 134.4408,-107.873 138.8758,-102.4571"/>
</g>
<!-- 5 -->
<g id="node6" class="node">
<title>5</title>
<polygon fill="none" stroke="#ffff00" stroke-width="2" points="490,-106 192,-106 192,-23 490,-23 490,-106"/>
<text text-anchor="middle" x="341" y="-90.8" font-family="Times,serif" font-size="14.00" fill="#000000">PhyMongoDBEval</text>
<text text-anchor="middle" x="341" y="-75.8" font-family="Times,serif" font-size="14.00" fill="#000000">offer</text>
<text text-anchor="middle" x="341" y="-60.8" font-family="Times,serif" font-size="14.00" fill="#000000">[{ &quot;$match&quot;: { &quot;product&quot;: %s, &quot;producer&quot;: %s } }]</text>
<text text-anchor="middle" x="341" y="-45.8" font-family="Times,serif" font-size="14.00" fill="#000000">[nr, product, producer, vendor, price]</text>
<text text-anchor="middle" x="341" y="-30.8" font-family="Times,serif" font-size="14.00" fill="#000000">3000000</text>
</g>
<!-- 3&#45;&gt;5 -->
<g id="edge5" class="edge">
<title>3&#45;&gt;5</title>
<path fill="none" stroke="#000000" d="M246.3761,-141.9873C257.2273,-133.1012 269.6896,-122.8959 281.9312,-112.8713"/>
<polygon fill="#000000" stroke="#000000" points="284.4053,-115.3691 289.9246,-106.3255 279.9702,-109.9533 284.4053,-115.3691"/>
</g>
</g>
</svg>
