digraph  g{ graph[label = "3:56:49.269"]
node [shape=rectangle, color=black, fontcolor=black, style=bold] edge [color=black] 0 [label="HashDistinct", color = yellow] ; 
1 [label="Union", color = yellow] ; 
0 -> 1 ; 
2 [label="BindAccessEval", color = yellow] ; 
1 -> 2 ; 
3 [label="BindAccessEval", color = yellow] ; 
2 -> 3 ; 
4 [label="Project
[2, 3]", color = yellow] ; 
3 -> 4 ; 
5 [label="RightBindJoin 
[1, 0]
49", color = yellow] ; 
4 -> 5 ; 
6 [label="SQLQuery
SELECT P.nr, P.producer 
FROM PRODUCT AS P, PRODUCTTYPEPRODUCT AS PT  
WHERE PT.producttype = 747 AND PT.product = P.nr
211", color = yellow] ; 
5 -> 6 ; 
7 [label="PhyMongoDBEval
productfeatureproduct
[{ $match: {$expr: {$eq: [\"$label\", \"babka\"] } } },
{ \"$match\": { \"producer\": %s, \"nr\": %s } }]
[nr, producer]
49", color = yellow] ; 
5 -> 7 ; 
8 [label="FunctionCallBindAccess
(<http://www4.wiwiss.fu-berlin.de/bizer/bsbm/v01/instances/dataFromProducer{1}/Product{0}>)", color = yellow] ; 
3 -> 8 ; 
9 [label="FunctionCallBindAccess
AddConstant{1=(\"<http://www4.wiwiss.fu-berlin.de/bizer/bsbm/v01/instances/ProductType747>\")}", color = yellow] ; 
2 -> 9 ; 
11 [label="BindAccessEval", color = yellow] ; 
1 -> 11 ; 
12 [label="BindAccessEval", color = yellow] ; 
11 -> 12 ; 
13 [label="Project
[2, 3]", color = yellow] ; 
12 -> 13 ; 
14 [label="RightBindJoin 
[0, 1]
41", color = yellow] ; 
13 -> 14 ; 
15 [label="SQLQuery
SELECT P.nr, P.producer 
FROM PRODUCT AS P, PRODUCTTYPEPRODUCT AS PT  
WHERE PT.producttype = 745 AND PT.product = P.nr
194", color = yellow] ; 
14 -> 15 ; 
16 [label="PhyMongoDBEval
productfeatureproduct
[{ $match: {$expr: {$eq: [\"$label\", \"babka\"] } } },
{ \"$match\": { \"nr\": %s, \"producer\": %s } }]
[nr, producer]
41", color = yellow] ; 
14 -> 16 ; 
17 [label="FunctionCallBindAccess
(<http://www4.wiwiss.fu-berlin.de/bizer/bsbm/v01/instances/dataFromProducer{1}/Product{0}>)", color = yellow] ; 
12 -> 17 ; 
18 [label="FunctionCallBindAccess
AddConstant{1=(\"<http://www4.wiwiss.fu-berlin.de/bizer/bsbm/v01/instances/ProductType745>\")}", color = yellow] ; 
11 -> 18 ; 
20 [label="BindAccessEval", color = yellow] ; 
1 -> 20 ; 
21 [label="BindAccessEval", color = yellow] ; 
20 -> 21 ; 
22 [label="Project
[0, 1]", color = yellow] ; 
21 -> 22 ; 
23 [label="RightBindJoin 
[0, 1]
46", color = yellow] ; 
22 -> 23 ; 
24 [label="SQLQuery
SELECT P.nr, P.producer 
FROM PRODUCT AS P, PRODUCTTYPEPRODUCT AS PT  
WHERE PT.producttype = 734 AND PT.product = P.nr
185", color = yellow] ; 
23 -> 24 ; 
25 [label="PhyMongoDBEval
productfeatureproduct
[{ $match: {$expr: {$eq: [\"$label\", \"babka\"] } } },
{ \"$match\": { \"nr\": %s, \"producer\": %s } }]
[nr, producer]
46", color = yellow] ; 
23 -> 25 ; 
26 [label="FunctionCallBindAccess
(<http://www4.wiwiss.fu-berlin.de/bizer/bsbm/v01/instances/dataFromProducer{1}/Product{0}>)", color = yellow] ; 
21 -> 26 ; 
27 [label="FunctionCallBindAccess
AddConstant{1=(\"<http://www4.wiwiss.fu-berlin.de/bizer/bsbm/v01/instances/ProductType734>\")}", color = yellow] ; 
20 -> 27 ; 
29 [label="BindAccessEval", color = yellow] ; 
1 -> 29 ; 
30 [label="BindAccessEval", color = yellow] ; 
29 -> 30 ; 
31 [label="Project
[2, 3]", color = yellow] ; 
30 -> 31 ; 
32 [label="RightBindJoin 
[0, 1]
58", color = yellow] ; 
31 -> 32 ; 
33 [label="SQLQuery
SELECT P.nr, P.producer 
FROM PRODUCT AS P, PRODUCTTYPEPRODUCT AS PT  
WHERE PT.producttype = 732 AND PT.product = P.nr
208", color = yellow] ; 
32 -> 33 ; 
34 [label="PhyMongoDBEval
productfeatureproduct
[{ $match: {$expr: {$eq: [\"$label\", \"babka\"] } } },
{ \"$match\": { \"nr\": %s, \"producer\": %s } }]
[nr, producer]
58", color = yellow] ; 
32 -> 34 ; 
35 [label="FunctionCallBindAccess
(<http://www4.wiwiss.fu-berlin.de/bizer/bsbm/v01/instances/dataFromProducer{1}/Product{0}>)", color = yellow] ; 
30 -> 35 ; 
36 [label="FunctionCallBindAccess
AddConstant{1=(\"<http://www4.wiwiss.fu-berlin.de/bizer/bsbm/v01/instances/ProductType732>\")}", color = yellow] ; 
29 -> 36 ; 
38 [label="BindAccessEval", color = yellow] ; 
1 -> 38 ; 
39 [label="BindAccessEval", color = yellow] ; 
38 -> 39 ; 
40 [label="Project
[0, 1]", color = yellow] ; 
39 -> 40 ; 
41 [label="RightBindJoin 
[0, 1]
49", color = yellow] ; 
40 -> 41 ; 
42 [label="SQLQuery
SELECT P.nr, P.producer 
FROM PRODUCT AS P, PRODUCTTYPEPRODUCT AS PT  
WHERE PT.producttype = 743 AND PT.product = P.nr
183", color = yellow] ; 
41 -> 42 ; 
43 [label="PhyMongoDBEval
productfeatureproduct
[{ $match: {$expr: {$eq: [\"$label\", \"babka\"] } } },
{ \"$match\": { \"nr\": %s, \"producer\": %s } }]
[nr, producer]
49", color = yellow] ; 
41 -> 43 ; 
44 [label="FunctionCallBindAccess
(<http://www4.wiwiss.fu-berlin.de/bizer/bsbm/v01/instances/dataFromProducer{1}/Product{0}>)", color = yellow] ; 
39 -> 44 ; 
45 [label="FunctionCallBindAccess
AddConstant{1=(\"<http://www4.wiwiss.fu-berlin.de/bizer/bsbm/v01/instances/ProductType743>\")}", color = yellow] ; 
38 -> 45 ; 
47 [label="BindAccessEval", color = yellow] ; 
1 -> 47 ; 
48 [label="BindAccessEval", color = yellow] ; 
47 -> 48 ; 
49 [label="Project
[2, 3]", color = yellow] ; 
48 -> 49 ; 
50 [label="RightBindJoin 
[1, 0]
53", color = yellow] ; 
49 -> 50 ; 
51 [label="SQLQuery
SELECT P.nr, P.producer 
FROM PRODUCT AS P, PRODUCTTYPEPRODUCT AS PT  
WHERE PT.producttype = 741 AND PT.product = P.nr
198", color = yellow] ; 
50 -> 51 ; 
52 [label="PhyMongoDBEval
productfeatureproduct
[{ $match: {$expr: {$eq: [\"$label\", \"babka\"] } } },
{ \"$match\": { \"producer\": %s, \"nr\": %s } }]
[nr, producer]
53", color = yellow] ; 
50 -> 52 ; 
53 [label="FunctionCallBindAccess
(<http://www4.wiwiss.fu-berlin.de/bizer/bsbm/v01/instances/dataFromProducer{1}/Product{0}>)", color = yellow] ; 
48 -> 53 ; 
54 [label="FunctionCallBindAccess
AddConstant{1=(\"<http://www4.wiwiss.fu-berlin.de/bizer/bsbm/v01/instances/ProductType741>\")}", color = yellow] ; 
47 -> 54 ; 
56 [label="BindAccessEval", color = yellow] ; 
1 -> 56 ; 
57 [label="BindAccessEval", color = yellow] ; 
56 -> 57 ; 
58 [label="Project
[2, 3]", color = yellow] ; 
57 -> 58 ; 
59 [label="RightBindJoin 
[1, 0]
52", color = yellow] ; 
58 -> 59 ; 
60 [label="SQLQuery
SELECT P.nr, P.producer 
FROM PRODUCT AS P, PRODUCTTYPEPRODUCT AS PT  
WHERE PT.producttype = 738 AND PT.product = P.nr
225", color = yellow] ; 
59 -> 60 ; 
61 [label="PhyMongoDBEval
productfeatureproduct
[{ $match: {$expr: {$eq: [\"$label\", \"babka\"] } } },
{ \"$match\": { \"producer\": %s, \"nr\": %s } }]
[nr, producer]
52", color = yellow] ; 
59 -> 61 ; 
62 [label="FunctionCallBindAccess
(<http://www4.wiwiss.fu-berlin.de/bizer/bsbm/v01/instances/dataFromProducer{1}/Product{0}>)", color = yellow] ; 
57 -> 62 ; 
63 [label="FunctionCallBindAccess
AddConstant{1=(\"<http://www4.wiwiss.fu-berlin.de/bizer/bsbm/v01/instances/ProductType738>\")}", color = yellow] ; 
56 -> 63 ; 
65 [label="BindAccessEval", color = yellow] ; 
1 -> 65 ; 
66 [label="BindAccessEval", color = yellow] ; 
65 -> 66 ; 
67 [label="Project
[2, 3]", color = yellow] ; 
66 -> 67 ; 
68 [label="RightBindJoin 
[0, 1]
51", color = yellow] ; 
67 -> 68 ; 
69 [label="SQLQuery
SELECT P.nr, P.producer 
FROM PRODUCT AS P, PRODUCTTYPEPRODUCT AS PT  
WHERE PT.producttype = 736 AND PT.product = P.nr
200", color = yellow] ; 
68 -> 69 ; 
70 [label="PhyMongoDBEval
productfeatureproduct
[{ $match: {$expr: {$eq: [\"$label\", \"babka\"] } } },
{ \"$match\": { \"nr\": %s, \"producer\": %s } }]
[nr, producer]
51", color = yellow] ; 
68 -> 70 ; 
71 [label="FunctionCallBindAccess
(<http://www4.wiwiss.fu-berlin.de/bizer/bsbm/v01/instances/dataFromProducer{1}/Product{0}>)", color = yellow] ; 
66 -> 71 ; 
72 [label="FunctionCallBindAccess
AddConstant{1=(\"<http://www4.wiwiss.fu-berlin.de/bizer/bsbm/v01/instances/ProductType736>\")}", color = yellow] ; 
65 -> 72 ; 
74 [label="BindAccessEval", color = yellow] ; 
1 -> 74 ; 
75 [label="BindAccessEval", color = yellow] ; 
74 -> 75 ; 
76 [label="Project
[2, 3]", color = yellow] ; 
75 -> 76 ; 
77 [label="RightBindJoin 
[1, 0]
41", color = yellow] ; 
76 -> 77 ; 
78 [label="SQLQuery
SELECT P.nr, P.producer 
FROM PRODUCT AS P, PRODUCTTYPEPRODUCT AS PT  
WHERE PT.producttype = 745 AND PT.product = P.nr
194", color = yellow] ; 
77 -> 78 ; 
79 [label="PhyMongoDBEval
productfeatureproduct
[{ $match: {$expr: {$eq: [\"$label\", \"babka\"] } } },
{ \"$match\": { \"producer\": %s, \"nr\": %s } }]
[nr, producer]
41", color = yellow] ; 
77 -> 79 ; 
80 [label="FunctionCallBindAccess
(<http://www4.wiwiss.fu-berlin.de/bizer/bsbm/v01/instances/dataFromProducer{1}/Product{0}>)", color = yellow] ; 
75 -> 80 ; 
81 [label="FunctionCallBindAccess
AddConstant{1=(\"<http://www4.wiwiss.fu-berlin.de/bizer/bsbm/v01/instances/ProductType98>\")}", color = yellow] ; 
74 -> 81 ; 
83 [label="BindAccessEval", color = yellow] ; 
1 -> 83 ; 
84 [label="BindAccessEval", color = yellow] ; 
83 -> 84 ; 
85 [label="Project
[0, 1]", color = yellow] ; 
84 -> 85 ; 
86 [label="RightBindJoin 
[0, 1]
45", color = yellow] ; 
85 -> 86 ; 
87 [label="SQLQuery
SELECT P.nr, P.producer 
FROM PRODUCT AS P, PRODUCTTYPEPRODUCT AS PT  
WHERE PT.producttype = 744 AND PT.product = P.nr
178", color = yellow] ; 
86 -> 87 ; 
88 [label="PhyMongoDBEval
productfeatureproduct
[{ $match: {$expr: {$eq: [\"$label\", \"babka\"] } } },
{ \"$match\": { \"nr\": %s, \"producer\": %s } }]
[nr, producer]
45", color = yellow] ; 
86 -> 88 ; 
89 [label="FunctionCallBindAccess
(<http://www4.wiwiss.fu-berlin.de/bizer/bsbm/v01/instances/dataFromProducer{1}/Product{0}>)", color = yellow] ; 
84 -> 89 ; 
90 [label="FunctionCallBindAccess
AddConstant{1=(\"<http://www4.wiwiss.fu-berlin.de/bizer/bsbm/v01/instances/ProductType98>\")}", color = yellow] ; 
83 -> 90 ; 
92 [label="BindAccessEval", color = yellow] ; 
1 -> 92 ; 
93 [label="BindAccessEval", color = yellow] ; 
92 -> 93 ; 
94 [label="Project
[2, 3]", color = yellow] ; 
93 -> 94 ; 
95 [label="RightBindJoin 
[1, 0]
39", color = yellow] ; 
94 -> 95 ; 
96 [label="SQLQuery
SELECT P.nr, P.producer 
FROM PRODUCT AS P, PRODUCTTYPEPRODUCT AS PT  
WHERE PT.producttype = 733 AND PT.product = P.nr
195", color = yellow] ; 
95 -> 96 ; 
97 [label="PhyMongoDBEval
productfeatureproduct
[{ $match: {$expr: {$eq: [\"$label\", \"babka\"] } } },
{ \"$match\": { \"producer\": %s, \"nr\": %s } }]
[nr, producer]
39", color = yellow] ; 
95 -> 97 ; 
98 [label="FunctionCallBindAccess
(<http://www4.wiwiss.fu-berlin.de/bizer/bsbm/v01/instances/dataFromProducer{1}/Product{0}>)", color = yellow] ; 
93 -> 98 ; 
99 [label="FunctionCallBindAccess
AddConstant{1=(\"<http://www4.wiwiss.fu-berlin.de/bizer/bsbm/v01/instances/ProductType92>\")}", color = yellow] ; 
92 -> 99 ; 
101 [label="BindAccessEval", color = yellow] ; 
1 -> 101 ; 
102 [label="BindAccessEval", color = yellow] ; 
101 -> 102 ; 
103 [label="Project
[0, 1]", color = yellow] ; 
102 -> 103 ; 
104 [label="RightBindJoin 
[0, 1]
58", color = yellow] ; 
103 -> 104 ; 
105 [label="SQLQuery
SELECT P.nr, P.producer 
FROM PRODUCT AS P, PRODUCTTYPEPRODUCT AS PT  
WHERE PT.producttype = 732 AND PT.product = P.nr
208", color = yellow] ; 
104 -> 105 ; 
106 [label="PhyMongoDBEval
productfeatureproduct
[{ $match: {$expr: {$eq: [\"$label\", \"babka\"] } } },
{ \"$match\": { \"nr\": %s, \"producer\": %s } }]
[nr, producer]
58", color = yellow] ; 
104 -> 106 ; 
107 [label="FunctionCallBindAccess
(<http://www4.wiwiss.fu-berlin.de/bizer/bsbm/v01/instances/dataFromProducer{1}/Product{0}>)", color = yellow] ; 
102 -> 107 ; 
108 [label="FunctionCallBindAccess
AddConstant{1=(\"<http://www4.wiwiss.fu-berlin.de/bizer/bsbm/v01/instances/ProductType92>\")}", color = yellow] ; 
101 -> 108 ; 
110 [label="BindAccessEval", color = yellow] ; 
1 -> 110 ; 
111 [label="BindAccessEval", color = yellow] ; 
110 -> 111 ; 
112 [label="Project
[0, 1]", color = yellow] ; 
111 -> 112 ; 
113 [label="RightBindJoin 
[1, 0]
48", color = yellow] ; 
112 -> 113 ; 
114 [label="SQLQuery
SELECT P.nr, P.producer 
FROM PRODUCT AS P, PRODUCTTYPEPRODUCT AS PT  
WHERE PT.producttype = 740 AND PT.product = P.nr
186", color = yellow] ; 
113 -> 114 ; 
115 [label="PhyMongoDBEval
productfeatureproduct
[{ $match: {$expr: {$eq: [\"$label\", \"babka\"] } } },
{ \"$match\": { \"producer\": %s, \"nr\": %s } }]
[nr, producer]
48", color = yellow] ; 
113 -> 115 ; 
116 [label="FunctionCallBindAccess
(<http://www4.wiwiss.fu-berlin.de/bizer/bsbm/v01/instances/dataFromProducer{1}/Product{0}>)", color = yellow] ; 
111 -> 116 ; 
117 [label="FunctionCallBindAccess
AddConstant{1=(\"<http://www4.wiwiss.fu-berlin.de/bizer/bsbm/v01/instances/ProductType96>\")}", color = yellow] ; 
110 -> 117 ; 
119 [label="BindAccessEval", color = yellow] ; 
1 -> 119 ; 
120 [label="BindAccessEval", color = yellow] ; 
119 -> 120 ; 
121 [label="Project
[0, 1]", color = yellow] ; 
120 -> 121 ; 
122 [label="RightBindJoin 
[1, 0]
53", color = yellow] ; 
121 -> 122 ; 
123 [label="SQLQuery
SELECT P.nr, P.producer 
FROM PRODUCT AS P, PRODUCTTYPEPRODUCT AS PT  
WHERE PT.producttype = 741 AND PT.product = P.nr
198", color = yellow] ; 
122 -> 123 ; 
124 [label="PhyMongoDBEval
productfeatureproduct
[{ $match: {$expr: {$eq: [\"$label\", \"babka\"] } } },
{ \"$match\": { \"producer\": %s, \"nr\": %s } }]
[nr, producer]
53", color = yellow] ; 
122 -> 124 ; 
125 [label="FunctionCallBindAccess
(<http://www4.wiwiss.fu-berlin.de/bizer/bsbm/v01/instances/dataFromProducer{1}/Product{0}>)", color = yellow] ; 
120 -> 125 ; 
126 [label="FunctionCallBindAccess
AddConstant{1=(\"<http://www4.wiwiss.fu-berlin.de/bizer/bsbm/v01/instances/ProductType96>\")}", color = yellow] ; 
119 -> 126 ; 
128 [label="BindAccessEval", color = yellow] ; 
1 -> 128 ; 
129 [label="BindAccessEval", color = yellow] ; 
128 -> 129 ; 
130 [label="Project
[2, 3]", color = yellow] ; 
129 -> 130 ; 
131 [label="RightBindJoin 
[0, 1]
51", color = yellow] ; 
130 -> 131 ; 
132 [label="SQLQuery
SELECT P.nr, P.producer 
FROM PRODUCT AS P, PRODUCTTYPEPRODUCT AS PT  
WHERE PT.producttype = 736 AND PT.product = P.nr
200", color = yellow] ; 
131 -> 132 ; 
133 [label="PhyMongoDBEval
productfeatureproduct
[{ $match: {$expr: {$eq: [\"$label\", \"babka\"] } } },
{ \"$match\": { \"nr\": %s, \"producer\": %s } }]
[nr, producer]
51", color = yellow] ; 
131 -> 133 ; 
134 [label="FunctionCallBindAccess
(<http://www4.wiwiss.fu-berlin.de/bizer/bsbm/v01/instances/dataFromProducer{1}/Product{0}>)", color = yellow] ; 
129 -> 134 ; 
135 [label="FunctionCallBindAccess
AddConstant{1=(\"<http://www4.wiwiss.fu-berlin.de/bizer/bsbm/v01/instances/ProductType94>\")}", color = yellow] ; 
128 -> 135 ; 
137 [label="BindAccessEval", color = yellow] ; 
1 -> 137 ; 
138 [label="BindAccessEval", color = yellow] ; 
137 -> 138 ; 
139 [label="Project
[0, 1]", color = yellow] ; 
138 -> 139 ; 
140 [label="RightBindJoin 
[1, 0]
42", color = yellow] ; 
139 -> 140 ; 
141 [label="SQLQuery
SELECT P.nr, P.producer 
FROM PRODUCT AS P, PRODUCTTYPEPRODUCT AS PT  
WHERE PT.producttype = 737 AND PT.product = P.nr
192", color = yellow] ; 
140 -> 141 ; 
142 [label="PhyMongoDBEval
productfeatureproduct
[{ $match: {$expr: {$eq: [\"$label\", \"babka\"] } } },
{ \"$match\": { \"producer\": %s, \"nr\": %s } }]
[nr, producer]
42", color = yellow] ; 
140 -> 142 ; 
143 [label="FunctionCallBindAccess
(<http://www4.wiwiss.fu-berlin.de/bizer/bsbm/v01/instances/dataFromProducer{1}/Product{0}>)", color = yellow] ; 
138 -> 143 ; 
144 [label="FunctionCallBindAccess
AddConstant{1=(\"<http://www4.wiwiss.fu-berlin.de/bizer/bsbm/v01/instances/ProductType94>\")}", color = yellow] ; 
137 -> 144 ; 
146 [label="BindAccessEval", color = yellow] ; 
1 -> 146 ; 
147 [label="BindAccessEval", color = yellow] ; 
146 -> 147 ; 
148 [label="Project
[0, 1]", color = yellow] ; 
147 -> 148 ; 
149 [label="RightBindJoin 
[1, 0]
53", color = yellow] ; 
148 -> 149 ; 
150 [label="SQLQuery
SELECT P.nr, P.producer 
FROM PRODUCT AS P, PRODUCTTYPEPRODUCT AS PT  
WHERE PT.producttype = 746 AND PT.product = P.nr
185", color = yellow] ; 
149 -> 150 ; 
151 [label="PhyMongoDBEval
productfeatureproduct
[{ $match: {$expr: {$eq: [\"$label\", \"babka\"] } } },
{ \"$match\": { \"producer\": %s, \"nr\": %s } }]
[nr, producer]
53", color = yellow] ; 
149 -> 151 ; 
152 [label="FunctionCallBindAccess
(<http://www4.wiwiss.fu-berlin.de/bizer/bsbm/v01/instances/dataFromProducer{1}/Product{0}>)", color = yellow] ; 
147 -> 152 ; 
153 [label="FunctionCallBindAccess
AddConstant{1=(\"<http://www4.wiwiss.fu-berlin.de/bizer/bsbm/v01/instances/ProductType746>\")}", color = yellow] ; 
146 -> 153 ; 
155 [label="BindAccessEval", color = yellow] ; 
1 -> 155 ; 
156 [label="BindAccessEval", color = yellow] ; 
155 -> 156 ; 
157 [label="Project
[2, 3]", color = yellow] ; 
156 -> 157 ; 
158 [label="RightBindJoin 
[1, 0]
45", color = yellow] ; 
157 -> 158 ; 
159 [label="SQLQuery
SELECT P.nr, P.producer 
FROM PRODUCT AS P, PRODUCTTYPEPRODUCT AS PT  
WHERE PT.producttype = 744 AND PT.product = P.nr
178", color = yellow] ; 
158 -> 159 ; 
160 [label="PhyMongoDBEval
productfeatureproduct
[{ $match: {$expr: {$eq: [\"$label\", \"babka\"] } } },
{ \"$match\": { \"producer\": %s, \"nr\": %s } }]
[nr, producer]
45", color = yellow] ; 
158 -> 160 ; 
161 [label="FunctionCallBindAccess
(<http://www4.wiwiss.fu-berlin.de/bizer/bsbm/v01/instances/dataFromProducer{1}/Product{0}>)", color = yellow] ; 
156 -> 161 ; 
162 [label="FunctionCallBindAccess
AddConstant{1=(\"<http://www4.wiwiss.fu-berlin.de/bizer/bsbm/v01/instances/ProductType744>\")}", color = yellow] ; 
155 -> 162 ; 
164 [label="BindAccessEval", color = yellow] ; 
1 -> 164 ; 
165 [label="BindAccessEval", color = yellow] ; 
164 -> 165 ; 
166 [label="Project
[2, 3]", color = yellow] ; 
165 -> 166 ; 
167 [label="RightBindJoin 
[1, 0]
50", color = yellow] ; 
166 -> 167 ; 
168 [label="SQLQuery
SELECT P.nr, P.producer 
FROM PRODUCT AS P, PRODUCTTYPEPRODUCT AS PT  
WHERE PT.producttype = 735 AND PT.product = P.nr
203", color = yellow] ; 
167 -> 168 ; 
169 [label="PhyMongoDBEval
productfeatureproduct
[{ $match: {$expr: {$eq: [\"$label\", \"babka\"] } } },
{ \"$match\": { \"producer\": %s, \"nr\": %s } }]
[nr, producer]
50", color = yellow] ; 
167 -> 169 ; 
170 [label="FunctionCallBindAccess
(<http://www4.wiwiss.fu-berlin.de/bizer/bsbm/v01/instances/dataFromProducer{1}/Product{0}>)", color = yellow] ; 
165 -> 170 ; 
171 [label="FunctionCallBindAccess
AddConstant{1=(\"<http://www4.wiwiss.fu-berlin.de/bizer/bsbm/v01/instances/ProductType735>\")}", color = yellow] ; 
164 -> 171 ; 
173 [label="BindAccessEval", color = yellow] ; 
1 -> 173 ; 
174 [label="BindAccessEval", color = yellow] ; 
173 -> 174 ; 
175 [label="Project
[0, 1]", color = yellow] ; 
174 -> 175 ; 
176 [label="RightBindJoin 
[0, 1]
39", color = yellow] ; 
175 -> 176 ; 
177 [label="SQLQuery
SELECT P.nr, P.producer 
FROM PRODUCT AS P, PRODUCTTYPEPRODUCT AS PT  
WHERE PT.producttype = 733 AND PT.product = P.nr
195", color = yellow] ; 
176 -> 177 ; 
178 [label="PhyMongoDBEval
productfeatureproduct
[{ $match: {$expr: {$eq: [\"$label\", \"babka\"] } } },
{ \"$match\": { \"nr\": %s, \"producer\": %s } }]
[nr, producer]
39", color = yellow] ; 
176 -> 178 ; 
179 [label="FunctionCallBindAccess
(<http://www4.wiwiss.fu-berlin.de/bizer/bsbm/v01/instances/dataFromProducer{1}/Product{0}>)", color = yellow] ; 
174 -> 179 ; 
180 [label="FunctionCallBindAccess
AddConstant{1=(\"<http://www4.wiwiss.fu-berlin.de/bizer/bsbm/v01/instances/ProductType733>\")}", color = yellow] ; 
173 -> 180 ; 
182 [label="BindAccessEval", color = yellow] ; 
1 -> 182 ; 
183 [label="BindAccessEval", color = yellow] ; 
182 -> 183 ; 
184 [label="Project
[0, 1]", color = yellow] ; 
183 -> 184 ; 
185 [label="RightBindJoin 
[1, 0]
47", color = yellow] ; 
184 -> 185 ; 
186 [label="SQLQuery
SELECT P.nr, P.producer 
FROM PRODUCT AS P, PRODUCTTYPEPRODUCT AS PT  
WHERE PT.producttype = 742 AND PT.product = P.nr
187", color = yellow] ; 
185 -> 186 ; 
187 [label="PhyMongoDBEval
productfeatureproduct
[{ $match: {$expr: {$eq: [\"$label\", \"babka\"] } } },
{ \"$match\": { \"producer\": %s, \"nr\": %s } }]
[nr, producer]
47", color = yellow] ; 
185 -> 187 ; 
188 [label="FunctionCallBindAccess
(<http://www4.wiwiss.fu-berlin.de/bizer/bsbm/v01/instances/dataFromProducer{1}/Product{0}>)", color = yellow] ; 
183 -> 188 ; 
189 [label="FunctionCallBindAccess
AddConstant{1=(\"<http://www4.wiwiss.fu-berlin.de/bizer/bsbm/v01/instances/ProductType742>\")}", color = yellow] ; 
182 -> 189 ; 
191 [label="BindAccessEval", color = yellow] ; 
1 -> 191 ; 
192 [label="BindAccessEval", color = yellow] ; 
191 -> 192 ; 
193 [label="Project
[2, 3]", color = yellow] ; 
192 -> 193 ; 
194 [label="RightBindJoin 
[1, 0]
48", color = yellow] ; 
193 -> 194 ; 
195 [label="SQLQuery
SELECT P.nr, P.producer 
FROM PRODUCT AS P, PRODUCTTYPEPRODUCT AS PT  
WHERE PT.producttype = 740 AND PT.product = P.nr
186", color = yellow] ; 
194 -> 195 ; 
196 [label="PhyMongoDBEval
productfeatureproduct
[{ $match: {$expr: {$eq: [\"$label\", \"babka\"] } } },
{ \"$match\": { \"producer\": %s, \"nr\": %s } }]
[nr, producer]
48", color = yellow] ; 
194 -> 196 ; 
197 [label="FunctionCallBindAccess
(<http://www4.wiwiss.fu-berlin.de/bizer/bsbm/v01/instances/dataFromProducer{1}/Product{0}>)", color = yellow] ; 
192 -> 197 ; 
198 [label="FunctionCallBindAccess
AddConstant{1=(\"<http://www4.wiwiss.fu-berlin.de/bizer/bsbm/v01/instances/ProductType740>\")}", color = yellow] ; 
191 -> 198 ; 
200 [label="BindAccessEval", color = yellow] ; 
1 -> 200 ; 
201 [label="BindAccessEval", color = yellow] ; 
200 -> 201 ; 
202 [label="Project
[2, 3]", color = yellow] ; 
201 -> 202 ; 
203 [label="RightBindJoin 
[1, 0]
41", color = yellow] ; 
202 -> 203 ; 
204 [label="SQLQuery
SELECT P.nr, P.producer 
FROM PRODUCT AS P, PRODUCTTYPEPRODUCT AS PT  
WHERE PT.producttype = 739 AND PT.product = P.nr
184", color = yellow] ; 
203 -> 204 ; 
205 [label="PhyMongoDBEval
productfeatureproduct
[{ $match: {$expr: {$eq: [\"$label\", \"babka\"] } } },
{ \"$match\": { \"producer\": %s, \"nr\": %s } }]
[nr, producer]
41", color = yellow] ; 
203 -> 205 ; 
206 [label="FunctionCallBindAccess
(<http://www4.wiwiss.fu-berlin.de/bizer/bsbm/v01/instances/dataFromProducer{1}/Product{0}>)", color = yellow] ; 
201 -> 206 ; 
207 [label="FunctionCallBindAccess
AddConstant{1=(\"<http://www4.wiwiss.fu-berlin.de/bizer/bsbm/v01/instances/ProductType739>\")}", color = yellow] ; 
200 -> 207 ; 
209 [label="BindAccessEval", color = yellow] ; 
1 -> 209 ; 
210 [label="BindAccessEval", color = yellow] ; 
209 -> 210 ; 
211 [label="Project
[2, 3]", color = yellow] ; 
210 -> 211 ; 
212 [label="RightBindJoin 
[1, 0]
42", color = yellow] ; 
211 -> 212 ; 
213 [label="SQLQuery
SELECT P.nr, P.producer 
FROM PRODUCT AS P, PRODUCTTYPEPRODUCT AS PT  
WHERE PT.producttype = 737 AND PT.product = P.nr
192", color = yellow] ; 
212 -> 213 ; 
214 [label="PhyMongoDBEval
productfeatureproduct
[{ $match: {$expr: {$eq: [\"$label\", \"babka\"] } } },
{ \"$match\": { \"producer\": %s, \"nr\": %s } }]
[nr, producer]
42", color = yellow] ; 
212 -> 214 ; 
215 [label="FunctionCallBindAccess
(<http://www4.wiwiss.fu-berlin.de/bizer/bsbm/v01/instances/dataFromProducer{1}/Product{0}>)", color = yellow] ; 
210 -> 215 ; 
216 [label="FunctionCallBindAccess
AddConstant{1=(\"<http://www4.wiwiss.fu-berlin.de/bizer/bsbm/v01/instances/ProductType737>\")}", color = yellow] ; 
209 -> 216 ; 
218 [label="BindAccessEval", color = yellow] ; 
1 -> 218 ; 
219 [label="BindAccessEval", color = yellow] ; 
218 -> 219 ; 
220 [label="Project
[2, 3]", color = yellow] ; 
219 -> 220 ; 
221 [label="RightBindJoin 
[1, 0]
53", color = yellow] ; 
220 -> 221 ; 
222 [label="SQLQuery
SELECT P.nr, P.producer 
FROM PRODUCT AS P, PRODUCTTYPEPRODUCT AS PT  
WHERE PT.producttype = 746 AND PT.product = P.nr
185", color = yellow] ; 
221 -> 222 ; 
223 [label="PhyMongoDBEval
productfeatureproduct
[{ $match: {$expr: {$eq: [\"$label\", \"babka\"] } } },
{ \"$match\": { \"producer\": %s, \"nr\": %s } }]
[nr, producer]
53", color = yellow] ; 
221 -> 223 ; 
224 [label="FunctionCallBindAccess
(<http://www4.wiwiss.fu-berlin.de/bizer/bsbm/v01/instances/dataFromProducer{1}/Product{0}>)", color = yellow] ; 
219 -> 224 ; 
225 [label="FunctionCallBindAccess
AddConstant{1=(\"<http://www4.wiwiss.fu-berlin.de/bizer/bsbm/v01/instances/ProductType99>\")}", color = yellow] ; 
218 -> 225 ; 
227 [label="BindAccessEval", color = yellow] ; 
1 -> 227 ; 
228 [label="BindAccessEval", color = yellow] ; 
227 -> 228 ; 
229 [label="Project
[0, 1]", color = yellow] ; 
228 -> 229 ; 
230 [label="RightBindJoin 
[1, 0]
49", color = yellow] ; 
229 -> 230 ; 
231 [label="SQLQuery
SELECT P.nr, P.producer 
FROM PRODUCT AS P, PRODUCTTYPEPRODUCT AS PT  
WHERE PT.producttype = 747 AND PT.product = P.nr
211", color = yellow] ; 
230 -> 231 ; 
232 [label="PhyMongoDBEval
productfeatureproduct
[{ $match: {$expr: {$eq: [\"$label\", \"babka\"] } } },
{ \"$match\": { \"producer\": %s, \"nr\": %s } }]
[nr, producer]
49", color = yellow] ; 
230 -> 232 ; 
233 [label="FunctionCallBindAccess
(<http://www4.wiwiss.fu-berlin.de/bizer/bsbm/v01/instances/dataFromProducer{1}/Product{0}>)", color = yellow] ; 
228 -> 233 ; 
234 [label="FunctionCallBindAccess
AddConstant{1=(\"<http://www4.wiwiss.fu-berlin.de/bizer/bsbm/v01/instances/ProductType99>\")}", color = yellow] ; 
227 -> 234 ; 
236 [label="BindAccessEval", color = yellow] ; 
1 -> 236 ; 
237 [label="BindAccessEval", color = yellow] ; 
236 -> 237 ; 
238 [label="Project
[0, 1]", color = yellow] ; 
237 -> 238 ; 
239 [label="RightBindJoin 
[1, 0]
46", color = yellow] ; 
238 -> 239 ; 
240 [label="SQLQuery
SELECT P.nr, P.producer 
FROM PRODUCT AS P, PRODUCTTYPEPRODUCT AS PT  
WHERE PT.producttype = 734 AND PT.product = P.nr
185", color = yellow] ; 
239 -> 240 ; 
241 [label="PhyMongoDBEval
productfeatureproduct
[{ $match: {$expr: {$eq: [\"$label\", \"babka\"] } } },
{ \"$match\": { \"producer\": %s, \"nr\": %s } }]
[nr, producer]
46", color = yellow] ; 
239 -> 241 ; 
242 [label="FunctionCallBindAccess
(<http://www4.wiwiss.fu-berlin.de/bizer/bsbm/v01/instances/dataFromProducer{1}/Product{0}>)", color = yellow] ; 
237 -> 242 ; 
243 [label="FunctionCallBindAccess
AddConstant{1=(\"<http://www4.wiwiss.fu-berlin.de/bizer/bsbm/v01/instances/ProductType93>\")}", color = yellow] ; 
236 -> 243 ; 
245 [label="BindAccessEval", color = yellow] ; 
1 -> 245 ; 
246 [label="BindAccessEval", color = yellow] ; 
245 -> 246 ; 
247 [label="Project
[0, 1]", color = yellow] ; 
246 -> 247 ; 
248 [label="RightBindJoin 
[0, 1]
50", color = yellow] ; 
247 -> 248 ; 
249 [label="SQLQuery
SELECT P.nr, P.producer 
FROM PRODUCT AS P, PRODUCTTYPEPRODUCT AS PT  
WHERE PT.producttype = 735 AND PT.product = P.nr
203", color = yellow] ; 
248 -> 249 ; 
250 [label="PhyMongoDBEval
productfeatureproduct
[{ $match: {$expr: {$eq: [\"$label\", \"babka\"] } } },
{ \"$match\": { \"nr\": %s, \"producer\": %s } }]
[nr, producer]
50", color = yellow] ; 
248 -> 250 ; 
251 [label="FunctionCallBindAccess
(<http://www4.wiwiss.fu-berlin.de/bizer/bsbm/v01/instances/dataFromProducer{1}/Product{0}>)", color = yellow] ; 
246 -> 251 ; 
252 [label="FunctionCallBindAccess
AddConstant{1=(\"<http://www4.wiwiss.fu-berlin.de/bizer/bsbm/v01/instances/ProductType93>\")}", color = yellow] ; 
245 -> 252 ; 
254 [label="BindAccessEval", color = yellow] ; 
1 -> 254 ; 
255 [label="BindAccessEval", color = yellow] ; 
254 -> 255 ; 
256 [label="Project
[0, 1]", color = yellow] ; 
255 -> 256 ; 
257 [label="RightBindJoin 
[1, 0]
47", color = yellow] ; 
256 -> 257 ; 
258 [label="SQLQuery
SELECT P.nr, P.producer 
FROM PRODUCT AS P, PRODUCTTYPEPRODUCT AS PT  
WHERE PT.producttype = 742 AND PT.product = P.nr
187", color = yellow] ; 
257 -> 258 ; 
259 [label="PhyMongoDBEval
productfeatureproduct
[{ $match: {$expr: {$eq: [\"$label\", \"babka\"] } } },
{ \"$match\": { \"producer\": %s, \"nr\": %s } }]
[nr, producer]
47", color = yellow] ; 
257 -> 259 ; 
260 [label="FunctionCallBindAccess
(<http://www4.wiwiss.fu-berlin.de/bizer/bsbm/v01/instances/dataFromProducer{1}/Product{0}>)", color = yellow] ; 
255 -> 260 ; 
261 [label="FunctionCallBindAccess
AddConstant{1=(\"<http://www4.wiwiss.fu-berlin.de/bizer/bsbm/v01/instances/ProductType97>\")}", color = yellow] ; 
254 -> 261 ; 
263 [label="BindAccessEval", color = yellow] ; 
1 -> 263 ; 
264 [label="BindAccessEval", color = yellow] ; 
263 -> 264 ; 
265 [label="Project
[2, 3]", color = yellow] ; 
264 -> 265 ; 
266 [label="RightBindJoin 
[0, 1]
49", color = yellow] ; 
265 -> 266 ; 
267 [label="SQLQuery
SELECT P.nr, P.producer 
FROM PRODUCT AS P, PRODUCTTYPEPRODUCT AS PT  
WHERE PT.producttype = 743 AND PT.product = P.nr
183", color = yellow] ; 
266 -> 267 ; 
268 [label="PhyMongoDBEval
productfeatureproduct
[{ $match: {$expr: {$eq: [\"$label\", \"babka\"] } } },
{ \"$match\": { \"nr\": %s, \"producer\": %s } }]
[nr, producer]
49", color = yellow] ; 
266 -> 268 ; 
269 [label="FunctionCallBindAccess
(<http://www4.wiwiss.fu-berlin.de/bizer/bsbm/v01/instances/dataFromProducer{1}/Product{0}>)", color = yellow] ; 
264 -> 269 ; 
270 [label="FunctionCallBindAccess
AddConstant{1=(\"<http://www4.wiwiss.fu-berlin.de/bizer/bsbm/v01/instances/ProductType97>\")}", color = yellow] ; 
263 -> 270 ; 
272 [label="BindAccessEval", color = yellow] ; 
1 -> 272 ; 
273 [label="BindAccessEval", color = yellow] ; 
272 -> 273 ; 
274 [label="Project
[2, 3]", color = yellow] ; 
273 -> 274 ; 
275 [label="RightBindJoin 
[1, 0]
41", color = yellow] ; 
274 -> 275 ; 
276 [label="SQLQuery
SELECT P.nr, P.producer 
FROM PRODUCT AS P, PRODUCTTYPEPRODUCT AS PT  
WHERE PT.producttype = 739 AND PT.product = P.nr
184", color = yellow] ; 
275 -> 276 ; 
277 [label="PhyMongoDBEval
productfeatureproduct
[{ $match: {$expr: {$eq: [\"$label\", \"babka\"] } } },
{ \"$match\": { \"producer\": %s, \"nr\": %s } }]
[nr, producer]
41", color = yellow] ; 
275 -> 277 ; 
278 [label="FunctionCallBindAccess
(<http://www4.wiwiss.fu-berlin.de/bizer/bsbm/v01/instances/dataFromProducer{1}/Product{0}>)", color = yellow] ; 
273 -> 278 ; 
279 [label="FunctionCallBindAccess
AddConstant{1=(\"<http://www4.wiwiss.fu-berlin.de/bizer/bsbm/v01/instances/ProductType95>\")}", color = yellow] ; 
272 -> 279 ; 
281 [label="BindAccessEval", color = yellow] ; 
1 -> 281 ; 
282 [label="BindAccessEval", color = yellow] ; 
281 -> 282 ; 
283 [label="Project
[0, 1]", color = yellow] ; 
282 -> 283 ; 
284 [label="RightBindJoin 
[0, 1]
52", color = yellow] ; 
283 -> 284 ; 
285 [label="SQLQuery
SELECT P.nr, P.producer 
FROM PRODUCT AS P, PRODUCTTYPEPRODUCT AS PT  
WHERE PT.producttype = 738 AND PT.product = P.nr
225", color = yellow] ; 
284 -> 285 ; 
286 [label="PhyMongoDBEval
productfeatureproduct
[{ $match: {$expr: {$eq: [\"$label\", \"babka\"] } } },
{ \"$match\": { \"nr\": %s, \"producer\": %s } }]
[nr, producer]
52", color = yellow] ; 
284 -> 286 ; 
287 [label="FunctionCallBindAccess
(<http://www4.wiwiss.fu-berlin.de/bizer/bsbm/v01/instances/dataFromProducer{1}/Product{0}>)", color = yellow] ; 
282 -> 287 ; 
288 [label="FunctionCallBindAccess
AddConstant{1=(\"<http://www4.wiwiss.fu-berlin.de/bizer/bsbm/v01/instances/ProductType95>\")}", color = yellow] ; 
281 -> 288 ; 
}
