digraph  g{ graph[label = "19:1:12.717"]
node [shape=rectangle, color=black, fontcolor=black, style=bold] edge [color=black] 0 [label="BindAccessEval", color = yellow] ; 
1 [label="HashDistinct", color = yellow] ; 
0 -> 1 ; 
2 [label="Union", color = yellow] ; 
1 -> 2 ; 
3 [label="SQLQuery
SELECT tab_757.label, tab_759.propertyNum1, tab_756.country 
FROM Product AS tab_757, CountryType AS tab_760, Producer AS tab_756, Product AS tab_755, Product AS tab_759, PRODUCTTYPEPRODUCT AS tab_754, PRODUCT AS tab_758   
WHERE tab_754.producttype = 110 AND tab_754.product = tab_758.nr AND tab_757.producer = tab_758.producer AND tab_757.nr = tab_758.nr AND tab_755.producer = tab_756.nr AND tab_757.producer = tab_755.producer AND tab_757.nr = tab_755.nr AND tab_757.producer = tab_759.producer AND tab_757.nr = tab_759.nr AND tab_760.countryType = 122 AND tab_756.country = tab_760.country", color = yellow] ; 
2 -> 3 ; 
5 [label="SQLQuery
SELECT tab_712.label, tab_716.propertyNum2, tab_715.country 
FROM Product AS tab_713, Product AS tab_712, Product AS tab_716, PRODUCTTYPEPRODUCT AS tab_711, PRODUCT AS tab_714, Producer AS tab_715, CountryType AS tab_717   
WHERE tab_711.producttype = 110 AND tab_711.product = tab_714.nr AND tab_712.producer = tab_714.producer AND tab_712.nr = tab_714.nr AND tab_713.producer = tab_715.nr AND tab_712.producer = tab_713.producer AND tab_712.nr = tab_713.nr AND tab_712.producer = tab_716.producer AND tab_712.nr = tab_716.nr AND tab_717.countryType = 122 AND tab_715.country = tab_717.country", color = yellow] ; 
2 -> 5 ; 
7 [label="SQLQuery
SELECT tab_833.label, tab_837.propertyNum1, tab_835.country 
FROM Product AS tab_834, Product AS tab_833, Product AS tab_837, Producer AS tab_835, PRODUCTTYPEPRODUCT AS tab_836, CountryType AS tab_838, PRODUCT AS tab_832   
WHERE tab_834.producer = tab_835.nr AND tab_833.producer = tab_834.producer AND tab_833.nr = tab_834.nr AND tab_833.producer = tab_837.producer AND tab_833.nr = tab_837.nr AND tab_836.producttype = 110 AND tab_836.product = tab_832.nr AND tab_833.producer = tab_832.producer AND tab_833.nr = tab_832.nr AND tab_838.countryType = 111 AND tab_835.country = tab_838.country", color = yellow] ; 
2 -> 7 ; 
9 [label="SQLQuery
SELECT tab_773.label, tab_778.propertyNum2, tab_775.country 
FROM Product AS tab_778, Producer AS tab_775, PRODUCTTYPEPRODUCT AS tab_776, CountryType AS tab_779, Product AS tab_774, Product AS tab_773, PRODUCT AS tab_777   
WHERE tab_778.producer = tab_773.producer AND tab_778.nr = tab_773.nr AND tab_774.producer = tab_775.nr AND tab_778.producer = tab_774.producer AND tab_778.nr = tab_774.nr AND tab_776.producttype = 110 AND tab_776.product = tab_777.nr AND tab_778.producer = tab_777.producer AND tab_778.nr = tab_777.nr AND tab_779.countryType = 111 AND tab_775.country = tab_779.country", color = yellow] ; 
2 -> 9 ; 
11 [label="SQLQuery
SELECT tab_794.label, tab_793.propertyNum2, tab_797.country 
FROM PRODUCT AS tab_792, PRODUCTTYPEPRODUCT AS tab_796, CountryType AS tab_798, Producer AS tab_797, Product AS tab_794, Product AS tab_793, Product AS tab_795   
WHERE tab_794.producer = tab_793.producer AND tab_794.nr = tab_793.nr AND tab_796.producttype = 110 AND tab_796.product = tab_792.nr AND tab_794.producer = tab_792.producer AND tab_794.nr = tab_792.nr AND tab_795.producer = tab_797.nr AND tab_794.producer = tab_795.producer AND tab_794.nr = tab_795.nr AND tab_798.countryType = 112 AND tab_797.country = tab_798.country", color = yellow] ; 
2 -> 11 ; 
13 [label="SQLQuery
SELECT tab_734.label, tab_737.propertyNum1, tab_738.country 
FROM Product AS tab_735, Product AS tab_734, Product AS tab_737, PRODUCTTYPEPRODUCT AS tab_736, CountryType AS tab_739, Producer AS tab_738, PRODUCT AS tab_733   
WHERE tab_736.producttype = 110 AND tab_736.product = tab_733.nr AND tab_735.producer = tab_738.nr AND tab_733.producer = tab_735.producer AND tab_733.nr = tab_735.nr AND tab_733.producer = tab_734.producer AND tab_733.nr = tab_734.nr AND tab_733.producer = tab_737.producer AND tab_733.nr = tab_737.nr AND tab_739.countryType = 121 AND tab_738.country = tab_739.country", color = yellow] ; 
2 -> 13 ; 
15 [label="SQLQuery
SELECT tab_815.label, tab_818.propertyNum1, tab_812.country 
FROM Product AS tab_813, Product AS tab_815, PRODUCT AS tab_817, CountryType AS tab_812, Product AS tab_818, PRODUCTTYPEPRODUCT AS tab_814, Producer AS tab_816   
WHERE tab_812.countryType = 112 AND tab_813.producer = tab_816.nr AND tab_812.country = tab_816.country AND tab_813.producer = tab_815.producer AND tab_813.nr = tab_815.nr AND tab_814.producttype = 110 AND tab_814.product = tab_817.nr AND tab_813.producer = tab_817.producer AND tab_813.nr = tab_817.nr AND tab_813.producer = tab_818.producer AND tab_813.nr = tab_818.nr", color = yellow] ; 
2 -> 15 ; 
17 [label="SQLQuery
SELECT tab_695.label, tab_691.propertyNum2, tab_692.country 
FROM PRODUCTTYPEPRODUCT AS tab_693, CountryType AS tab_696, Product AS tab_691, Product AS tab_695, PRODUCT AS tab_690, Producer AS tab_692, Product AS tab_694   
WHERE tab_694.producer = tab_692.nr AND tab_694.producer = tab_695.producer AND tab_694.nr = tab_695.nr AND tab_693.producttype = 110 AND tab_693.product = tab_690.nr AND tab_694.producer = tab_690.producer AND tab_694.nr = tab_690.nr AND tab_694.producer = tab_691.producer AND tab_694.nr = tab_691.nr AND tab_696.countryType = 121 AND tab_692.country = tab_696.country", color = yellow] ; 
2 -> 17 ; 
18 [label="FunctionCallBindAccess
(\"{0}\", \"{1}\", <http://downlode.org/rdf/iso-3166/countries#{2}>)", color = yellow] ; 
0 -> 18 ; 
}
