digraph  g{ graph[label = "19:1:45.958"]
node [shape=rectangle, color=black, fontcolor=black, style=bold] edge [color=black] 0 [label="HashDistinct", color = yellow] ; 
1 [label="Union", color = yellow] ; 
0 -> 1 ; 
2 [label="BindAccessEval", color = yellow] ; 
1 -> 2 ; 
3 [label="SQLQuery
SELECT tab_3767.nr, tab_3767.homepage, tab_3768.label 
FROM Producer AS tab_3768, Producer AS tab_3767  
WHERE tab_3767.nr = tab_3768.nr AND tab_3767.nr = tab_3768.nr", color = yellow] ; 
2 -> 3 ; 
4 [label="FunctionCallBindAccess
(<http://www4.wiwiss.fu-berlin.de/bizer/bsbm/v01/instances/dataFromProducer{0}/Producer{0}>, \"{2}\", <{1}>)", color = yellow] ; 
2 -> 4 ; 
6 [label="BindAccessEval", color = yellow] ; 
1 -> 6 ; 
7 [label="SQLQuery
SELECT tab_3769.nr, tab_3769.label, tab_3770.homepage 
FROM Vendor AS tab_3769, Vendor AS tab_3770  
WHERE tab_3769.nr = tab_3770.nr AND tab_3769.nr = tab_3770.nr", color = yellow] ; 
6 -> 7 ; 
8 [label="FunctionCallBindAccess
(<http://www4.wiwiss.fu-berlin.de/bizer/bsbm/v01/instances/dataFromVendor{0}/Vendor{0}>, \"{1}\", <{2}>)", color = yellow] ; 
6 -> 8 ; 
}
