digraph  g{ graph[label = "19:1:46.649"]
node [shape=rectangle, color=black, fontcolor=black, style=bold] edge [color=black] 0 [label="BindAccessEval", color = yellow] ; 
1 [label="HashDistinct", color = yellow] ; 
0 -> 1 ; 
2 [label="Union", color = yellow] ; 
1 -> 2 ; 
3 [label="SQLQuery
SELECT tab_3790.vendor, tab_3790.nr, tab_3792.offerWebpage 
FROM Offer AS tab_3792, CountryType AS tab_3793, Offer AS tab_3790, Vendor AS tab_3791   
WHERE tab_3790.vendor = tab_3791.nr AND tab_3790.vendor = tab_3792.vendor AND tab_3790.nr = tab_3792.nr AND tab_3793.countryType = 111 AND tab_3791.country = tab_3793.country", color = yellow] ; 
2 -> 3 ; 
5 [label="SQLQuery
SELECT tab_3784.vendor, tab_3784.nr, tab_3786.offerWebpage 
FROM Offer AS tab_3784, Vendor AS tab_3785, Offer AS tab_3786, CountryType AS tab_3783   
WHERE tab_3783.countryType = 112 AND tab_3784.vendor = tab_3785.nr AND tab_3783.country = tab_3785.country AND tab_3784.vendor = tab_3786.vendor AND tab_3784.nr = tab_3786.nr", color = yellow] ; 
2 -> 5 ; 
6 [label="FunctionCallBindAccess
(<http://www4.wiwiss.fu-berlin.de/bizer/bsbm/v01/instances/dataFromVendor{0}/Offer{1}>, <{2}>)", color = yellow] ; 
0 -> 6 ; 
}
