digraph  g{ graph[label = "19:1:47.183"]
node [shape=rectangle, color=black, fontcolor=black, style=bold] edge [color=black] 0 [label="BindAccessEval", color = yellow] ; 
1 [label="HashDistinct", color = yellow] ; 
0 -> 1 ; 
2 [label="Union", color = yellow] ; 
1 -> 2 ; 
3 [label="SQLQuery
SELECT tab_3799.vendor, tab_3799.nr, tab_3797.offerWebpage 
FROM Vendor AS tab_3798, Offer AS tab_3797, Offer AS tab_3799, CountryType AS tab_3800   
WHERE tab_3799.vendor = tab_3798.nr AND tab_3799.vendor = tab_3797.vendor AND tab_3799.nr = tab_3797.nr AND tab_3800.countryType = 112 AND tab_3798.country = tab_3800.country", color = yellow] ; 
2 -> 3 ; 
5 [label="SQLQuery
SELECT tab_3806.vendor, tab_3806.nr, tab_3806.offerWebpage 
FROM CountryType AS tab_3807, Offer AS tab_3806, Vendor AS tab_3804, Offer AS tab_3805   
WHERE tab_3805.vendor = tab_3804.nr AND tab_3806.vendor = tab_3805.vendor AND tab_3806.nr = tab_3805.nr AND tab_3807.countryType = 121 AND tab_3804.country = tab_3807.country", color = yellow] ; 
2 -> 5 ; 
7 [label="SQLQuery
SELECT tab_3811.vendor, tab_3811.nr, tab_3811.offerWebpage 
FROM CountryType AS tab_3814, Vendor AS tab_3812, Offer AS tab_3811, Offer AS tab_3813   
WHERE tab_3813.vendor = tab_3812.nr AND tab_3811.vendor = tab_3813.vendor AND tab_3811.nr = tab_3813.nr AND tab_3814.countryType = 122 AND tab_3812.country = tab_3814.country", color = yellow] ; 
2 -> 7 ; 
9 [label="SQLQuery
SELECT tab_3820.vendor, tab_3820.nr, tab_3821.offerWebpage 
FROM Offer AS tab_3820, CountryType AS tab_3818, Offer AS tab_3821, Vendor AS tab_3819   
WHERE tab_3818.countryType = 111 AND tab_3820.vendor = tab_3819.nr AND tab_3818.country = tab_3819.country AND tab_3820.vendor = tab_3821.vendor AND tab_3820.nr = tab_3821.nr", color = yellow] ; 
2 -> 9 ; 
10 [label="FunctionCallBindAccess
(<http://www4.wiwiss.fu-berlin.de/bizer/bsbm/v01/instances/dataFromVendor{0}/Offer{1}>, <{2}>)", color = yellow] ; 
0 -> 10 ; 
}
