digraph  g{ graph[label = "19:1:51.108"]
node [shape=rectangle, color=black, fontcolor=black, style=bold] edge [color=black] 0 [label="BindAccessEval", color = yellow] ; 
1 [label="SQLQuery
SELECT DISTINCT ON (tab_4088.nr, tab_4088.label, tab_4088.producer, tab_4086.nr, tab_4086.publisher, tab_4087.title, tab_4089.name) tab_4088.nr, tab_4088.label, tab_4088.producer, tab_4086.nr, tab_4086.publisher, tab_4087.title, tab_4089.name 
FROM Review AS tab_4086, Review AS tab_4087, Person AS tab_4089, Product AS tab_4088, Review AS tab_4090 
WHERE tab_4088.producer = tab_4086.producer AND tab_4088.nr = tab_4086.product AND tab_4086.publisher = tab_4087.publisher AND tab_4086.nr = tab_4087.nr AND tab_4090.person = tab_4089.nr AND tab_4086.publisher = tab_4089.publisher AND tab_4086.nr = tab_4090.nr", color = yellow] ; 
0 -> 1 ; 
2 [label="FunctionCallBindAccess
(<http://www4.wiwiss.fu-berlin.de/bizer/bsbm/v01/instances/dataFromRatingSite{4}/Review{3}>, <http://www4.wiwiss.fu-berlin.de/bizer/bsbm/v01/instances/dataFromProducer{2}/Product{0}>, \"{1}\", \"{6}\", \"{5}\")", color = yellow] ; 
0 -> 2 ; 
}
