digraph  g{ graph[label = "15:30:33.663"]
node [shape=rectangle, color=black, fontcolor=black, style=bold] edge [color=black] 0 [label="BindAccessEval", color = yellow] ; 
1 [label="SQLQuery
SELECT tab_4.label, tab_8.label, tab_4.propertyNum1 
FROM PRODUCT AS tab_5, Product AS tab_6, ProductFeature AS tab_8, Product AS tab_4, PRODUCTTYPEPRODUCT AS tab_3, ProductFeatureProduct AS tab_7 
WHERE tab_3.producttype = 1059 AND tab_3.product = tab_5.nr AND tab_5.producer = tab_4.producer AND tab_5.nr = tab_4.nr AND tab_6.nr = tab_7.product AND tab_7.productFeature = tab_8.nr AND tab_5.producer = tab_6.producer AND tab_5.nr = tab_6.nr 
UNION
SELECT tab_12.label, tab_17.label, tab_12.propertyNum2 
FROM ProductFeature AS tab_17, PRODUCTTYPEPRODUCT AS tab_14, Product AS tab_12, ProductFeatureProduct AS tab_16, PRODUCT AS tab_13, Product AS tab_15 
WHERE tab_14.producttype = 1058 AND tab_14.product = tab_13.nr AND tab_13.producer = tab_12.producer AND tab_13.nr = tab_12.nr AND tab_15.nr = tab_16.product AND tab_16.productFeature = tab_17.nr AND tab_13.producer = tab_15.producer AND tab_13.nr = tab_15.nr 
UNION
SELECT tab_33.label, tab_32.label, tab_33.propertyNum1 
FROM ProductFeature AS tab_32, Product AS tab_33, PRODUCTTYPEPRODUCT AS tab_37, ProductFeatureProduct AS tab_35, Product AS tab_34, PRODUCT AS tab_36 
WHERE tab_34.nr = tab_35.product AND tab_35.productFeature = tab_32.nr AND tab_34.producer = tab_33.producer AND tab_34.nr = tab_33.nr AND tab_37.producttype = 1058 AND tab_37.product = tab_36.nr AND tab_34.producer = tab_36.producer AND tab_34.nr = tab_36.nr 
UNION
SELECT tab_23.label, tab_22.label, tab_23.propertyNum2 
FROM ProductFeature AS tab_22, ProductFeatureProduct AS tab_24, PRODUCTTYPEPRODUCT AS tab_27, Product AS tab_23, PRODUCT AS tab_26, Product AS tab_25 
WHERE tab_25.nr = tab_24.product AND tab_24.productFeature = tab_22.nr AND tab_25.producer = tab_23.producer AND tab_25.nr = tab_23.nr AND tab_27.producttype = 1059 AND tab_27.product = tab_26.nr AND tab_25.producer = tab_26.producer AND tab_25.nr = tab_26.nr
15514", color = yellow] ; 
0 -> 1 ; 
2 [label="FunctionCallBindAccess
(\"{0}\", \"{1}\", \"{2}\")", color = yellow] ; 
0 -> 2 ; 
}
