digraph  g{ graph[label = "15:32:13.152"]
node [shape=rectangle, color=black, fontcolor=black, style=bold] edge [color=black] 0 [label="BindAccessEval", color = yellow] ; 
1 [label="SQLQuery
SELECT tab_971.label, tab_973.label, tab_971.propertyNum2 
FROM Product AS tab_970, PRODUCTTYPEPRODUCT AS tab_975, ProductFeatureProduct AS tab_972, ProductFeature AS tab_973, Product AS tab_971, PRODUCT AS tab_974 
WHERE tab_970.nr = tab_972.product AND tab_972.productFeature = tab_973.nr AND tab_971.producer = tab_970.producer AND tab_971.nr = tab_970.nr AND tab_975.producttype = 1104 AND tab_975.product = tab_974.nr AND tab_971.producer = tab_974.producer AND tab_971.nr = tab_974.nr 
UNION
SELECT tab_2324.label, tab_2327.label, tab_2324.propertyNum2 
FROM PRODUCTTYPEPRODUCT AS tab_2323, Product AS tab_2324, ProductFeatureProduct AS tab_2326, Product AS tab_2325, PRODUCT AS tab_2322, ProductFeature AS tab_2327 
WHERE tab_2323.producttype = 1031 AND tab_2323.product = tab_2322.nr AND tab_2322.producer = tab_2324.producer AND tab_2322.nr = tab_2324.nr AND tab_2325.nr = tab_2326.product AND tab_2326.productFeature = tab_2327.nr AND tab_2322.producer = tab_2325.producer AND tab_2322.nr = tab_2325.nr 
UNION
SELECT tab_1290.label, tab_1295.label, tab_1290.propertyNum1 
FROM PRODUCTTYPEPRODUCT AS tab_1291, Product AS tab_1293, Product AS tab_1290, ProductFeatureProduct AS tab_1294, ProductFeature AS tab_1295, PRODUCT AS tab_1292 
WHERE tab_1291.producttype = 1042 AND tab_1291.product = tab_1292.nr AND tab_1290.producer = tab_1292.producer AND tab_1290.nr = tab_1292.nr AND tab_1293.nr = tab_1294.product AND tab_1294.productFeature = tab_1295.nr AND tab_1290.producer = tab_1293.producer AND tab_1290.nr = tab_1293.nr 
UNION
SELECT tab_2836.label, tab_2840.label, tab_2836.propertyNum2 
FROM ProductFeature AS tab_2840, PRODUCT AS tab_2835, Product AS tab_2836, Product AS tab_2838, PRODUCTTYPEPRODUCT AS tab_2837, ProductFeatureProduct AS tab_2839 
WHERE tab_2837.producttype = 1073 AND tab_2837.product = tab_2835.nr AND tab_2836.producer = tab_2835.producer AND tab_2836.nr = tab_2835.nr AND tab_2838.nr = tab_2839.product AND tab_2839.productFeature = tab_2840.nr AND tab_2836.producer = tab_2838.producer AND tab_2836.nr = tab_2838.nr 
UNION
SELECT tab_2346.label, tab_2345.label, tab_2346.propertyNum2 
FROM ProductFeature AS tab_2345, PRODUCTTYPEPRODUCT AS tab_2348, Product AS tab_2346, ProductFeatureProduct AS tab_2344, PRODUCT AS tab_2347, Product AS tab_2343 
WHERE tab_2343.nr = tab_2344.product AND tab_2344.productFeature = tab_2345.nr AND tab_2343.producer = tab_2346.producer AND tab_2343.nr = tab_2346.nr AND tab_2348.producttype = 1077 AND tab_2348.product = tab_2347.nr AND tab_2343.producer = tab_2347.producer AND tab_2343.nr = tab_2347.nr 
UNION
SELECT tab_1064.label, tab_1069.label, tab_1064.propertyNum1 
FROM Product AS tab_1067, ProductFeature AS tab_1069, Product AS tab_1064, ProductFeatureProduct AS tab_1068, PRODUCT AS tab_1066, PRODUCTTYPEPRODUCT AS tab_1065 
WHERE tab_1065.producttype = 991 AND tab_1065.product = tab_1066.nr AND tab_1066.producer = tab_1064.producer AND tab_1066.nr = tab_1064.nr AND tab_1067.nr = tab_1068.product AND tab_1068.p... (255 UNIONs)
863729", color = yellow] ; 
0 -> 1 ; 
2 [label="FunctionCallBindAccess
(\"{0}\", \"{1}\", \"{2}\")", color = yellow] ; 
0 -> 2 ; 
}
