<?xml version="1.0" encoding="UTF-8" standalone="no"?>
<!DOCTYPE svg PUBLIC "-//W3C//DTD SVG 1.1//EN"
 "http://www.w3.org/Graphics/SVG/1.1/DTD/svg11.dtd">
<!-- Generated by graphviz version 2.40.1 (20161225.0304)
 -->
<!-- Title: g Pages: 1 -->
<svg width="2392pt" height="486pt"
 viewBox="0.00 0.00 2391.50 486.00" xmlns="http://www.w3.org/2000/svg" xmlns:xlink="http://www.w3.org/1999/xlink">
<g id="graph0" class="graph" transform="scale(1 1) rotate(0) translate(4 482)">
<title>g</title>
<polygon fill="#ffffff" stroke="transparent" points="-4,4 -4,-482 2387.5,-482 2387.5,4 -4,4"/>
<text text-anchor="middle" x="1191.75" y="-7.8" font-family="Times,serif" font-size="14.00" fill="#000000">15:32:28.921</text>
<!-- 0 -->
<g id="node1" class="node">
<title>0</title>
<polygon fill="none" stroke="#ffff00" stroke-width="2" points="1645.5,-478 1539.5,-478 1539.5,-442 1645.5,-442 1645.5,-478"/>
<text text-anchor="middle" x="1592.5" y="-456.3" font-family="Times,serif" font-size="14.00" fill="#000000">BindAccessEval</text>
</g>
<!-- 1 -->
<g id="node2" class="node">
<title>1</title>
<polygon fill="none" stroke="#ffff00" stroke-width="2" points="1985,-406 0,-406 0,-23 1985,-23 1985,-406"/>
<text text-anchor="middle" x="992.5" y="-390.8" font-family="Times,serif" font-size="14.00" fill="#000000">SQLQuery</text>
<text text-anchor="middle" x="992.5" y="-375.8" font-family="Times,serif" font-size="14.00" fill="#000000">SELECT tab_2953.label, tab_2953.propertyNum1, tab_2950.country </text>
<text text-anchor="middle" x="992.5" y="-360.8" font-family="Times,serif" font-size="14.00" fill="#000000">FROM PRODUCT AS tab_2954, CountryType AS tab_2955, PRODUCTTYPEPRODUCT AS tab_2951, Product AS tab_2952, Product AS tab_2953, Producer AS tab_2950 </text>
<text text-anchor="middle" x="992.5" y="-345.8" font-family="Times,serif" font-size="14.00" fill="#000000">WHERE tab_2951.producttype = 1059 AND tab_2951.product = tab_2954.nr AND tab_2952.producer = tab_2950.nr AND tab_2954.producer = tab_2952.producer AND tab_2954.nr = tab_2952.nr AND tab_2954.producer = tab_2953.producer AND tab_2954.nr = tab_2953.nr AND tab_2955.countryType = 122 AND tab_2950.country = tab_2955.country </text>
<text text-anchor="middle" x="992.5" y="-330.8" font-family="Times,serif" font-size="14.00" fill="#000000">UNION</text>
<text text-anchor="middle" x="992.5" y="-315.8" font-family="Times,serif" font-size="14.00" fill="#000000">SELECT tab_3023.label, tab_3023.propertyNum1, tab_3024.country </text>
<text text-anchor="middle" x="992.5" y="-300.8" font-family="Times,serif" font-size="14.00" fill="#000000">FROM CountryType AS tab_3025, PRODUCT AS tab_3022, PRODUCTTYPEPRODUCT AS tab_3020, Product AS tab_3021, Producer AS tab_3024, Product AS tab_3023 </text>
<text text-anchor="middle" x="992.5" y="-285.8" font-family="Times,serif" font-size="14.00" fill="#000000">WHERE tab_3020.producttype = 1058 AND tab_3020.product = tab_3022.nr AND tab_3021.producer = tab_3024.nr AND tab_3022.producer = tab_3021.producer AND tab_3022.nr = tab_3021.nr AND tab_3022.producer = tab_3023.producer AND tab_3022.nr = tab_3023.nr AND tab_3025.countryType = 122 AND tab_3024.country = tab_3025.country </text>
<text text-anchor="middle" x="992.5" y="-270.8" font-family="Times,serif" font-size="14.00" fill="#000000">UNION</text>
<text text-anchor="middle" x="992.5" y="-255.8" font-family="Times,serif" font-size="14.00" fill="#000000">SELECT tab_2938.label, tab_2938.propertyNum2, tab_2937.country </text>
<text text-anchor="middle" x="992.5" y="-240.8" font-family="Times,serif" font-size="14.00" fill="#000000">FROM Producer AS tab_2937, CountryType AS tab_2940, PRODUCTTYPEPRODUCT AS tab_2936, Product AS tab_2938, Product AS tab_2939, PRODUCT AS tab_2935 </text>
<text text-anchor="middle" x="992.5" y="-225.8" font-family="Times,serif" font-size="14.00" fill="#000000">WHERE tab_2936.producttype = 1058 AND tab_2936.product = tab_2935.nr AND tab_2935.producer = tab_2938.producer AND tab_2935.nr = tab_2938.nr AND tab_2939.producer = tab_2937.nr AND tab_2935.producer = tab_2939.producer AND tab_2935.nr = tab_2939.nr AND tab_2940.countryType = 122 AND tab_2937.country = tab_2940.country </text>
<text text-anchor="middle" x="992.5" y="-210.8" font-family="Times,serif" font-size="14.00" fill="#000000">UNION</text>
<text text-anchor="middle" x="992.5" y="-195.8" font-family="Times,serif" font-size="14.00" fill="#000000">SELECT tab_2964.label, tab_2964.propertyNum2, tab_2968.country </text>
<text text-anchor="middle" x="992.5" y="-180.8" font-family="Times,serif" font-size="14.00" fill="#000000">FROM PRODUCT AS tab_2967, Producer AS tab_2968, Product AS tab_2964, Product AS tab_2965, PRODUCTTYPEPRODUCT AS tab_2966, CountryType AS tab_2969 </text>
<text text-anchor="middle" x="992.5" y="-165.8" font-family="Times,serif" font-size="14.00" fill="#000000">WHERE tab_2966.producttype = 1058 AND tab_2966.product = tab_2967.nr AND tab_2967.producer = tab_2964.producer AND tab_2967.nr = tab_2964.nr AND tab_2965.producer = tab_2968.nr AND tab_2967.producer = tab_2965.producer AND tab_2967.nr = tab_2965.nr AND tab_2969.countryType = 121 AND tab_2968.country = tab_2969.country </text>
<text text-anchor="middle" x="992.5" y="-150.8" font-family="Times,serif" font-size="14.00" fill="#000000">UNION</text>
<text text-anchor="middle" x="992.5" y="-135.8" font-family="Times,serif" font-size="14.00" fill="#000000">SELECT tab_3034.label, tab_3034.propertyNum1, tab_3035.country </text>
<text text-anchor="middle" x="992.5" y="-120.8" font-family="Times,serif" font-size="14.00" fill="#000000">FROM Product AS tab_3037, PRODUCT AS tab_3038, Producer AS tab_3035, CountryType AS tab_3039, Product AS tab_3034, PRODUCTTYPEPRODUCT AS tab_3036 </text>
<text text-anchor="middle" x="992.5" y="-105.8" font-family="Times,serif" font-size="14.00" fill="#000000">WHERE tab_3036.producttype = 1058 AND tab_3036.product = tab_3038.nr AND tab_3034.producer = tab_3038.producer AND tab_3034.nr = tab_3038.nr AND tab_3037.producer = tab_3035.nr AND tab_3034.producer = tab_3037.producer AND tab_3034.nr = tab_3037.nr AND tab_3039.countryType = 121 AND tab_3035.country = tab_3039.country </text>
<text text-anchor="middle" x="992.5" y="-90.8" font-family="Times,serif" font-size="14.00" fill="#000000">UNION</text>
<text text-anchor="middle" x="992.5" y="-75.8" font-family="Times,serif" font-size="14.00" fill="#000000">SELECT tab_3007.label, tab_3007.propertyNum2, tab_3006.country </text>
<text text-anchor="middle" x="992.5" y="-60.8" font-family="Times,serif" font-size="14.00" fill="#000000">FROM PRODUCTTYPEPRODUCT AS tab_3008, Product AS tab_3007, PRODUCT AS tab_3005, CountryType AS tab_3010, Product AS tab_3009, Producer AS tab_3006 </text>
<text text-anchor="middle" x="992.5" y="-45.8" font-family="Times,serif" font-size="14.00" fill="#000000">WHERE tab_3008.producttype = 1059 AND tab_3008.product = tab_3005.nr AND tab_3005.producer = tab_30... (7 UNIONs)</text>
<text text-anchor="middle" x="992.5" y="-30.8" font-family="Times,serif" font-size="14.00" fill="#000000">124</text>
</g>
<!-- 0&#45;&gt;1 -->
<g id="edge1" class="edge">
<title>0&#45;&gt;1</title>
<path fill="none" stroke="#000000" d="M1548.3806,-441.9478C1527.7789,-433.5183 1501.0149,-422.5673 1470.3766,-410.0312"/>
<polygon fill="#000000" stroke="#000000" points="1471.327,-406.6384 1460.7463,-406.0908 1468.6761,-413.1171 1471.327,-406.6384"/>
</g>
<!-- 2 -->
<g id="node3" class="node">
<title>2</title>
<polygon fill="none" stroke="#ffff00" stroke-width="2" points="2383.5,-233.5 2003.5,-233.5 2003.5,-195.5 2383.5,-195.5 2383.5,-233.5"/>
<text text-anchor="middle" x="2193.5" y="-218.3" font-family="Times,serif" font-size="14.00" fill="#000000">FunctionCallBindAccess</text>
<text text-anchor="middle" x="2193.5" y="-203.3" font-family="Times,serif" font-size="14.00" fill="#000000">(&quot;{0}&quot;, &quot;{1}&quot;, &lt;http://downlode.org/rdf/iso&#45;3166/countries#{2}&gt;)</text>
</g>
<!-- 0&#45;&gt;2 -->
<g id="edge2" class="edge">
<title>0&#45;&gt;2</title>
<path fill="none" stroke="#000000" d="M1645.7478,-456.9558C1740.4794,-450.8683 1934.0204,-435.2046 1994.5,-406 2074.0761,-367.5739 2142.2156,-285.2212 2174.1412,-242.1066"/>
<polygon fill="#000000" stroke="#000000" points="2177.1487,-243.9228 2180.2158,-233.7816 2171.494,-239.7966 2177.1487,-243.9228"/>
</g>
</g>
</svg>
