<?xml version="1.0" encoding="UTF-8" standalone="no"?>
<!DOCTYPE svg PUBLIC "-//W3C//DTD SVG 1.1//EN"
 "http://www.w3.org/Graphics/SVG/1.1/DTD/svg11.dtd">
<!-- Generated by graphviz version 2.40.1 (20161225.0304)
 -->
<!-- Title: g Pages: 1 -->
<svg width="2392pt" height="486pt"
 viewBox="0.00 0.00 2391.50 486.00" xmlns="http://www.w3.org/2000/svg" xmlns:xlink="http://www.w3.org/1999/xlink">
<g id="graph0" class="graph" transform="scale(1 1) rotate(0) translate(4 482)">
<title>g</title>
<polygon fill="#ffffff" stroke="transparent" points="-4,4 -4,-482 2387.5,-482 2387.5,4 -4,4"/>
<text text-anchor="middle" x="1191.75" y="-7.8" font-family="Times,serif" font-size="14.00" fill="#000000">15:33:22.230</text>
<!-- 0 -->
<g id="node1" class="node">
<title>0</title>
<polygon fill="none" stroke="#ffff00" stroke-width="2" points="1645.5,-478 1539.5,-478 1539.5,-442 1645.5,-442 1645.5,-478"/>
<text text-anchor="middle" x="1592.5" y="-456.3" font-family="Times,serif" font-size="14.00" fill="#000000">BindAccessEval</text>
</g>
<!-- 1 -->
<g id="node2" class="node">
<title>1</title>
<polygon fill="none" stroke="#ffff00" stroke-width="2" points="1985,-406 0,-406 0,-23 1985,-23 1985,-406"/>
<text text-anchor="middle" x="992.5" y="-390.8" font-family="Times,serif" font-size="14.00" fill="#000000">SQLQuery</text>
<text text-anchor="middle" x="992.5" y="-375.8" font-family="Times,serif" font-size="14.00" fill="#000000">SELECT tab_3232.label, tab_3232.propertyNum1, tab_3233.country </text>
<text text-anchor="middle" x="992.5" y="-360.8" font-family="Times,serif" font-size="14.00" fill="#000000">FROM PRODUCT AS tab_3235, PRODUCTTYPEPRODUCT AS tab_3231, CountryType AS tab_3236, Producer AS tab_3233, Product AS tab_3232, Product AS tab_3234 </text>
<text text-anchor="middle" x="992.5" y="-345.8" font-family="Times,serif" font-size="14.00" fill="#000000">WHERE tab_3231.producttype = 1058 AND tab_3231.product = tab_3235.nr AND tab_3232.producer = tab_3235.producer AND tab_3232.nr = tab_3235.nr AND tab_3234.producer = tab_3233.nr AND tab_3232.producer = tab_3234.producer AND tab_3232.nr = tab_3234.nr AND tab_3236.countryType = 122 AND tab_3233.country = tab_3236.country </text>
<text text-anchor="middle" x="992.5" y="-330.8" font-family="Times,serif" font-size="14.00" fill="#000000">UNION</text>
<text text-anchor="middle" x="992.5" y="-315.8" font-family="Times,serif" font-size="14.00" fill="#000000">SELECT tab_3376.label, tab_3376.propertyNum1, tab_3375.country </text>
<text text-anchor="middle" x="992.5" y="-300.8" font-family="Times,serif" font-size="14.00" fill="#000000">FROM PRODUCTTYPEPRODUCT AS tab_3373, PRODUCT AS tab_3374, CountryType AS tab_3378, Producer AS tab_3375, Product AS tab_3376, Product AS tab_3377 </text>
<text text-anchor="middle" x="992.5" y="-285.8" font-family="Times,serif" font-size="14.00" fill="#000000">WHERE tab_3373.producttype = 1059 AND tab_3373.product = tab_3374.nr AND tab_3376.producer = tab_3374.producer AND tab_3376.nr = tab_3374.nr AND tab_3377.producer = tab_3375.nr AND tab_3376.producer = tab_3377.producer AND tab_3376.nr = tab_3377.nr AND tab_3378.countryType = 111 AND tab_3375.country = tab_3378.country </text>
<text text-anchor="middle" x="992.5" y="-270.8" font-family="Times,serif" font-size="14.00" fill="#000000">UNION</text>
<text text-anchor="middle" x="992.5" y="-255.8" font-family="Times,serif" font-size="14.00" fill="#000000">SELECT tab_3292.label, tab_3292.propertyNum2, tab_3288.country </text>
<text text-anchor="middle" x="992.5" y="-240.8" font-family="Times,serif" font-size="14.00" fill="#000000">FROM PRODUCT AS tab_3291, Product AS tab_3290, CountryType AS tab_3288, Product AS tab_3292, Producer AS tab_3287, PRODUCTTYPEPRODUCT AS tab_3289 </text>
<text text-anchor="middle" x="992.5" y="-225.8" font-family="Times,serif" font-size="14.00" fill="#000000">WHERE tab_3288.countryType = 121 AND tab_3290.producer = tab_3287.nr AND tab_3288.country = tab_3287.country AND tab_3289.producttype = 1059 AND tab_3289.product = tab_3291.nr AND tab_3290.producer = tab_3291.producer AND tab_3290.nr = tab_3291.nr AND tab_3290.producer = tab_3292.producer AND tab_3290.nr = tab_3292.nr </text>
<text text-anchor="middle" x="992.5" y="-210.8" font-family="Times,serif" font-size="14.00" fill="#000000">UNION</text>
<text text-anchor="middle" x="992.5" y="-195.8" font-family="Times,serif" font-size="14.00" fill="#000000">SELECT tab_3260.label, tab_3260.propertyNum2, tab_3263.country </text>
<text text-anchor="middle" x="992.5" y="-180.8" font-family="Times,serif" font-size="14.00" fill="#000000">FROM Producer AS tab_3263, CountryType AS tab_3265, Product AS tab_3260, PRODUCTTYPEPRODUCT AS tab_3261, Product AS tab_3264, PRODUCT AS tab_3262 </text>
<text text-anchor="middle" x="992.5" y="-165.8" font-family="Times,serif" font-size="14.00" fill="#000000">WHERE tab_3264.producer = tab_3263.nr AND tab_3264.producer = tab_3260.producer AND tab_3264.nr = tab_3260.nr AND tab_3261.producttype = 1059 AND tab_3261.product = tab_3262.nr AND tab_3264.producer = tab_3262.producer AND tab_3264.nr = tab_3262.nr AND tab_3265.countryType = 112 AND tab_3263.country = tab_3265.country </text>
<text text-anchor="middle" x="992.5" y="-150.8" font-family="Times,serif" font-size="14.00" fill="#000000">UNION</text>
<text text-anchor="middle" x="992.5" y="-135.8" font-family="Times,serif" font-size="14.00" fill="#000000">SELECT tab_3176.label, tab_3176.propertyNum1, tab_3177.country </text>
<text text-anchor="middle" x="992.5" y="-120.8" font-family="Times,serif" font-size="14.00" fill="#000000">FROM CountryType AS tab_3179, PRODUCTTYPEPRODUCT AS tab_3175, Producer AS tab_3177, Product AS tab_3176, Product AS tab_3178, PRODUCT AS tab_3174 </text>
<text text-anchor="middle" x="992.5" y="-105.8" font-family="Times,serif" font-size="14.00" fill="#000000">WHERE tab_3175.producttype = 1059 AND tab_3175.product = tab_3174.nr AND tab_3176.producer = tab_3174.producer AND tab_3176.nr = tab_3174.nr AND tab_3178.producer = tab_3177.nr AND tab_3176.producer = tab_3178.producer AND tab_3176.nr = tab_3178.nr AND tab_3179.countryType = 122 AND tab_3177.country = tab_3179.country </text>
<text text-anchor="middle" x="992.5" y="-90.8" font-family="Times,serif" font-size="14.00" fill="#000000">UNION</text>
<text text-anchor="middle" x="992.5" y="-75.8" font-family="Times,serif" font-size="14.00" fill="#000000">SELECT tab_3191.label, tab_3191.propertyNum2, tab_3188.country </text>
<text text-anchor="middle" x="992.5" y="-60.8" font-family="Times,serif" font-size="14.00" fill="#000000">FROM CountryType AS tab_3193, PRODUCT AS tab_3192, Product AS tab_3190, Product AS tab_3191, Producer AS tab_3188, PRODUCTTYPEPRODUCT AS tab_3189 </text>
<text text-anchor="middle" x="992.5" y="-45.8" font-family="Times,serif" font-size="14.00" fill="#000000">WHERE tab_3190.producer = tab_3188.nr AND tab_3190.producer = tab_3191.producer AND tab_3190.nr = t... (15 UNIONs)</text>
<text text-anchor="middle" x="992.5" y="-30.8" font-family="Times,serif" font-size="14.00" fill="#000000">598</text>
</g>
<!-- 0&#45;&gt;1 -->
<g id="edge1" class="edge">
<title>0&#45;&gt;1</title>
<path fill="none" stroke="#000000" d="M1548.3806,-441.9478C1527.7789,-433.5183 1501.0149,-422.5673 1470.3766,-410.0312"/>
<polygon fill="#000000" stroke="#000000" points="1471.327,-406.6384 1460.7463,-406.0908 1468.6761,-413.1171 1471.327,-406.6384"/>
</g>
<!-- 2 -->
<g id="node3" class="node">
<title>2</title>
<polygon fill="none" stroke="#ffff00" stroke-width="2" points="2383.5,-233.5 2003.5,-233.5 2003.5,-195.5 2383.5,-195.5 2383.5,-233.5"/>
<text text-anchor="middle" x="2193.5" y="-218.3" font-family="Times,serif" font-size="14.00" fill="#000000">FunctionCallBindAccess</text>
<text text-anchor="middle" x="2193.5" y="-203.3" font-family="Times,serif" font-size="14.00" fill="#000000">(&quot;{0}&quot;, &quot;{1}&quot;, &lt;http://downlode.org/rdf/iso&#45;3166/countries#{2}&gt;)</text>
</g>
<!-- 0&#45;&gt;2 -->
<g id="edge2" class="edge">
<title>0&#45;&gt;2</title>
<path fill="none" stroke="#000000" d="M1645.7478,-456.9558C1740.4794,-450.8683 1934.0204,-435.2046 1994.5,-406 2074.0761,-367.5739 2142.2156,-285.2212 2174.1412,-242.1066"/>
<polygon fill="#000000" stroke="#000000" points="2177.1487,-243.9228 2180.2158,-233.7816 2171.494,-239.7966 2177.1487,-243.9228"/>
</g>
</g>
</svg>
