digraph  g{ graph[label = "15:32:44.476"]
node [shape=rectangle, color=black, fontcolor=black, style=bold] edge [color=black] 0 [label="BindAccessEval", color = yellow] ; 
1 [label="SQLQuery
SELECT tab_3066.label, tab_3066.propertyNum1, tab_3067.country 
FROM CountryType AS tab_3068, Product AS tab_3063, PRODUCTTYPEPRODUCT AS tab_3065, Producer AS tab_3067, Product AS tab_3066, PRODUCT AS tab_3064 
WHERE tab_3063.producer = tab_3067.nr AND tab_3063.producer = tab_3066.producer AND tab_3063.nr = tab_3066.nr AND tab_3065.producttype = 1059 AND tab_3065.product = tab_3064.nr AND tab_3063.producer = tab_3064.producer AND tab_3063.nr = tab_3064.nr AND tab_3068.countryType = 122 AND tab_3067.country = tab_3068.country 
UNION
SELECT tab_3133.label, tab_3133.propertyNum1, tab_3134.country 
FROM Product AS tab_3136, PRODUCTTYPEPRODUCT AS tab_3132, PRODUCT AS tab_3135, CountryType AS tab_3137, Producer AS tab_3134, Product AS tab_3133 
WHERE tab_3132.producttype = 1058 AND tab_3132.product = tab_3135.nr AND tab_3135.producer = tab_3133.producer AND tab_3135.nr = tab_3133.nr AND tab_3136.producer = tab_3134.nr AND tab_3135.producer = tab_3136.producer AND tab_3135.nr = tab_3136.nr AND tab_3137.countryType = 122 AND tab_3134.country = tab_3137.country 
UNION
SELECT tab_3110.label, tab_3110.propertyNum2, tab_3107.country 
FROM PRODUCTTYPEPRODUCT AS tab_3105, Producer AS tab_3108, PRODUCT AS tab_3106, Product AS tab_3109, Product AS tab_3110, CountryType AS tab_3107 
WHERE tab_3107.countryType = 122 AND tab_3109.producer = tab_3108.nr AND tab_3107.country = tab_3108.country AND tab_3105.producttype = 1059 AND tab_3105.product = tab_3106.nr AND tab_3109.producer = tab_3106.producer AND tab_3109.nr = tab_3106.nr AND tab_3109.producer = tab_3110.producer AND tab_3109.nr = tab_3110.nr 
UNION
SELECT tab_3049.label, tab_3049.propertyNum2, tab_3050.country 
FROM Producer AS tab_3050, Product AS tab_3049, CountryType AS tab_3054, Product AS tab_3052, PRODUCTTYPEPRODUCT AS tab_3053, PRODUCT AS tab_3051 
WHERE tab_3053.producttype = 1058 AND tab_3053.product = tab_3051.nr AND tab_3052.producer = tab_3050.nr AND tab_3051.producer = tab_3052.producer AND tab_3051.nr = tab_3052.nr AND tab_3051.producer = tab_3049.producer AND tab_3051.nr = tab_3049.nr AND tab_3054.countryType = 122 AND tab_3050.country = tab_3054.country 
UNION
SELECT tab_3079.label, tab_3079.propertyNum2, tab_3078.country 
FROM PRODUCT AS tab_3081, Product AS tab_3080, PRODUCTTYPEPRODUCT AS tab_3077, Producer AS tab_3078, Product AS tab_3079, CountryType AS tab_3082 
WHERE tab_3077.producttype = 1058 AND tab_3077.product = tab_3081.nr AND tab_3081.producer = tab_3079.producer AND tab_3081.nr = tab_3079.nr AND tab_3080.producer = tab_3078.nr AND tab_3081.producer = tab_3080.producer AND tab_3081.nr = tab_3080.nr AND tab_3082.countryType = 121 AND tab_3078.country = tab_3082.country 
UNION
SELECT tab_3147.label, tab_3147.propertyNum1, tab_3148.country 
FROM Product AS tab_3147, Product AS tab_3149, CountryType AS tab_3151, PRODUCTTYPEPRODUCT AS tab_3146, PRODUCT AS tab_3150, Producer AS tab_3148 
WHERE tab_3146.producttype = 1058 AND tab_3146.product = tab_3150.nr AND tab_3147.producer = tab_31... (7 UNIONs)
124", color = yellow] ; 
0 -> 1 ; 
2 [label="FunctionCallBindAccess
(\"{0}\", \"{1}\", <http://downlode.org/rdf/iso-3166/countries#{2}>)", color = yellow] ; 
0 -> 2 ; 
}
