<?xml version="1.0" encoding="UTF-8" standalone="no"?>
<!DOCTYPE svg PUBLIC "-//W3C//DTD SVG 1.1//EN"
 "http://www.w3.org/Graphics/SVG/1.1/DTD/svg11.dtd">
<!-- Generated by graphviz version 2.40.1 (20161225.0304)
 -->
<!-- Title: g Pages: 1 -->
<svg width="1704pt" height="246pt"
 viewBox="0.00 0.00 1704.00 246.00" xmlns="http://www.w3.org/2000/svg" xmlns:xlink="http://www.w3.org/1999/xlink">
<g id="graph0" class="graph" transform="scale(1 1) rotate(0) translate(4 242)">
<title>g</title>
<polygon fill="#ffffff" stroke="transparent" points="-4,4 -4,-242 1700,-242 1700,4 -4,4"/>
<text text-anchor="middle" x="848" y="-7.8" font-family="Times,serif" font-size="14.00" fill="#000000">15:47:8.786</text>
<!-- 0 -->
<g id="node1" class="node">
<title>0</title>
<polygon fill="none" stroke="#ffff00" stroke-width="2" points="1032.5,-238 926.5,-238 926.5,-202 1032.5,-202 1032.5,-238"/>
<text text-anchor="middle" x="979.5" y="-216.3" font-family="Times,serif" font-size="14.00" fill="#000000">BindAccessEval</text>
</g>
<!-- 1 -->
<g id="node2" class="node">
<title>1</title>
<polygon fill="none" stroke="#ffff00" stroke-width="2" points="1103,-166 0,-166 0,-23 1103,-23 1103,-166"/>
<text text-anchor="middle" x="551.5" y="-150.8" font-family="Times,serif" font-size="14.00" fill="#000000">SQLQuery</text>
<text text-anchor="middle" x="551.5" y="-135.8" font-family="Times,serif" font-size="14.00" fill="#000000">SELECT tab_9962.vendor, tab_9962.nr, tab_9960.offerWebpage </text>
<text text-anchor="middle" x="551.5" y="-120.8" font-family="Times,serif" font-size="14.00" fill="#000000">FROM Offer AS tab_9960, CountryType AS tab_9963, Offer AS tab_9962, Vendor AS tab_9961 </text>
<text text-anchor="middle" x="551.5" y="-105.8" font-family="Times,serif" font-size="14.00" fill="#000000">WHERE tab_9962.vendor = tab_9961.nr AND tab_9962.vendor = tab_9960.vendor AND tab_9962.nr = tab_9960.nr AND tab_9963.countryType = 111 AND tab_9961.country = tab_9963.country </text>
<text text-anchor="middle" x="551.5" y="-90.8" font-family="Times,serif" font-size="14.00" fill="#000000">UNION</text>
<text text-anchor="middle" x="551.5" y="-75.8" font-family="Times,serif" font-size="14.00" fill="#000000">SELECT tab_9953.vendor, tab_9953.nr, tab_9955.offerWebpage </text>
<text text-anchor="middle" x="551.5" y="-60.8" font-family="Times,serif" font-size="14.00" fill="#000000">FROM Offer AS tab_9953, Vendor AS tab_9954, CountryType AS tab_9956, Offer AS tab_9955 </text>
<text text-anchor="middle" x="551.5" y="-45.8" font-family="Times,serif" font-size="14.00" fill="#000000">WHERE tab_9953.vendor = tab_9954.nr AND tab_9953.vendor = tab_9955.vendor AND tab_9953.nr = tab_9955.nr AND tab_9956.countryType = 112 AND tab_9954.country = tab_9956.country</text>
<text text-anchor="middle" x="551.5" y="-30.8" font-family="Times,serif" font-size="14.00" fill="#000000">1793489</text>
</g>
<!-- 0&#45;&gt;1 -->
<g id="edge1" class="edge">
<title>0&#45;&gt;1</title>
<path fill="none" stroke="#000000" d="M926.1589,-204.3591C894.2548,-195.004 851.1238,-182.357 805.4767,-168.9721"/>
<polygon fill="#000000" stroke="#000000" points="806.2818,-165.5609 795.701,-166.1057 804.3121,-172.2781 806.2818,-165.5609"/>
</g>
<!-- 2 -->
<g id="node3" class="node">
<title>2</title>
<polygon fill="none" stroke="#ffff00" stroke-width="2" points="1696,-113.5 1121,-113.5 1121,-75.5 1696,-75.5 1696,-113.5"/>
<text text-anchor="middle" x="1408.5" y="-98.3" font-family="Times,serif" font-size="14.00" fill="#000000">FunctionCallBindAccess</text>
<text text-anchor="middle" x="1408.5" y="-83.3" font-family="Times,serif" font-size="14.00" fill="#000000">(&lt;http://www4.wiwiss.fu&#45;berlin.de/bizer/bsbm/v01/instances/dataFromVendor{0}/Offer{1}&gt;, &lt;{2}&gt;)</text>
</g>
<!-- 0&#45;&gt;2 -->
<g id="edge2" class="edge">
<title>0&#45;&gt;2</title>
<path fill="none" stroke="#000000" d="M1032.5341,-204.4854C1108.1927,-182.3521 1247.4654,-141.6092 1333.6139,-116.4072"/>
<polygon fill="#000000" stroke="#000000" points="1334.7159,-119.7316 1343.3309,-113.5646 1332.7504,-113.0132 1334.7159,-119.7316"/>
</g>
</g>
</svg>
