digraph  g{ graph[label = "15:47:38.909"]
node [shape=rectangle, color=black, fontcolor=black, style=bold] edge [color=black] 0 [label="BindAccessEval", color = yellow] ; 
1 [label="SQLQuery
SELECT tab_9992.publisher, tab_9992.nr, tab_9992.producer, tab_9992.product, tab_9992.rating1 
FROM Review AS tab_9994, Review AS tab_9992, Person AS tab_9993 
WHERE tab_9994.person = tab_9993.nr AND tab_9992.publisher = tab_9993.publisher AND tab_9992.nr = tab_9994.nr 
UNION
SELECT tab_9995.publisher, tab_9995.nr, tab_9995.producer, tab_9995.product, tab_9995.rating2 
FROM Review AS tab_9997, Review AS tab_9995, Person AS tab_9996 
WHERE tab_9997.person = tab_9996.nr AND tab_9995.publisher = tab_9996.publisher AND tab_9995.nr = tab_9997.nr
2790902", color = yellow] ; 
0 -> 1 ; 
2 [label="FunctionCallBindAccess
(<http://www4.wiwiss.fu-berlin.de/bizer/bsbm/v01/instances/dataFromRatingSite{0}/Review{1}>, <http://www4.wiwiss.fu-berlin.de/bizer/bsbm/v01/instances/dataFromProducer{2}/Product{3}>, \"{4}\")", color = yellow] ; 
0 -> 2 ; 
}
