<?xml version="1.0" encoding="UTF-8" standalone="no"?>
<!DOCTYPE svg PUBLIC "-//W3C//DTD SVG 1.1//EN"
 "http://www.w3.org/Graphics/SVG/1.1/DTD/svg11.dtd">
<!-- Generated by graphviz version 2.40.1 (20161225.0304)
 -->
<!-- Title: g Pages: 1 -->
<svg width="3076pt" height="366pt"
 viewBox="0.00 0.00 3076.00 366.00" xmlns="http://www.w3.org/2000/svg" xmlns:xlink="http://www.w3.org/1999/xlink">
<g id="graph0" class="graph" transform="scale(1 1) rotate(0) translate(4 362)">
<title>g</title>
<polygon fill="#ffffff" stroke="transparent" points="-4,4 -4,-362 3072,-362 3072,4 -4,4"/>
<text text-anchor="middle" x="1534" y="-7.8" font-family="Times,serif" font-size="14.00" fill="#000000">15:47:59.378</text>
<!-- 0 -->
<g id="node1" class="node">
<title>0</title>
<polygon fill="none" stroke="#ffff00" stroke-width="2" points="1782.5,-358 1676.5,-358 1676.5,-322 1782.5,-322 1782.5,-358"/>
<text text-anchor="middle" x="1729.5" y="-336.3" font-family="Times,serif" font-size="14.00" fill="#000000">BindAccessEval</text>
</g>
<!-- 1 -->
<g id="node2" class="node">
<title>1</title>
<polygon fill="none" stroke="#ffff00" stroke-width="2" points="1917,-286 0,-286 0,-23 1917,-23 1917,-286"/>
<text text-anchor="middle" x="958.5" y="-270.8" font-family="Times,serif" font-size="14.00" fill="#000000">SQLQuery</text>
<text text-anchor="middle" x="958.5" y="-255.8" font-family="Times,serif" font-size="14.00" fill="#000000">SELECT tab_10048.publisher, tab_10048.nr, tab_10048.producer, tab_10048.product, tab_10048.rating1 </text>
<text text-anchor="middle" x="958.5" y="-240.8" font-family="Times,serif" font-size="14.00" fill="#000000">FROM CountryType AS tab_10050, Review AS tab_10049, Person AS tab_10046, Review AS tab_10048, Product AS tab_10047, Producer AS tab_10045 </text>
<text text-anchor="middle" x="958.5" y="-225.8" font-family="Times,serif" font-size="14.00" fill="#000000">WHERE tab_10049.person = tab_10046.nr AND tab_10048.publisher = tab_10046.publisher AND tab_10048.nr = tab_10049.nr AND tab_10047.producer = tab_10045.nr AND tab_10048.producer = tab_10047.producer AND tab_10048.product = tab_10047.nr AND tab_10050.countryType = 111 AND tab_10045.country = tab_10050.country </text>
<text text-anchor="middle" x="958.5" y="-210.8" font-family="Times,serif" font-size="14.00" fill="#000000">UNION</text>
<text text-anchor="middle" x="958.5" y="-195.8" font-family="Times,serif" font-size="14.00" fill="#000000">SELECT tab_10006.publisher, tab_10006.nr, tab_10005.producer, tab_10005.nr, tab_10006.rating1 </text>
<text text-anchor="middle" x="958.5" y="-180.8" font-family="Times,serif" font-size="14.00" fill="#000000">FROM Review AS tab_10006, Product AS tab_10005, CountryType AS tab_10007, Review AS tab_10010, Producer AS tab_10008, Person AS tab_10009 </text>
<text text-anchor="middle" x="958.5" y="-165.8" font-family="Times,serif" font-size="14.00" fill="#000000">WHERE tab_10005.producer = tab_10008.nr AND tab_10005.producer = tab_10006.producer AND tab_10005.nr = tab_10006.product AND tab_10007.countryType = 112 AND tab_10008.country = tab_10007.country AND tab_10010.person = tab_10009.nr AND tab_10006.publisher = tab_10009.publisher AND tab_10006.nr = tab_10010.nr </text>
<text text-anchor="middle" x="958.5" y="-150.8" font-family="Times,serif" font-size="14.00" fill="#000000">UNION</text>
<text text-anchor="middle" x="958.5" y="-135.8" font-family="Times,serif" font-size="14.00" fill="#000000">SELECT tab_10033.publisher, tab_10033.nr, tab_10031.producer, tab_10031.nr, tab_10033.rating2 </text>
<text text-anchor="middle" x="958.5" y="-120.8" font-family="Times,serif" font-size="14.00" fill="#000000">FROM Person AS tab_10035, Review AS tab_10036, Product AS tab_10031, Review AS tab_10033, CountryType AS tab_10032, Producer AS tab_10034 </text>
<text text-anchor="middle" x="958.5" y="-105.8" font-family="Times,serif" font-size="14.00" fill="#000000">WHERE tab_10032.countryType = 111 AND tab_10031.producer = tab_10034.nr AND tab_10032.country = tab_10034.country AND tab_10031.producer = tab_10033.producer AND tab_10031.nr = tab_10033.product AND tab_10036.person = tab_10035.nr AND tab_10033.publisher = tab_10035.publisher AND tab_10033.nr = tab_10036.nr </text>
<text text-anchor="middle" x="958.5" y="-90.8" font-family="Times,serif" font-size="14.00" fill="#000000">UNION</text>
<text text-anchor="middle" x="958.5" y="-75.8" font-family="Times,serif" font-size="14.00" fill="#000000">SELECT tab_10018.publisher, tab_10018.nr, tab_10019.producer, tab_10019.nr, tab_10018.rating2 </text>
<text text-anchor="middle" x="958.5" y="-60.8" font-family="Times,serif" font-size="14.00" fill="#000000">FROM Person AS tab_10022, Producer AS tab_10020, Review AS tab_10023, Product AS tab_10019, CountryType AS tab_10021, Review AS tab_10018 </text>
<text text-anchor="middle" x="958.5" y="-45.8" font-family="Times,serif" font-size="14.00" fill="#000000">WHERE tab_10019.producer = tab_10020.nr AND tab_10019.producer = tab_10018.producer AND tab_10019.nr = tab_10018.product AND tab_10021.countryType = 112 AND tab_10020.country = tab_10021.country AND tab_10023.person = tab_10022.nr AND tab_10018.publisher = tab_10022.publisher AND tab_10018.nr = tab_10023.nr</text>
<text text-anchor="middle" x="958.5" y="-30.8" font-family="Times,serif" font-size="14.00" fill="#000000">1674256</text>
</g>
<!-- 0&#45;&gt;1 -->
<g id="edge1" class="edge">
<title>0&#45;&gt;1</title>
<path fill="none" stroke="#000000" d="M1676.2019,-327.1766C1637.4583,-317.8551 1580.5452,-304.162 1515.4394,-288.4977"/>
<polygon fill="#000000" stroke="#000000" points="1515.8907,-285.0065 1505.3494,-286.0701 1514.2532,-291.8123 1515.8907,-285.0065"/>
</g>
<!-- 2 -->
<g id="node3" class="node">
<title>2</title>
<polygon fill="none" stroke="#ffff00" stroke-width="2" points="3068,-173.5 1935,-173.5 1935,-135.5 3068,-135.5 3068,-173.5"/>
<text text-anchor="middle" x="2501.5" y="-158.3" font-family="Times,serif" font-size="14.00" fill="#000000">FunctionCallBindAccess</text>
<text text-anchor="middle" x="2501.5" y="-143.3" font-family="Times,serif" font-size="14.00" fill="#000000">(&lt;http://www4.wiwiss.fu&#45;berlin.de/bizer/bsbm/v01/instances/dataFromRatingSite{0}/Review{1}&gt;, &lt;http://www4.wiwiss.fu&#45;berlin.de/bizer/bsbm/v01/instances/dataFromProducer{2}/Product{3}&gt;, &quot;{4}&quot;)</text>
</g>
<!-- 0&#45;&gt;2 -->
<g id="edge2" class="edge">
<title>0&#45;&gt;2</title>
<path fill="none" stroke="#000000" d="M1782.5627,-327.2498C1913.0283,-295.9009 2250.5743,-214.7937 2412.4059,-175.908"/>
<polygon fill="#000000" stroke="#000000" points="2413.4307,-179.2614 2422.3362,-173.5219 2411.7953,-172.4551 2413.4307,-179.2614"/>
</g>
</g>
</svg>
