digraph  g{ graph[label = "15:50:56.265"]
node [shape=rectangle, color=black, fontcolor=black, style=bold] edge [color=black] 0 [label="HashDistinct", color = yellow] ; 
1 [label="BindAccessEval", color = yellow] ; 
0 -> 1 ; 
2 [label="BindAccessEval", color = yellow] ; 
1 -> 2 ; 
3 [label="SQLQuery
SELECT tab_48578.country, tab_48581.label 
FROM Product AS tab_48579, CountryType AS tab_48580, Producer AS tab_48578, Product AS tab_48581  
WHERE tab_48579.producer = tab_48578.nr AND tab_48580.countryType = 222 AND tab_48578.country = tab_48580.country AND tab_48579.producer = tab_48581.producer AND tab_48579.nr = tab_48581.nr
14645", color = yellow] ; 
2 -> 3 ; 
4 [label="FunctionCallBindAccess
(\"{1}\", <http://downlode.org/rdf/iso-3166/countries#{0}>)", color = yellow] ; 
2 -> 4 ; 
5 [label="FunctionCallBindAccess
AddConstant{1=(\"<http://www4.wiwiss.fu-berlin.de/bizer/bsbm/v01/vocabulary/producer>\")}", color = yellow] ; 
1 -> 5 ; 
}
