<?xml version="1.0" encoding="UTF-8" standalone="no"?>
<!DOCTYPE svg PUBLIC "-//W3C//DTD SVG 1.1//EN"
 "http://www.w3.org/Graphics/SVG/1.1/DTD/svg11.dtd">
<!-- Generated by graphviz version 2.40.1 (20161225.0304)
 -->
<!-- Title: g Pages: 1 -->
<svg width="2460pt" height="186pt"
 viewBox="0.00 0.00 2460.00 186.00" xmlns="http://www.w3.org/2000/svg" xmlns:xlink="http://www.w3.org/1999/xlink">
<g id="graph0" class="graph" transform="scale(1 1) rotate(0) translate(4 182)">
<title>g</title>
<polygon fill="#ffffff" stroke="transparent" points="-4,4 -4,-182 2456,-182 2456,4 -4,4"/>
<text text-anchor="middle" x="1226" y="-7.8" font-family="Times,serif" font-size="14.00" fill="#000000">16:9:40.782</text>
<!-- 0 -->
<g id="node1" class="node">
<title>0</title>
<polygon fill="none" stroke="#ffff00" stroke-width="2" points="1280.5,-178 1174.5,-178 1174.5,-142 1280.5,-142 1280.5,-178"/>
<text text-anchor="middle" x="1227.5" y="-156.3" font-family="Times,serif" font-size="14.00" fill="#000000">BindAccessEval</text>
</g>
<!-- 1 -->
<g id="node2" class="node">
<title>1</title>
<polygon fill="none" stroke="#ffff00" stroke-width="2" points="1221,-106 0,-106 0,-23 1221,-23 1221,-106"/>
<text text-anchor="middle" x="610.5" y="-90.8" font-family="Times,serif" font-size="14.00" fill="#000000">SQLQuery</text>
<text text-anchor="middle" x="610.5" y="-75.8" font-family="Times,serif" font-size="14.00" fill="#000000">SELECT DISTINCT tab_77925.nr, tab_77925.product, tab_77925.producer, tab_77925.title, tab_77925.publisher, tab_77924.name, tab_77926.label </text>
<text text-anchor="middle" x="610.5" y="-60.8" font-family="Times,serif" font-size="14.00" fill="#000000">FROM Product AS tab_77926, Person AS tab_77924, Review AS tab_77925, Review AS tab_77923 </text>
<text text-anchor="middle" x="610.5" y="-45.8" font-family="Times,serif" font-size="14.00" fill="#000000">WHERE tab_77923.person = tab_77924.nr AND tab_77925.publisher = tab_77924.publisher AND tab_77925.nr = tab_77923.nr AND tab_77925.producer = tab_77926.producer AND tab_77925.product = tab_77926.nr</text>
<text text-anchor="middle" x="610.5" y="-30.8" font-family="Times,serif" font-size="14.00" fill="#000000">1500000</text>
</g>
<!-- 0&#45;&gt;1 -->
<g id="edge1" class="edge">
<title>0&#45;&gt;1</title>
<path fill="none" stroke="#000000" d="M1174.3609,-151.7751C1110.0866,-141.8266 997.0212,-124.3262 888.9274,-107.5953"/>
<polygon fill="#000000" stroke="#000000" points="889.2378,-104.1018 878.82,-106.0309 888.167,-111.0194 889.2378,-104.1018"/>
</g>
<!-- 2 -->
<g id="node3" class="node">
<title>2</title>
<polygon fill="none" stroke="#ffff00" stroke-width="2" points="2452,-83.5 1239,-83.5 1239,-45.5 2452,-45.5 2452,-83.5"/>
<text text-anchor="middle" x="1845.5" y="-68.3" font-family="Times,serif" font-size="14.00" fill="#000000">FunctionCallBindAccess</text>
<text text-anchor="middle" x="1845.5" y="-53.3" font-family="Times,serif" font-size="14.00" fill="#000000">(&lt;http://www4.wiwiss.fu&#45;berlin.de/bizer/bsbm/v01/instances/dataFromRatingSite{4}/Review{0}&gt;, &lt;http://www4.wiwiss.fu&#45;berlin.de/bizer/bsbm/v01/instances/dataFromProducer{2}/Product{1}&gt;, &quot;{6}&quot;, &quot;{5}&quot;, &quot;{3}&quot;)</text>
</g>
<!-- 0&#45;&gt;2 -->
<g id="edge2" class="edge">
<title>0&#45;&gt;2</title>
<path fill="none" stroke="#000000" d="M1280.7252,-151.7751C1375.8413,-137.0767 1577.6342,-105.8935 1712.4342,-85.0628"/>
<polygon fill="#000000" stroke="#000000" points="1713.0776,-88.505 1722.4258,-83.5188 1712.0085,-81.5871 1713.0776,-88.505"/>
</g>
</g>
</svg>
