digraph  g{ graph[label = "16:10:17.764"]
node [shape=rectangle, color=black, fontcolor=black, style=bold] edge [color=black] 0 [label="BindAccessEval", color = yellow] ; 
1 [label="SQLQuery
SELECT publisher, nr, producer, product, rating2 
FROM Review 
UNION
SELECT publisher, nr, producer, product, rating1 
FROM Review
2790902", color = yellow] ; 
0 -> 1 ; 
2 [label="FunctionCallBindAccess
(<http://www4.wiwiss.fu-berlin.de/bizer/bsbm/v01/instances/dataFromRatingSite{0}/Review{1}>, <http://www4.wiwiss.fu-berlin.de/bizer/bsbm/v01/instances/dataFromProducer{2}/Product{3}>, \"{4}\")", color = yellow] ; 
0 -> 2 ; 
}
