digraph  g{ graph[label = "16:25:13.826"]
node [shape=rectangle, color=black, fontcolor=black, style=bold] edge [color=black] 0 [label="BindAccessEval", color = yellow] ; 
1 [label="SQLQuery
SELECT tab_81632.vendor, tab_81632.nr, tab_81632.offerWebpage, tab_81632.price, tab_81632.deliveryDays, tab_81635.propertyNum3 
FROM PRODUCTTYPEPRODUCT AS tab_81634, Product AS tab_81635, Producer AS tab_81631, Offer AS tab_81633, Offer AS tab_81632, CountryType AS tab_81636 
WHERE tab_81635.nr = tab_81633.product AND tab_81631.nr = tab_81635.producer AND tab_81635.nr = tab_81634.product AND tab_81634.producttype = 1061 AND tab_81632.vendor = tab_81633.vendor AND tab_81632.nr = tab_81633.nr AND tab_81636.countryType = 211 AND tab_81631.country = tab_81636.country 
UNION
SELECT tab_82053.vendor, tab_82053.nr, tab_82056.offerWebpage, tab_82056.price, tab_82056.deliveryDays, tab_82055.propertyNum4 
FROM Producer AS tab_82057, Offer AS tab_82056, Offer AS tab_82053, CountryType AS tab_82058, PRODUCTTYPEPRODUCT AS tab_82054, Product AS tab_82055 
WHERE tab_82055.nr = tab_82053.product AND tab_82057.nr = tab_82055.producer AND tab_82055.nr = tab_82054.product AND tab_82054.producttype = 1066 AND tab_82053.vendor = tab_82056.vendor AND tab_82053.nr = tab_82056.nr AND tab_82058.countryType = 212 AND tab_82057.country = tab_82058.country 
UNION
SELECT tab_83194.vendor, tab_83194.nr, tab_83194.offerWebpage, tab_83194.price, tab_83194.deliveryDays, tab_83196.propertyNum1 
FROM PRODUCTTYPEPRODUCT AS tab_83193, Producer AS tab_83195, CountryType AS tab_83197, Product AS tab_83192, PRODUCT AS tab_83191, Offer AS tab_83194, Product AS tab_83196 
WHERE tab_83194.producer = tab_83196.producer AND tab_83194.product = tab_83196.nr AND tab_83193.producttype = 1052 AND tab_83193.product = tab_83191.nr AND tab_83194.producer = tab_83191.producer AND tab_83194.product = tab_83191.nr AND tab_83192.producer = tab_83195.nr AND tab_83194.producer = tab_83192.producer AND tab_83194.product = tab_83192.nr AND tab_83197.countryType = 221 AND tab_83195.country = tab_83197.country 
UNION
SELECT tab_80972.vendor, tab_80972.nr, tab_80972.offerWebpage, tab_80972.price, tab_80972.deliveryDays, tab_80975.propertyNum3 
FROM PRODUCTTYPEPRODUCT AS tab_80974, Producer AS tab_80971, Product AS tab_80975, Offer AS tab_80973, Offer AS tab_80972, CountryType AS tab_80976 
WHERE tab_80975.nr = tab_80973.product AND tab_80971.nr = tab_80975.producer AND tab_80975.nr = tab_80974.product AND tab_80974.producttype = 1056 AND tab_80972.vendor = tab_80973.vendor AND tab_80972.nr = tab_80973.nr AND tab_80976.countryType = 221 AND tab_80971.country = tab_80976.country 
UNION
SELECT tab_81181.vendor, tab_81181.nr, tab_81181.offerWebpage, tab_81181.price, tab_81181.deliveryDays, tab_81182.propertyNum1 
FROM CountryType AS tab_81179, Producer AS tab_81176, Product AS tab_81180, Offer AS tab_81181, PRODUCT AS tab_81178, PRODUCTTYPEPRODUCT AS tab_81177, Product AS tab_81182 
WHERE tab_81177.producttype = 1064 AND tab_81177.product = tab_81178.nr AND tab_81181.producer = tab_81178.producer AND tab_81181.product = tab_81178.nr AND tab_81180.producer = tab_81176.nr AND tab_81181.producer = tab_81180.produce... (255 UNIONs)
60834", color = yellow] ; 
0 -> 1 ; 
2 [label="FunctionCallBindAccess
(<http://www4.wiwiss.fu-berlin.de/bizer/bsbm/v01/instances/dataFromVendor{0}/Offer{1}>, <{2}>, \"{3}\", \"{4}\", \"{5}\")", color = yellow] ; 
0 -> 2 ; 
}
