<?xml version="1.0" encoding="UTF-8" standalone="no"?>
<!DOCTYPE svg PUBLIC "-//W3C//DTD SVG 1.1//EN"
 "http://www.w3.org/Graphics/SVG/1.1/DTD/svg11.dtd">
<!-- Generated by graphviz version 2.40.1 (20161225.0304)
 -->
<!-- Title: g Pages: 1 -->
<svg width="4440pt" height="336pt"
 viewBox="0.00 0.00 4440.00 336.00" xmlns="http://www.w3.org/2000/svg" xmlns:xlink="http://www.w3.org/1999/xlink">
<g id="graph0" class="graph" transform="scale(1 1) rotate(0) translate(4 332)">
<title>g</title>
<polygon fill="#ffffff" stroke="transparent" points="-4,4 -4,-332 4436,-332 4436,4 -4,4"/>
<text text-anchor="middle" x="2216" y="-7.8" font-family="Times,serif" font-size="14.00" fill="#000000">16:31:56.128</text>
<!-- 0 -->
<g id="node1" class="node">
<title>0</title>
<polygon fill="none" stroke="#ffff00" stroke-width="2" points="3024.5,-328 2918.5,-328 2918.5,-292 3024.5,-292 3024.5,-328"/>
<text text-anchor="middle" x="2971.5" y="-306.3" font-family="Times,serif" font-size="14.00" fill="#000000">BindAccessEval</text>
</g>
<!-- 1 -->
<g id="node2" class="node">
<title>1</title>
<polygon fill="none" stroke="#ffff00" stroke-width="2" points="3719,-256 0,-256 0,-23 3719,-23 3719,-256"/>
<text text-anchor="middle" x="1859.5" y="-240.8" font-family="Times,serif" font-size="14.00" fill="#000000">SQLQuery</text>
<text text-anchor="middle" x="1859.5" y="-225.8" font-family="Times,serif" font-size="14.00" fill="#000000">SELECT tab_85193.vendor, tab_85193.nr, tab_85193.offerWebpage, tab_85193.price, tab_85193.deliveryDays, tab_85188.propertyNum1 </text>
<text text-anchor="middle" x="1859.5" y="-210.8" font-family="Times,serif" font-size="14.00" fill="#000000">FROM CountryType AS tab_85185, ProductFeature AS tab_85184, Producer AS tab_85187, ProductFeatureProduct AS tab_85190, Product AS tab_85192, PRODUCTTYPEPRODUCT AS tab_85186, PRODUCT AS tab_85191, Product AS tab_85189, Offer AS tab_85193, Product AS tab_85188 </text>
<text text-anchor="middle" x="1859.5" y="-195.8" font-family="Times,serif" font-size="14.00" fill="#000000">WHERE tab_85189.nr = tab_85190.product AND tab_85190.productFeature = tab_85184.nr AND tab_85184.label = &#39;babka&#39; AND tab_85189.producer = tab_85188.producer AND tab_85189.nr = tab_85188.nr AND tab_85192.producer = tab_85187.nr AND tab_85189.producer = tab_85192.producer AND tab_85189.nr = tab_85192.nr AND tab_85185.countryType = 121 AND tab_85187.country = tab_85185.country AND tab_85186.producttype = 794 AND tab_85186.product = tab_85191.nr AND tab_85189.producer = tab_85191.producer AND tab_85189.nr = tab_85191.nr AND tab_85189.producer = tab_85193.producer AND tab_85189.nr = tab_85193.product </text>
<text text-anchor="middle" x="1859.5" y="-180.8" font-family="Times,serif" font-size="14.00" fill="#000000">UNION</text>
<text text-anchor="middle" x="1859.5" y="-165.8" font-family="Times,serif" font-size="14.00" fill="#000000">SELECT tab_86266.vendor, tab_86266.nr, tab_86266.offerWebpage, tab_86266.price, tab_86266.deliveryDays, tab_86265.propertyNum1 </text>
<text text-anchor="middle" x="1859.5" y="-150.8" font-family="Times,serif" font-size="14.00" fill="#000000">FROM PRODUCTTYPEPRODUCT AS tab_86262, PRODUCT AS tab_86268, Product AS tab_86269, ProductFeature AS tab_86264, Offer AS tab_86266, Producer AS tab_86261, Product AS tab_86263, ProductFeatureProduct AS tab_86267, CountryType AS tab_86270, Product AS tab_86265 </text>
<text text-anchor="middle" x="1859.5" y="-135.8" font-family="Times,serif" font-size="14.00" fill="#000000">WHERE tab_86265.producer = tab_86266.producer AND tab_86265.nr = tab_86266.product AND tab_86269.nr = tab_86267.product AND tab_86267.productFeature = tab_86264.nr AND tab_86264.label = &#39;babka&#39; AND tab_86265.producer = tab_86269.producer AND tab_86265.nr = tab_86269.nr AND tab_86263.producer = tab_86261.nr AND tab_86265.producer = tab_86263.producer AND tab_86265.nr = tab_86263.nr AND tab_86262.producttype = 786 AND tab_86262.product = tab_86268.nr AND tab_86265.producer = tab_86268.producer AND tab_86265.nr = tab_86268.nr AND tab_86270.countryType = 122 AND tab_86261.country = tab_86270.country </text>
<text text-anchor="middle" x="1859.5" y="-120.8" font-family="Times,serif" font-size="14.00" fill="#000000">UNION</text>
<text text-anchor="middle" x="1859.5" y="-105.8" font-family="Times,serif" font-size="14.00" fill="#000000">SELECT tab_86331.vendor, tab_86331.nr, tab_86331.offerWebpage, tab_86331.price, tab_86331.deliveryDays, tab_86329.propertyNum1 </text>
<text text-anchor="middle" x="1859.5" y="-90.8" font-family="Times,serif" font-size="14.00" fill="#000000">FROM ProductFeature AS tab_86332, Product AS tab_86335, Product AS tab_86329, Offer AS tab_86331, CountryType AS tab_86337, PRODUCTTYPEPRODUCT AS tab_86334, PRODUCT AS tab_86336, Producer AS tab_86328, ProductFeatureProduct AS tab_86330, Product AS tab_86333 </text>
<text text-anchor="middle" x="1859.5" y="-75.8" font-family="Times,serif" font-size="14.00" fill="#000000">WHERE tab_86335.nr = tab_86330.product AND tab_86330.productFeature = tab_86332.nr AND tab_86332.label = &#39;babka&#39; AND tab_86335.producer = tab_86331.producer AND tab_86335.nr = tab_86331.product AND tab_86335.producer = tab_86329.producer AND tab_86335.nr = tab_86329.nr AND tab_86333.producer = tab_86328.nr AND tab_86335.producer = tab_86333.producer AND tab_86335.nr = tab_86333.nr AND tab_86334.producttype = 786 AND tab_86334.product = tab_86336.nr AND tab_86335.producer = tab_86336.producer AND tab_86335.nr = tab_86336.nr AND tab_86337.countryType = 121 AND tab_86328.country = tab_86337.country </text>
<text text-anchor="middle" x="1859.5" y="-60.8" font-family="Times,serif" font-size="14.00" fill="#000000">UNION</text>
<text text-anchor="middle" x="1859.5" y="-45.8" font-family="Times,serif" font-size="14.00" fill="#000000">SELECT... (63 UNIONs)</text>
<text text-anchor="middle" x="1859.5" y="-30.8" font-family="Times,serif" font-size="14.00" fill="#000000">7818</text>
</g>
<!-- 0&#45;&gt;1 -->
<g id="edge1" class="edge">
<title>0&#45;&gt;1</title>
<path fill="none" stroke="#000000" d="M2918.2406,-301.8339C2857.8862,-292.5799 2751.8488,-276.3215 2629.4959,-257.5614"/>
<polygon fill="#000000" stroke="#000000" points="2629.9351,-254.0879 2619.5202,-256.0319 2628.8742,-261.0071 2629.9351,-254.0879"/>
</g>
<!-- 2 -->
<g id="node3" class="node">
<title>2</title>
<polygon fill="none" stroke="#ffff00" stroke-width="2" points="4432,-158.5 3737,-158.5 3737,-120.5 4432,-120.5 4432,-158.5"/>
<text text-anchor="middle" x="4084.5" y="-143.3" font-family="Times,serif" font-size="14.00" fill="#000000">FunctionCallBindAccess</text>
<text text-anchor="middle" x="4084.5" y="-128.3" font-family="Times,serif" font-size="14.00" fill="#000000">(&lt;http://www4.wiwiss.fu&#45;berlin.de/bizer/bsbm/v01/instances/dataFromVendor{0}/Offer{1}&gt;, &lt;{2}&gt;, &quot;{3}&quot;, &quot;{4}&quot;, &quot;{5}&quot;)</text>
</g>
<!-- 0&#45;&gt;2 -->
<g id="edge2" class="edge">
<title>0&#45;&gt;2</title>
<path fill="none" stroke="#000000" d="M3024.6773,-307.891C3173.5615,-301.7177 3592.4764,-282.44 3727.5,-256 3837.0335,-234.5514 3959.7236,-189.6894 4028.9885,-162.3211"/>
<polygon fill="#000000" stroke="#000000" points="4030.4008,-165.5262 4038.4006,-158.5797 4027.815,-159.0213 4030.4008,-165.5262"/>
</g>
</g>
</svg>
