digraph  g{ graph[label = "16:31:56.128"]
node [shape=rectangle, color=black, fontcolor=black, style=bold] edge [color=black] 0 [label="BindAccessEval", color = yellow] ; 
1 [label="SQLQuery
SELECT tab_85193.vendor, tab_85193.nr, tab_85193.offerWebpage, tab_85193.price, tab_85193.deliveryDays, tab_85188.propertyNum1 
FROM CountryType AS tab_85185, ProductFeature AS tab_85184, Producer AS tab_85187, ProductFeatureProduct AS tab_85190, Product AS tab_85192, PRODUCTTYPEPRODUCT AS tab_85186, PRODUCT AS tab_85191, Product AS tab_85189, Offer AS tab_85193, Product AS tab_85188 
WHERE tab_85189.nr = tab_85190.product AND tab_85190.productFeature = tab_85184.nr AND tab_85184.label = 'babka' AND tab_85189.producer = tab_85188.producer AND tab_85189.nr = tab_85188.nr AND tab_85192.producer = tab_85187.nr AND tab_85189.producer = tab_85192.producer AND tab_85189.nr = tab_85192.nr AND tab_85185.countryType = 121 AND tab_85187.country = tab_85185.country AND tab_85186.producttype = 794 AND tab_85186.product = tab_85191.nr AND tab_85189.producer = tab_85191.producer AND tab_85189.nr = tab_85191.nr AND tab_85189.producer = tab_85193.producer AND tab_85189.nr = tab_85193.product 
UNION
SELECT tab_86266.vendor, tab_86266.nr, tab_86266.offerWebpage, tab_86266.price, tab_86266.deliveryDays, tab_86265.propertyNum1 
FROM PRODUCTTYPEPRODUCT AS tab_86262, PRODUCT AS tab_86268, Product AS tab_86269, ProductFeature AS tab_86264, Offer AS tab_86266, Producer AS tab_86261, Product AS tab_86263, ProductFeatureProduct AS tab_86267, CountryType AS tab_86270, Product AS tab_86265 
WHERE tab_86265.producer = tab_86266.producer AND tab_86265.nr = tab_86266.product AND tab_86269.nr = tab_86267.product AND tab_86267.productFeature = tab_86264.nr AND tab_86264.label = 'babka' AND tab_86265.producer = tab_86269.producer AND tab_86265.nr = tab_86269.nr AND tab_86263.producer = tab_86261.nr AND tab_86265.producer = tab_86263.producer AND tab_86265.nr = tab_86263.nr AND tab_86262.producttype = 786 AND tab_86262.product = tab_86268.nr AND tab_86265.producer = tab_86268.producer AND tab_86265.nr = tab_86268.nr AND tab_86270.countryType = 122 AND tab_86261.country = tab_86270.country 
UNION
SELECT tab_86331.vendor, tab_86331.nr, tab_86331.offerWebpage, tab_86331.price, tab_86331.deliveryDays, tab_86329.propertyNum1 
FROM ProductFeature AS tab_86332, Product AS tab_86335, Product AS tab_86329, Offer AS tab_86331, CountryType AS tab_86337, PRODUCTTYPEPRODUCT AS tab_86334, PRODUCT AS tab_86336, Producer AS tab_86328, ProductFeatureProduct AS tab_86330, Product AS tab_86333 
WHERE tab_86335.nr = tab_86330.product AND tab_86330.productFeature = tab_86332.nr AND tab_86332.label = 'babka' AND tab_86335.producer = tab_86331.producer AND tab_86335.nr = tab_86331.product AND tab_86335.producer = tab_86329.producer AND tab_86335.nr = tab_86329.nr AND tab_86333.producer = tab_86328.nr AND tab_86335.producer = tab_86333.producer AND tab_86335.nr = tab_86333.nr AND tab_86334.producttype = 786 AND tab_86334.product = tab_86336.nr AND tab_86335.producer = tab_86336.producer AND tab_86335.nr = tab_86336.nr AND tab_86337.countryType = 121 AND tab_86328.country = tab_86337.country 
UNION
SELECT... (63 UNIONs)
7818", color = yellow] ; 
0 -> 1 ; 
2 [label="FunctionCallBindAccess
(<http://www4.wiwiss.fu-berlin.de/bizer/bsbm/v01/instances/dataFromVendor{0}/Offer{1}>, <{2}>, \"{3}\", \"{4}\", \"{5}\")", color = yellow] ; 
0 -> 2 ; 
}
