INPUT	N_ANS	N_TRI	N_REF	N_REW	N_CLASH	N_COVER	T_REF	T_REW	T_CLASH	T_COVER	T_CORE	T_OP	T_QEV	T_TOTAL
Q01	1272	5	7	8	6	2	0	35	0	0	16	3	43	97
Q01a	4376	5	21	16	12	4	0	100	0	1	28	4	99	232
Q01b	22738	5	175	128	96	32	4	829	2	12	210	37	647	1741
Q02	16	6	21	16	12	4	0	461	0	0	23	6	51	541
Q02a	56	6	49	32	24	8	1	1115	2	2	67	13	100	1300
Q02b	174	6	147	64	48	16	6	3216	1	4	88	20	193	3528
Q02c	1342	6	1225	512	384	128	35	26782	6	61	754	177	1502	29317
Q04	91	2	1	8	6	2	1	2	0	0	2	1	8	14
Q05	56200	4	1	8	7	1	0	3	0	0	3	3	333	342
Q05a	33089	4	3	2	N/A	2	0	31	0	0	2	1	189	223
Q05b	50958	4	7	4	N/A	4	1	69	0	0	3	2	362	437
Q06	52208	3	5	2	N/A	2	1	25	0	0	4	1	371	402
Q06a	29377	6	15	4	N/A	4	0	354	0	0	8	5	368	735
Q06b	17815	6	35	8	N/A	8	1	815	1	2	16	10	408	1253
Q08	56200	3	1	1	N/A	1	0	3	0	0	4	3	334	344
Q09	5617	1	7	2	N/A	2	1	15	0	0	4	0	30	50
Q14	56200	3	1	1	N/A	1	0	12	0	0	4	2	353	371
Q15	28100	5	1	4	3	1	0	9	0	0	4	3	292	308
Q16	8114	4	25	16	N/A	16	0	153	0	0	54	14	442	663
Q17	52208	2	5	2	N/A	2	0	18	0	1	4	1	333	357
Q18	56200	4	1	4	3	1	0	8	0	0	7	2	482	499
Q19	2015	9	63	56	N/A	16	2	2809	0	107	120	116	527	3681
Q19a	3515	9	147	112	N/A	32	4	6557	1	217	236	235	1036	8286
Q19b	15511	9	525	448	N/A	128	15	23390	1	875	1008	995	4227	30511
Q20	0	11	21	4	N/A	4	1	1304	0	46	40	57	417	1865
Q20a	236	11	63	8	N/A	8	2	3889	0	93	81	115	1167	5347
Q20b	2312	11	525	64	N/A	64	17	32719	6	754	717	929	8298	43440
Q20c	7564	11	1225	128	N/A	128	43	76545	5	1540	1399	1911	16331	97774
Q21	1085	3	670	1060	566	385	7	806	1	102	53	189	2747	3905
Q01	1272	5	7	8	6	2	0	35	0	1	12	3	40	91
Q01a	4376	5	21	16	12	4	1	101	0	0	23	5	86	216
Q01b	22738	5	175	128	96	32	3	841	2	7	195	34	591	1673
Q02	16	6	21	16	12	4	0	454	1	2	23	6	50	536
Q02a	56	6	49	32	24	8	1	1070	0	4	44	10	99	1228
Q02b	174	6	147	64	48	16	2	3184	1	6	88	19	191	3491
Q02c	1342	6	1225	512	384	128	29	26465	5	48	742	171	1491	28951
Q04	91	2	1	8	6	2	0	3	0	0	1	1	8	13
Q05	56200	4	1	8	7	1	0	3	0	0	3	2	309	317
Q05a	33089	4	3	2	N/A	2	0	31	0	0	1	1	189	222
Q05b	50958	4	7	4	N/A	4	0	72	0	0	7	2	344	425
Q06	52208	3	5	2	N/A	2	0	26	0	1	4	2	372	405
Q06a	29377	6	15	4	N/A	4	1	350	0	1	9	5	360	726
Q06b	17815	6	35	8	N/A	8	0	813	1	2	16	9	403	1244
Q08	56200	3	1	1	N/A	1	0	2	0	0	5	2	351	360
Q09	5617	1	7	2	N/A	2	0	14	0	0	4	0	30	48
Q14	56200	3	1	1	N/A	1	0	12	0	0	4	2	338	356
Q15	28100	5	1	4	3	1	0	10	0	0	4	2	296	312
Q16	8114	4	25	16	N/A	16	0	154	0	0	61	13	432	660
Q17	52208	2	5	2	N/A	2	0	20	0	0	3	1	345	369
Q18	56200	4	1	4	3	1	0	8	0	0	6	2	464	480
Q19	2015	9	63	56	N/A	16	1	2817	3	107	121	121	526	3696
Q19a	3515	9	147	112	N/A	32	4	6578	1	218	241	241	1035	8318
Q19b	15511	9	525	448	N/A	128	15	23539	4	905	1057	1031	4221	30772
Q20	0	11	21	4	N/A	4	1	1325	0	48	41	59	418	1892
Q20a	236	11	63	8	N/A	8	2	3930	0	95	81	118	876	5102
Q20b	2312	11	525	64	N/A	64	17	32836	2	783	687	973	8685	43983
Q20c	7564	11	1225	128	N/A	128	51	75911	9	1580	1405	1922	16770	97648
Q21	1085	3	670	1060	566	385	6	762	1	103	54	179	2682	3787
Q01	1272	5	7	8	6	2	0	33	1	0	12	2	39	87
Q01a	4376	5	21	16	12	4	0	97	0	1	23	5	86	212
Q01b	22738	5	175	128	96	32	2	841	0	7	184	34	597	1665
Q02	16	6	21	16	12	4	0	473	0	0	22	5	50	550
Q02a	56	6	49	32	24	8	1	1073	1	2	48	10	95	1230
Q02b	174	6	147	64	48	16	3	3192	1	5	90	20	192	3503
Q02c	1342	6	1225	512	384	128	25	26512	3	60	770	198	1475	29043
Q04	91	2	1	8	6	2	0	2	0	0	1	1	7	11
Q05	56200	4	1	8	7	1	0	2	0	0	3	3	308	316
Q05a	33089	4	3	2	N/A	2	0	30	0	0	2	1	192	225
Q05b	50958	4	7	4	N/A	4	0	72	0	0	3	2	354	431
Q06	52208	3	5	2	N/A	2	1	25	0	0	4	1	381	412
Q06a	29377	6	15	4	N/A	4	0	346	1	1	8	4	369	729
Q06b	17815	6	35	8	N/A	8	1	821	1	2	16	9	409	1259
Q08	56200	3	1	1	N/A	1	0	2	0	0	5	2	362	371
Q09	5617	1	7	2	N/A	2	0	14	0	0	3	1	29	47
Q14	56200	3	1	1	N/A	1	0	11	0	0	4	2	343	360
Q15	28100	5	1	4	3	1	0	9	0	0	4	2	301	316
Q16	8114	4	25	16	N/A	16	0	152	0	1	56	14	458	681
Q17	52208	2	5	2	N/A	2	0	20	0	0	3	1	336	360
Q18	56200	4	1	4	3	1	0	8	0	0	6	2	470	486
Q19	2015	9	63	56	N/A	16	2	2825	2	112	123	120	526	3710
Q19a	3515	9	147	112	N/A	32	4	6645	0	222	243	260	1034	8408
Q19b	15511	9	525	448	N/A	128	15	23547	3	917	1036	1005	4205	30728
Q20	0	11	21	4	N/A	4	0	1342	0	47	40	59	406	1894
Q20a	236	11	63	8	N/A	8	2	4054	0	105	82	117	877	5237
Q20b	2312	11	525	64	N/A	64	17	32590	3	801	700	959	8571	43641
Q20c	7564	11	1225	128	N/A	128	55	75790	8	1572	1381	1956	18534	99296
Q21	1085	3	670	1060	566	385	7	775	5	102	53	161	2767	3870
Q01	1272	5	7	8	6	2	0	35	0	0	11	3	41	90
Q01a	4376	5	21	16	12	4	0	97	1	0	23	5	85	211
Q01b	22738	5	175	128	96	32	3	827	0	10	192	35	611	1678
Q02	16	6	21	16	12	4	1	473	0	1	22	5	49	551
Q02a	56	6	49	32	24	8	1	1062	0	1	50	12	97	1223
Q02b	174	6	147	64	48	16	4	3185	0	8	89	20	191	3497
Q02c	1342	6	1225	512	384	128	25	26410	4	58	751	175	1508	28931
Q04	91	2	1	8	6	2	0	3	0	0	1	1	8	13
Q05	56200	4	1	8	7	1	0	2	0	0	4	2	317	325
Q05a	33089	4	3	2	N/A	2	0	31	0	0	1	1	187	220
Q05b	50958	4	7	4	N/A	4	0	69	0	0	3	2	357	431
Q06	52208	3	5	2	N/A	2	0	23	0	1	4	2	388	418
Q06a	29377	6	15	4	N/A	4	1	360	0	1	8	5	366	741
Q06b	17815	6	35	8	N/A	8	1	818	0	1	21	9	403	1253
Q08	56200	3	1	1	N/A	1	0	2	0	0	5	1	353	361
Q09	5617	1	7	2	N/A	2	0	13	0	0	4	0	30	47
Q14	56200	3	1	1	N/A	1	1	11	0	0	4	1	352	369
Q15	28100	5	1	4	3	1	0	10	0	0	5	2	296	313
Q16	8114	4	25	16	N/A	16	0	152	0	0	54	13	452	671
Q17	52208	2	5	2	N/A	2	0	18	0	1	4	1	334	358
Q18	56200	4	1	4	3	1	0	8	0	0	6	2	498	514
Q19	2015	9	63	56	N/A	16	2	3016	0	120	119	121	530	3908
Q19a	3515	9	147	112	N/A	32	4	6617	3	219	236	241	1043	8363
Q19b	15511	9	525	448	N/A	128	15	23320	4	897	1020	985	4200	30441
Q20	0	11	21	4	N/A	4	1	1319	1	47	41	58	477	1944
Q20a	236	11	63	8	N/A	8	2	3928	0	95	81	117	1254	5477
Q20b	2312	11	525	64	N/A	64	17	32473	3	776	673	956	6927	41825
Q20c	7564	11	1225	128	N/A	128	42	76153	6	1568	1513	1926	15122	96330
Q21	1085	3	670	1060	566	385	5	760	3	105	53	197	2755	3878
Q01	1272	5	7	8	6	2	0	34	0	1	11	3	39	88
Q01a	4376	5	21	16	12	4	0	97	0	1	22	5	82	207
Q01b	22738	5	175	128	96	32	2	823	2	6	203	33	597	1666
Q02	16	6	21	16	12	4	1	468	0	0	23	5	50	547
Q02a	56	6	49	32	24	8	1	1080	0	1	45	10	95	1232
Q02b	174	6	147	64	48	16	2	3202	0	4	89	19	192	3508
Q02c	1342	6	1225	512	384	128	25	26453	4	58	737	179	1484	28940
Q04	91	2	1	8	6	2	0	3	0	0	1	1	8	13
Q05	56200	4	1	8	7	1	0	2	0	0	4	1	340	347
Q05a	33089	4	3	2	N/A	2	0	30	0	0	1	1	188	220
Q05b	50958	4	7	4	N/A	4	0	69	0	0	3	1	360	433
Q06	52208	3	5	2	N/A	2	0	23	0	1	4	1	371	400
Q06a	29377	6	15	4	N/A	4	0	371	0	1	8	5	363	748
Q06b	17815	6	35	8	N/A	8	1	810	0	1	16	9	404	1241
Q08	56200	3	1	1	N/A	1	0	2	0	0	5	1	340	348
Q09	5617	1	7	2	N/A	2	0	13	0	0	12	1	29	55
Q14	56200	3	1	1	N/A	1	1	11	0	0	4	1	333	350
Q15	28100	5	1	4	3	1	0	9	0	0	4	2	306	321
Q16	8114	4	25	16	N/A	16	1	151	0	1	54	13	433	653
Q17	52208	2	5	2	N/A	2	0	23	0	0	4	1	362	390
Q18	56200	4	1	4	3	1	0	8	0	0	6	2	439	455
Q19	2015	9	63	56	N/A	16	2	2793	0	111	117	120	523	3666
Q19a	3515	9	147	112	N/A	32	4	6593	0	218	256	239	1045	8355
Q19b	15511	9	525	448	N/A	128	15	23384	7	894	945	1003	4216	30464
Q20	0	11	21	4	N/A	4	0	1324	0	48	40	59	418	1889
Q20a	236	11	63	8	N/A	8	1	3895	0	96	81	117	1233	5423
Q20b	2312	11	525	64	N/A	64	17	32424	5	777	644	951	9707	44525
Q20c	7564	11	1225	128	N/A	128	41	75461	7	1579	1284	1919	18768	99059
Q21	1085	3	670	1060	566	385	5	864	0	105	55	165	2718	3912
Q03	19	5	525	128	N/A	64	8	8574	2	44	1065	141	781	10615
Q07	2	3	5	194	N/A	194	0	45	0	12	17	147	999	1220
Q07a	3	3	19	776	N/A	388	0	173	1	101	34	219	2098	2626
Q10	9	3	670	786	N/A	586	5	5291	3	191	61	237	3203	8991
Q10a	14	3	2132	3144	N/A	1172	19	16796	2	1148	120	715	6832	25632
Q10b	24	3	5300	9432	N/A	2344	49	42037	16	5788	242	2387	14360	64879
Q11	116	5	11052	48	42	1	153	100696	9	7	2	1	8	100876
Q03	19	5	525	128	N/A	64	8	8710	3	37	1099	110	778	10745
Q07	2	3	5	194	N/A	194	1	47	1	12	17	84	1005	1167
Q07a	3	3	19	776	N/A	388	0	172	1	123	32	237	2170	2735
Q10	9	3	670	786	N/A	586	5	5285	1	175	62	254	3139	8921
Q10a	14	3	2132	3144	N/A	1172	17	16774	2	1204	120	711	6758	25586
Q10b	24	3	5300	9432	N/A	2344	50	42446	11	5553	290	2306	14282	64938
Q11	116	5	11052	48	42	1	230	101269	10	2	2	1	7	101521
Q03	19	5	525	128	N/A	64	7	8647	2	39	1098	102	759	10654
Q07	2	3	5	194	N/A	194	0	44	0	12	16	98	984	1154
Q07a	3	3	19	776	N/A	388	0	172	0	99	32	250	2065	2618
Q10	9	3	670	786	N/A	586	5	5275	1	182	61	235	3133	8892
Q10a	14	3	2132	3144	N/A	1172	19	16927	5	1115	123	783	6614	25586
Q10b	24	3	5300	9432	N/A	2344	49	42232	11	5518	242	2408	14185	64645
Q11	116	5	11052	48	42	1	164	101135	6	5	2	1	7	101320
Q03	19	5	525	128	N/A	64	8	8680	0	45	1100	99	746	10678
Q07	2	3	5	194	N/A	194	0	45	0	12	16	82	993	1148
Q07a	3	3	19	776	N/A	388	0	173	0	102	32	274	2051	2632
Q10	9	3	670	786	N/A	586	5	5369	0	193	61	241	3185	9054
Q10a	14	3	2132	3144	N/A	1172	19	17124	7	1206	157	714	6722	25949
Q10b	24	3	5300	9432	N/A	2344	51	42530	11	5184	247	2564	14288	64875
Q11	116	5	11052	48	42	1	155	101164	13	2	2	1	8	101345
Q03	19	5	525	128	N/A	64	8	8711	1	38	1102	105	753	10718
Q07	2	3	5	194	N/A	194	0	61	0	12	16	88	983	1160
Q07a	3	3	19	776	N/A	388	0	172	0	100	32	261	2064	2629
Q10	9	3	670	786	N/A	586	5	5289	2	177	61	265	3087	8886
Q10a	14	3	2132	3144	N/A	1172	17	16916	3	1067	121	692	6725	25541
Q10b	24	3	5300	9432	N/A	2344	47	42506	12	5949	280	2334	14233	65361
Q11	116	5	11052	48	42	1	164	101110	8	4	2	1	7	101296
