<?xml version="1.0" encoding="UTF-8" standalone="no"?>
<!DOCTYPE svg PUBLIC "-//W3C//DTD SVG 1.1//EN"
 "http://www.w3.org/Graphics/SVG/1.1/DTD/svg11.dtd">
<!-- Generated by graphviz version 2.40.1 (20161225.0304)
 -->
<!-- Title: g Pages: 1 -->
<svg width="1755pt" height="366pt"
 viewBox="0.00 0.00 1754.50 366.00" xmlns="http://www.w3.org/2000/svg" xmlns:xlink="http://www.w3.org/1999/xlink">
<g id="graph0" class="graph" transform="scale(1 1) rotate(0) translate(4 362)">
<title>g</title>
<polygon fill="#ffffff" stroke="transparent" points="-4,4 -4,-362 1750.5,-362 1750.5,4 -4,4"/>
<text text-anchor="middle" x="873.25" y="-7.8" font-family="Times,serif" font-size="14.00" fill="#000000">14:30:6.145</text>
<!-- 0 -->
<g id="node1" class="node">
<title>0</title>
<polygon fill="none" stroke="#ffff00" stroke-width="2" points="1282.5,-358 1176.5,-358 1176.5,-322 1282.5,-322 1282.5,-358"/>
<text text-anchor="middle" x="1229.5" y="-336.3" font-family="Times,serif" font-size="14.00" fill="#000000">BindAccessEval</text>
</g>
<!-- 1 -->
<g id="node2" class="node">
<title>1</title>
<polygon fill="none" stroke="#ffff00" stroke-width="2" points="1577,-286 0,-286 0,-23 1577,-23 1577,-286"/>
<text text-anchor="middle" x="788.5" y="-270.8" font-family="Times,serif" font-size="14.00" fill="#000000">SQLQuery</text>
<text text-anchor="middle" x="788.5" y="-255.8" font-family="Times,serif" font-size="14.00" fill="#000000">SELECT tab_38.label, tab_41.label, tab_38.propertyNum1 </text>
<text text-anchor="middle" x="788.5" y="-240.8" font-family="Times,serif" font-size="14.00" fill="#000000">FROM ProductFeature AS tab_41, ProductFeatureProduct AS tab_40, PRODUCTTYPEPRODUCT AS tab_37, Product AS tab_38, Product AS tab_39, PRODUCT AS tab_36 </text>
<text text-anchor="middle" x="788.5" y="-225.8" font-family="Times,serif" font-size="14.00" fill="#000000">WHERE tab_37.producttype = 56 AND tab_37.product = tab_36.nr AND tab_36.producer = tab_38.producer AND tab_36.nr = tab_38.nr AND tab_39.nr = tab_40.product AND tab_40.productFeature = tab_41.nr AND tab_36.producer = tab_39.producer AND tab_36.nr = tab_39.nr </text>
<text text-anchor="middle" x="788.5" y="-210.8" font-family="Times,serif" font-size="14.00" fill="#000000">UNION</text>
<text text-anchor="middle" x="788.5" y="-195.8" font-family="Times,serif" font-size="14.00" fill="#000000">SELECT tab_32.label, tab_31.label, tab_32.propertyNum2 </text>
<text text-anchor="middle" x="788.5" y="-180.8" font-family="Times,serif" font-size="14.00" fill="#000000">FROM Product AS tab_30, ProductFeature AS tab_31, Product AS tab_32, PRODUCT AS tab_27, ProductFeatureProduct AS tab_29, PRODUCTTYPEPRODUCT AS tab_28 </text>
<text text-anchor="middle" x="788.5" y="-165.8" font-family="Times,serif" font-size="14.00" fill="#000000">WHERE tab_28.producttype = 56 AND tab_28.product = tab_27.nr AND tab_30.nr = tab_29.product AND tab_29.productFeature = tab_31.nr AND tab_27.producer = tab_30.producer AND tab_27.nr = tab_30.nr AND tab_27.producer = tab_32.producer AND tab_27.nr = tab_32.nr </text>
<text text-anchor="middle" x="788.5" y="-150.8" font-family="Times,serif" font-size="14.00" fill="#000000">UNION</text>
<text text-anchor="middle" x="788.5" y="-135.8" font-family="Times,serif" font-size="14.00" fill="#000000">SELECT tab_46.label, tab_50.label, tab_46.propertyNum1 </text>
<text text-anchor="middle" x="788.5" y="-120.8" font-family="Times,serif" font-size="14.00" fill="#000000">FROM ProductFeature AS tab_50, PRODUCTTYPEPRODUCT AS tab_47, Product AS tab_46, PRODUCT AS tab_45, ProductFeatureProduct AS tab_49, Product AS tab_48 </text>
<text text-anchor="middle" x="788.5" y="-105.8" font-family="Times,serif" font-size="14.00" fill="#000000">WHERE tab_47.producttype = 57 AND tab_47.product = tab_45.nr AND tab_45.producer = tab_46.producer AND tab_45.nr = tab_46.nr AND tab_48.nr = tab_49.product AND tab_49.productFeature = tab_50.nr AND tab_45.producer = tab_48.producer AND tab_45.nr = tab_48.nr </text>
<text text-anchor="middle" x="788.5" y="-90.8" font-family="Times,serif" font-size="14.00" fill="#000000">UNION</text>
<text text-anchor="middle" x="788.5" y="-75.8" font-family="Times,serif" font-size="14.00" fill="#000000">SELECT tab_61.label, tab_57.label, tab_61.propertyNum2 </text>
<text text-anchor="middle" x="788.5" y="-60.8" font-family="Times,serif" font-size="14.00" fill="#000000">FROM Product AS tab_60, Product AS tab_61, PRODUCTTYPEPRODUCT AS tab_58, ProductFeature AS tab_57, PRODUCT AS tab_56, ProductFeatureProduct AS tab_59 </text>
<text text-anchor="middle" x="788.5" y="-45.8" font-family="Times,serif" font-size="14.00" fill="#000000">WHERE tab_60.nr = tab_59.product AND tab_59.productFeature = tab_57.nr AND tab_58.producttype = 57 AND tab_58.product = tab_56.nr AND tab_60.producer = tab_56.producer AND tab_60.nr = tab_56.nr AND tab_60.producer = tab_61.producer AND tab_60.nr = tab_61.nr</text>
<text text-anchor="middle" x="788.5" y="-30.8" font-family="Times,serif" font-size="14.00" fill="#000000">4376</text>
</g>
<!-- 0&#45;&gt;1 -->
<g id="edge1" class="edge">
<title>0&#45;&gt;1</title>
<path fill="none" stroke="#000000" d="M1186.4121,-321.8757C1166.1709,-313.3616 1140.0745,-302.3845 1110.9324,-290.1263"/>
<polygon fill="#000000" stroke="#000000" points="1111.942,-286.754 1101.3672,-286.1029 1109.2279,-293.2064 1111.942,-286.754"/>
</g>
<!-- 2 -->
<g id="node3" class="node">
<title>2</title>
<polygon fill="none" stroke="#ffff00" stroke-width="2" points="1746.5,-173.5 1594.5,-173.5 1594.5,-135.5 1746.5,-135.5 1746.5,-173.5"/>
<text text-anchor="middle" x="1670.5" y="-158.3" font-family="Times,serif" font-size="14.00" fill="#000000">FunctionCallBindAccess</text>
<text text-anchor="middle" x="1670.5" y="-143.3" font-family="Times,serif" font-size="14.00" fill="#000000">(&quot;{0}&quot;, &quot;{1}&quot;, &quot;{2}&quot;)</text>
</g>
<!-- 0&#45;&gt;2 -->
<g id="edge2" class="edge">
<title>0&#45;&gt;2</title>
<path fill="none" stroke="#000000" d="M1282.7949,-337.2387C1369.5286,-331.8776 1536.4758,-317.683 1585.5,-286 1623.2007,-261.6351 1647.6308,-213.9894 1660.2242,-183.2343"/>
<polygon fill="#000000" stroke="#000000" points="1663.495,-184.4804 1663.8988,-173.8933 1656.9809,-181.9178 1663.495,-184.4804"/>
</g>
</g>
</svg>
