digraph  g{ graph[label = "14:30:7.5"]
node [shape=rectangle, color=black, fontcolor=black, style=bold] edge [color=black] 0 [label="BindAccessEval", color = yellow] ; 
1 [label="SQLQuery
SELECT tab_410.label, tab_410.propertyNum2, tab_411.country 
FROM PRODUCT AS tab_412, Product AS tab_409, Producer AS tab_411, CountryType AS tab_414, PRODUCTTYPEPRODUCT AS tab_413, Product AS tab_410 
WHERE tab_409.producer = tab_411.nr AND tab_409.producer = tab_410.producer AND tab_409.nr = tab_410.nr AND tab_413.producttype = 110 AND tab_413.product = tab_412.nr AND tab_409.producer = tab_412.producer AND tab_409.nr = tab_412.nr AND tab_414.countryType = 121 AND tab_411.country = tab_414.country 
UNION
SELECT tab_438.label, tab_438.propertyNum1, tab_437.country 
FROM Product AS tab_439, Producer AS tab_436, Product AS tab_438, PRODUCTTYPEPRODUCT AS tab_441, PRODUCT AS tab_440, CountryType AS tab_437 
WHERE tab_437.countryType = 121 AND tab_439.producer = tab_436.nr AND tab_437.country = tab_436.country AND tab_439.producer = tab_438.producer AND tab_439.nr = tab_438.nr AND tab_441.producttype = 110 AND tab_441.product = tab_440.nr AND tab_439.producer = tab_440.producer AND tab_439.nr = tab_440.nr 
UNION
SELECT tab_425.label, tab_425.propertyNum1, tab_424.country 
FROM Producer AS tab_424, PRODUCT AS tab_423, Product AS tab_427, Product AS tab_425, PRODUCTTYPEPRODUCT AS tab_426, CountryType AS tab_428 
WHERE tab_427.producer = tab_424.nr AND tab_425.producer = tab_427.producer AND tab_425.nr = tab_427.nr AND tab_426.producttype = 110 AND tab_426.product = tab_423.nr AND tab_425.producer = tab_423.producer AND tab_425.nr = tab_423.nr AND tab_428.countryType = 122 AND tab_424.country = tab_428.country 
UNION
SELECT tab_396.label, tab_396.propertyNum2, tab_397.country 
FROM PRODUCT AS tab_398, CountryType AS tab_400, PRODUCTTYPEPRODUCT AS tab_399, Product AS tab_396, Product AS tab_395, Producer AS tab_397 
WHERE tab_399.producttype = 110 AND tab_399.product = tab_398.nr AND tab_396.producer = tab_398.producer AND tab_396.nr = tab_398.nr AND tab_395.producer = tab_397.nr AND tab_396.producer = tab_395.producer AND tab_396.nr = tab_395.nr AND tab_400.countryType = 122 AND tab_397.country = tab_400.country
16", color = yellow] ; 
0 -> 1 ; 
2 [label="FunctionCallBindAccess
(\"{0}\", \"{1}\", <http://downlode.org/rdf/iso-3166/countries#{2}>)", color = yellow] ; 
0 -> 2 ; 
}
