<?xml version="1.0" encoding="UTF-8" standalone="no"?>
<!DOCTYPE svg PUBLIC "-//W3C//DTD SVG 1.1//EN"
 "http://www.w3.org/Graphics/SVG/1.1/DTD/svg11.dtd">
<!-- Generated by graphviz version 2.40.1 (20161225.0304)
 -->
<!-- Title: g Pages: 1 -->
<svg width="2276pt" height="366pt"
 viewBox="0.00 0.00 2276.00 366.00" xmlns="http://www.w3.org/2000/svg" xmlns:xlink="http://www.w3.org/1999/xlink">
<g id="graph0" class="graph" transform="scale(1 1) rotate(0) translate(4 362)">
<title>g</title>
<polygon fill="#ffffff" stroke="transparent" points="-4,4 -4,-362 2272,-362 2272,4 -4,4"/>
<text text-anchor="middle" x="1134" y="-7.8" font-family="Times,serif" font-size="14.00" fill="#000000">14:30:7.5</text>
<!-- 0 -->
<g id="node1" class="node">
<title>0</title>
<polygon fill="none" stroke="#ffff00" stroke-width="2" points="1559,-358 1453,-358 1453,-322 1559,-322 1559,-358"/>
<text text-anchor="middle" x="1506" y="-336.3" font-family="Times,serif" font-size="14.00" fill="#000000">BindAccessEval</text>
</g>
<!-- 1 -->
<g id="node2" class="node">
<title>1</title>
<polygon fill="none" stroke="#ffff00" stroke-width="2" points="1870,-286 0,-286 0,-23 1870,-23 1870,-286"/>
<text text-anchor="middle" x="935" y="-270.8" font-family="Times,serif" font-size="14.00" fill="#000000">SQLQuery</text>
<text text-anchor="middle" x="935" y="-255.8" font-family="Times,serif" font-size="14.00" fill="#000000">SELECT tab_410.label, tab_410.propertyNum2, tab_411.country </text>
<text text-anchor="middle" x="935" y="-240.8" font-family="Times,serif" font-size="14.00" fill="#000000">FROM PRODUCT AS tab_412, Product AS tab_409, Producer AS tab_411, CountryType AS tab_414, PRODUCTTYPEPRODUCT AS tab_413, Product AS tab_410 </text>
<text text-anchor="middle" x="935" y="-225.8" font-family="Times,serif" font-size="14.00" fill="#000000">WHERE tab_409.producer = tab_411.nr AND tab_409.producer = tab_410.producer AND tab_409.nr = tab_410.nr AND tab_413.producttype = 110 AND tab_413.product = tab_412.nr AND tab_409.producer = tab_412.producer AND tab_409.nr = tab_412.nr AND tab_414.countryType = 121 AND tab_411.country = tab_414.country </text>
<text text-anchor="middle" x="935" y="-210.8" font-family="Times,serif" font-size="14.00" fill="#000000">UNION</text>
<text text-anchor="middle" x="935" y="-195.8" font-family="Times,serif" font-size="14.00" fill="#000000">SELECT tab_438.label, tab_438.propertyNum1, tab_437.country </text>
<text text-anchor="middle" x="935" y="-180.8" font-family="Times,serif" font-size="14.00" fill="#000000">FROM Product AS tab_439, Producer AS tab_436, Product AS tab_438, PRODUCTTYPEPRODUCT AS tab_441, PRODUCT AS tab_440, CountryType AS tab_437 </text>
<text text-anchor="middle" x="935" y="-165.8" font-family="Times,serif" font-size="14.00" fill="#000000">WHERE tab_437.countryType = 121 AND tab_439.producer = tab_436.nr AND tab_437.country = tab_436.country AND tab_439.producer = tab_438.producer AND tab_439.nr = tab_438.nr AND tab_441.producttype = 110 AND tab_441.product = tab_440.nr AND tab_439.producer = tab_440.producer AND tab_439.nr = tab_440.nr </text>
<text text-anchor="middle" x="935" y="-150.8" font-family="Times,serif" font-size="14.00" fill="#000000">UNION</text>
<text text-anchor="middle" x="935" y="-135.8" font-family="Times,serif" font-size="14.00" fill="#000000">SELECT tab_425.label, tab_425.propertyNum1, tab_424.country </text>
<text text-anchor="middle" x="935" y="-120.8" font-family="Times,serif" font-size="14.00" fill="#000000">FROM Producer AS tab_424, PRODUCT AS tab_423, Product AS tab_427, Product AS tab_425, PRODUCTTYPEPRODUCT AS tab_426, CountryType AS tab_428 </text>
<text text-anchor="middle" x="935" y="-105.8" font-family="Times,serif" font-size="14.00" fill="#000000">WHERE tab_427.producer = tab_424.nr AND tab_425.producer = tab_427.producer AND tab_425.nr = tab_427.nr AND tab_426.producttype = 110 AND tab_426.product = tab_423.nr AND tab_425.producer = tab_423.producer AND tab_425.nr = tab_423.nr AND tab_428.countryType = 122 AND tab_424.country = tab_428.country </text>
<text text-anchor="middle" x="935" y="-90.8" font-family="Times,serif" font-size="14.00" fill="#000000">UNION</text>
<text text-anchor="middle" x="935" y="-75.8" font-family="Times,serif" font-size="14.00" fill="#000000">SELECT tab_396.label, tab_396.propertyNum2, tab_397.country </text>
<text text-anchor="middle" x="935" y="-60.8" font-family="Times,serif" font-size="14.00" fill="#000000">FROM PRODUCT AS tab_398, CountryType AS tab_400, PRODUCTTYPEPRODUCT AS tab_399, Product AS tab_396, Product AS tab_395, Producer AS tab_397 </text>
<text text-anchor="middle" x="935" y="-45.8" font-family="Times,serif" font-size="14.00" fill="#000000">WHERE tab_399.producttype = 110 AND tab_399.product = tab_398.nr AND tab_396.producer = tab_398.producer AND tab_396.nr = tab_398.nr AND tab_395.producer = tab_397.nr AND tab_396.producer = tab_395.producer AND tab_396.nr = tab_395.nr AND tab_400.countryType = 122 AND tab_397.country = tab_400.country</text>
<text text-anchor="middle" x="935" y="-30.8" font-family="Times,serif" font-size="14.00" fill="#000000">16</text>
</g>
<!-- 0&#45;&gt;1 -->
<g id="edge1" class="edge">
<title>0&#45;&gt;1</title>
<path fill="none" stroke="#000000" d="M1452.7945,-322.7152C1425.6257,-313.8889 1389.85,-302.2665 1349.7648,-289.2441"/>
<polygon fill="#000000" stroke="#000000" points="1350.6353,-285.8469 1340.0432,-286.0858 1348.4724,-292.5044 1350.6353,-285.8469"/>
</g>
<!-- 2 -->
<g id="node3" class="node">
<title>2</title>
<polygon fill="none" stroke="#ffff00" stroke-width="2" points="2268,-173.5 1888,-173.5 1888,-135.5 2268,-135.5 2268,-173.5"/>
<text text-anchor="middle" x="2078" y="-158.3" font-family="Times,serif" font-size="14.00" fill="#000000">FunctionCallBindAccess</text>
<text text-anchor="middle" x="2078" y="-143.3" font-family="Times,serif" font-size="14.00" fill="#000000">(&quot;{0}&quot;, &quot;{1}&quot;, &lt;http://downlode.org/rdf/iso&#45;3166/countries#{2}&gt;)</text>
</g>
<!-- 0&#45;&gt;2 -->
<g id="edge2" class="edge">
<title>0&#45;&gt;2</title>
<path fill="none" stroke="#000000" d="M1559.1585,-335.1932C1647.7658,-326.7007 1821.597,-307.8595 1879,-286 1945.02,-260.8591 2011.4218,-210.8286 2048.3781,-180.246"/>
<polygon fill="#000000" stroke="#000000" points="2050.8241,-182.763 2056.245,-173.66 2046.3305,-177.3956 2050.8241,-182.763"/>
</g>
</g>
</svg>
