<?xml version="1.0" encoding="UTF-8" standalone="no"?>
<!DOCTYPE svg PUBLIC "-//W3C//DTD SVG 1.1//EN"
 "http://www.w3.org/Graphics/SVG/1.1/DTD/svg11.dtd">
<!-- Generated by graphviz version 2.40.1 (20161225.0304)
 -->
<!-- Title: g Pages: 1 -->
<svg width="2378pt" height="486pt"
 viewBox="0.00 0.00 2377.50 486.00" xmlns="http://www.w3.org/2000/svg" xmlns:xlink="http://www.w3.org/1999/xlink">
<g id="graph0" class="graph" transform="scale(1 1) rotate(0) translate(4 482)">
<title>g</title>
<polygon fill="#ffffff" stroke="transparent" points="-4,4 -4,-482 2373.5,-482 2373.5,4 -4,4"/>
<text text-anchor="middle" x="1184.75" y="-7.8" font-family="Times,serif" font-size="14.00" fill="#000000">14:30:9.203</text>
<!-- 0 -->
<g id="node1" class="node">
<title>0</title>
<polygon fill="none" stroke="#ffff00" stroke-width="2" points="1635.5,-478 1529.5,-478 1529.5,-442 1635.5,-442 1635.5,-478"/>
<text text-anchor="middle" x="1582.5" y="-456.3" font-family="Times,serif" font-size="14.00" fill="#000000">BindAccessEval</text>
</g>
<!-- 1 -->
<g id="node2" class="node">
<title>1</title>
<polygon fill="none" stroke="#ffff00" stroke-width="2" points="1971,-406 0,-406 0,-23 1971,-23 1971,-406"/>
<text text-anchor="middle" x="985.5" y="-390.8" font-family="Times,serif" font-size="14.00" fill="#000000">SQLQuery</text>
<text text-anchor="middle" x="985.5" y="-375.8" font-family="Times,serif" font-size="14.00" fill="#000000">SELECT tab_2403.label, tab_2403.propertyNum2, tab_2401.country </text>
<text text-anchor="middle" x="985.5" y="-360.8" font-family="Times,serif" font-size="14.00" fill="#000000">FROM CountryType AS tab_2405, PRODUCTTYPEPRODUCT AS tab_2400, Product AS tab_2403, Product AS tab_2404, PRODUCT AS tab_2402, Producer AS tab_2401 </text>
<text text-anchor="middle" x="985.5" y="-345.8" font-family="Times,serif" font-size="14.00" fill="#000000">WHERE tab_2400.producttype = 57 AND tab_2400.product = tab_2402.nr AND tab_2403.producer = tab_2402.producer AND tab_2403.nr = tab_2402.nr AND tab_2404.producer = tab_2401.nr AND tab_2403.producer = tab_2404.producer AND tab_2403.nr = tab_2404.nr AND tab_2405.countryType = 122 AND tab_2401.country = tab_2405.country </text>
<text text-anchor="middle" x="985.5" y="-330.8" font-family="Times,serif" font-size="14.00" fill="#000000">UNION</text>
<text text-anchor="middle" x="985.5" y="-315.8" font-family="Times,serif" font-size="14.00" fill="#000000">SELECT tab_1951.label, tab_1951.propertyNum2, tab_1950.country </text>
<text text-anchor="middle" x="985.5" y="-300.8" font-family="Times,serif" font-size="14.00" fill="#000000">FROM PRODUCT AS tab_1954, PRODUCTTYPEPRODUCT AS tab_1953, Product AS tab_1952, Producer AS tab_1950, Product AS tab_1951, CountryType AS tab_1955 </text>
<text text-anchor="middle" x="985.5" y="-285.8" font-family="Times,serif" font-size="14.00" fill="#000000">WHERE tab_1952.producer = tab_1950.nr AND tab_1951.producer = tab_1952.producer AND tab_1951.nr = tab_1952.nr AND tab_1953.producttype = 69 AND tab_1953.product = tab_1954.nr AND tab_1951.producer = tab_1954.producer AND tab_1951.nr = tab_1954.nr AND tab_1955.countryType = 121 AND tab_1950.country = tab_1955.country </text>
<text text-anchor="middle" x="985.5" y="-270.8" font-family="Times,serif" font-size="14.00" fill="#000000">UNION</text>
<text text-anchor="middle" x="985.5" y="-255.8" font-family="Times,serif" font-size="14.00" fill="#000000">SELECT tab_986.label, tab_986.propertyNum2, tab_985.country </text>
<text text-anchor="middle" x="985.5" y="-240.8" font-family="Times,serif" font-size="14.00" fill="#000000">FROM Producer AS tab_985, PRODUCT AS tab_987, Product AS tab_988, Product AS tab_986, PRODUCTTYPEPRODUCT AS tab_984, CountryType AS tab_989 </text>
<text text-anchor="middle" x="985.5" y="-225.8" font-family="Times,serif" font-size="14.00" fill="#000000">WHERE tab_984.producttype = 59 AND tab_984.product = tab_987.nr AND tab_987.producer = tab_986.producer AND tab_987.nr = tab_986.nr AND tab_988.producer = tab_985.nr AND tab_987.producer = tab_988.producer AND tab_987.nr = tab_988.nr AND tab_989.countryType = 122 AND tab_985.country = tab_989.country </text>
<text text-anchor="middle" x="985.5" y="-210.8" font-family="Times,serif" font-size="14.00" fill="#000000">UNION</text>
<text text-anchor="middle" x="985.5" y="-195.8" font-family="Times,serif" font-size="14.00" fill="#000000">SELECT tab_1685.label, tab_1685.propertyNum2, tab_1682.country </text>
<text text-anchor="middle" x="985.5" y="-180.8" font-family="Times,serif" font-size="14.00" fill="#000000">FROM CountryType AS tab_1687, PRODUCT AS tab_1684, Producer AS tab_1682, PRODUCTTYPEPRODUCT AS tab_1683, Product AS tab_1686, Product AS tab_1685 </text>
<text text-anchor="middle" x="985.5" y="-165.8" font-family="Times,serif" font-size="14.00" fill="#000000">WHERE tab_1686.producer = tab_1682.nr AND tab_1683.producttype = 60 AND tab_1683.product = tab_1684.nr AND tab_1686.producer = tab_1684.producer AND tab_1686.nr = tab_1684.nr AND tab_1686.producer = tab_1685.producer AND tab_1686.nr = tab_1685.nr AND tab_1687.countryType = 122 AND tab_1682.country = tab_1687.country </text>
<text text-anchor="middle" x="985.5" y="-150.8" font-family="Times,serif" font-size="14.00" fill="#000000">UNION</text>
<text text-anchor="middle" x="985.5" y="-135.8" font-family="Times,serif" font-size="14.00" fill="#000000">SELECT tab_918.label, tab_918.propertyNum2, tab_915.country </text>
<text text-anchor="middle" x="985.5" y="-120.8" font-family="Times,serif" font-size="14.00" fill="#000000">FROM PRODUCTTYPEPRODUCT AS tab_917, CountryType AS tab_919, Product AS tab_914, PRODUCT AS tab_916, Product AS tab_918, Producer AS tab_915 </text>
<text text-anchor="middle" x="985.5" y="-105.8" font-family="Times,serif" font-size="14.00" fill="#000000">WHERE tab_914.producer = tab_915.nr AND tab_917.producttype = 67 AND tab_917.product = tab_916.nr AND tab_914.producer = tab_916.producer AND tab_914.nr = tab_916.nr AND tab_914.producer = tab_918.producer AND tab_914.nr = tab_918.nr AND tab_919.countryType = 111 AND tab_915.country = tab_919.country </text>
<text text-anchor="middle" x="985.5" y="-90.8" font-family="Times,serif" font-size="14.00" fill="#000000">UNION</text>
<text text-anchor="middle" x="985.5" y="-75.8" font-family="Times,serif" font-size="14.00" fill="#000000">SELECT tab_1060.label, tab_1060.propertyNum1, tab_1058.country </text>
<text text-anchor="middle" x="985.5" y="-60.8" font-family="Times,serif" font-size="14.00" fill="#000000">FROM Product AS tab_1055, PRODUCTTYPEPRODUCT AS tab_1059, PRODUCT AS tab_1057, CountryType AS tab_1058, Product AS tab_1060, Producer AS tab_1056 </text>
<text text-anchor="middle" x="985.5" y="-45.8" font-family="Times,serif" font-size="14.00" fill="#000000">WHERE tab_1058.countryType = 122 AND tab_1055.producer = tab_1056.nr AND tab_1058.country = tab_1056.country AND tab_1059.producttype = 65 AND tab_1059.product... (127 UNIONs)</text>
<text text-anchor="middle" x="985.5" y="-30.8" font-family="Times,serif" font-size="14.00" fill="#000000">1342</text>
</g>
<!-- 0&#45;&gt;1 -->
<g id="edge1" class="edge">
<title>0&#45;&gt;1</title>
<path fill="none" stroke="#000000" d="M1538.6012,-441.9478C1518.1025,-433.5183 1491.4723,-422.5673 1460.9872,-410.0312"/>
<polygon fill="#000000" stroke="#000000" points="1461.9847,-406.657 1451.405,-406.0908 1459.3225,-413.131 1461.9847,-406.657"/>
</g>
<!-- 2 -->
<g id="node3" class="node">
<title>2</title>
<polygon fill="none" stroke="#ffff00" stroke-width="2" points="2369.5,-233.5 1989.5,-233.5 1989.5,-195.5 2369.5,-195.5 2369.5,-233.5"/>
<text text-anchor="middle" x="2179.5" y="-218.3" font-family="Times,serif" font-size="14.00" fill="#000000">FunctionCallBindAccess</text>
<text text-anchor="middle" x="2179.5" y="-203.3" font-family="Times,serif" font-size="14.00" fill="#000000">(&quot;{0}&quot;, &quot;{1}&quot;, &lt;http://downlode.org/rdf/iso&#45;3166/countries#{2}&gt;)</text>
</g>
<!-- 0&#45;&gt;2 -->
<g id="edge2" class="edge">
<title>0&#45;&gt;2</title>
<path fill="none" stroke="#000000" d="M1635.5889,-456.8836C1729.5133,-450.7016 1920.7092,-434.921 1980.5,-406 2060.0506,-367.5212 2128.2013,-285.1917 2160.1352,-242.0942"/>
<polygon fill="#000000" stroke="#000000" points="2163.141,-243.9128 2166.2115,-233.7726 2157.4877,-239.7848 2163.141,-243.9128"/>
</g>
</g>
</svg>
