digraph  g{ graph[label = "14:30:10.857"]
node [shape=rectangle, color=black, fontcolor=black, style=bold] edge [color=black] 0 [label="BindAccessEval", color = yellow] ; 
1 [label="SQLQuery
SELECT tab_2827.producer, tab_2827.nr, tab_2824.producer, tab_2824.nr 
FROM PRODUCT AS tab_2824, PRODUCTTYPEPRODUCT AS tab_2825, PRODUCTTYPEPRODUCT AS tab_2829, Product AS tab_2826, Product AS tab_2827, PRODUCT AS tab_2828 
WHERE tab_2825.producttype = 71 AND tab_2825.product = tab_2824.nr AND tab_2824.producer = tab_2826.producer AND tab_2824.nr = tab_2826.nr AND tab_2827.propertyNum2 = '774' AND tab_2826.producer = tab_2827.producer AND tab_2829.producttype = 64 AND tab_2829.product = tab_2828.nr AND tab_2827.producer = tab_2828.producer AND tab_2827.nr = tab_2828.nr 
UNION
SELECT tab_2887.producer, tab_2887.nr, tab_2889.producer, tab_2889.nr 
FROM Product AS tab_2887, Product AS tab_2889, PRODUCTTYPEPRODUCT AS tab_2888, PRODUCT AS tab_2891, PRODUCT AS tab_2890, PRODUCTTYPEPRODUCT AS tab_2892 
WHERE tab_2887.propertyNum1 = '774' AND tab_2888.producttype = 64 AND tab_2888.product = tab_2890.nr AND tab_2887.producer = tab_2890.producer AND tab_2887.nr = tab_2890.nr AND tab_2887.producer = tab_2889.producer AND tab_2892.producttype = 57 AND tab_2892.product = tab_2891.nr AND tab_2889.producer = tab_2891.producer AND tab_2889.nr = tab_2891.nr 
UNION
SELECT tab_2849.producer, tab_2849.nr, tab_2850.producer, tab_2850.nr 
FROM Product AS tab_2850, PRODUCTTYPEPRODUCT AS tab_2854, PRODUCTTYPEPRODUCT AS tab_2851, PRODUCT AS tab_2853, PRODUCT AS tab_2852, Product AS tab_2849 
WHERE tab_2849.propertyNum2 = '774' AND tab_2849.producer = tab_2850.producer AND tab_2851.producttype = 65 AND tab_2851.product = tab_2852.nr AND tab_2850.producer = tab_2852.producer AND tab_2850.nr = tab_2852.nr AND tab_2854.producttype = 65 AND tab_2854.product = tab_2853.nr AND tab_2849.producer = tab_2853.producer AND tab_2849.nr = tab_2853.nr 
UNION
SELECT tab_3310.producer, tab_3310.nr, tab_3313.producer, tab_3313.nr 
FROM Product AS tab_3313, PRODUCTTYPEPRODUCT AS tab_3315, PRODUCT AS tab_3314, PRODUCT AS tab_3310, PRODUCTTYPEPRODUCT AS tab_3312, Product AS tab_3311 
WHERE tab_3312.producttype = 65 AND tab_3312.product = tab_3310.nr AND tab_3311.propertyNum2 = '774' AND tab_3310.producer = tab_3311.producer AND tab_3310.nr = tab_3311.nr AND tab_3311.producer = tab_3313.producer AND tab_3315.producttype = 66 AND tab_3315.product = tab_3314.nr AND tab_3313.producer = tab_3314.producer AND tab_3313.nr = tab_3314.nr 
UNION
SELECT tab_2748.producer, tab_2748.nr, tab_2749.producer, tab_2749.nr 
FROM PRODUCT AS tab_2747, PRODUCTTYPEPRODUCT AS tab_2752, PRODUCT AS tab_2751, Product AS tab_2748, Product AS tab_2749, PRODUCTTYPEPRODUCT AS tab_2750 
WHERE tab_2748.propertyNum2 = '774' AND tab_2748.producer = tab_2749.producer AND tab_2750.producttype = 57 AND tab_2750.product = tab_2747.nr AND tab_2749.producer = tab_2747.producer AND tab_2749.nr = tab_2747.nr AND tab_2752.producttype = 65 AND tab_2752.product = tab_2751.nr AND tab_2748.producer = tab_2751.producer AND tab_2748.nr = tab_2751.nr 
UNION
SELECT tab_2928.producer, tab_2928.nr, tab_2925.producer, tab_2925.nr 
FROM PRODUCTTY... (63 UNIONs)
19", color = yellow] ; 
0 -> 1 ; 
2 [label="FunctionCallBindAccess
(<http://www4.wiwiss.fu-berlin.de/bizer/bsbm/v01/instances/dataFromProducer{0}/Product{1}>, <http://www4.wiwiss.fu-berlin.de/bizer/bsbm/v01/instances/dataFromProducer{2}/Product{3}>)", color = yellow] ; 
0 -> 2 ; 
}
