<?xml version="1.0" encoding="UTF-8" standalone="no"?>
<!DOCTYPE svg PUBLIC "-//W3C//DTD SVG 1.1//EN"
 "http://www.w3.org/Graphics/SVG/1.1/DTD/svg11.dtd">
<!-- Generated by graphviz version 2.40.1 (20161225.0304)
 -->
<!-- Title: g Pages: 1 -->
<svg width="3290pt" height="471pt"
 viewBox="0.00 0.00 3290.00 471.00" xmlns="http://www.w3.org/2000/svg" xmlns:xlink="http://www.w3.org/1999/xlink">
<g id="graph0" class="graph" transform="scale(1 1) rotate(0) translate(4 467)">
<title>g</title>
<polygon fill="#ffffff" stroke="transparent" points="-4,4 -4,-467 3286,-467 3286,4 -4,4"/>
<text text-anchor="middle" x="1641" y="-7.8" font-family="Times,serif" font-size="14.00" fill="#000000">14:30:10.857</text>
<!-- 0 -->
<g id="node1" class="node">
<title>0</title>
<polygon fill="none" stroke="#ffff00" stroke-width="2" points="1967,-463 1861,-463 1861,-427 1967,-427 1967,-463"/>
<text text-anchor="middle" x="1914" y="-441.3" font-family="Times,serif" font-size="14.00" fill="#000000">BindAccessEval</text>
</g>
<!-- 1 -->
<g id="node2" class="node">
<title>1</title>
<polygon fill="none" stroke="#ffff00" stroke-width="2" points="2178,-391 0,-391 0,-23 2178,-23 2178,-391"/>
<text text-anchor="middle" x="1089" y="-375.8" font-family="Times,serif" font-size="14.00" fill="#000000">SQLQuery</text>
<text text-anchor="middle" x="1089" y="-360.8" font-family="Times,serif" font-size="14.00" fill="#000000">SELECT tab_2827.producer, tab_2827.nr, tab_2824.producer, tab_2824.nr </text>
<text text-anchor="middle" x="1089" y="-345.8" font-family="Times,serif" font-size="14.00" fill="#000000">FROM PRODUCT AS tab_2824, PRODUCTTYPEPRODUCT AS tab_2825, PRODUCTTYPEPRODUCT AS tab_2829, Product AS tab_2826, Product AS tab_2827, PRODUCT AS tab_2828 </text>
<text text-anchor="middle" x="1089" y="-330.8" font-family="Times,serif" font-size="14.00" fill="#000000">WHERE tab_2825.producttype = 71 AND tab_2825.product = tab_2824.nr AND tab_2824.producer = tab_2826.producer AND tab_2824.nr = tab_2826.nr AND tab_2827.propertyNum2 = &#39;774&#39; AND tab_2826.producer = tab_2827.producer AND tab_2829.producttype = 64 AND tab_2829.product = tab_2828.nr AND tab_2827.producer = tab_2828.producer AND tab_2827.nr = tab_2828.nr </text>
<text text-anchor="middle" x="1089" y="-315.8" font-family="Times,serif" font-size="14.00" fill="#000000">UNION</text>
<text text-anchor="middle" x="1089" y="-300.8" font-family="Times,serif" font-size="14.00" fill="#000000">SELECT tab_2887.producer, tab_2887.nr, tab_2889.producer, tab_2889.nr </text>
<text text-anchor="middle" x="1089" y="-285.8" font-family="Times,serif" font-size="14.00" fill="#000000">FROM Product AS tab_2887, Product AS tab_2889, PRODUCTTYPEPRODUCT AS tab_2888, PRODUCT AS tab_2891, PRODUCT AS tab_2890, PRODUCTTYPEPRODUCT AS tab_2892 </text>
<text text-anchor="middle" x="1089" y="-270.8" font-family="Times,serif" font-size="14.00" fill="#000000">WHERE tab_2887.propertyNum1 = &#39;774&#39; AND tab_2888.producttype = 64 AND tab_2888.product = tab_2890.nr AND tab_2887.producer = tab_2890.producer AND tab_2887.nr = tab_2890.nr AND tab_2887.producer = tab_2889.producer AND tab_2892.producttype = 57 AND tab_2892.product = tab_2891.nr AND tab_2889.producer = tab_2891.producer AND tab_2889.nr = tab_2891.nr </text>
<text text-anchor="middle" x="1089" y="-255.8" font-family="Times,serif" font-size="14.00" fill="#000000">UNION</text>
<text text-anchor="middle" x="1089" y="-240.8" font-family="Times,serif" font-size="14.00" fill="#000000">SELECT tab_2849.producer, tab_2849.nr, tab_2850.producer, tab_2850.nr </text>
<text text-anchor="middle" x="1089" y="-225.8" font-family="Times,serif" font-size="14.00" fill="#000000">FROM Product AS tab_2850, PRODUCTTYPEPRODUCT AS tab_2854, PRODUCTTYPEPRODUCT AS tab_2851, PRODUCT AS tab_2853, PRODUCT AS tab_2852, Product AS tab_2849 </text>
<text text-anchor="middle" x="1089" y="-210.8" font-family="Times,serif" font-size="14.00" fill="#000000">WHERE tab_2849.propertyNum2 = &#39;774&#39; AND tab_2849.producer = tab_2850.producer AND tab_2851.producttype = 65 AND tab_2851.product = tab_2852.nr AND tab_2850.producer = tab_2852.producer AND tab_2850.nr = tab_2852.nr AND tab_2854.producttype = 65 AND tab_2854.product = tab_2853.nr AND tab_2849.producer = tab_2853.producer AND tab_2849.nr = tab_2853.nr </text>
<text text-anchor="middle" x="1089" y="-195.8" font-family="Times,serif" font-size="14.00" fill="#000000">UNION</text>
<text text-anchor="middle" x="1089" y="-180.8" font-family="Times,serif" font-size="14.00" fill="#000000">SELECT tab_3310.producer, tab_3310.nr, tab_3313.producer, tab_3313.nr </text>
<text text-anchor="middle" x="1089" y="-165.8" font-family="Times,serif" font-size="14.00" fill="#000000">FROM Product AS tab_3313, PRODUCTTYPEPRODUCT AS tab_3315, PRODUCT AS tab_3314, PRODUCT AS tab_3310, PRODUCTTYPEPRODUCT AS tab_3312, Product AS tab_3311 </text>
<text text-anchor="middle" x="1089" y="-150.8" font-family="Times,serif" font-size="14.00" fill="#000000">WHERE tab_3312.producttype = 65 AND tab_3312.product = tab_3310.nr AND tab_3311.propertyNum2 = &#39;774&#39; AND tab_3310.producer = tab_3311.producer AND tab_3310.nr = tab_3311.nr AND tab_3311.producer = tab_3313.producer AND tab_3315.producttype = 66 AND tab_3315.product = tab_3314.nr AND tab_3313.producer = tab_3314.producer AND tab_3313.nr = tab_3314.nr </text>
<text text-anchor="middle" x="1089" y="-135.8" font-family="Times,serif" font-size="14.00" fill="#000000">UNION</text>
<text text-anchor="middle" x="1089" y="-120.8" font-family="Times,serif" font-size="14.00" fill="#000000">SELECT tab_2748.producer, tab_2748.nr, tab_2749.producer, tab_2749.nr </text>
<text text-anchor="middle" x="1089" y="-105.8" font-family="Times,serif" font-size="14.00" fill="#000000">FROM PRODUCT AS tab_2747, PRODUCTTYPEPRODUCT AS tab_2752, PRODUCT AS tab_2751, Product AS tab_2748, Product AS tab_2749, PRODUCTTYPEPRODUCT AS tab_2750 </text>
<text text-anchor="middle" x="1089" y="-90.8" font-family="Times,serif" font-size="14.00" fill="#000000">WHERE tab_2748.propertyNum2 = &#39;774&#39; AND tab_2748.producer = tab_2749.producer AND tab_2750.producttype = 57 AND tab_2750.product = tab_2747.nr AND tab_2749.producer = tab_2747.producer AND tab_2749.nr = tab_2747.nr AND tab_2752.producttype = 65 AND tab_2752.product = tab_2751.nr AND tab_2748.producer = tab_2751.producer AND tab_2748.nr = tab_2751.nr </text>
<text text-anchor="middle" x="1089" y="-75.8" font-family="Times,serif" font-size="14.00" fill="#000000">UNION</text>
<text text-anchor="middle" x="1089" y="-60.8" font-family="Times,serif" font-size="14.00" fill="#000000">SELECT tab_2928.producer, tab_2928.nr, tab_2925.producer, tab_2925.nr </text>
<text text-anchor="middle" x="1089" y="-45.8" font-family="Times,serif" font-size="14.00" fill="#000000">FROM PRODUCTTY... (63 UNIONs)</text>
<text text-anchor="middle" x="1089" y="-30.8" font-family="Times,serif" font-size="14.00" fill="#000000">19</text>
</g>
<!-- 0&#45;&gt;1 -->
<g id="edge1" class="edge">
<title>0&#45;&gt;1</title>
<path fill="none" stroke="#000000" d="M1860.8217,-429.6589C1829.6877,-420.6772 1786.7046,-408.2772 1736.8229,-393.8871"/>
<polygon fill="#000000" stroke="#000000" points="1737.6721,-390.4894 1727.0938,-391.0804 1735.7318,-397.2151 1737.6721,-390.4894"/>
</g>
<!-- 2 -->
<g id="node3" class="node">
<title>2</title>
<polygon fill="none" stroke="#ffff00" stroke-width="2" points="3282,-226 2196,-226 2196,-188 3282,-188 3282,-226"/>
<text text-anchor="middle" x="2739" y="-210.8" font-family="Times,serif" font-size="14.00" fill="#000000">FunctionCallBindAccess</text>
<text text-anchor="middle" x="2739" y="-195.8" font-family="Times,serif" font-size="14.00" fill="#000000">(&lt;http://www4.wiwiss.fu&#45;berlin.de/bizer/bsbm/v01/instances/dataFromProducer{0}/Product{1}&gt;, &lt;http://www4.wiwiss.fu&#45;berlin.de/bizer/bsbm/v01/instances/dataFromProducer{2}/Product{3}&gt;)</text>
</g>
<!-- 0&#45;&gt;2 -->
<g id="edge2" class="edge">
<title>0&#45;&gt;2</title>
<path fill="none" stroke="#000000" d="M1967.0425,-436.5551C2022.3833,-427.2683 2111.4487,-410.9783 2187,-391 2369.1742,-342.8271 2578.9465,-267.1627 2679.3714,-229.6485"/>
<polygon fill="#000000" stroke="#000000" points="2680.8972,-232.8146 2689.0349,-226.0302 2678.4425,-226.259 2680.8972,-232.8146"/>
</g>
</g>
</svg>
