digraph  g{ graph[label = "14:30:11.985"]
node [shape=rectangle, color=black, fontcolor=black, style=bold] edge [color=black] 0 [label="BindAccessEval", color = yellow] ; 
1 [label="SQLQuery
SELECT tab_3449.publisher, tab_3450.nr, tab_3451.producer, tab_3451.product, tab_3451.rating2 
FROM Review AS tab_3450, Review AS tab_3451, Person AS tab_3449 
WHERE tab_3450.person = tab_3449.nr AND tab_3449.publisher = tab_3451.publisher AND tab_3450.nr = tab_3451.nr 
UNION
SELECT tab_3452.publisher, tab_3453.nr, tab_3454.producer, tab_3454.product, tab_3454.rating1 
FROM Person AS tab_3452, Review AS tab_3453, Review AS tab_3454 
WHERE tab_3453.person = tab_3452.nr AND tab_3452.publisher = tab_3454.publisher AND tab_3453.nr = tab_3454.nr
52208", color = yellow] ; 
0 -> 1 ; 
2 [label="FunctionCallBindAccess
(<http://www4.wiwiss.fu-berlin.de/bizer/bsbm/v01/instances/dataFromRatingSite{0}/Review{1}>, <http://www4.wiwiss.fu-berlin.de/bizer/bsbm/v01/instances/dataFromProducer{2}/Product{3}>, \"{4}\")", color = yellow] ; 
0 -> 2 ; 
}
