<?xml version="1.0" encoding="UTF-8" standalone="no"?>
<!DOCTYPE svg PUBLIC "-//W3C//DTD SVG 1.1//EN"
 "http://www.w3.org/Graphics/SVG/1.1/DTD/svg11.dtd">
<!-- Generated by graphviz version 2.40.1 (20161225.0304)
 -->
<!-- Title: g Pages: 1 -->
<svg width="1848pt" height="246pt"
 viewBox="0.00 0.00 1847.50 246.00" xmlns="http://www.w3.org/2000/svg" xmlns:xlink="http://www.w3.org/1999/xlink">
<g id="graph0" class="graph" transform="scale(1 1) rotate(0) translate(4 242)">
<title>g</title>
<polygon fill="#ffffff" stroke="transparent" points="-4,4 -4,-242 1843.5,-242 1843.5,4 -4,4"/>
<text text-anchor="middle" x="919.75" y="-7.8" font-family="Times,serif" font-size="14.00" fill="#000000">14:30:11.985</text>
<!-- 0 -->
<g id="node1" class="node">
<title>0</title>
<polygon fill="none" stroke="#ffff00" stroke-width="2" points="861,-238 755,-238 755,-202 861,-202 861,-238"/>
<text text-anchor="middle" x="808" y="-216.3" font-family="Times,serif" font-size="14.00" fill="#000000">BindAccessEval</text>
</g>
<!-- 1 -->
<g id="node2" class="node">
<title>1</title>
<polygon fill="none" stroke="#ffff00" stroke-width="2" points="688,-166 0,-166 0,-23 688,-23 688,-166"/>
<text text-anchor="middle" x="344" y="-150.8" font-family="Times,serif" font-size="14.00" fill="#000000">SQLQuery</text>
<text text-anchor="middle" x="344" y="-135.8" font-family="Times,serif" font-size="14.00" fill="#000000">SELECT tab_3449.publisher, tab_3450.nr, tab_3451.producer, tab_3451.product, tab_3451.rating2 </text>
<text text-anchor="middle" x="344" y="-120.8" font-family="Times,serif" font-size="14.00" fill="#000000">FROM Review AS tab_3450, Review AS tab_3451, Person AS tab_3449 </text>
<text text-anchor="middle" x="344" y="-105.8" font-family="Times,serif" font-size="14.00" fill="#000000">WHERE tab_3450.person = tab_3449.nr AND tab_3449.publisher = tab_3451.publisher AND tab_3450.nr = tab_3451.nr </text>
<text text-anchor="middle" x="344" y="-90.8" font-family="Times,serif" font-size="14.00" fill="#000000">UNION</text>
<text text-anchor="middle" x="344" y="-75.8" font-family="Times,serif" font-size="14.00" fill="#000000">SELECT tab_3452.publisher, tab_3453.nr, tab_3454.producer, tab_3454.product, tab_3454.rating1 </text>
<text text-anchor="middle" x="344" y="-60.8" font-family="Times,serif" font-size="14.00" fill="#000000">FROM Person AS tab_3452, Review AS tab_3453, Review AS tab_3454 </text>
<text text-anchor="middle" x="344" y="-45.8" font-family="Times,serif" font-size="14.00" fill="#000000">WHERE tab_3453.person = tab_3452.nr AND tab_3452.publisher = tab_3454.publisher AND tab_3453.nr = tab_3454.nr</text>
<text text-anchor="middle" x="344" y="-30.8" font-family="Times,serif" font-size="14.00" fill="#000000">52208</text>
</g>
<!-- 0&#45;&gt;1 -->
<g id="edge1" class="edge">
<title>0&#45;&gt;1</title>
<path fill="none" stroke="#000000" d="M754.7733,-205.6036C719.5344,-196.0723 670.3332,-182.7647 618.1894,-168.6612"/>
<polygon fill="#000000" stroke="#000000" points="618.9885,-165.2516 608.4215,-166.0192 617.1608,-172.0088 618.9885,-165.2516"/>
</g>
<!-- 2 -->
<g id="node3" class="node">
<title>2</title>
<polygon fill="none" stroke="#ffff00" stroke-width="2" points="1839.5,-113.5 706.5,-113.5 706.5,-75.5 1839.5,-75.5 1839.5,-113.5"/>
<text text-anchor="middle" x="1273" y="-98.3" font-family="Times,serif" font-size="14.00" fill="#000000">FunctionCallBindAccess</text>
<text text-anchor="middle" x="1273" y="-83.3" font-family="Times,serif" font-size="14.00" fill="#000000">(&lt;http://www4.wiwiss.fu&#45;berlin.de/bizer/bsbm/v01/instances/dataFromRatingSite{0}/Review{1}&gt;, &lt;http://www4.wiwiss.fu&#45;berlin.de/bizer/bsbm/v01/instances/dataFromProducer{2}/Product{3}&gt;, &quot;{4}&quot;)</text>
</g>
<!-- 0&#45;&gt;2 -->
<g id="edge2" class="edge">
<title>0&#45;&gt;2</title>
<path fill="none" stroke="#000000" d="M861.3414,-205.6036C942.5581,-183.6838 1097.781,-141.7903 1192.68,-116.1778"/>
<polygon fill="#000000" stroke="#000000" points="1193.78,-119.5062 1202.5226,-113.5213 1191.956,-112.748 1193.78,-119.5062"/>
</g>
</g>
</svg>
