digraph  g{ graph[label = "14:30:12.318"]
node [shape=rectangle, color=black, fontcolor=black, style=bold] edge [color=black] 0 [label="BindAccessEval", color = yellow] ; 
1 [label="SQLQuery
SELECT tab_3492.publisher, tab_3492.nr, tab_3492.producer, tab_3492.product, tab_3492.rating2 
FROM Review AS tab_3492, Review AS tab_3493, Producer AS tab_3494, CountryType AS tab_3495, Product AS tab_3490, Person AS tab_3491 
WHERE tab_3493.person = tab_3491.nr AND tab_3492.publisher = tab_3491.publisher AND tab_3492.nr = tab_3493.nr AND tab_3490.producer = tab_3494.nr AND tab_3492.producer = tab_3490.producer AND tab_3492.product = tab_3490.nr AND tab_3495.countryType = 111 AND tab_3494.country = tab_3495.country 
UNION
SELECT tab_3478.publisher, tab_3477.nr, tab_3476.producer, tab_3476.product, tab_3476.rating2 
FROM Person AS tab_3478, CountryType AS tab_3481, Review AS tab_3476, Product AS tab_3480, Review AS tab_3477, Producer AS tab_3479 
WHERE tab_3477.person = tab_3478.nr AND tab_3478.publisher = tab_3476.publisher AND tab_3477.nr = tab_3476.nr AND tab_3480.producer = tab_3479.nr AND tab_3476.producer = tab_3480.producer AND tab_3476.product = tab_3480.nr AND tab_3481.countryType = 112 AND tab_3479.country = tab_3481.country 
UNION
SELECT tab_3465.publisher, tab_3465.nr, tab_3462.producer, tab_3462.nr, tab_3465.rating1 
FROM Person AS tab_3466, CountryType AS tab_3463, Review AS tab_3465, Review AS tab_3467, Producer AS tab_3464, Product AS tab_3462 
WHERE tab_3462.producer = tab_3464.nr AND tab_3462.producer = tab_3465.producer AND tab_3462.nr = tab_3465.product AND tab_3463.countryType = 112 AND tab_3464.country = tab_3463.country AND tab_3467.person = tab_3466.nr AND tab_3465.publisher = tab_3466.publisher AND tab_3465.nr = tab_3467.nr 
UNION
SELECT tab_3505.publisher, tab_3505.nr, tab_3503.producer, tab_3503.nr, tab_3505.rating1 
FROM Producer AS tab_3506, Review AS tab_3508, Product AS tab_3503, Person AS tab_3507, CountryType AS tab_3504, Review AS tab_3505 
WHERE tab_3504.countryType = 111 AND tab_3503.producer = tab_3506.nr AND tab_3504.country = tab_3506.country AND tab_3503.producer = tab_3505.producer AND tab_3503.nr = tab_3505.product AND tab_3508.person = tab_3507.nr AND tab_3505.publisher = tab_3507.publisher AND tab_3505.nr = tab_3508.nr
29377", color = yellow] ; 
0 -> 1 ; 
2 [label="FunctionCallBindAccess
(<http://www4.wiwiss.fu-berlin.de/bizer/bsbm/v01/instances/dataFromRatingSite{0}/Review{1}>, <http://www4.wiwiss.fu-berlin.de/bizer/bsbm/v01/instances/dataFromProducer{2}/Product{3}>, \"{4}\")", color = yellow] ; 
0 -> 2 ; 
}
