digraph  g{ graph[label = "14:31:8.257"]
node [shape=rectangle, color=black, fontcolor=black, style=bold] edge [color=black] 0 [label="BindAccessEval", color = yellow] ; 
1 [label="SQLQuery
SELECT tab_29289.vendor, tab_29289.nr, tab_29289.offerWebpage, tab_29289.price, tab_29289.deliveryDays, tab_29291.propertyNum2 
FROM PRODUCTTYPEPRODUCT AS tab_29288, CountryType AS tab_29287, Producer AS tab_29286, PRODUCT AS tab_29285, Product AS tab_29290, Offer AS tab_29289, Product AS tab_29291 
WHERE tab_29288.producttype = 56 AND tab_29288.product = tab_29285.nr AND tab_29285.producer = tab_29289.producer AND tab_29285.nr = tab_29289.product AND tab_29290.producer = tab_29286.nr AND tab_29285.producer = tab_29290.producer AND tab_29285.nr = tab_29290.nr AND tab_29287.countryType = 121 AND tab_29286.country = tab_29287.country AND tab_29285.producer = tab_29291.producer AND tab_29285.nr = tab_29291.nr 
UNION
SELECT tab_29387.vendor, tab_29387.nr, tab_29387.offerWebpage, tab_29387.price, tab_29387.deliveryDays, tab_29389.propertyNum1 
FROM PRODUCTTYPEPRODUCT AS tab_29388, Product AS tab_29385, Offer AS tab_29387, Producer AS tab_29383, CountryType AS tab_29386, Product AS tab_29389, PRODUCT AS tab_29384 
WHERE tab_29388.producttype = 56 AND tab_29388.product = tab_29384.nr AND tab_29384.producer = tab_29387.producer AND tab_29384.nr = tab_29387.product AND tab_29385.producer = tab_29383.nr AND tab_29384.producer = tab_29385.producer AND tab_29384.nr = tab_29385.nr AND tab_29386.countryType = 121 AND tab_29383.country = tab_29386.country AND tab_29384.producer = tab_29389.producer AND tab_29384.nr = tab_29389.nr 
UNION
SELECT tab_29169.vendor, tab_29169.nr, tab_29174.offerWebpage, tab_29174.price, tab_29174.deliveryDays, tab_29171.propertyNum4 
FROM Producer AS tab_29173, Offer AS tab_29174, PRODUCTTYPEPRODUCT AS tab_29170, CountryType AS tab_29172, Offer AS tab_29169, Product AS tab_29171 
WHERE tab_29172.countryType = 122 AND tab_29171.nr = tab_29169.product AND tab_29173.nr = tab_29171.producer AND tab_29171.nr = tab_29170.product AND tab_29170.producttype = 56 AND tab_29172.country = tab_29173.country AND tab_29169.vendor = tab_29174.vendor AND tab_29169.nr = tab_29174.nr 
UNION
SELECT tab_29325.vendor, tab_29325.nr, tab_29325.offerWebpage, tab_29325.price, tab_29325.deliveryDays, tab_29328.propertyNum1 
FROM Producer AS tab_29329, PRODUCTTYPEPRODUCT AS tab_29331, PRODUCT AS tab_29330, Product AS tab_29327, Product AS tab_29328, CountryType AS tab_29326, Offer AS tab_29325 
WHERE tab_29326.countryType = 121 AND tab_29327.producer = tab_29329.nr AND tab_29326.country = tab_29329.country AND tab_29327.producer = tab_29325.producer AND tab_29327.nr = tab_29325.product AND tab_29327.producer = tab_29328.producer AND tab_29327.nr = tab_29328.nr AND tab_29331.producttype = 57 AND tab_29331.product = tab_29330.nr AND tab_29327.producer = tab_29330.producer AND tab_29327.nr = tab_29330.nr 
UNION
SELECT tab_29180.vendor, tab_29180.nr, tab_29184.offerWebpage, tab_29184.price, tab_29184.deliveryDays, tab_29181.propertyNum3 
FROM Producer AS tab_29183, Offer AS tab_29184, PRODUCTTYPEPRODUCT AS tab_29182, CountryType AS tab_29185, Offer AS tab_29180, P... (15 UNIONs)
2015", color = yellow] ; 
0 -> 1 ; 
2 [label="FunctionCallBindAccess
(<http://www4.wiwiss.fu-berlin.de/bizer/bsbm/v01/instances/dataFromVendor{0}/Offer{1}>, <{2}>, \"{3}\", \"{4}\", \"{5}\")", color = yellow] ; 
0 -> 2 ; 
}
