digraph  g{ graph[label = "14:31:46.428"]
node [shape=rectangle, color=black, fontcolor=black, style=bold] edge [color=black] 0 [label="HashDistinct", color = yellow] ; 
1 [label="Union", color = yellow] ; 
0 -> 1 ; 
2 [label="BindAccessEval", color = yellow] ; 
1 -> 2 ; 
3 [label="BindAccessEval", color = yellow] ; 
2 -> 3 ; 
4 [label="SQLQuery
SELECT tab_40797.nr, tab_40797.producer 
FROM ProductFeature AS tab_40799, PRODUCT AS tab_40800, PRODUCTTYPEPRODUCT AS tab_40801, Product AS tab_40797, ProductFeatureProduct AS tab_40798  
WHERE tab_40797.nr = tab_40798.product AND tab_40798.productFeature = tab_40799.nr AND tab_40799.label = 'biographies' AND tab_40801.producttype = 65 AND tab_40801.product = tab_40800.nr AND tab_40797.producer = tab_40800.producer AND tab_40797.nr = tab_40800.nr
17", color = yellow] ; 
3 -> 4 ; 
5 [label="FunctionCallBindAccess
(<http://www4.wiwiss.fu-berlin.de/bizer/bsbm/v01/instances/dataFromProducer{1}/Product{0}>)", color = yellow] ; 
3 -> 5 ; 
6 [label="FunctionCallBindAccess
AddConstant{1=(\"<http://www4.wiwiss.fu-berlin.de/bizer/bsbm/v01/instances/ProductType65>\")}", color = yellow] ; 
2 -> 6 ; 
8 [label="BindAccessEval", color = yellow] ; 
1 -> 8 ; 
9 [label="BindAccessEval", color = yellow] ; 
8 -> 9 ; 
10 [label="SQLQuery
SELECT tab_40802.nr, tab_40802.producer 
FROM PRODUCTTYPEPRODUCT AS tab_40806, PRODUCT AS tab_40805, ProductFeatureProduct AS tab_40803, ProductFeature AS tab_40804, Product AS tab_40802  
WHERE tab_40802.nr = tab_40803.product AND tab_40803.productFeature = tab_40804.nr AND tab_40804.label = 'biographies' AND tab_40806.producttype = 64 AND tab_40806.product = tab_40805.nr AND tab_40802.producer = tab_40805.producer AND tab_40802.nr = tab_40805.nr
11", color = yellow] ; 
9 -> 10 ; 
11 [label="FunctionCallBindAccess
(<http://www4.wiwiss.fu-berlin.de/bizer/bsbm/v01/instances/dataFromProducer{1}/Product{0}>)", color = yellow] ; 
9 -> 11 ; 
12 [label="FunctionCallBindAccess
AddConstant{1=(\"<http://www4.wiwiss.fu-berlin.de/bizer/bsbm/v01/instances/ProductType12>\")}", color = yellow] ; 
8 -> 12 ; 
14 [label="BindAccessEval", color = yellow] ; 
1 -> 14 ; 
15 [label="BindAccessEval", color = yellow] ; 
14 -> 15 ; 
16 [label="SQLQuery
SELECT tab_40807.nr, tab_40807.producer 
FROM PRODUCTTYPEPRODUCT AS tab_40808, Product AS tab_40809, ProductFeature AS tab_40811, PRODUCT AS tab_40807, ProductFeatureProduct AS tab_40810  
WHERE tab_40808.producttype = 65 AND tab_40808.product = tab_40807.nr AND tab_40809.nr = tab_40810.product AND tab_40810.productFeature = tab_40811.nr AND tab_40811.label = 'biographies' AND tab_40807.producer = tab_40809.producer AND tab_40807.nr = tab_40809.nr
17", color = yellow] ; 
15 -> 16 ; 
17 [label="FunctionCallBindAccess
(<http://www4.wiwiss.fu-berlin.de/bizer/bsbm/v01/instances/dataFromProducer{1}/Product{0}>)", color = yellow] ; 
15 -> 17 ; 
18 [label="FunctionCallBindAccess
AddConstant{1=(\"<http://www4.wiwiss.fu-berlin.de/bizer/bsbm/v01/instances/ProductType12>\")}", color = yellow] ; 
14 -> 18 ; 
20 [label="BindAccessEval", color = yellow] ; 
1 -> 20 ; 
21 [label="BindAccessEval", color = yellow] ; 
20 -> 21 ; 
22 [label="SQLQuery
SELECT tab_40812.nr, tab_40812.producer 
FROM PRODUCTTYPEPRODUCT AS tab_40816, ProductFeatureProduct AS tab_40813, ProductFeature AS tab_40814, PRODUCT AS tab_40815, Product AS tab_40812  
WHERE tab_40812.nr = tab_40813.product AND tab_40813.productFeature = tab_40814.nr AND tab_40814.label = 'biographies' AND tab_40816.producttype = 69 AND tab_40816.product = tab_40815.nr AND tab_40812.producer = tab_40815.producer AND tab_40812.nr = tab_40815.nr
13", color = yellow] ; 
21 -> 22 ; 
23 [label="FunctionCallBindAccess
(<http://www4.wiwiss.fu-berlin.de/bizer/bsbm/v01/instances/dataFromProducer{1}/Product{0}>)", color = yellow] ; 
21 -> 23 ; 
24 [label="FunctionCallBindAccess
AddConstant{1=(\"<http://www4.wiwiss.fu-berlin.de/bizer/bsbm/v01/instances/ProductType69>\")}", color = yellow] ; 
20 -> 24 ; 
26 [label="BindAccessEval", color = yellow] ; 
1 -> 26 ; 
27 [label="BindAccessEval", color = yellow] ; 
26 -> 27 ; 
28 [label="SQLQuery
SELECT tab_40817.nr, tab_40817.producer 
FROM PRODUCT AS tab_40820, Product AS tab_40817, ProductFeatureProduct AS tab_40818, PRODUCTTYPEPRODUCT AS tab_40821, ProductFeature AS tab_40819  
WHERE tab_40817.nr = tab_40818.product AND tab_40818.productFeature = tab_40819.nr AND tab_40819.label = 'biographies' AND tab_40821.producttype = 60 AND tab_40821.product = tab_40820.nr AND tab_40817.producer = tab_40820.producer AND tab_40817.nr = tab_40820.nr
16", color = yellow] ; 
27 -> 28 ; 
29 [label="FunctionCallBindAccess
(<http://www4.wiwiss.fu-berlin.de/bizer/bsbm/v01/instances/dataFromProducer{1}/Product{0}>)", color = yellow] ; 
27 -> 29 ; 
30 [label="FunctionCallBindAccess
AddConstant{1=(\"<http://www4.wiwiss.fu-berlin.de/bizer/bsbm/v01/instances/ProductType10>\")}", color = yellow] ; 
26 -> 30 ; 
32 [label="BindAccessEval", color = yellow] ; 
1 -> 32 ; 
33 [label="BindAccessEval", color = yellow] ; 
32 -> 33 ; 
34 [label="SQLQuery
SELECT tab_40822.nr, tab_40822.producer 
FROM PRODUCT AS tab_40822, PRODUCTTYPEPRODUCT AS tab_40823, ProductFeatureProduct AS tab_40825, ProductFeature AS tab_40826, Product AS tab_40824  
WHERE tab_40823.producttype = 61 AND tab_40823.product = tab_40822.nr AND tab_40824.nr = tab_40825.product AND tab_40825.productFeature = tab_40826.nr AND tab_40826.label = 'biographies' AND tab_40822.producer = tab_40824.producer AND tab_40822.nr = tab_40824.nr
17", color = yellow] ; 
33 -> 34 ; 
35 [label="FunctionCallBindAccess
(<http://www4.wiwiss.fu-berlin.de/bizer/bsbm/v01/instances/dataFromProducer{1}/Product{0}>)", color = yellow] ; 
33 -> 35 ; 
36 [label="FunctionCallBindAccess
AddConstant{1=(\"<http://www4.wiwiss.fu-berlin.de/bizer/bsbm/v01/instances/ProductType10>\")}", color = yellow] ; 
32 -> 36 ; 
38 [label="BindAccessEval", color = yellow] ; 
1 -> 38 ; 
39 [label="BindAccessEval", color = yellow] ; 
38 -> 39 ; 
40 [label="SQLQuery
SELECT tab_40827.nr, tab_40827.producer 
FROM ProductFeature AS tab_40831, PRODUCTTYPEPRODUCT AS tab_40828, Product AS tab_40829, PRODUCT AS tab_40827, ProductFeatureProduct AS tab_40830  
WHERE tab_40828.producttype = 68 AND tab_40828.product = tab_40827.nr AND tab_40829.nr = tab_40830.product AND tab_40830.productFeature = tab_40831.nr AND tab_40831.label = 'biographies' AND tab_40827.producer = tab_40829.producer AND tab_40827.nr = tab_40829.nr
19", color = yellow] ; 
39 -> 40 ; 
41 [label="FunctionCallBindAccess
(<http://www4.wiwiss.fu-berlin.de/bizer/bsbm/v01/instances/dataFromProducer{1}/Product{0}>)", color = yellow] ; 
39 -> 41 ; 
42 [label="FunctionCallBindAccess
AddConstant{1=(\"<http://www4.wiwiss.fu-berlin.de/bizer/bsbm/v01/instances/ProductType14>\")}", color = yellow] ; 
38 -> 42 ; 
44 [label="BindAccessEval", color = yellow] ; 
1 -> 44 ; 
45 [label="BindAccessEval", color = yellow] ; 
44 -> 45 ; 
46 [label="SQLQuery
SELECT tab_40832.nr, tab_40832.producer 
FROM PRODUCT AS tab_40832, PRODUCTTYPEPRODUCT AS tab_40833, ProductFeatureProduct AS tab_40835, ProductFeature AS tab_40836, Product AS tab_40834  
WHERE tab_40833.producttype = 69 AND tab_40833.product = tab_40832.nr AND tab_40834.nr = tab_40835.product AND tab_40835.productFeature = tab_40836.nr AND tab_40836.label = 'biographies' AND tab_40832.producer = tab_40834.producer AND tab_40832.nr = tab_40834.nr
13", color = yellow] ; 
45 -> 46 ; 
47 [label="FunctionCallBindAccess
(<http://www4.wiwiss.fu-berlin.de/bizer/bsbm/v01/instances/dataFromProducer{1}/Product{0}>)", color = yellow] ; 
45 -> 47 ; 
48 [label="FunctionCallBindAccess
AddConstant{1=(\"<http://www4.wiwiss.fu-berlin.de/bizer/bsbm/v01/instances/ProductType14>\")}", color = yellow] ; 
44 -> 48 ; 
50 [label="BindAccessEval", color = yellow] ; 
1 -> 50 ; 
51 [label="BindAccessEval", color = yellow] ; 
50 -> 51 ; 
52 [label="SQLQuery
SELECT tab_40837.nr, tab_40837.producer 
FROM ProductFeature AS tab_40841, Product AS tab_40839, PRODUCTTYPEPRODUCT AS tab_40838, PRODUCT AS tab_40837, ProductFeatureProduct AS tab_40840  
WHERE tab_40838.producttype = 67 AND tab_40838.product = tab_40837.nr AND tab_40839.nr = tab_40840.product AND tab_40840.productFeature = tab_40841.nr AND tab_40841.label = 'biographies' AND tab_40837.producer = tab_40839.producer AND tab_40837.nr = tab_40839.nr
8", color = yellow] ; 
51 -> 52 ; 
53 [label="FunctionCallBindAccess
(<http://www4.wiwiss.fu-berlin.de/bizer/bsbm/v01/instances/dataFromProducer{1}/Product{0}>)", color = yellow] ; 
51 -> 53 ; 
54 [label="FunctionCallBindAccess
AddConstant{1=(\"<http://www4.wiwiss.fu-berlin.de/bizer/bsbm/v01/instances/ProductType67>\")}", color = yellow] ; 
50 -> 54 ; 
56 [label="BindAccessEval", color = yellow] ; 
1 -> 56 ; 
57 [label="BindAccessEval", color = yellow] ; 
56 -> 57 ; 
58 [label="SQLQuery
SELECT tab_40842.nr, tab_40842.producer 
FROM PRODUCT AS tab_40845, ProductFeature AS tab_40844, PRODUCTTYPEPRODUCT AS tab_40846, Product AS tab_40842, ProductFeatureProduct AS tab_40843  
WHERE tab_40842.nr = tab_40843.product AND tab_40843.productFeature = tab_40844.nr AND tab_40844.label = 'biographies' AND tab_40846.producttype = 63 AND tab_40846.product = tab_40845.nr AND tab_40842.producer = tab_40845.producer AND tab_40842.nr = tab_40845.nr
6", color = yellow] ; 
57 -> 58 ; 
59 [label="FunctionCallBindAccess
(<http://www4.wiwiss.fu-berlin.de/bizer/bsbm/v01/instances/dataFromProducer{1}/Product{0}>)", color = yellow] ; 
57 -> 59 ; 
60 [label="FunctionCallBindAccess
AddConstant{1=(\"<http://www4.wiwiss.fu-berlin.de/bizer/bsbm/v01/instances/ProductType63>\")}", color = yellow] ; 
56 -> 60 ; 
62 [label="BindAccessEval", color = yellow] ; 
1 -> 62 ; 
63 [label="BindAccessEval", color = yellow] ; 
62 -> 63 ; 
64 [label="SQLQuery
SELECT tab_40847.nr, tab_40847.producer 
FROM Product AS tab_40847, PRODUCT AS tab_40850, ProductFeatureProduct AS tab_40848, ProductFeature AS tab_40849, PRODUCTTYPEPRODUCT AS tab_40851  
WHERE tab_40847.nr = tab_40848.product AND tab_40848.productFeature = tab_40849.nr AND tab_40849.label = 'biographies' AND tab_40851.producttype = 58 AND tab_40851.product = tab_40850.nr AND tab_40847.producer = tab_40850.producer AND tab_40847.nr = tab_40850.nr
9", color = yellow] ; 
63 -> 64 ; 
65 [label="FunctionCallBindAccess
(<http://www4.wiwiss.fu-berlin.de/bizer/bsbm/v01/instances/dataFromProducer{1}/Product{0}>)", color = yellow] ; 
63 -> 65 ; 
66 [label="FunctionCallBindAccess
AddConstant{1=(\"<http://www4.wiwiss.fu-berlin.de/bizer/bsbm/v01/instances/ProductType58>\")}", color = yellow] ; 
62 -> 66 ; 
68 [label="BindAccessEval", color = yellow] ; 
1 -> 68 ; 
69 [label="BindAccessEval", color = yellow] ; 
68 -> 69 ; 
70 [label="SQLQuery
SELECT tab_40852.nr, tab_40852.producer 
FROM ProductFeature AS tab_40854, PRODUCT AS tab_40855, PRODUCTTYPEPRODUCT AS tab_40856, Product AS tab_40852, ProductFeatureProduct AS tab_40853  
WHERE tab_40852.nr = tab_40853.product AND tab_40853.productFeature = tab_40854.nr AND tab_40854.label = 'biographies' AND tab_40856.producttype = 61 AND tab_40856.product = tab_40855.nr AND tab_40852.producer = tab_40855.producer AND tab_40852.nr = tab_40855.nr
17", color = yellow] ; 
69 -> 70 ; 
71 [label="FunctionCallBindAccess
(<http://www4.wiwiss.fu-berlin.de/bizer/bsbm/v01/instances/dataFromProducer{1}/Product{0}>)", color = yellow] ; 
69 -> 71 ; 
72 [label="FunctionCallBindAccess
AddConstant{1=(\"<http://www4.wiwiss.fu-berlin.de/bizer/bsbm/v01/instances/ProductType61>\")}", color = yellow] ; 
68 -> 72 ; 
74 [label="BindAccessEval", color = yellow] ; 
1 -> 74 ; 
75 [label="BindAccessEval", color = yellow] ; 
74 -> 75 ; 
76 [label="SQLQuery
SELECT tab_40857.nr, tab_40857.producer 
FROM Product AS tab_40859, ProductFeatureProduct AS tab_40860, ProductFeature AS tab_40861, PRODUCT AS tab_40857, PRODUCTTYPEPRODUCT AS tab_40858  
WHERE tab_40858.producttype = 56 AND tab_40858.product = tab_40857.nr AND tab_40859.nr = tab_40860.product AND tab_40860.productFeature = tab_40861.nr AND tab_40861.label = 'biographies' AND tab_40857.producer = tab_40859.producer AND tab_40857.nr = tab_40859.nr
12", color = yellow] ; 
75 -> 76 ; 
77 [label="FunctionCallBindAccess
(<http://www4.wiwiss.fu-berlin.de/bizer/bsbm/v01/instances/dataFromProducer{1}/Product{0}>)", color = yellow] ; 
75 -> 77 ; 
78 [label="FunctionCallBindAccess
AddConstant{1=(\"<http://www4.wiwiss.fu-berlin.de/bizer/bsbm/v01/instances/ProductType56>\")}", color = yellow] ; 
74 -> 78 ; 
80 [label="BindAccessEval", color = yellow] ; 
1 -> 80 ; 
81 [label="BindAccessEval", color = yellow] ; 
80 -> 81 ; 
82 [label="SQLQuery
SELECT tab_40862.nr, tab_40862.producer 
FROM ProductFeature AS tab_40864, PRODUCT AS tab_40865, Product AS tab_40862, PRODUCTTYPEPRODUCT AS tab_40866, ProductFeatureProduct AS tab_40863  
WHERE tab_40862.nr = tab_40863.product AND tab_40863.productFeature = tab_40864.nr AND tab_40864.label = 'biographies' AND tab_40866.producttype = 70 AND tab_40866.product = tab_40865.nr AND tab_40862.producer = tab_40865.producer AND tab_40862.nr = tab_40865.nr
16", color = yellow] ; 
81 -> 82 ; 
83 [label="FunctionCallBindAccess
(<http://www4.wiwiss.fu-berlin.de/bizer/bsbm/v01/instances/dataFromProducer{1}/Product{0}>)", color = yellow] ; 
81 -> 83 ; 
84 [label="FunctionCallBindAccess
AddConstant{1=(\"<http://www4.wiwiss.fu-berlin.de/bizer/bsbm/v01/instances/ProductType70>\")}", color = yellow] ; 
80 -> 84 ; 
86 [label="BindAccessEval", color = yellow] ; 
1 -> 86 ; 
87 [label="BindAccessEval", color = yellow] ; 
86 -> 87 ; 
88 [label="SQLQuery
SELECT tab_40867.nr, tab_40867.producer 
FROM Product AS tab_40869, ProductFeatureProduct AS tab_40870, PRODUCT AS tab_40867, PRODUCTTYPEPRODUCT AS tab_40868, ProductFeature AS tab_40871  
WHERE tab_40868.producttype = 57 AND tab_40868.product = tab_40867.nr AND tab_40869.nr = tab_40870.product AND tab_40870.productFeature = tab_40871.nr AND tab_40871.label = 'biographies' AND tab_40867.producer = tab_40869.producer AND tab_40867.nr = tab_40869.nr
12", color = yellow] ; 
87 -> 88 ; 
89 [label="FunctionCallBindAccess
(<http://www4.wiwiss.fu-berlin.de/bizer/bsbm/v01/instances/dataFromProducer{1}/Product{0}>)", color = yellow] ; 
87 -> 89 ; 
90 [label="FunctionCallBindAccess
AddConstant{1=(\"<http://www4.wiwiss.fu-berlin.de/bizer/bsbm/v01/instances/ProductType8>\")}", color = yellow] ; 
86 -> 90 ; 
92 [label="BindAccessEval", color = yellow] ; 
1 -> 92 ; 
93 [label="BindAccessEval", color = yellow] ; 
92 -> 93 ; 
94 [label="SQLQuery
SELECT tab_40872.nr, tab_40872.producer 
FROM PRODUCT AS tab_40872, ProductFeature AS tab_40876, Product AS tab_40874, PRODUCTTYPEPRODUCT AS tab_40873, ProductFeatureProduct AS tab_40875  
WHERE tab_40873.producttype = 56 AND tab_40873.product = tab_40872.nr AND tab_40874.nr = tab_40875.product AND tab_40875.productFeature = tab_40876.nr AND tab_40876.label = 'biographies' AND tab_40872.producer = tab_40874.producer AND tab_40872.nr = tab_40874.nr
12", color = yellow] ; 
93 -> 94 ; 
95 [label="FunctionCallBindAccess
(<http://www4.wiwiss.fu-berlin.de/bizer/bsbm/v01/instances/dataFromProducer{1}/Product{0}>)", color = yellow] ; 
93 -> 95 ; 
96 [label="FunctionCallBindAccess
AddConstant{1=(\"<http://www4.wiwiss.fu-berlin.de/bizer/bsbm/v01/instances/ProductType8>\")}", color = yellow] ; 
92 -> 96 ; 
98 [label="BindAccessEval", color = yellow] ; 
1 -> 98 ; 
99 [label="BindAccessEval", color = yellow] ; 
98 -> 99 ; 
100 [label="SQLQuery
SELECT tab_40877.nr, tab_40877.producer 
FROM PRODUCTTYPEPRODUCT AS tab_40881, ProductFeature AS tab_40879, ProductFeatureProduct AS tab_40878, Product AS tab_40877, PRODUCT AS tab_40880  
WHERE tab_40877.nr = tab_40878.product AND tab_40878.productFeature = tab_40879.nr AND tab_40879.label = 'biographies' AND tab_40881.producttype = 64 AND tab_40881.product = tab_40880.nr AND tab_40877.producer = tab_40880.producer AND tab_40877.nr = tab_40880.nr
11", color = yellow] ; 
99 -> 100 ; 
101 [label="FunctionCallBindAccess
(<http://www4.wiwiss.fu-berlin.de/bizer/bsbm/v01/instances/dataFromProducer{1}/Product{0}>)", color = yellow] ; 
99 -> 101 ; 
102 [label="FunctionCallBindAccess
AddConstant{1=(\"<http://www4.wiwiss.fu-berlin.de/bizer/bsbm/v01/instances/ProductType64>\")}", color = yellow] ; 
98 -> 102 ; 
104 [label="BindAccessEval", color = yellow] ; 
1 -> 104 ; 
105 [label="BindAccessEval", color = yellow] ; 
104 -> 105 ; 
106 [label="SQLQuery
SELECT tab_40882.nr, tab_40882.producer 
FROM PRODUCT AS tab_40885, ProductFeatureProduct AS tab_40883, ProductFeature AS tab_40884, Product AS tab_40882, PRODUCTTYPEPRODUCT AS tab_40886  
WHERE tab_40882.nr = tab_40883.product AND tab_40883.productFeature = tab_40884.nr AND tab_40884.label = 'biographies' AND tab_40886.producttype = 66 AND tab_40886.product = tab_40885.nr AND tab_40882.producer = tab_40885.producer AND tab_40882.nr = tab_40885.nr
14", color = yellow] ; 
105 -> 106 ; 
107 [label="FunctionCallBindAccess
(<http://www4.wiwiss.fu-berlin.de/bizer/bsbm/v01/instances/dataFromProducer{1}/Product{0}>)", color = yellow] ; 
105 -> 107 ; 
108 [label="FunctionCallBindAccess
AddConstant{1=(\"<http://www4.wiwiss.fu-berlin.de/bizer/bsbm/v01/instances/ProductType13>\")}", color = yellow] ; 
104 -> 108 ; 
110 [label="BindAccessEval", color = yellow] ; 
1 -> 110 ; 
111 [label="BindAccessEval", color = yellow] ; 
110 -> 111 ; 
112 [label="SQLQuery
SELECT tab_40887.nr, tab_40887.producer 
FROM PRODUCTTYPEPRODUCT AS tab_40891, ProductFeature AS tab_40889, ProductFeatureProduct AS tab_40888, Product AS tab_40887, PRODUCT AS tab_40890  
WHERE tab_40887.nr = tab_40888.product AND tab_40888.productFeature = tab_40889.nr AND tab_40889.label = 'biographies' AND tab_40891.producttype = 67 AND tab_40891.product = tab_40890.nr AND tab_40887.producer = tab_40890.producer AND tab_40887.nr = tab_40890.nr
8", color = yellow] ; 
111 -> 112 ; 
113 [label="FunctionCallBindAccess
(<http://www4.wiwiss.fu-berlin.de/bizer/bsbm/v01/instances/dataFromProducer{1}/Product{0}>)", color = yellow] ; 
111 -> 113 ; 
114 [label="FunctionCallBindAccess
AddConstant{1=(\"<http://www4.wiwiss.fu-berlin.de/bizer/bsbm/v01/instances/ProductType13>\")}", color = yellow] ; 
110 -> 114 ; 
116 [label="BindAccessEval", color = yellow] ; 
1 -> 116 ; 
117 [label="BindAccessEval", color = yellow] ; 
116 -> 117 ; 
118 [label="SQLQuery
SELECT tab_40892.nr, tab_40892.producer 
FROM ProductFeatureProduct AS tab_40893, ProductFeature AS tab_40894, PRODUCT AS tab_40895, Product AS tab_40892, PRODUCTTYPEPRODUCT AS tab_40896  
WHERE tab_40892.nr = tab_40893.product AND tab_40893.productFeature = tab_40894.nr AND tab_40894.label = 'biographies' AND tab_40896.producttype = 63 AND tab_40896.product = tab_40895.nr AND tab_40892.producer = tab_40895.producer AND tab_40892.nr = tab_40895.nr
6", color = yellow] ; 
117 -> 118 ; 
119 [label="FunctionCallBindAccess
(<http://www4.wiwiss.fu-berlin.de/bizer/bsbm/v01/instances/dataFromProducer{1}/Product{0}>)", color = yellow] ; 
117 -> 119 ; 
120 [label="FunctionCallBindAccess
AddConstant{1=(\"<http://www4.wiwiss.fu-berlin.de/bizer/bsbm/v01/instances/ProductType11>\")}", color = yellow] ; 
116 -> 120 ; 
122 [label="BindAccessEval", color = yellow] ; 
1 -> 122 ; 
123 [label="BindAccessEval", color = yellow] ; 
122 -> 123 ; 
124 [label="SQLQuery
SELECT tab_40897.nr, tab_40897.producer 
FROM PRODUCT AS tab_40897, ProductFeature AS tab_40901, ProductFeatureProduct AS tab_40900, PRODUCTTYPEPRODUCT AS tab_40898, Product AS tab_40899  
WHERE tab_40898.producttype = 62 AND tab_40898.product = tab_40897.nr AND tab_40899.nr = tab_40900.product AND tab_40900.productFeature = tab_40901.nr AND tab_40901.label = 'biographies' AND tab_40897.producer = tab_40899.producer AND tab_40897.nr = tab_40899.nr
17", color = yellow] ; 
123 -> 124 ; 
125 [label="FunctionCallBindAccess
(<http://www4.wiwiss.fu-berlin.de/bizer/bsbm/v01/instances/dataFromProducer{1}/Product{0}>)", color = yellow] ; 
123 -> 125 ; 
126 [label="FunctionCallBindAccess
AddConstant{1=(\"<http://www4.wiwiss.fu-berlin.de/bizer/bsbm/v01/instances/ProductType11>\")}", color = yellow] ; 
122 -> 126 ; 
128 [label="BindAccessEval", color = yellow] ; 
1 -> 128 ; 
129 [label="BindAccessEval", color = yellow] ; 
128 -> 129 ; 
130 [label="SQLQuery
SELECT tab_40902.nr, tab_40902.producer 
FROM Product AS tab_40902, PRODUCTTYPEPRODUCT AS tab_40906, ProductFeatureProduct AS tab_40903, ProductFeature AS tab_40904, PRODUCT AS tab_40905  
WHERE tab_40902.nr = tab_40903.product AND tab_40903.productFeature = tab_40904.nr AND tab_40904.label = 'biographies' AND tab_40906.producttype = 68 AND tab_40906.product = tab_40905.nr AND tab_40902.producer = tab_40905.producer AND tab_40902.nr = tab_40905.nr
19", color = yellow] ; 
129 -> 130 ; 
131 [label="FunctionCallBindAccess
(<http://www4.wiwiss.fu-berlin.de/bizer/bsbm/v01/instances/dataFromProducer{1}/Product{0}>)", color = yellow] ; 
129 -> 131 ; 
132 [label="FunctionCallBindAccess
AddConstant{1=(\"<http://www4.wiwiss.fu-berlin.de/bizer/bsbm/v01/instances/ProductType68>\")}", color = yellow] ; 
128 -> 132 ; 
134 [label="BindAccessEval", color = yellow] ; 
1 -> 134 ; 
135 [label="BindAccessEval", color = yellow] ; 
134 -> 135 ; 
136 [label="SQLQuery
SELECT tab_40907.nr, tab_40907.producer 
FROM PRODUCTTYPEPRODUCT AS tab_40908, ProductFeature AS tab_40911, Product AS tab_40909, ProductFeatureProduct AS tab_40910, PRODUCT AS tab_40907  
WHERE tab_40908.producttype = 71 AND tab_40908.product = tab_40907.nr AND tab_40909.nr = tab_40910.product AND tab_40910.productFeature = tab_40911.nr AND tab_40911.label = 'biographies' AND tab_40907.producer = tab_40909.producer AND tab_40907.nr = tab_40909.nr
18", color = yellow] ; 
135 -> 136 ; 
137 [label="FunctionCallBindAccess
(<http://www4.wiwiss.fu-berlin.de/bizer/bsbm/v01/instances/dataFromProducer{1}/Product{0}>)", color = yellow] ; 
135 -> 137 ; 
138 [label="FunctionCallBindAccess
AddConstant{1=(\"<http://www4.wiwiss.fu-berlin.de/bizer/bsbm/v01/instances/ProductType15>\")}", color = yellow] ; 
134 -> 138 ; 
140 [label="BindAccessEval", color = yellow] ; 
1 -> 140 ; 
141 [label="BindAccessEval", color = yellow] ; 
140 -> 141 ; 
142 [label="SQLQuery
SELECT tab_40912.nr, tab_40912.producer 
FROM PRODUCTTYPEPRODUCT AS tab_40916, PRODUCT AS tab_40915, ProductFeatureProduct AS tab_40913, ProductFeature AS tab_40914, Product AS tab_40912  
WHERE tab_40912.nr = tab_40913.product AND tab_40913.productFeature = tab_40914.nr AND tab_40914.label = 'biographies' AND tab_40916.producttype = 70 AND tab_40916.product = tab_40915.nr AND tab_40912.producer = tab_40915.producer AND tab_40912.nr = tab_40915.nr
16", color = yellow] ; 
141 -> 142 ; 
143 [label="FunctionCallBindAccess
(<http://www4.wiwiss.fu-berlin.de/bizer/bsbm/v01/instances/dataFromProducer{1}/Product{0}>)", color = yellow] ; 
141 -> 143 ; 
144 [label="FunctionCallBindAccess
AddConstant{1=(\"<http://www4.wiwiss.fu-berlin.de/bizer/bsbm/v01/instances/ProductType15>\")}", color = yellow] ; 
140 -> 144 ; 
146 [label="BindAccessEval", color = yellow] ; 
1 -> 146 ; 
147 [label="BindAccessEval", color = yellow] ; 
146 -> 147 ; 
148 [label="SQLQuery
SELECT tab_40917.nr, tab_40917.producer 
FROM ProductFeatureProduct AS tab_40918, Product AS tab_40917, PRODUCT AS tab_40920, PRODUCTTYPEPRODUCT AS tab_40921, ProductFeature AS tab_40919  
WHERE tab_40917.nr = tab_40918.product AND tab_40918.productFeature = tab_40919.nr AND tab_40919.label = 'biographies' AND tab_40921.producttype = 66 AND tab_40921.product = tab_40920.nr AND tab_40917.producer = tab_40920.producer AND tab_40917.nr = tab_40920.nr
14", color = yellow] ; 
147 -> 148 ; 
149 [label="FunctionCallBindAccess
(<http://www4.wiwiss.fu-berlin.de/bizer/bsbm/v01/instances/dataFromProducer{1}/Product{0}>)", color = yellow] ; 
147 -> 149 ; 
150 [label="FunctionCallBindAccess
AddConstant{1=(\"<http://www4.wiwiss.fu-berlin.de/bizer/bsbm/v01/instances/ProductType66>\")}", color = yellow] ; 
146 -> 150 ; 
152 [label="BindAccessEval", color = yellow] ; 
1 -> 152 ; 
153 [label="BindAccessEval", color = yellow] ; 
152 -> 153 ; 
154 [label="SQLQuery
SELECT tab_40922.nr, tab_40922.producer 
FROM Product AS tab_40924, PRODUCT AS tab_40922, ProductFeatureProduct AS tab_40925, PRODUCTTYPEPRODUCT AS tab_40923, ProductFeature AS tab_40926  
WHERE tab_40923.producttype = 62 AND tab_40923.product = tab_40922.nr AND tab_40924.nr = tab_40925.product AND tab_40925.productFeature = tab_40926.nr AND tab_40926.label = 'biographies' AND tab_40922.producer = tab_40924.producer AND tab_40922.nr = tab_40924.nr
17", color = yellow] ; 
153 -> 154 ; 
155 [label="FunctionCallBindAccess
(<http://www4.wiwiss.fu-berlin.de/bizer/bsbm/v01/instances/dataFromProducer{1}/Product{0}>)", color = yellow] ; 
153 -> 155 ; 
156 [label="FunctionCallBindAccess
AddConstant{1=(\"<http://www4.wiwiss.fu-berlin.de/bizer/bsbm/v01/instances/ProductType62>\")}", color = yellow] ; 
152 -> 156 ; 
158 [label="BindAccessEval", color = yellow] ; 
1 -> 158 ; 
159 [label="BindAccessEval", color = yellow] ; 
158 -> 159 ; 
160 [label="SQLQuery
SELECT tab_40927.nr, tab_40927.producer 
FROM PRODUCTTYPEPRODUCT AS tab_40928, Product AS tab_40929, ProductFeature AS tab_40931, PRODUCT AS tab_40927, ProductFeatureProduct AS tab_40930  
WHERE tab_40928.producttype = 60 AND tab_40928.product = tab_40927.nr AND tab_40929.nr = tab_40930.product AND tab_40930.productFeature = tab_40931.nr AND tab_40931.label = 'biographies' AND tab_40927.producer = tab_40929.producer AND tab_40927.nr = tab_40929.nr
16", color = yellow] ; 
159 -> 160 ; 
161 [label="FunctionCallBindAccess
(<http://www4.wiwiss.fu-berlin.de/bizer/bsbm/v01/instances/dataFromProducer{1}/Product{0}>)", color = yellow] ; 
159 -> 161 ; 
162 [label="FunctionCallBindAccess
AddConstant{1=(\"<http://www4.wiwiss.fu-berlin.de/bizer/bsbm/v01/instances/ProductType60>\")}", color = yellow] ; 
158 -> 162 ; 
164 [label="BindAccessEval", color = yellow] ; 
1 -> 164 ; 
165 [label="BindAccessEval", color = yellow] ; 
164 -> 165 ; 
166 [label="SQLQuery
SELECT tab_40932.nr, tab_40932.producer 
FROM ProductFeature AS tab_40934, PRODUCTTYPEPRODUCT AS tab_40936, ProductFeatureProduct AS tab_40933, PRODUCT AS tab_40935, Product AS tab_40932  
WHERE tab_40932.nr = tab_40933.product AND tab_40933.productFeature = tab_40934.nr AND tab_40934.label = 'biographies' AND tab_40936.producttype = 57 AND tab_40936.product = tab_40935.nr AND tab_40932.producer = tab_40935.producer AND tab_40932.nr = tab_40935.nr
12", color = yellow] ; 
165 -> 166 ; 
167 [label="FunctionCallBindAccess
(<http://www4.wiwiss.fu-berlin.de/bizer/bsbm/v01/instances/dataFromProducer{1}/Product{0}>)", color = yellow] ; 
165 -> 167 ; 
168 [label="FunctionCallBindAccess
AddConstant{1=(\"<http://www4.wiwiss.fu-berlin.de/bizer/bsbm/v01/instances/ProductType57>\")}", color = yellow] ; 
164 -> 168 ; 
170 [label="BindAccessEval", color = yellow] ; 
1 -> 170 ; 
171 [label="BindAccessEval", color = yellow] ; 
170 -> 171 ; 
172 [label="SQLQuery
SELECT tab_40937.nr, tab_40937.producer 
FROM ProductFeature AS tab_40941, PRODUCTTYPEPRODUCT AS tab_40938, Product AS tab_40939, PRODUCT AS tab_40937, ProductFeatureProduct AS tab_40940  
WHERE tab_40938.producttype = 71 AND tab_40938.product = tab_40937.nr AND tab_40939.nr = tab_40940.product AND tab_40940.productFeature = tab_40941.nr AND tab_40941.label = 'biographies' AND tab_40937.producer = tab_40939.producer AND tab_40937.nr = tab_40939.nr
18", color = yellow] ; 
171 -> 172 ; 
173 [label="FunctionCallBindAccess
(<http://www4.wiwiss.fu-berlin.de/bizer/bsbm/v01/instances/dataFromProducer{1}/Product{0}>)", color = yellow] ; 
171 -> 173 ; 
174 [label="FunctionCallBindAccess
AddConstant{1=(\"<http://www4.wiwiss.fu-berlin.de/bizer/bsbm/v01/instances/ProductType71>\")}", color = yellow] ; 
170 -> 174 ; 
176 [label="BindAccessEval", color = yellow] ; 
1 -> 176 ; 
177 [label="BindAccessEval", color = yellow] ; 
176 -> 177 ; 
178 [label="SQLQuery
SELECT tab_40942.nr, tab_40942.producer 
FROM PRODUCT AS tab_40942, PRODUCTTYPEPRODUCT AS tab_40943, ProductFeatureProduct AS tab_40945, ProductFeature AS tab_40946, Product AS tab_40944  
WHERE tab_40943.producttype = 59 AND tab_40943.product = tab_40942.nr AND tab_40944.nr = tab_40945.product AND tab_40945.productFeature = tab_40946.nr AND tab_40946.label = 'biographies' AND tab_40942.producer = tab_40944.producer AND tab_40942.nr = tab_40944.nr
12", color = yellow] ; 
177 -> 178 ; 
179 [label="FunctionCallBindAccess
(<http://www4.wiwiss.fu-berlin.de/bizer/bsbm/v01/instances/dataFromProducer{1}/Product{0}>)", color = yellow] ; 
177 -> 179 ; 
180 [label="FunctionCallBindAccess
AddConstant{1=(\"<http://www4.wiwiss.fu-berlin.de/bizer/bsbm/v01/instances/ProductType59>\")}", color = yellow] ; 
176 -> 180 ; 
182 [label="BindAccessEval", color = yellow] ; 
1 -> 182 ; 
183 [label="BindAccessEval", color = yellow] ; 
182 -> 183 ; 
184 [label="SQLQuery
SELECT tab_40947.nr, tab_40947.producer 
FROM ProductFeature AS tab_40951, Product AS tab_40949, PRODUCTTYPEPRODUCT AS tab_40948, PRODUCT AS tab_40947, ProductFeatureProduct AS tab_40950  
WHERE tab_40948.producttype = 58 AND tab_40948.product = tab_40947.nr AND tab_40949.nr = tab_40950.product AND tab_40950.productFeature = tab_40951.nr AND tab_40951.label = 'biographies' AND tab_40947.producer = tab_40949.producer AND tab_40947.nr = tab_40949.nr
9", color = yellow] ; 
183 -> 184 ; 
185 [label="FunctionCallBindAccess
(<http://www4.wiwiss.fu-berlin.de/bizer/bsbm/v01/instances/dataFromProducer{1}/Product{0}>)", color = yellow] ; 
183 -> 185 ; 
186 [label="FunctionCallBindAccess
AddConstant{1=(\"<http://www4.wiwiss.fu-berlin.de/bizer/bsbm/v01/instances/ProductType9>\")}", color = yellow] ; 
182 -> 186 ; 
188 [label="BindAccessEval", color = yellow] ; 
1 -> 188 ; 
189 [label="BindAccessEval", color = yellow] ; 
188 -> 189 ; 
190 [label="SQLQuery
SELECT tab_40952.nr, tab_40952.producer 
FROM PRODUCT AS tab_40952, ProductFeature AS tab_40956, ProductFeatureProduct AS tab_40955, PRODUCTTYPEPRODUCT AS tab_40953, Product AS tab_40954  
WHERE tab_40953.producttype = 59 AND tab_40953.product = tab_40952.nr AND tab_40954.nr = tab_40955.product AND tab_40955.productFeature = tab_40956.nr AND tab_40956.label = 'biographies' AND tab_40952.producer = tab_40954.producer AND tab_40952.nr = tab_40954.nr
12", color = yellow] ; 
189 -> 190 ; 
191 [label="FunctionCallBindAccess
(<http://www4.wiwiss.fu-berlin.de/bizer/bsbm/v01/instances/dataFromProducer{1}/Product{0}>)", color = yellow] ; 
189 -> 191 ; 
192 [label="FunctionCallBindAccess
AddConstant{1=(\"<http://www4.wiwiss.fu-berlin.de/bizer/bsbm/v01/instances/ProductType9>\")}", color = yellow] ; 
188 -> 192 ; 
}
