<?xml version="1.0" encoding="UTF-8" standalone="no"?>
<!DOCTYPE svg PUBLIC "-//W3C//DTD SVG 1.1//EN"
 "http://www.w3.org/Graphics/SVG/1.1/DTD/svg11.dtd">
<!-- Generated by graphviz version 2.40.1 (20161225.0304)
 -->
<!-- Title: g Pages: 1 -->
<svg width="2066pt" height="495pt"
 viewBox="0.00 0.00 2066.00 495.00" xmlns="http://www.w3.org/2000/svg" xmlns:xlink="http://www.w3.org/1999/xlink">
<g id="graph0" class="graph" transform="scale(1 1) rotate(0) translate(4 491)">
<title>g</title>
<polygon fill="#ffffff" stroke="transparent" points="-4,4 -4,-491 2062,-491 2062,4 -4,4"/>
<text text-anchor="middle" x="1029" y="-7.8" font-family="Times,serif" font-size="14.00" fill="#000000">22:8:32.477</text>
<!-- 0 -->
<g id="node1" class="node">
<title>0</title>
<polygon fill="none" stroke="#ffff00" stroke-width="2" points="1267,-487 1161,-487 1161,-451 1267,-451 1267,-487"/>
<text text-anchor="middle" x="1214" y="-465.3" font-family="Times,serif" font-size="14.00" fill="#000000">BindAccessEval</text>
</g>
<!-- 1 -->
<g id="node2" class="node">
<title>1</title>
<polygon fill="none" stroke="#ffff00" stroke-width="2" points="1188.5,-414 1101.5,-414 1101.5,-378 1188.5,-378 1188.5,-414"/>
<text text-anchor="middle" x="1145" y="-392.3" font-family="Times,serif" font-size="14.00" fill="#000000">HashDistinct</text>
</g>
<!-- 0&#45;&gt;1 -->
<g id="edge1" class="edge">
<title>0&#45;&gt;1</title>
<path fill="none" stroke="#000000" d="M1196.9438,-450.9551C1188.5675,-442.0932 1178.3295,-431.2616 1169.1638,-421.5646"/>
<polygon fill="#000000" stroke="#000000" points="1171.5119,-418.9535 1162.0991,-414.0904 1166.4247,-423.762 1171.5119,-418.9535"/>
</g>
<!-- 12 -->
<g id="node12" class="node">
<title>12</title>
<polygon fill="none" stroke="#ffff00" stroke-width="2" points="1359,-415 1207,-415 1207,-377 1359,-377 1359,-415"/>
<text text-anchor="middle" x="1283" y="-399.8" font-family="Times,serif" font-size="14.00" fill="#000000">FunctionCallBindAccess</text>
<text text-anchor="middle" x="1283" y="-384.8" font-family="Times,serif" font-size="14.00" fill="#000000">(&quot;{0}&quot;, &quot;{1}&quot;, &quot;{2}&quot;)</text>
</g>
<!-- 0&#45;&gt;12 -->
<g id="edge11" class="edge">
<title>0&#45;&gt;12</title>
<path fill="none" stroke="#000000" d="M1231.0562,-450.9551C1239.1806,-442.3597 1249.0564,-431.9114 1258.0064,-422.4426"/>
<polygon fill="#000000" stroke="#000000" points="1260.6088,-424.7844 1264.9344,-415.1128 1255.5217,-419.976 1260.6088,-424.7844"/>
</g>
<!-- 2 -->
<g id="node3" class="node">
<title>2</title>
<polygon fill="none" stroke="#ffff00" stroke-width="2" points="1172,-341 1118,-341 1118,-305 1172,-305 1172,-341"/>
<text text-anchor="middle" x="1145" y="-319.3" font-family="Times,serif" font-size="14.00" fill="#000000">Union</text>
</g>
<!-- 1&#45;&gt;2 -->
<g id="edge2" class="edge">
<title>1&#45;&gt;2</title>
<path fill="none" stroke="#000000" d="M1145,-377.9551C1145,-369.8828 1145,-360.1764 1145,-351.1817"/>
<polygon fill="#000000" stroke="#000000" points="1148.5001,-351.0903 1145,-341.0904 1141.5001,-351.0904 1148.5001,-351.0903"/>
</g>
<!-- 3 -->
<g id="node4" class="node">
<title>3</title>
<polygon fill="none" stroke="#ffff00" stroke-width="2" points="1136.5,-269 1075.5,-269 1075.5,-231 1136.5,-231 1136.5,-269"/>
<text text-anchor="middle" x="1106" y="-253.8" font-family="Times,serif" font-size="14.00" fill="#000000">Project</text>
<text text-anchor="middle" x="1106" y="-238.8" font-family="Times,serif" font-size="14.00" fill="#000000">[2, 6, 3]</text>
</g>
<!-- 2&#45;&gt;3 -->
<g id="edge3" class="edge">
<title>2&#45;&gt;3</title>
<path fill="none" stroke="#000000" d="M1135.3595,-304.9551C1131.0403,-296.8703 1125.8452,-287.1462 1121.0336,-278.1398"/>
<polygon fill="#000000" stroke="#000000" points="1124.0102,-276.2838 1116.211,-269.1128 1117.8361,-279.5823 1124.0102,-276.2838"/>
</g>
<!-- 8 -->
<g id="node8" class="node">
<title>8</title>
<polygon fill="none" stroke="#ffff00" stroke-width="2" points="1325.5,-269 1264.5,-269 1264.5,-231 1325.5,-231 1325.5,-269"/>
<text text-anchor="middle" x="1295" y="-253.8" font-family="Times,serif" font-size="14.00" fill="#000000">Project</text>
<text text-anchor="middle" x="1295" y="-238.8" font-family="Times,serif" font-size="14.00" fill="#000000">[2, 6, 3]</text>
</g>
<!-- 2&#45;&gt;8 -->
<g id="edge7" class="edge">
<title>2&#45;&gt;8</title>
<path fill="none" stroke="#000000" d="M1172.1639,-309.7803C1195.3229,-298.5095 1228.9258,-282.1561 1255.134,-269.4015"/>
<polygon fill="#000000" stroke="#000000" points="1256.9619,-272.4044 1264.422,-264.8813 1253.8987,-266.1102 1256.9619,-272.4044"/>
</g>
<!-- 4 -->
<g id="node5" class="node">
<title>4</title>
<polygon fill="none" stroke="#ffff00" stroke-width="2" points="935.5,-195 836.5,-195 836.5,-142 935.5,-142 935.5,-195"/>
<text text-anchor="middle" x="886" y="-179.8" font-family="Times,serif" font-size="14.00" fill="#000000">RightBindJoin </text>
<text text-anchor="middle" x="886" y="-164.8" font-family="Times,serif" font-size="14.00" fill="#000000">[1, 0]</text>
<text text-anchor="middle" x="886" y="-149.8" font-family="Times,serif" font-size="14.00" fill="#000000">636</text>
</g>
<!-- 3&#45;&gt;4 -->
<g id="edge4" class="edge">
<title>3&#45;&gt;4</title>
<path fill="none" stroke="#000000" d="M1075.4099,-238.6678C1041.8925,-226.2511 987.3128,-206.0318 945.3318,-190.4797"/>
<polygon fill="#000000" stroke="#000000" points="946.3599,-187.1282 935.7668,-186.9363 943.9281,-193.6923 946.3599,-187.1282"/>
</g>
<!-- 5 -->
<g id="node6" class="node">
<title>5</title>
<polygon fill="none" stroke="#ffff00" stroke-width="2" points="734,-106 0,-106 0,-23 734,-23 734,-106"/>
<text text-anchor="middle" x="367" y="-90.8" font-family="Times,serif" font-size="14.00" fill="#000000">SQLQuery</text>
<text text-anchor="middle" x="367" y="-75.8" font-family="Times,serif" font-size="14.00" fill="#000000">SELECT tab_0.nr, tab_0.producer, tab_2.label, tab_2.propertyNum2 </text>
<text text-anchor="middle" x="367" y="-60.8" font-family="Times,serif" font-size="14.00" fill="#000000">FROM PRODUCTTYPEPRODUCT AS tab_1, Product AS tab_2, PRODUCT AS tab_0 &#160;</text>
<text text-anchor="middle" x="367" y="-45.8" font-family="Times,serif" font-size="14.00" fill="#000000">WHERE tab_1.producttype = 110 AND tab_1.product = tab_0.nr AND tab_0.producer = tab_2.producer AND tab_0.nr = tab_2.nr</text>
<text text-anchor="middle" x="367" y="-30.8" font-family="Times,serif" font-size="14.00" fill="#000000">30</text>
</g>
<!-- 4&#45;&gt;5 -->
<g id="edge5" class="edge">
<title>4&#45;&gt;5</title>
<path fill="none" stroke="#000000" d="M836.2361,-158.528C777.8548,-146.8293 677.1713,-126.6538 584.0012,-107.9839"/>
<polygon fill="#000000" stroke="#000000" points="584.6327,-104.5409 574.1399,-106.0078 583.2573,-111.4045 584.6327,-104.5409"/>
</g>
<!-- 6 -->
<g id="node7" class="node">
<title>6</title>
<polygon fill="none" stroke="#ffff00" stroke-width="2" points="1020,-106 752,-106 752,-23 1020,-23 1020,-106"/>
<text text-anchor="middle" x="886" y="-90.8" font-family="Times,serif" font-size="14.00" fill="#000000">PhyMongoDBEval</text>
<text text-anchor="middle" x="886" y="-75.8" font-family="Times,serif" font-size="14.00" fill="#000000">productfeatureproduct</text>
<text text-anchor="middle" x="886" y="-60.8" font-family="Times,serif" font-size="14.00" fill="#000000">[{ &quot;$match&quot;: { &quot;producer&quot;: %s, &quot;nr&quot;: %s } }]</text>
<text text-anchor="middle" x="886" y="-45.8" font-family="Times,serif" font-size="14.00" fill="#000000">[nr, producer, label]</text>
<text text-anchor="middle" x="886" y="-30.8" font-family="Times,serif" font-size="14.00" fill="#000000">636</text>
</g>
<!-- 4&#45;&gt;6 -->
<g id="edge6" class="edge">
<title>4&#45;&gt;6</title>
<path fill="none" stroke="#000000" d="M886,-141.9873C886,-134.2014 886,-125.4027 886,-116.6002"/>
<polygon fill="#000000" stroke="#000000" points="889.5001,-116.3255 886,-106.3255 882.5001,-116.3255 889.5001,-116.3255"/>
</g>
<!-- 9 -->
<g id="node9" class="node">
<title>9</title>
<polygon fill="none" stroke="#ffff00" stroke-width="2" points="1454.5,-195 1355.5,-195 1355.5,-142 1454.5,-142 1454.5,-195"/>
<text text-anchor="middle" x="1405" y="-179.8" font-family="Times,serif" font-size="14.00" fill="#000000">RightBindJoin </text>
<text text-anchor="middle" x="1405" y="-164.8" font-family="Times,serif" font-size="14.00" fill="#000000">[0, 1]</text>
<text text-anchor="middle" x="1405" y="-149.8" font-family="Times,serif" font-size="14.00" fill="#000000">636</text>
</g>
<!-- 8&#45;&gt;9 -->
<g id="edge8" class="edge">
<title>8&#45;&gt;9</title>
<path fill="none" stroke="#000000" d="M1320.7901,-230.8919C1332.6748,-222.0864 1347.1229,-211.3817 1360.6723,-201.3428"/>
<polygon fill="#000000" stroke="#000000" points="1363.0103,-203.9666 1368.9617,-195.2011 1358.8431,-198.3421 1363.0103,-203.9666"/>
</g>
<!-- 10 -->
<g id="node10" class="node">
<title>10</title>
<polygon fill="none" stroke="#ffff00" stroke-width="2" points="1772,-106 1038,-106 1038,-23 1772,-23 1772,-106"/>
<text text-anchor="middle" x="1405" y="-90.8" font-family="Times,serif" font-size="14.00" fill="#000000">SQLQuery</text>
<text text-anchor="middle" x="1405" y="-75.8" font-family="Times,serif" font-size="14.00" fill="#000000">SELECT tab_3.nr, tab_3.producer, tab_5.label, tab_5.propertyNum1 </text>
<text text-anchor="middle" x="1405" y="-60.8" font-family="Times,serif" font-size="14.00" fill="#000000">FROM Product AS tab_5, PRODUCT AS tab_3, PRODUCTTYPEPRODUCT AS tab_4 &#160;</text>
<text text-anchor="middle" x="1405" y="-45.8" font-family="Times,serif" font-size="14.00" fill="#000000">WHERE tab_4.producttype = 110 AND tab_4.product = tab_3.nr AND tab_3.producer = tab_5.producer AND tab_3.nr = tab_5.nr</text>
<text text-anchor="middle" x="1405" y="-30.8" font-family="Times,serif" font-size="14.00" fill="#000000">30</text>
</g>
<!-- 9&#45;&gt;10 -->
<g id="edge9" class="edge">
<title>9&#45;&gt;10</title>
<path fill="none" stroke="#000000" d="M1405,-141.9873C1405,-134.2014 1405,-125.4027 1405,-116.6002"/>
<polygon fill="#000000" stroke="#000000" points="1408.5001,-116.3255 1405,-106.3255 1401.5001,-116.3255 1408.5001,-116.3255"/>
</g>
<!-- 11 -->
<g id="node11" class="node">
<title>11</title>
<polygon fill="none" stroke="#ffff00" stroke-width="2" points="2058,-106 1790,-106 1790,-23 2058,-23 2058,-106"/>
<text text-anchor="middle" x="1924" y="-90.8" font-family="Times,serif" font-size="14.00" fill="#000000">PhyMongoDBEval</text>
<text text-anchor="middle" x="1924" y="-75.8" font-family="Times,serif" font-size="14.00" fill="#000000">productfeatureproduct</text>
<text text-anchor="middle" x="1924" y="-60.8" font-family="Times,serif" font-size="14.00" fill="#000000">[{ &quot;$match&quot;: { &quot;nr&quot;: %s, &quot;producer&quot;: %s } }]</text>
<text text-anchor="middle" x="1924" y="-45.8" font-family="Times,serif" font-size="14.00" fill="#000000">[nr, producer, label]</text>
<text text-anchor="middle" x="1924" y="-30.8" font-family="Times,serif" font-size="14.00" fill="#000000">636</text>
</g>
<!-- 9&#45;&gt;11 -->
<g id="edge10" class="edge">
<title>9&#45;&gt;11</title>
<path fill="none" stroke="#000000" d="M1454.6326,-162.1477C1525.0132,-152.7233 1657.9303,-133.3912 1779.8896,-106.1805"/>
<polygon fill="#000000" stroke="#000000" points="1780.7871,-109.5661 1789.7725,-103.9525 1779.2476,-102.7375 1780.7871,-109.5661"/>
</g>
</g>
</svg>
