<?xml version="1.0" encoding="UTF-8" standalone="no"?>
<!DOCTYPE svg PUBLIC "-//W3C//DTD SVG 1.1//EN"
 "http://www.w3.org/Graphics/SVG/1.1/DTD/svg11.dtd">
<!-- Generated by graphviz version 2.40.1 (20161225.0304)
 -->
<!-- Title: g Pages: 1 -->
<svg width="4242pt" height="495pt"
 viewBox="0.00 0.00 4241.50 495.00" xmlns="http://www.w3.org/2000/svg" xmlns:xlink="http://www.w3.org/1999/xlink">
<g id="graph0" class="graph" transform="scale(1 1) rotate(0) translate(4 491)">
<title>g</title>
<polygon fill="#ffffff" stroke="transparent" points="-4,4 -4,-491 4237.5,-491 4237.5,4 -4,4"/>
<text text-anchor="middle" x="2116.75" y="-7.8" font-family="Times,serif" font-size="14.00" fill="#000000">22:8:32.818</text>
<!-- 0 -->
<g id="node1" class="node">
<title>0</title>
<polygon fill="none" stroke="#ffff00" stroke-width="2" points="2215.5,-487 2109.5,-487 2109.5,-451 2215.5,-451 2215.5,-487"/>
<text text-anchor="middle" x="2162.5" y="-465.3" font-family="Times,serif" font-size="14.00" fill="#000000">BindAccessEval</text>
</g>
<!-- 1 -->
<g id="node2" class="node">
<title>1</title>
<polygon fill="none" stroke="#ffff00" stroke-width="2" points="2137,-414 2050,-414 2050,-378 2137,-378 2137,-414"/>
<text text-anchor="middle" x="2093.5" y="-392.3" font-family="Times,serif" font-size="14.00" fill="#000000">HashDistinct</text>
</g>
<!-- 0&#45;&gt;1 -->
<g id="edge1" class="edge">
<title>0&#45;&gt;1</title>
<path fill="none" stroke="#000000" d="M2145.4438,-450.9551C2137.0675,-442.0932 2126.8295,-431.2616 2117.6638,-421.5646"/>
<polygon fill="#000000" stroke="#000000" points="2120.0119,-418.9535 2110.5991,-414.0904 2114.9247,-423.762 2120.0119,-418.9535"/>
</g>
<!-- 22 -->
<g id="node20" class="node">
<title>22</title>
<polygon fill="none" stroke="#ffff00" stroke-width="2" points="2307.5,-415 2155.5,-415 2155.5,-377 2307.5,-377 2307.5,-415"/>
<text text-anchor="middle" x="2231.5" y="-399.8" font-family="Times,serif" font-size="14.00" fill="#000000">FunctionCallBindAccess</text>
<text text-anchor="middle" x="2231.5" y="-384.8" font-family="Times,serif" font-size="14.00" fill="#000000">(&quot;{0}&quot;, &quot;{1}&quot;, &quot;{2}&quot;)</text>
</g>
<!-- 0&#45;&gt;22 -->
<g id="edge19" class="edge">
<title>0&#45;&gt;22</title>
<path fill="none" stroke="#000000" d="M2179.5562,-450.9551C2187.6806,-442.3597 2197.5564,-431.9114 2206.5064,-422.4426"/>
<polygon fill="#000000" stroke="#000000" points="2209.1088,-424.7844 2213.4344,-415.1128 2204.0217,-419.976 2209.1088,-424.7844"/>
</g>
<!-- 2 -->
<g id="node3" class="node">
<title>2</title>
<polygon fill="none" stroke="#ffff00" stroke-width="2" points="2120.5,-341 2066.5,-341 2066.5,-305 2120.5,-305 2120.5,-341"/>
<text text-anchor="middle" x="2093.5" y="-319.3" font-family="Times,serif" font-size="14.00" fill="#000000">Union</text>
</g>
<!-- 1&#45;&gt;2 -->
<g id="edge2" class="edge">
<title>1&#45;&gt;2</title>
<path fill="none" stroke="#000000" d="M2093.5,-377.9551C2093.5,-369.8828 2093.5,-360.1764 2093.5,-351.1817"/>
<polygon fill="#000000" stroke="#000000" points="2097.0001,-351.0903 2093.5,-341.0904 2090.0001,-351.0904 2097.0001,-351.0903"/>
</g>
<!-- 3 -->
<g id="node4" class="node">
<title>3</title>
<polygon fill="none" stroke="#ffff00" stroke-width="2" points="1530,-269 1469,-269 1469,-231 1530,-231 1530,-269"/>
<text text-anchor="middle" x="1499.5" y="-253.8" font-family="Times,serif" font-size="14.00" fill="#000000">Project</text>
<text text-anchor="middle" x="1499.5" y="-238.8" font-family="Times,serif" font-size="14.00" fill="#000000">[2, 6, 3]</text>
</g>
<!-- 2&#45;&gt;3 -->
<g id="edge3" class="edge">
<title>2&#45;&gt;3</title>
<path fill="none" stroke="#000000" d="M2066.4335,-319.6736C1971.5749,-308.0159 1653.7993,-268.9627 1540.2574,-255.0089"/>
<polygon fill="#000000" stroke="#000000" points="1540.5859,-251.523 1530.2336,-253.777 1539.732,-258.4708 1540.5859,-251.523"/>
</g>
<!-- 8 -->
<g id="node8" class="node">
<title>8</title>
<polygon fill="none" stroke="#ffff00" stroke-width="2" points="2085,-269 2024,-269 2024,-231 2085,-231 2085,-269"/>
<text text-anchor="middle" x="2054.5" y="-253.8" font-family="Times,serif" font-size="14.00" fill="#000000">Project</text>
<text text-anchor="middle" x="2054.5" y="-238.8" font-family="Times,serif" font-size="14.00" fill="#000000">[1, 6, 3]</text>
</g>
<!-- 2&#45;&gt;8 -->
<g id="edge7" class="edge">
<title>2&#45;&gt;8</title>
<path fill="none" stroke="#000000" d="M2083.8595,-304.9551C2079.5403,-296.8703 2074.3452,-287.1462 2069.5336,-278.1398"/>
<polygon fill="#000000" stroke="#000000" points="2072.5102,-276.2838 2064.711,-269.1128 2066.3361,-279.5823 2072.5102,-276.2838"/>
</g>
<!-- 13 -->
<g id="node12" class="node">
<title>13</title>
<polygon fill="none" stroke="#ffff00" stroke-width="2" points="2394,-269 2333,-269 2333,-231 2394,-231 2394,-269"/>
<text text-anchor="middle" x="2363.5" y="-253.8" font-family="Times,serif" font-size="14.00" fill="#000000">Project</text>
<text text-anchor="middle" x="2363.5" y="-238.8" font-family="Times,serif" font-size="14.00" fill="#000000">[2, 6, 3]</text>
</g>
<!-- 2&#45;&gt;13 -->
<g id="edge11" class="edge">
<title>2&#45;&gt;13</title>
<path fill="none" stroke="#000000" d="M2120.6248,-315.6662C2168.2119,-302.8001 2266.9732,-276.098 2322.787,-261.0076"/>
<polygon fill="#000000" stroke="#000000" points="2323.947,-264.3197 2332.6868,-258.331 2322.1199,-257.5623 2323.947,-264.3197"/>
</g>
<!-- 18 -->
<g id="node16" class="node">
<title>18</title>
<polygon fill="none" stroke="#ffff00" stroke-width="2" points="3089,-269 3028,-269 3028,-231 3089,-231 3089,-269"/>
<text text-anchor="middle" x="3058.5" y="-253.8" font-family="Times,serif" font-size="14.00" fill="#000000">Project</text>
<text text-anchor="middle" x="3058.5" y="-238.8" font-family="Times,serif" font-size="14.00" fill="#000000">[2, 6, 3]</text>
</g>
<!-- 2&#45;&gt;18 -->
<g id="edge15" class="edge">
<title>2&#45;&gt;18</title>
<path fill="none" stroke="#000000" d="M2120.5709,-320.9521C2255.4195,-310.7512 2854.6237,-265.4228 3017.5118,-253.1007"/>
<polygon fill="#000000" stroke="#000000" points="3017.893,-256.5819 3027.6005,-252.3375 3017.3649,-249.6019 3017.893,-256.5819"/>
</g>
<!-- 4 -->
<g id="node5" class="node">
<title>4</title>
<polygon fill="none" stroke="#ffff00" stroke-width="2" points="957,-195 858,-195 858,-142 957,-142 957,-195"/>
<text text-anchor="middle" x="907.5" y="-179.8" font-family="Times,serif" font-size="14.00" fill="#000000">RightBindJoin </text>
<text text-anchor="middle" x="907.5" y="-164.8" font-family="Times,serif" font-size="14.00" fill="#000000">[0, 1]</text>
<text text-anchor="middle" x="907.5" y="-149.8" font-family="Times,serif" font-size="14.00" fill="#000000">995</text>
</g>
<!-- 3&#45;&gt;4 -->
<g id="edge4" class="edge">
<title>3&#45;&gt;4</title>
<path fill="none" stroke="#000000" d="M1468.9181,-245.7898C1375.4189,-232.9179 1092.1714,-193.9235 967.497,-176.7597"/>
<polygon fill="#000000" stroke="#000000" points="967.7499,-173.2616 957.366,-175.365 966.7952,-180.1962 967.7499,-173.2616"/>
</g>
<!-- 5 -->
<g id="node6" class="node">
<title>5</title>
<polygon fill="none" stroke="#ffff00" stroke-width="2" points="755,-106 0,-106 0,-23 755,-23 755,-106"/>
<text text-anchor="middle" x="377.5" y="-90.8" font-family="Times,serif" font-size="14.00" fill="#000000">SQLQuery</text>
<text text-anchor="middle" x="377.5" y="-75.8" font-family="Times,serif" font-size="14.00" fill="#000000">SELECT tab_9.nr, tab_9.producer, tab_11.label, tab_11.propertyNum1 </text>
<text text-anchor="middle" x="377.5" y="-60.8" font-family="Times,serif" font-size="14.00" fill="#000000">FROM Product AS tab_11, PRODUCT AS tab_9, PRODUCTTYPEPRODUCT AS tab_10 &#160;</text>
<text text-anchor="middle" x="377.5" y="-45.8" font-family="Times,serif" font-size="14.00" fill="#000000">WHERE tab_10.producttype = 56 AND tab_10.product = tab_9.nr AND tab_9.nr = tab_11.nr AND tab_9.producer = tab_11.producer</text>
<text text-anchor="middle" x="377.5" y="-30.8" font-family="Times,serif" font-size="14.00" fill="#000000">46</text>
</g>
<!-- 4&#45;&gt;5 -->
<g id="edge5" class="edge">
<title>4&#45;&gt;5</title>
<path fill="none" stroke="#000000" d="M857.6389,-158.7159C798.1587,-147.0443 694.7236,-126.7477 599.0547,-107.9749"/>
<polygon fill="#000000" stroke="#000000" points="599.7143,-104.5376 589.2274,-106.0465 598.3663,-111.4066 599.7143,-104.5376"/>
</g>
<!-- 6 -->
<g id="node7" class="node">
<title>6</title>
<polygon fill="none" stroke="#ffff00" stroke-width="2" points="1041.5,-106 773.5,-106 773.5,-23 1041.5,-23 1041.5,-106"/>
<text text-anchor="middle" x="907.5" y="-90.8" font-family="Times,serif" font-size="14.00" fill="#000000">PhyMongoDBEval</text>
<text text-anchor="middle" x="907.5" y="-75.8" font-family="Times,serif" font-size="14.00" fill="#000000">productfeatureproduct</text>
<text text-anchor="middle" x="907.5" y="-60.8" font-family="Times,serif" font-size="14.00" fill="#000000">[{ &quot;$match&quot;: { &quot;nr&quot;: %s, &quot;producer&quot;: %s } }]</text>
<text text-anchor="middle" x="907.5" y="-45.8" font-family="Times,serif" font-size="14.00" fill="#000000">[nr, producer, label]</text>
<text text-anchor="middle" x="907.5" y="-30.8" font-family="Times,serif" font-size="14.00" fill="#000000">995</text>
</g>
<!-- 4&#45;&gt;6 -->
<g id="edge6" class="edge">
<title>4&#45;&gt;6</title>
<path fill="none" stroke="#000000" d="M907.5,-141.9873C907.5,-134.2014 907.5,-125.4027 907.5,-116.6002"/>
<polygon fill="#000000" stroke="#000000" points="911.0001,-116.3255 907.5,-106.3255 904.0001,-116.3255 911.0001,-116.3255"/>
</g>
<!-- 9 -->
<g id="node9" class="node">
<title>9</title>
<polygon fill="none" stroke="#ffff00" stroke-width="2" points="1989,-195 1890,-195 1890,-142 1989,-142 1989,-195"/>
<text text-anchor="middle" x="1939.5" y="-179.8" font-family="Times,serif" font-size="14.00" fill="#000000">RightBindJoin </text>
<text text-anchor="middle" x="1939.5" y="-164.8" font-family="Times,serif" font-size="14.00" fill="#000000">[0, 2]</text>
<text text-anchor="middle" x="1939.5" y="-149.8" font-family="Times,serif" font-size="14.00" fill="#000000">995</text>
</g>
<!-- 8&#45;&gt;9 -->
<g id="edge8" class="edge">
<title>8&#45;&gt;9</title>
<path fill="none" stroke="#000000" d="M2027.5376,-230.8919C2014.9955,-222.0033 1999.7227,-211.1795 1985.4419,-201.0589"/>
<polygon fill="#000000" stroke="#000000" points="1987.3591,-198.1277 1977.1764,-195.2011 1983.3116,-203.8389 1987.3591,-198.1277"/>
</g>
<!-- 10 -->
<g id="node10" class="node">
<title>10</title>
<polygon fill="none" stroke="#ffff00" stroke-width="2" points="1787.5,-106 1059.5,-106 1059.5,-23 1787.5,-23 1787.5,-106"/>
<text text-anchor="middle" x="1423.5" y="-90.8" font-family="Times,serif" font-size="14.00" fill="#000000">SQLQuery</text>
<text text-anchor="middle" x="1423.5" y="-75.8" font-family="Times,serif" font-size="14.00" fill="#000000">SELECT tab_6.nr, tab_6.label, tab_6.producer, tab_6.propertyNum2 </text>
<text text-anchor="middle" x="1423.5" y="-60.8" font-family="Times,serif" font-size="14.00" fill="#000000">FROM PRODUCTTYPEPRODUCT AS tab_8, PRODUCT AS tab_7, Product AS tab_6 &#160;</text>
<text text-anchor="middle" x="1423.5" y="-45.8" font-family="Times,serif" font-size="14.00" fill="#000000">WHERE tab_8.producttype = 56 AND tab_8.product = tab_7.nr AND tab_6.producer = tab_7.producer AND tab_6.nr = tab_7.nr</text>
<text text-anchor="middle" x="1423.5" y="-30.8" font-family="Times,serif" font-size="14.00" fill="#000000">46</text>
</g>
<!-- 9&#45;&gt;10 -->
<g id="edge9" class="edge">
<title>9&#45;&gt;10</title>
<path fill="none" stroke="#000000" d="M1889.5549,-158.4335C1831.5367,-146.7399 1731.9545,-126.6691 1639.6983,-108.0748"/>
<polygon fill="#000000" stroke="#000000" points="1640.1396,-104.5935 1629.6451,-106.0486 1638.7565,-111.4555 1640.1396,-104.5935"/>
</g>
<!-- 11 -->
<g id="node11" class="node">
<title>11</title>
<polygon fill="none" stroke="#ffff00" stroke-width="2" points="2073.5,-106 1805.5,-106 1805.5,-23 2073.5,-23 2073.5,-106"/>
<text text-anchor="middle" x="1939.5" y="-90.8" font-family="Times,serif" font-size="14.00" fill="#000000">PhyMongoDBEval</text>
<text text-anchor="middle" x="1939.5" y="-75.8" font-family="Times,serif" font-size="14.00" fill="#000000">productfeatureproduct</text>
<text text-anchor="middle" x="1939.5" y="-60.8" font-family="Times,serif" font-size="14.00" fill="#000000">[{ &quot;$match&quot;: { &quot;nr&quot;: %s, &quot;producer&quot;: %s } }]</text>
<text text-anchor="middle" x="1939.5" y="-45.8" font-family="Times,serif" font-size="14.00" fill="#000000">[nr, producer, label]</text>
<text text-anchor="middle" x="1939.5" y="-30.8" font-family="Times,serif" font-size="14.00" fill="#000000">995</text>
</g>
<!-- 9&#45;&gt;11 -->
<g id="edge10" class="edge">
<title>9&#45;&gt;11</title>
<path fill="none" stroke="#000000" d="M1939.5,-141.9873C1939.5,-134.2014 1939.5,-125.4027 1939.5,-116.6002"/>
<polygon fill="#000000" stroke="#000000" points="1943.0001,-116.3255 1939.5,-106.3255 1936.0001,-116.3255 1943.0001,-116.3255"/>
</g>
<!-- 14 -->
<g id="node13" class="node">
<title>14</title>
<polygon fill="none" stroke="#ffff00" stroke-width="2" points="2529,-195 2430,-195 2430,-142 2529,-142 2529,-195"/>
<text text-anchor="middle" x="2479.5" y="-179.8" font-family="Times,serif" font-size="14.00" fill="#000000">RightBindJoin </text>
<text text-anchor="middle" x="2479.5" y="-164.8" font-family="Times,serif" font-size="14.00" fill="#000000">[1, 0]</text>
<text text-anchor="middle" x="2479.5" y="-149.8" font-family="Times,serif" font-size="14.00" fill="#000000">1193</text>
</g>
<!-- 13&#45;&gt;14 -->
<g id="edge12" class="edge">
<title>13&#45;&gt;14</title>
<path fill="none" stroke="#000000" d="M2390.6968,-230.8919C2403.348,-222.0033 2418.7537,-211.1795 2433.1586,-201.0589"/>
<polygon fill="#000000" stroke="#000000" points="2435.3256,-203.8138 2441.4959,-195.2011 2431.3014,-198.0862 2435.3256,-203.8138"/>
</g>
<!-- 15 -->
<g id="node14" class="node">
<title>15</title>
<polygon fill="none" stroke="#ffff00" stroke-width="2" points="2867,-106 2092,-106 2092,-23 2867,-23 2867,-106"/>
<text text-anchor="middle" x="2479.5" y="-90.8" font-family="Times,serif" font-size="14.00" fill="#000000">SQLQuery</text>
<text text-anchor="middle" x="2479.5" y="-75.8" font-family="Times,serif" font-size="14.00" fill="#000000">SELECT tab_12.nr, tab_12.producer, tab_14.label, tab_14.propertyNum2 </text>
<text text-anchor="middle" x="2479.5" y="-60.8" font-family="Times,serif" font-size="14.00" fill="#000000">FROM PRODUCTTYPEPRODUCT AS tab_13, PRODUCT AS tab_12, Product AS tab_14 &#160;</text>
<text text-anchor="middle" x="2479.5" y="-45.8" font-family="Times,serif" font-size="14.00" fill="#000000">WHERE tab_13.producttype = 57 AND tab_13.product = tab_12.nr AND tab_12.producer = tab_14.producer AND tab_12.nr = tab_14.nr</text>
<text text-anchor="middle" x="2479.5" y="-30.8" font-family="Times,serif" font-size="14.00" fill="#000000">56</text>
</g>
<!-- 14&#45;&gt;15 -->
<g id="edge13" class="edge">
<title>14&#45;&gt;15</title>
<path fill="none" stroke="#000000" d="M2479.5,-141.9873C2479.5,-134.2014 2479.5,-125.4027 2479.5,-116.6002"/>
<polygon fill="#000000" stroke="#000000" points="2483.0001,-116.3255 2479.5,-106.3255 2476.0001,-116.3255 2483.0001,-116.3255"/>
</g>
<!-- 16 -->
<g id="node15" class="node">
<title>16</title>
<polygon fill="none" stroke="#ffff00" stroke-width="2" points="3153.5,-106 2885.5,-106 2885.5,-23 3153.5,-23 3153.5,-106"/>
<text text-anchor="middle" x="3019.5" y="-90.8" font-family="Times,serif" font-size="14.00" fill="#000000">PhyMongoDBEval</text>
<text text-anchor="middle" x="3019.5" y="-75.8" font-family="Times,serif" font-size="14.00" fill="#000000">productfeatureproduct</text>
<text text-anchor="middle" x="3019.5" y="-60.8" font-family="Times,serif" font-size="14.00" fill="#000000">[{ &quot;$match&quot;: { &quot;producer&quot;: %s, &quot;nr&quot;: %s } }]</text>
<text text-anchor="middle" x="3019.5" y="-45.8" font-family="Times,serif" font-size="14.00" fill="#000000">[nr, producer, label]</text>
<text text-anchor="middle" x="3019.5" y="-30.8" font-family="Times,serif" font-size="14.00" fill="#000000">1193</text>
</g>
<!-- 14&#45;&gt;16 -->
<g id="edge14" class="edge">
<title>14&#45;&gt;16</title>
<path fill="none" stroke="#000000" d="M2529.26,-162.6606C2602.756,-153.5948 2744.7353,-134.3981 2874.9609,-106.0343"/>
<polygon fill="#000000" stroke="#000000" points="2876.1001,-109.3674 2885.1135,-103.7989 2874.5948,-102.5312 2876.1001,-109.3674"/>
</g>
<!-- 19 -->
<g id="node17" class="node">
<title>19</title>
<polygon fill="none" stroke="#ffff00" stroke-width="2" points="3609,-195 3510,-195 3510,-142 3609,-142 3609,-195"/>
<text text-anchor="middle" x="3559.5" y="-179.8" font-family="Times,serif" font-size="14.00" fill="#000000">RightBindJoin </text>
<text text-anchor="middle" x="3559.5" y="-164.8" font-family="Times,serif" font-size="14.00" fill="#000000">[0, 1]</text>
<text text-anchor="middle" x="3559.5" y="-149.8" font-family="Times,serif" font-size="14.00" fill="#000000">1193</text>
</g>
<!-- 18&#45;&gt;19 -->
<g id="edge16" class="edge">
<title>18&#45;&gt;19</title>
<path fill="none" stroke="#000000" d="M3089.0856,-245.0245C3170.2781,-231.8165 3392.3563,-195.69 3499.7608,-178.2181"/>
<polygon fill="#000000" stroke="#000000" points="3500.4799,-181.6472 3509.7882,-176.5869 3499.3559,-174.738 3500.4799,-181.6472"/>
</g>
<!-- 20 -->
<g id="node18" class="node">
<title>20</title>
<polygon fill="none" stroke="#ffff00" stroke-width="2" points="3947,-106 3172,-106 3172,-23 3947,-23 3947,-106"/>
<text text-anchor="middle" x="3559.5" y="-90.8" font-family="Times,serif" font-size="14.00" fill="#000000">SQLQuery</text>
<text text-anchor="middle" x="3559.5" y="-75.8" font-family="Times,serif" font-size="14.00" fill="#000000">SELECT tab_15.nr, tab_15.producer, tab_17.label, tab_17.propertyNum1 </text>
<text text-anchor="middle" x="3559.5" y="-60.8" font-family="Times,serif" font-size="14.00" fill="#000000">FROM PRODUCTTYPEPRODUCT AS tab_16, Product AS tab_17, PRODUCT AS tab_15 &#160;</text>
<text text-anchor="middle" x="3559.5" y="-45.8" font-family="Times,serif" font-size="14.00" fill="#000000">WHERE tab_16.producttype = 57 AND tab_16.product = tab_15.nr AND tab_15.nr = tab_17.nr AND tab_15.producer = tab_17.producer</text>
<text text-anchor="middle" x="3559.5" y="-30.8" font-family="Times,serif" font-size="14.00" fill="#000000">56</text>
</g>
<!-- 19&#45;&gt;20 -->
<g id="edge17" class="edge">
<title>19&#45;&gt;20</title>
<path fill="none" stroke="#000000" d="M3559.5,-141.9873C3559.5,-134.2014 3559.5,-125.4027 3559.5,-116.6002"/>
<polygon fill="#000000" stroke="#000000" points="3563.0001,-116.3255 3559.5,-106.3255 3556.0001,-116.3255 3563.0001,-116.3255"/>
</g>
<!-- 21 -->
<g id="node19" class="node">
<title>21</title>
<polygon fill="none" stroke="#ffff00" stroke-width="2" points="4233.5,-106 3965.5,-106 3965.5,-23 4233.5,-23 4233.5,-106"/>
<text text-anchor="middle" x="4099.5" y="-90.8" font-family="Times,serif" font-size="14.00" fill="#000000">PhyMongoDBEval</text>
<text text-anchor="middle" x="4099.5" y="-75.8" font-family="Times,serif" font-size="14.00" fill="#000000">productfeatureproduct</text>
<text text-anchor="middle" x="4099.5" y="-60.8" font-family="Times,serif" font-size="14.00" fill="#000000">[{ &quot;$match&quot;: { &quot;nr&quot;: %s, &quot;producer&quot;: %s } }]</text>
<text text-anchor="middle" x="4099.5" y="-45.8" font-family="Times,serif" font-size="14.00" fill="#000000">[nr, producer, label]</text>
<text text-anchor="middle" x="4099.5" y="-30.8" font-family="Times,serif" font-size="14.00" fill="#000000">1193</text>
</g>
<!-- 19&#45;&gt;21 -->
<g id="edge18" class="edge">
<title>19&#45;&gt;21</title>
<path fill="none" stroke="#000000" d="M3609.26,-162.6606C3682.756,-153.5948 3824.7353,-134.3981 3954.9609,-106.0343"/>
<polygon fill="#000000" stroke="#000000" points="3956.1001,-109.3674 3965.1135,-103.7989 3954.5948,-102.5312 3956.1001,-109.3674"/>
</g>
</g>
</svg>
