digraph  g{ graph[label = "22:12:9.776"]
node [shape=rectangle, color=black, fontcolor=black, style=bold] edge [color=black] 0 [label="HashDistinct", color = yellow] ; 
1 [label="BindAccessEval", color = yellow] ; 
0 -> 1 ; 
2 [label="BindAccessEval", color = yellow] ; 
1 -> 2 ; 
3 [label="Project
[0, 4]", color = yellow] ; 
2 -> 3 ; 
4 [label="RightBindJoin 
[1, 2]
116", color = yellow] ; 
3 -> 4 ; 
5 [label="PhyMongoDBEval
countrytype
[{\"$match\":{\"countrytype\":222}},
{$lookup: { from: \"productproducercountry\", let: { \"country\": \"$country\"}, pipeline: [ { $match: {$expr: {$eq: [\"$$country\", \"$country\"] } } } ], as: \"mongojoin194\"}},
{$unwind: \"$mongojoin194\"}]
[country, mongojoin194.nr, mongojoin194.producer]
116", color = yellow] ; 
4 -> 5 ; 
6 [label="SQLQuery
SELECT nr, label, producer 
FROM Product 
WHERE nr = ? AND producer = ?
116", color = yellow] ; 
4 -> 6 ; 
7 [label="FunctionCallBindAccess
(\"{1}\", <http://downlode.org/rdf/iso-3166/countries#{0}>)", color = yellow] ; 
2 -> 7 ; 
8 [label="FunctionCallBindAccess
AddConstant{1=(\"<http://www4.wiwiss.fu-berlin.de/bizer/bsbm/v01/vocabulary/producer>\")}", color = yellow] ; 
1 -> 8 ; 
}
