INPUT	N_ANS	N_TRI	N_REF	N_REW	N_CLASH	N_COVER	T_REF	T_REW	T_CLASH	T_COVER	T_CORE	T_OP	T_QEV	T_TOTAL
Q01	1272	5	N/A	N/A	N/A	N/A	N/A	N/A	N/A	N/A	N/A	N/A	38	74
Q01a	4376	5	N/A	N/A	N/A	N/A	N/A	N/A	N/A	N/A	N/A	N/A	106	208
Q01b	22738	5	N/A	N/A	N/A	N/A	N/A	N/A	N/A	N/A	N/A	N/A	821	1699
Q02	16	6	N/A	N/A	N/A	N/A	N/A	N/A	N/A	N/A	N/A	N/A	88	190
Q02a	56	6	N/A	N/A	N/A	N/A	N/A	N/A	N/A	N/A	N/A	N/A	197	436
Q02b	174	6	N/A	N/A	N/A	N/A	N/A	N/A	N/A	N/A	N/A	N/A	544	1280
Q02c	1342	6	N/A	N/A	N/A	N/A	N/A	N/A	N/A	N/A	N/A	N/A	4660	13056
Q03	19	5	N/A	N/A	N/A	N/A	N/A	N/A	N/A	N/A	N/A	N/A	295	3312
Q04	91	2	N/A	N/A	N/A	N/A	N/A	N/A	N/A	N/A	N/A	N/A	1	1
Q05	56200	4	N/A	N/A	N/A	N/A	N/A	N/A	N/A	N/A	N/A	N/A	222	222
Q05a	33089	4	N/A	N/A	N/A	N/A	N/A	N/A	N/A	N/A	N/A	N/A	153	169
Q05b	50958	4	N/A	N/A	N/A	N/A	N/A	N/A	N/A	N/A	N/A	N/A	272	307
Q06	52208	3	N/A	N/A	N/A	N/A	N/A	N/A	N/A	N/A	N/A	N/A	413	414
Q06a	29377	6	N/A	N/A	N/A	N/A	N/A	N/A	N/A	N/A	N/A	N/A	716	791
Q06b	17815	6	N/A	N/A	N/A	N/A	N/A	N/A	N/A	N/A	N/A	N/A	853	1030
Q07	2	3	N/A	N/A	N/A	N/A	N/A	N/A	N/A	N/A	N/A	N/A	37	63
Q07a	3	3	N/A	N/A	N/A	N/A	N/A	N/A	N/A	N/A	N/A	N/A	154	244
Q08	56200	3	N/A	N/A	N/A	N/A	N/A	N/A	N/A	N/A	N/A	N/A	160	161
Q09	5617	1	N/A	N/A	N/A	N/A	N/A	N/A	N/A	N/A	N/A	N/A	218	219
Q10	9	3	N/A	N/A	N/A	N/A	N/A	N/A	N/A	N/A	N/A	N/A	1993	7254
Q10a	14	3	N/A	N/A	N/A	N/A	N/A	N/A	N/A	N/A	N/A	N/A	10129	28829
Q10b	24	3	N/A	N/A	N/A	N/A	N/A	N/A	N/A	N/A	N/A	N/A	32634	91564
Q12	116	5	N/A	N/A	N/A	N/A	N/A	N/A	N/A	N/A	N/A	N/A	50	703
Q12a	720	5	N/A	N/A	N/A	N/A	N/A	N/A	N/A	N/A	N/A	N/A	150	829
Q12b	2327	5	N/A	N/A	N/A	N/A	N/A	N/A	N/A	N/A	N/A	N/A	352	992
Q13	13190	4	N/A	N/A	N/A	N/A	N/A	N/A	N/A	N/A	N/A	N/A	151	1029
Q13a	43157	4	N/A	N/A	N/A	N/A	N/A	N/A	N/A	N/A	N/A	N/A	620	1558
Q13b	330142	4	N/A	N/A	N/A	N/A	N/A	N/A	N/A	N/A	N/A	N/A	4958	6191
Q14	56200	3	N/A	N/A	N/A	N/A	N/A	N/A	N/A	N/A	N/A	N/A	892	892
Q15	28100	5	N/A	N/A	N/A	N/A	N/A	N/A	N/A	N/A	N/A	N/A	125	125
Q16	8114	4	N/A	N/A	N/A	N/A	N/A	N/A	N/A	N/A	N/A	N/A	256	381
Q17	52208	2	N/A	N/A	N/A	N/A	N/A	N/A	N/A	N/A	N/A	N/A	358	359
Q18	56200	4	N/A	N/A	N/A	N/A	N/A	N/A	N/A	N/A	N/A	N/A	373	374
Q19	2015	9	N/A	N/A	N/A	N/A	N/A	N/A	N/A	N/A	N/A	N/A	913	1240
Q19a	3515	9	N/A	N/A	N/A	N/A	N/A	N/A	N/A	N/A	N/A	N/A	1997	2775
Q19b	15511	9	N/A	N/A	N/A	N/A	N/A	N/A	N/A	N/A	N/A	N/A	7127	10558
Q20	0	11	N/A	N/A	N/A	N/A	N/A	N/A	N/A	N/A	N/A	N/A	996	1127
Q20a	236	11	N/A	N/A	N/A	N/A	N/A	N/A	N/A	N/A	N/A	N/A	3059	3433
Q20b	2312	11	N/A	N/A	N/A	N/A	N/A	N/A	N/A	N/A	N/A	N/A	26400	30571
Q20c	7564	11	N/A	N/A	N/A	N/A	N/A	N/A	N/A	N/A	N/A	N/A	65478	78649
Q21	1085	3	N/A	N/A	N/A	N/A	N/A	N/A	N/A	N/A	N/A	N/A	3104	9609
Q22	28	4	N/A	N/A	N/A	N/A	N/A	N/A	N/A	N/A	N/A	N/A	20	975
Q22a	434	4	N/A	N/A	N/A	N/A	N/A	N/A	N/A	N/A	N/A	N/A	229	1223
Q23	15581	7	N/A	N/A	N/A	N/A	N/A	N/A	N/A	N/A	N/A	N/A	2526	3225
Q23a	22174	7	N/A	N/A	N/A	N/A	N/A	N/A	N/A	N/A	N/A	N/A	4728	5604
Q01	1272	5	N/A	N/A	N/A	N/A	N/A	N/A	N/A	N/A	N/A	N/A	42	77
Q01a	4376	5	N/A	N/A	N/A	N/A	N/A	N/A	N/A	N/A	N/A	N/A	198	301
Q01b	22738	5	N/A	N/A	N/A	N/A	N/A	N/A	N/A	N/A	N/A	N/A	1107	1987
Q02	16	6	N/A	N/A	N/A	N/A	N/A	N/A	N/A	N/A	N/A	N/A	87	189
Q02a	56	6	N/A	N/A	N/A	N/A	N/A	N/A	N/A	N/A	N/A	N/A	197	436
Q02b	174	6	N/A	N/A	N/A	N/A	N/A	N/A	N/A	N/A	N/A	N/A	529	1276
Q02c	1342	6	N/A	N/A	N/A	N/A	N/A	N/A	N/A	N/A	N/A	N/A	4671	13077
Q03	19	5	N/A	N/A	N/A	N/A	N/A	N/A	N/A	N/A	N/A	N/A	290	3296
Q04	91	2	N/A	N/A	N/A	N/A	N/A	N/A	N/A	N/A	N/A	N/A	1	1
Q05	56200	4	N/A	N/A	N/A	N/A	N/A	N/A	N/A	N/A	N/A	N/A	225	225
Q05a	33089	4	N/A	N/A	N/A	N/A	N/A	N/A	N/A	N/A	N/A	N/A	154	171
Q05b	50958	4	N/A	N/A	N/A	N/A	N/A	N/A	N/A	N/A	N/A	N/A	276	311
Q06	52208	3	N/A	N/A	N/A	N/A	N/A	N/A	N/A	N/A	N/A	N/A	404	405
Q06a	29377	6	N/A	N/A	N/A	N/A	N/A	N/A	N/A	N/A	N/A	N/A	719	794
Q06b	17815	6	N/A	N/A	N/A	N/A	N/A	N/A	N/A	N/A	N/A	N/A	852	1025
Q07	2	3	N/A	N/A	N/A	N/A	N/A	N/A	N/A	N/A	N/A	N/A	38	63
Q07a	3	3	N/A	N/A	N/A	N/A	N/A	N/A	N/A	N/A	N/A	N/A	156	246
Q08	56200	3	N/A	N/A	N/A	N/A	N/A	N/A	N/A	N/A	N/A	N/A	171	171
Q09	5617	1	N/A	N/A	N/A	N/A	N/A	N/A	N/A	N/A	N/A	N/A	215	215
Q10	9	3	N/A	N/A	N/A	N/A	N/A	N/A	N/A	N/A	N/A	N/A	2002	7254
Q10a	14	3	N/A	N/A	N/A	N/A	N/A	N/A	N/A	N/A	N/A	N/A	10044	28820
Q10b	24	3	N/A	N/A	N/A	N/A	N/A	N/A	N/A	N/A	N/A	N/A	32668	90354
Q12	116	5	N/A	N/A	N/A	N/A	N/A	N/A	N/A	N/A	N/A	N/A	51	714
Q12a	720	5	N/A	N/A	N/A	N/A	N/A	N/A	N/A	N/A	N/A	N/A	157	801
Q12b	2327	5	N/A	N/A	N/A	N/A	N/A	N/A	N/A	N/A	N/A	N/A	323	987
Q13	13190	4	N/A	N/A	N/A	N/A	N/A	N/A	N/A	N/A	N/A	N/A	150	1036
Q13a	43157	4	N/A	N/A	N/A	N/A	N/A	N/A	N/A	N/A	N/A	N/A	655	1524
Q13b	330142	4	N/A	N/A	N/A	N/A	N/A	N/A	N/A	N/A	N/A	N/A	5821	7088
Q14	56200	3	N/A	N/A	N/A	N/A	N/A	N/A	N/A	N/A	N/A	N/A	811	811
Q15	28100	5	N/A	N/A	N/A	N/A	N/A	N/A	N/A	N/A	N/A	N/A	135	135
Q16	8114	4	N/A	N/A	N/A	N/A	N/A	N/A	N/A	N/A	N/A	N/A	247	370
Q17	52208	2	N/A	N/A	N/A	N/A	N/A	N/A	N/A	N/A	N/A	N/A	338	339
Q18	56200	4	N/A	N/A	N/A	N/A	N/A	N/A	N/A	N/A	N/A	N/A	378	379
Q19	2015	9	N/A	N/A	N/A	N/A	N/A	N/A	N/A	N/A	N/A	N/A	868	1213
Q19a	3515	9	N/A	N/A	N/A	N/A	N/A	N/A	N/A	N/A	N/A	N/A	1948	2723
Q19b	15511	9	N/A	N/A	N/A	N/A	N/A	N/A	N/A	N/A	N/A	N/A	7146	10593
Q20	0	11	N/A	N/A	N/A	N/A	N/A	N/A	N/A	N/A	N/A	N/A	988	1114
Q20a	236	11	N/A	N/A	N/A	N/A	N/A	N/A	N/A	N/A	N/A	N/A	3008	3385
Q20b	2312	11	N/A	N/A	N/A	N/A	N/A	N/A	N/A	N/A	N/A	N/A	26409	30575
Q20c	7564	11	N/A	N/A	N/A	N/A	N/A	N/A	N/A	N/A	N/A	N/A	65291	79111
Q21	1085	3	N/A	N/A	N/A	N/A	N/A	N/A	N/A	N/A	N/A	N/A	3090	9379
Q22	28	4	N/A	N/A	N/A	N/A	N/A	N/A	N/A	N/A	N/A	N/A	19	975
Q22a	434	4	N/A	N/A	N/A	N/A	N/A	N/A	N/A	N/A	N/A	N/A	227	1219
Q23	15581	7	N/A	N/A	N/A	N/A	N/A	N/A	N/A	N/A	N/A	N/A	2484	3206
Q23a	22174	7	N/A	N/A	N/A	N/A	N/A	N/A	N/A	N/A	N/A	N/A	4693	5574
Q01	1272	5	N/A	N/A	N/A	N/A	N/A	N/A	N/A	N/A	N/A	N/A	33	70
Q01a	4376	5	N/A	N/A	N/A	N/A	N/A	N/A	N/A	N/A	N/A	N/A	102	203
Q01b	22738	5	N/A	N/A	N/A	N/A	N/A	N/A	N/A	N/A	N/A	N/A	1046	1938
Q02	16	6	N/A	N/A	N/A	N/A	N/A	N/A	N/A	N/A	N/A	N/A	91	194
Q02a	56	6	N/A	N/A	N/A	N/A	N/A	N/A	N/A	N/A	N/A	N/A	197	437
Q02b	174	6	N/A	N/A	N/A	N/A	N/A	N/A	N/A	N/A	N/A	N/A	523	1263
Q02c	1342	6	N/A	N/A	N/A	N/A	N/A	N/A	N/A	N/A	N/A	N/A	4658	13056
Q03	19	5	N/A	N/A	N/A	N/A	N/A	N/A	N/A	N/A	N/A	N/A	298	3312
Q04	91	2	N/A	N/A	N/A	N/A	N/A	N/A	N/A	N/A	N/A	N/A	1	1
Q05	56200	4	N/A	N/A	N/A	N/A	N/A	N/A	N/A	N/A	N/A	N/A	223	223
Q05a	33089	4	N/A	N/A	N/A	N/A	N/A	N/A	N/A	N/A	N/A	N/A	156	172
Q05b	50958	4	N/A	N/A	N/A	N/A	N/A	N/A	N/A	N/A	N/A	N/A	273	308
Q06	52208	3	N/A	N/A	N/A	N/A	N/A	N/A	N/A	N/A	N/A	N/A	413	414
Q06a	29377	6	N/A	N/A	N/A	N/A	N/A	N/A	N/A	N/A	N/A	N/A	684	759
Q06b	17815	6	N/A	N/A	N/A	N/A	N/A	N/A	N/A	N/A	N/A	N/A	853	1023
Q07	2	3	N/A	N/A	N/A	N/A	N/A	N/A	N/A	N/A	N/A	N/A	38	63
Q07a	3	3	N/A	N/A	N/A	N/A	N/A	N/A	N/A	N/A	N/A	N/A	155	246
Q08	56200	3	N/A	N/A	N/A	N/A	N/A	N/A	N/A	N/A	N/A	N/A	144	145
Q09	5617	1	N/A	N/A	N/A	N/A	N/A	N/A	N/A	N/A	N/A	N/A	214	215
Q10	9	3	N/A	N/A	N/A	N/A	N/A	N/A	N/A	N/A	N/A	N/A	1996	7241
Q10a	14	3	N/A	N/A	N/A	N/A	N/A	N/A	N/A	N/A	N/A	N/A	10031	28778
Q10b	24	3	N/A	N/A	N/A	N/A	N/A	N/A	N/A	N/A	N/A	N/A	32675	90749
Q12	116	5	N/A	N/A	N/A	N/A	N/A	N/A	N/A	N/A	N/A	N/A	50	695
Q12a	720	5	N/A	N/A	N/A	N/A	N/A	N/A	N/A	N/A	N/A	N/A	152	805
Q12b	2327	5	N/A	N/A	N/A	N/A	N/A	N/A	N/A	N/A	N/A	N/A	322	969
Q13	13190	4	N/A	N/A	N/A	N/A	N/A	N/A	N/A	N/A	N/A	N/A	159	1028
Q13a	43157	4	N/A	N/A	N/A	N/A	N/A	N/A	N/A	N/A	N/A	N/A	606	1496
Q13b	330142	4	N/A	N/A	N/A	N/A	N/A	N/A	N/A	N/A	N/A	N/A	4987	6232
Q14	56200	3	N/A	N/A	N/A	N/A	N/A	N/A	N/A	N/A	N/A	N/A	948	948
Q15	28100	5	N/A	N/A	N/A	N/A	N/A	N/A	N/A	N/A	N/A	N/A	144	144
Q16	8114	4	N/A	N/A	N/A	N/A	N/A	N/A	N/A	N/A	N/A	N/A	264	388
Q17	52208	2	N/A	N/A	N/A	N/A	N/A	N/A	N/A	N/A	N/A	N/A	353	354
Q18	56200	4	N/A	N/A	N/A	N/A	N/A	N/A	N/A	N/A	N/A	N/A	394	395
Q19	2015	9	N/A	N/A	N/A	N/A	N/A	N/A	N/A	N/A	N/A	N/A	892	1219
Q19a	3515	9	N/A	N/A	N/A	N/A	N/A	N/A	N/A	N/A	N/A	N/A	2003	2795
Q19b	15511	9	N/A	N/A	N/A	N/A	N/A	N/A	N/A	N/A	N/A	N/A	7240	10783
Q20	0	11	N/A	N/A	N/A	N/A	N/A	N/A	N/A	N/A	N/A	N/A	1023	1151
Q20a	236	11	N/A	N/A	N/A	N/A	N/A	N/A	N/A	N/A	N/A	N/A	3006	3388
Q20b	2312	11	N/A	N/A	N/A	N/A	N/A	N/A	N/A	N/A	N/A	N/A	26374	30616
Q20c	7564	11	N/A	N/A	N/A	N/A	N/A	N/A	N/A	N/A	N/A	N/A	64718	78012
Q21	1085	3	N/A	N/A	N/A	N/A	N/A	N/A	N/A	N/A	N/A	N/A	3094	9358
Q22	28	4	N/A	N/A	N/A	N/A	N/A	N/A	N/A	N/A	N/A	N/A	19	977
Q22a	434	4	N/A	N/A	N/A	N/A	N/A	N/A	N/A	N/A	N/A	N/A	225	1215
Q23	15581	7	N/A	N/A	N/A	N/A	N/A	N/A	N/A	N/A	N/A	N/A	2551	3261
Q23a	22174	7	N/A	N/A	N/A	N/A	N/A	N/A	N/A	N/A	N/A	N/A	4716	5610
Q01	1272	5	N/A	N/A	N/A	N/A	N/A	N/A	N/A	N/A	N/A	N/A	41	76
Q01a	4376	5	N/A	N/A	N/A	N/A	N/A	N/A	N/A	N/A	N/A	N/A	203	304
Q01b	22738	5	N/A	N/A	N/A	N/A	N/A	N/A	N/A	N/A	N/A	N/A	1028	1909
Q02	16	6	N/A	N/A	N/A	N/A	N/A	N/A	N/A	N/A	N/A	N/A	87	189
Q02a	56	6	N/A	N/A	N/A	N/A	N/A	N/A	N/A	N/A	N/A	N/A	201	440
Q02b	174	6	N/A	N/A	N/A	N/A	N/A	N/A	N/A	N/A	N/A	N/A	527	1265
Q02c	1342	6	N/A	N/A	N/A	N/A	N/A	N/A	N/A	N/A	N/A	N/A	4648	13066
Q03	19	5	N/A	N/A	N/A	N/A	N/A	N/A	N/A	N/A	N/A	N/A	294	3295
Q04	91	2	N/A	N/A	N/A	N/A	N/A	N/A	N/A	N/A	N/A	N/A	1	2
Q05	56200	4	N/A	N/A	N/A	N/A	N/A	N/A	N/A	N/A	N/A	N/A	213	213
Q05a	33089	4	N/A	N/A	N/A	N/A	N/A	N/A	N/A	N/A	N/A	N/A	167	184
Q05b	50958	4	N/A	N/A	N/A	N/A	N/A	N/A	N/A	N/A	N/A	N/A	277	314
Q06	52208	3	N/A	N/A	N/A	N/A	N/A	N/A	N/A	N/A	N/A	N/A	368	369
Q06a	29377	6	N/A	N/A	N/A	N/A	N/A	N/A	N/A	N/A	N/A	N/A	687	761
Q06b	17815	6	N/A	N/A	N/A	N/A	N/A	N/A	N/A	N/A	N/A	N/A	842	1019
Q07	2	3	N/A	N/A	N/A	N/A	N/A	N/A	N/A	N/A	N/A	N/A	40	67
Q07a	3	3	N/A	N/A	N/A	N/A	N/A	N/A	N/A	N/A	N/A	N/A	162	258
Q08	56200	3	N/A	N/A	N/A	N/A	N/A	N/A	N/A	N/A	N/A	N/A	163	163
Q09	5617	1	N/A	N/A	N/A	N/A	N/A	N/A	N/A	N/A	N/A	N/A	215	215
Q10	9	3	N/A	N/A	N/A	N/A	N/A	N/A	N/A	N/A	N/A	N/A	2016	7260
Q10a	14	3	N/A	N/A	N/A	N/A	N/A	N/A	N/A	N/A	N/A	N/A	10033	28777
Q10b	24	3	N/A	N/A	N/A	N/A	N/A	N/A	N/A	N/A	N/A	N/A	32663	91622
Q12	116	5	N/A	N/A	N/A	N/A	N/A	N/A	N/A	N/A	N/A	N/A	46	692
Q12a	720	5	N/A	N/A	N/A	N/A	N/A	N/A	N/A	N/A	N/A	N/A	144	781
Q12b	2327	5	N/A	N/A	N/A	N/A	N/A	N/A	N/A	N/A	N/A	N/A	322	964
Q13	13190	4	N/A	N/A	N/A	N/A	N/A	N/A	N/A	N/A	N/A	N/A	150	1015
Q13a	43157	4	N/A	N/A	N/A	N/A	N/A	N/A	N/A	N/A	N/A	N/A	613	1482
Q13b	330142	4	N/A	N/A	N/A	N/A	N/A	N/A	N/A	N/A	N/A	N/A	4920	6151
Q14	56200	3	N/A	N/A	N/A	N/A	N/A	N/A	N/A	N/A	N/A	N/A	861	861
Q15	28100	5	N/A	N/A	N/A	N/A	N/A	N/A	N/A	N/A	N/A	N/A	136	136
Q16	8114	4	N/A	N/A	N/A	N/A	N/A	N/A	N/A	N/A	N/A	N/A	249	372
Q17	52208	2	N/A	N/A	N/A	N/A	N/A	N/A	N/A	N/A	N/A	N/A	334	335
Q18	56200	4	N/A	N/A	N/A	N/A	N/A	N/A	N/A	N/A	N/A	N/A	329	329
Q19	2015	9	N/A	N/A	N/A	N/A	N/A	N/A	N/A	N/A	N/A	N/A	916	1242
Q19a	3515	9	N/A	N/A	N/A	N/A	N/A	N/A	N/A	N/A	N/A	N/A	1965	2740
Q19b	15511	9	N/A	N/A	N/A	N/A	N/A	N/A	N/A	N/A	N/A	N/A	7104	10541
Q20	0	11	N/A	N/A	N/A	N/A	N/A	N/A	N/A	N/A	N/A	N/A	988	1113
Q20a	236	11	N/A	N/A	N/A	N/A	N/A	N/A	N/A	N/A	N/A	N/A	3043	3415
Q20b	2312	11	N/A	N/A	N/A	N/A	N/A	N/A	N/A	N/A	N/A	N/A	26345	30528
Q20c	7564	11	N/A	N/A	N/A	N/A	N/A	N/A	N/A	N/A	N/A	N/A	65036	78288
Q21	1085	3	N/A	N/A	N/A	N/A	N/A	N/A	N/A	N/A	N/A	N/A	3078	9370
Q22	28	4	N/A	N/A	N/A	N/A	N/A	N/A	N/A	N/A	N/A	N/A	19	981
Q22a	434	4	N/A	N/A	N/A	N/A	N/A	N/A	N/A	N/A	N/A	N/A	224	1209
Q23	15581	7	N/A	N/A	N/A	N/A	N/A	N/A	N/A	N/A	N/A	N/A	2486	3189
Q23a	22174	7	N/A	N/A	N/A	N/A	N/A	N/A	N/A	N/A	N/A	N/A	4676	5556
Q01	1272	5	N/A	N/A	N/A	N/A	N/A	N/A	N/A	N/A	N/A	N/A	37	72
Q01a	4376	5	N/A	N/A	N/A	N/A	N/A	N/A	N/A	N/A	N/A	N/A	96	197
Q01b	22738	5	N/A	N/A	N/A	N/A	N/A	N/A	N/A	N/A	N/A	N/A	819	1699
Q02	16	6	N/A	N/A	N/A	N/A	N/A	N/A	N/A	N/A	N/A	N/A	88	195
Q02a	56	6	N/A	N/A	N/A	N/A	N/A	N/A	N/A	N/A	N/A	N/A	195	434
Q02b	174	6	N/A	N/A	N/A	N/A	N/A	N/A	N/A	N/A	N/A	N/A	516	1251
Q02c	1342	6	N/A	N/A	N/A	N/A	N/A	N/A	N/A	N/A	N/A	N/A	4690	13097
Q03	19	5	N/A	N/A	N/A	N/A	N/A	N/A	N/A	N/A	N/A	N/A	288	3301
Q04	91	2	N/A	N/A	N/A	N/A	N/A	N/A	N/A	N/A	N/A	N/A	1	2
Q05	56200	4	N/A	N/A	N/A	N/A	N/A	N/A	N/A	N/A	N/A	N/A	222	222
Q05a	33089	4	N/A	N/A	N/A	N/A	N/A	N/A	N/A	N/A	N/A	N/A	159	175
Q05b	50958	4	N/A	N/A	N/A	N/A	N/A	N/A	N/A	N/A	N/A	N/A	271	309
Q06	52208	3	N/A	N/A	N/A	N/A	N/A	N/A	N/A	N/A	N/A	N/A	384	385
Q06a	29377	6	N/A	N/A	N/A	N/A	N/A	N/A	N/A	N/A	N/A	N/A	720	801
Q06b	17815	6	N/A	N/A	N/A	N/A	N/A	N/A	N/A	N/A	N/A	N/A	879	1061
Q07	2	3	N/A	N/A	N/A	N/A	N/A	N/A	N/A	N/A	N/A	N/A	38	63
Q07a	3	3	N/A	N/A	N/A	N/A	N/A	N/A	N/A	N/A	N/A	N/A	160	250
Q08	56200	3	N/A	N/A	N/A	N/A	N/A	N/A	N/A	N/A	N/A	N/A	159	160
Q09	5617	1	N/A	N/A	N/A	N/A	N/A	N/A	N/A	N/A	N/A	N/A	215	216
Q10	9	3	N/A	N/A	N/A	N/A	N/A	N/A	N/A	N/A	N/A	N/A	2041	7302
Q10a	14	3	N/A	N/A	N/A	N/A	N/A	N/A	N/A	N/A	N/A	N/A	10048	28847
Q10b	24	3	N/A	N/A	N/A	N/A	N/A	N/A	N/A	N/A	N/A	N/A	32677	91245
Q12	116	5	N/A	N/A	N/A	N/A	N/A	N/A	N/A	N/A	N/A	N/A	50	696
Q12a	720	5	N/A	N/A	N/A	N/A	N/A	N/A	N/A	N/A	N/A	N/A	157	799
Q12b	2327	5	N/A	N/A	N/A	N/A	N/A	N/A	N/A	N/A	N/A	N/A	337	993
Q13	13190	4	N/A	N/A	N/A	N/A	N/A	N/A	N/A	N/A	N/A	N/A	148	1027
Q13a	43157	4	N/A	N/A	N/A	N/A	N/A	N/A	N/A	N/A	N/A	N/A	603	1486
Q13b	330142	4	N/A	N/A	N/A	N/A	N/A	N/A	N/A	N/A	N/A	N/A	4948	6206
Q14	56200	3	N/A	N/A	N/A	N/A	N/A	N/A	N/A	N/A	N/A	N/A	817	817
Q15	28100	5	N/A	N/A	N/A	N/A	N/A	N/A	N/A	N/A	N/A	N/A	140	141
Q16	8114	4	N/A	N/A	N/A	N/A	N/A	N/A	N/A	N/A	N/A	N/A	245	369
Q17	52208	2	N/A	N/A	N/A	N/A	N/A	N/A	N/A	N/A	N/A	N/A	333	334
Q18	56200	4	N/A	N/A	N/A	N/A	N/A	N/A	N/A	N/A	N/A	N/A	368	368
Q19	2015	9	N/A	N/A	N/A	N/A	N/A	N/A	N/A	N/A	N/A	N/A	858	1177
Q19a	3515	9	N/A	N/A	N/A	N/A	N/A	N/A	N/A	N/A	N/A	N/A	1939	2714
Q19b	15511	9	N/A	N/A	N/A	N/A	N/A	N/A	N/A	N/A	N/A	N/A	7150	10584
Q20	0	11	N/A	N/A	N/A	N/A	N/A	N/A	N/A	N/A	N/A	N/A	984	1110
Q20a	236	11	N/A	N/A	N/A	N/A	N/A	N/A	N/A	N/A	N/A	N/A	2998	3371
Q20b	2312	11	N/A	N/A	N/A	N/A	N/A	N/A	N/A	N/A	N/A	N/A	26439	30588
Q20c	7564	11	N/A	N/A	N/A	N/A	N/A	N/A	N/A	N/A	N/A	N/A	64912	78011
Q21	1085	3	N/A	N/A	N/A	N/A	N/A	N/A	N/A	N/A	N/A	N/A	3152	9456
Q22	28	4	N/A	N/A	N/A	N/A	N/A	N/A	N/A	N/A	N/A	N/A	20	981
Q22a	434	4	N/A	N/A	N/A	N/A	N/A	N/A	N/A	N/A	N/A	N/A	228	1220
Q23	15581	7	N/A	N/A	N/A	N/A	N/A	N/A	N/A	N/A	N/A	N/A	2585	3312
Q23a	22174	7	N/A	N/A	N/A	N/A	N/A	N/A	N/A	N/A	N/A	N/A	4882	5800
