<?xml version="1.0" encoding="UTF-8" standalone="no"?>
<!DOCTYPE svg PUBLIC "-//W3C//DTD SVG 1.1//EN"
 "http://www.w3.org/Graphics/SVG/1.1/DTD/svg11.dtd">
<!-- Generated by graphviz version 2.40.1 (20161225.0304)
 -->
<!-- Title: g Pages: 1 -->
<svg width="1870pt" height="531pt"
 viewBox="0.00 0.00 1869.50 531.00" xmlns="http://www.w3.org/2000/svg" xmlns:xlink="http://www.w3.org/1999/xlink">
<g id="graph0" class="graph" transform="scale(1 1) rotate(0) translate(4 527)">
<title>g</title>
<polygon fill="#ffffff" stroke="transparent" points="-4,4 -4,-527 1865.5,-527 1865.5,4 -4,4"/>
<text text-anchor="middle" x="930.75" y="-7.8" font-family="Times,serif" font-size="14.00" fill="#000000">20:51:26.172</text>
<!-- 0 -->
<g id="node1" class="node">
<title>0</title>
<polygon fill="none" stroke="#ffff00" stroke-width="2" points="1368.5,-523 1262.5,-523 1262.5,-487 1368.5,-487 1368.5,-523"/>
<text text-anchor="middle" x="1315.5" y="-501.3" font-family="Times,serif" font-size="14.00" fill="#000000">BindAccessEval</text>
</g>
<!-- 1 -->
<g id="node2" class="node">
<title>1</title>
<polygon fill="none" stroke="#ffff00" stroke-width="2" points="1691,-451 0,-451 0,-23 1691,-23 1691,-451"/>
<text text-anchor="middle" x="845.5" y="-435.8" font-family="Times,serif" font-size="14.00" fill="#000000">SQLQuery</text>
<text text-anchor="middle" x="845.5" y="-420.8" font-family="Times,serif" font-size="14.00" fill="#000000">SELECT tab_44.label, tab_47.label, tab_44.propertyNum1 </text>
<text text-anchor="middle" x="845.5" y="-405.8" font-family="Times,serif" font-size="14.00" fill="#000000">FROM PRODUCT AS tab_43, Product AS tab_44, PRODUCTTYPEPRODUCT AS tab_42, ProductFeatureProduct AS tab_46, Product AS tab_45, ProductFeature AS tab_47 </text>
<text text-anchor="middle" x="845.5" y="-390.8" font-family="Times,serif" font-size="14.00" fill="#000000">WHERE tab_42.producttype = 1056 AND tab_42.product = tab_43.nr AND tab_44.producer = tab_43.producer AND tab_44.nr = tab_43.nr AND tab_45.nr = tab_46.product AND tab_46.productFeature = tab_47.nr AND tab_44.producer = tab_45.producer AND tab_44.nr = tab_45.nr </text>
<text text-anchor="middle" x="845.5" y="-375.8" font-family="Times,serif" font-size="14.00" fill="#000000">UNION</text>
<text text-anchor="middle" x="845.5" y="-360.8" font-family="Times,serif" font-size="14.00" fill="#000000">SELECT tab_249.label, tab_246.label, tab_249.propertyNum1 </text>
<text text-anchor="middle" x="845.5" y="-345.8" font-family="Times,serif" font-size="14.00" fill="#000000">FROM PRODUCT AS tab_248, Product AS tab_249, PRODUCTTYPEPRODUCT AS tab_244, ProductFeatureProduct AS tab_245, Product AS tab_247, ProductFeature AS tab_246 </text>
<text text-anchor="middle" x="845.5" y="-330.8" font-family="Times,serif" font-size="14.00" fill="#000000">WHERE tab_244.producttype = 1063 AND tab_244.product = tab_248.nr AND tab_247.nr = tab_245.product AND tab_245.productFeature = tab_246.nr AND tab_248.producer = tab_247.producer AND tab_248.nr = tab_247.nr AND tab_248.producer = tab_249.producer AND tab_248.nr = tab_249.nr </text>
<text text-anchor="middle" x="845.5" y="-315.8" font-family="Times,serif" font-size="14.00" fill="#000000">UNION</text>
<text text-anchor="middle" x="845.5" y="-300.8" font-family="Times,serif" font-size="14.00" fill="#000000">SELECT tab_83.label, tab_87.label, tab_83.propertyNum1 </text>
<text text-anchor="middle" x="845.5" y="-285.8" font-family="Times,serif" font-size="14.00" fill="#000000">FROM PRODUCTTYPEPRODUCT AS tab_84, Product AS tab_85, ProductFeature AS tab_87, ProductFeatureProduct AS tab_86, Product AS tab_83, PRODUCT AS tab_82 </text>
<text text-anchor="middle" x="845.5" y="-270.8" font-family="Times,serif" font-size="14.00" fill="#000000">WHERE tab_84.producttype = 1062 AND tab_84.product = tab_82.nr AND tab_83.producer = tab_82.producer AND tab_83.nr = tab_82.nr AND tab_85.nr = tab_86.product AND tab_86.productFeature = tab_87.nr AND tab_83.producer = tab_85.producer AND tab_83.nr = tab_85.nr </text>
<text text-anchor="middle" x="845.5" y="-255.8" font-family="Times,serif" font-size="14.00" fill="#000000">UNION</text>
<text text-anchor="middle" x="845.5" y="-240.8" font-family="Times,serif" font-size="14.00" fill="#000000">SELECT tab_53.label, tab_52.label, tab_53.propertyNum2 </text>
<text text-anchor="middle" x="845.5" y="-225.8" font-family="Times,serif" font-size="14.00" fill="#000000">FROM ProductFeature AS tab_52, Product AS tab_53, Product AS tab_55, ProductFeatureProduct AS tab_54, PRODUCTTYPEPRODUCT AS tab_57, PRODUCT AS tab_56 </text>
<text text-anchor="middle" x="845.5" y="-210.8" font-family="Times,serif" font-size="14.00" fill="#000000">WHERE tab_55.nr = tab_54.product AND tab_54.productFeature = tab_52.nr AND tab_55.producer = tab_53.producer AND tab_55.nr = tab_53.nr AND tab_57.producttype = 1059 AND tab_57.product = tab_56.nr AND tab_55.producer = tab_56.producer AND tab_55.nr = tab_56.nr </text>
<text text-anchor="middle" x="845.5" y="-195.8" font-family="Times,serif" font-size="14.00" fill="#000000">UNION</text>
<text text-anchor="middle" x="845.5" y="-180.8" font-family="Times,serif" font-size="14.00" fill="#000000">SELECT tab_323.label, tab_327.label, tab_323.propertyNum2 </text>
<text text-anchor="middle" x="845.5" y="-165.8" font-family="Times,serif" font-size="14.00" fill="#000000">FROM ProductFeatureProduct AS tab_326, PRODUCT AS tab_324, ProductFeature AS tab_327, PRODUCTTYPEPRODUCT AS tab_322, Product AS tab_325, Product AS tab_323 </text>
<text text-anchor="middle" x="845.5" y="-150.8" font-family="Times,serif" font-size="14.00" fill="#000000">WHERE tab_322.producttype = 1054 AND tab_322.product = tab_324.nr AND tab_324.producer = tab_323.producer AND tab_324.nr = tab_323.nr AND tab_325.nr = tab_326.product AND tab_326.productFeature = tab_327.nr AND tab_324.producer = tab_325.producer AND tab_324.nr = tab_325.nr </text>
<text text-anchor="middle" x="845.5" y="-135.8" font-family="Times,serif" font-size="14.00" fill="#000000">UNION</text>
<text text-anchor="middle" x="845.5" y="-120.8" font-family="Times,serif" font-size="14.00" fill="#000000">SELECT tab_198.label, tab_193.label, tab_198.propertyNum1 </text>
<text text-anchor="middle" x="845.5" y="-105.8" font-family="Times,serif" font-size="14.00" fill="#000000">FROM PRODUCTTYPEPRODUCT AS tab_196, Product AS tab_195, ProductFeature AS tab_193, PRODUCT AS tab_197, Product AS tab_198, ProductFeatureProduct AS tab_194 </text>
<text text-anchor="middle" x="845.5" y="-90.8" font-family="Times,serif" font-size="14.00" fill="#000000">WHERE tab_195.nr = tab_194.product AND tab_194.productFeature = tab_193.nr AND tab_196.producttype = 1064 AND tab_196.product = tab_197.nr AND tab_195.producer = tab_197.producer AND tab_195.nr = tab_197.nr AND tab_195.producer = tab_198.producer AND tab_195.nr = tab_198.nr </text>
<text text-anchor="middle" x="845.5" y="-75.8" font-family="Times,serif" font-size="14.00" fill="#000000">UNION</text>
<text text-anchor="middle" x="845.5" y="-60.8" font-family="Times,serif" font-size="14.00" fill="#000000">SELECT tab_260.label, tab_258.label, tab_260.propertyNum1 </text>
<text text-anchor="middle" x="845.5" y="-45.8" font-family="Times,serif" font-size="14.00" fill="#000000">FROM PRODUCT AS tab_257, ... (31 UNIONs)</text>
<text text-anchor="middle" x="845.5" y="-30.8" font-family="Times,serif" font-size="14.00" fill="#000000">111793</text>
</g>
<!-- 0&#45;&gt;1 -->
<g id="edge1" class="edge">
<title>0&#45;&gt;1</title>
<path fill="none" stroke="#000000" d="M1283.9322,-486.9996C1269.6413,-478.8508 1251.1635,-468.3145 1229.897,-456.1881"/>
<polygon fill="#000000" stroke="#000000" points="1231.3724,-453.0004 1220.9517,-451.0873 1227.9049,-459.0812 1231.3724,-453.0004"/>
</g>
<!-- 2 -->
<g id="node3" class="node">
<title>2</title>
<polygon fill="none" stroke="#ffff00" stroke-width="2" points="1861.5,-256 1709.5,-256 1709.5,-218 1861.5,-218 1861.5,-256"/>
<text text-anchor="middle" x="1785.5" y="-240.8" font-family="Times,serif" font-size="14.00" fill="#000000">FunctionCallBindAccess</text>
<text text-anchor="middle" x="1785.5" y="-225.8" font-family="Times,serif" font-size="14.00" fill="#000000">(&quot;{0}&quot;, &quot;{1}&quot;, &quot;{2}&quot;)</text>
</g>
<!-- 0&#45;&gt;2 -->
<g id="edge2" class="edge">
<title>0&#45;&gt;2</title>
<path fill="none" stroke="#000000" d="M1368.6536,-503.9939C1461.9358,-501.2011 1650.0175,-490.6698 1700.5,-451 1758.8221,-405.1698 1777.2539,-313.355 1782.9818,-266.2899"/>
<polygon fill="#000000" stroke="#000000" points="1786.4828,-266.4728 1784.1019,-256.149 1779.5251,-265.7042 1786.4828,-266.4728"/>
</g>
</g>
</svg>
