<?xml version="1.0" encoding="UTF-8" standalone="no"?>
<!DOCTYPE svg PUBLIC "-//W3C//DTD SVG 1.1//EN"
 "http://www.w3.org/Graphics/SVG/1.1/DTD/svg11.dtd">
<!-- Generated by graphviz version 2.40.1 (20161225.0304)
 -->
<!-- Title: g Pages: 1 -->
<svg width="2392pt" height="486pt"
 viewBox="0.00 0.00 2391.50 486.00" xmlns="http://www.w3.org/2000/svg" xmlns:xlink="http://www.w3.org/1999/xlink">
<g id="graph0" class="graph" transform="scale(1 1) rotate(0) translate(4 482)">
<title>g</title>
<polygon fill="#ffffff" stroke="transparent" points="-4,4 -4,-482 2387.5,-482 2387.5,4 -4,4"/>
<text text-anchor="middle" x="1191.75" y="-7.8" font-family="Times,serif" font-size="14.00" fill="#000000">20:51:37.864</text>
<!-- 0 -->
<g id="node1" class="node">
<title>0</title>
<polygon fill="none" stroke="#ffff00" stroke-width="2" points="1645.5,-478 1539.5,-478 1539.5,-442 1645.5,-442 1645.5,-478"/>
<text text-anchor="middle" x="1592.5" y="-456.3" font-family="Times,serif" font-size="14.00" fill="#000000">BindAccessEval</text>
</g>
<!-- 1 -->
<g id="node2" class="node">
<title>1</title>
<polygon fill="none" stroke="#ffff00" stroke-width="2" points="1985,-406 0,-406 0,-23 1985,-23 1985,-406"/>
<text text-anchor="middle" x="992.5" y="-390.8" font-family="Times,serif" font-size="14.00" fill="#000000">SQLQuery</text>
<text text-anchor="middle" x="992.5" y="-375.8" font-family="Times,serif" font-size="14.00" fill="#000000">SELECT tab_2917.label, tab_2917.propertyNum2, tab_2915.country </text>
<text text-anchor="middle" x="992.5" y="-360.8" font-family="Times,serif" font-size="14.00" fill="#000000">FROM Producer AS tab_2914, PRODUCT AS tab_2918, Product AS tab_2916, CountryType AS tab_2915, Product AS tab_2917, PRODUCTTYPEPRODUCT AS tab_2919 </text>
<text text-anchor="middle" x="992.5" y="-345.8" font-family="Times,serif" font-size="14.00" fill="#000000">WHERE tab_2915.countryType = 121 AND tab_2916.producer = tab_2914.nr AND tab_2915.country = tab_2914.country AND tab_2916.producer = tab_2917.producer AND tab_2916.nr = tab_2917.nr AND tab_2919.producttype = 1059 AND tab_2919.product = tab_2918.nr AND tab_2916.producer = tab_2918.producer AND tab_2916.nr = tab_2918.nr </text>
<text text-anchor="middle" x="992.5" y="-330.8" font-family="Times,serif" font-size="14.00" fill="#000000">UNION</text>
<text text-anchor="middle" x="992.5" y="-315.8" font-family="Times,serif" font-size="14.00" fill="#000000">SELECT tab_2903.label, tab_2903.propertyNum2, tab_2905.country </text>
<text text-anchor="middle" x="992.5" y="-300.8" font-family="Times,serif" font-size="14.00" fill="#000000">FROM PRODUCT AS tab_2901, Producer AS tab_2905, Product AS tab_2902, Product AS tab_2903, PRODUCTTYPEPRODUCT AS tab_2904, CountryType AS tab_2906 </text>
<text text-anchor="middle" x="992.5" y="-285.8" font-family="Times,serif" font-size="14.00" fill="#000000">WHERE tab_2902.producer = tab_2905.nr AND tab_2903.producer = tab_2902.producer AND tab_2903.nr = tab_2902.nr AND tab_2904.producttype = 1059 AND tab_2904.product = tab_2901.nr AND tab_2903.producer = tab_2901.producer AND tab_2903.nr = tab_2901.nr AND tab_2906.countryType = 122 AND tab_2905.country = tab_2906.country </text>
<text text-anchor="middle" x="992.5" y="-270.8" font-family="Times,serif" font-size="14.00" fill="#000000">UNION</text>
<text text-anchor="middle" x="992.5" y="-255.8" font-family="Times,serif" font-size="14.00" fill="#000000">SELECT tab_2958.label, tab_2958.propertyNum1, tab_2957.country </text>
<text text-anchor="middle" x="992.5" y="-240.8" font-family="Times,serif" font-size="14.00" fill="#000000">FROM Product AS tab_2960, Producer AS tab_2957, PRODUCTTYPEPRODUCT AS tab_2961, CountryType AS tab_2962, Product AS tab_2958, PRODUCT AS tab_2959 </text>
<text text-anchor="middle" x="992.5" y="-225.8" font-family="Times,serif" font-size="14.00" fill="#000000">WHERE tab_2960.producer = tab_2957.nr AND tab_2960.producer = tab_2958.producer AND tab_2960.nr = tab_2958.nr AND tab_2961.producttype = 1058 AND tab_2961.product = tab_2959.nr AND tab_2960.producer = tab_2959.producer AND tab_2960.nr = tab_2959.nr AND tab_2962.countryType = 122 AND tab_2957.country = tab_2962.country </text>
<text text-anchor="middle" x="992.5" y="-210.8" font-family="Times,serif" font-size="14.00" fill="#000000">UNION</text>
<text text-anchor="middle" x="992.5" y="-195.8" font-family="Times,serif" font-size="14.00" fill="#000000">SELECT tab_2972.label, tab_2972.propertyNum1, tab_2974.country </text>
<text text-anchor="middle" x="992.5" y="-180.8" font-family="Times,serif" font-size="14.00" fill="#000000">FROM Product AS tab_2972, PRODUCT AS tab_2975, CountryType AS tab_2976, Product AS tab_2973, PRODUCTTYPEPRODUCT AS tab_2971, Producer AS tab_2974 </text>
<text text-anchor="middle" x="992.5" y="-165.8" font-family="Times,serif" font-size="14.00" fill="#000000">WHERE tab_2971.producttype = 1058 AND tab_2971.product = tab_2975.nr AND tab_2975.producer = tab_2972.producer AND tab_2975.nr = tab_2972.nr AND tab_2973.producer = tab_2974.nr AND tab_2975.producer = tab_2973.producer AND tab_2975.nr = tab_2973.nr AND tab_2976.countryType = 121 AND tab_2974.country = tab_2976.country </text>
<text text-anchor="middle" x="992.5" y="-150.8" font-family="Times,serif" font-size="14.00" fill="#000000">UNION</text>
<text text-anchor="middle" x="992.5" y="-135.8" font-family="Times,serif" font-size="14.00" fill="#000000">SELECT tab_2944.label, tab_2944.propertyNum1, tab_2946.country </text>
<text text-anchor="middle" x="992.5" y="-120.8" font-family="Times,serif" font-size="14.00" fill="#000000">FROM Producer AS tab_2946, Product AS tab_2943, PRODUCTTYPEPRODUCT AS tab_2945, Product AS tab_2944, PRODUCT AS tab_2947, CountryType AS tab_2948 </text>
<text text-anchor="middle" x="992.5" y="-105.8" font-family="Times,serif" font-size="14.00" fill="#000000">WHERE tab_2945.producttype = 1059 AND tab_2945.product = tab_2947.nr AND tab_2943.producer = tab_2946.nr AND tab_2947.producer = tab_2943.producer AND tab_2947.nr = tab_2943.nr AND tab_2947.producer = tab_2944.producer AND tab_2947.nr = tab_2944.nr AND tab_2948.countryType = 122 AND tab_2946.country = tab_2948.country </text>
<text text-anchor="middle" x="992.5" y="-90.8" font-family="Times,serif" font-size="14.00" fill="#000000">UNION</text>
<text text-anchor="middle" x="992.5" y="-75.8" font-family="Times,serif" font-size="14.00" fill="#000000">SELECT tab_2930.label, tab_2930.propertyNum1, tab_2929.country </text>
<text text-anchor="middle" x="992.5" y="-60.8" font-family="Times,serif" font-size="14.00" fill="#000000">FROM CountryType AS tab_2933, Product AS tab_2930, Product AS tab_2931, PRODUCTTYPEPRODUCT AS tab_2932, PRODUCT AS tab_2928, Producer AS tab_2929 </text>
<text text-anchor="middle" x="992.5" y="-45.8" font-family="Times,serif" font-size="14.00" fill="#000000">WHERE tab_2932.producttype = 1059 AND tab_2932.product = tab_2928.nr AND tab_2928.producer = tab_29... (7 UNIONs)</text>
<text text-anchor="middle" x="992.5" y="-30.8" font-family="Times,serif" font-size="14.00" fill="#000000">124</text>
</g>
<!-- 0&#45;&gt;1 -->
<g id="edge1" class="edge">
<title>0&#45;&gt;1</title>
<path fill="none" stroke="#000000" d="M1548.3806,-441.9478C1527.7789,-433.5183 1501.0149,-422.5673 1470.3766,-410.0312"/>
<polygon fill="#000000" stroke="#000000" points="1471.327,-406.6384 1460.7463,-406.0908 1468.6761,-413.1171 1471.327,-406.6384"/>
</g>
<!-- 2 -->
<g id="node3" class="node">
<title>2</title>
<polygon fill="none" stroke="#ffff00" stroke-width="2" points="2383.5,-233.5 2003.5,-233.5 2003.5,-195.5 2383.5,-195.5 2383.5,-233.5"/>
<text text-anchor="middle" x="2193.5" y="-218.3" font-family="Times,serif" font-size="14.00" fill="#000000">FunctionCallBindAccess</text>
<text text-anchor="middle" x="2193.5" y="-203.3" font-family="Times,serif" font-size="14.00" fill="#000000">(&quot;{0}&quot;, &quot;{1}&quot;, &lt;http://downlode.org/rdf/iso&#45;3166/countries#{2}&gt;)</text>
</g>
<!-- 0&#45;&gt;2 -->
<g id="edge2" class="edge">
<title>0&#45;&gt;2</title>
<path fill="none" stroke="#000000" d="M1645.7478,-456.9558C1740.4794,-450.8683 1934.0204,-435.2046 1994.5,-406 2074.0761,-367.5739 2142.2156,-285.2212 2174.1412,-242.1066"/>
<polygon fill="#000000" stroke="#000000" points="2177.1487,-243.9228 2180.2158,-233.7816 2171.494,-239.7966 2177.1487,-243.9228"/>
</g>
</g>
</svg>
