digraph  g{ graph[label = "20:51:45.351"]
node [shape=rectangle, color=black, fontcolor=black, style=bold] edge [color=black] 0 [label="BindAccessEval", color = yellow] ; 
1 [label="SQLQuery
SELECT tab_5626.label, tab_5626.propertyNum2, tab_5628.country 
FROM Product AS tab_5625, Producer AS tab_5628, PRODUCTTYPEPRODUCT AS tab_5629, PRODUCT AS tab_5627, Product AS tab_5626, CountryType AS tab_5630 
WHERE tab_5629.producttype = 1061 AND tab_5629.product = tab_5627.nr AND tab_5625.producer = tab_5628.nr AND tab_5627.producer = tab_5625.producer AND tab_5627.nr = tab_5625.nr AND tab_5627.producer = tab_5626.producer AND tab_5627.nr = tab_5626.nr AND tab_5630.countryType = 212 AND tab_5628.country = tab_5630.country 
UNION
SELECT tab_4305.label, tab_4305.propertyNum1, tab_4302.country 
FROM Product AS tab_4305, PRODUCTTYPEPRODUCT AS tab_4303, PRODUCT AS tab_4304, Product AS tab_4306, Producer AS tab_4302, CountryType AS tab_4307 
WHERE tab_4303.producttype = 1065 AND tab_4303.product = tab_4304.nr AND tab_4304.producer = tab_4305.producer AND tab_4304.nr = tab_4305.nr AND tab_4306.producer = tab_4302.nr AND tab_4304.producer = tab_4306.producer AND tab_4304.nr = tab_4306.nr AND tab_4307.countryType = 222 AND tab_4302.country = tab_4307.country 
UNION
SELECT tab_4546.label, tab_4546.propertyNum2, tab_4544.country 
FROM PRODUCTTYPEPRODUCT AS tab_4545, Product AS tab_4546, PRODUCT AS tab_4542, Producer AS tab_4544, CountryType AS tab_4547, Product AS tab_4543 
WHERE tab_4543.producer = tab_4544.nr AND tab_4545.producttype = 1061 AND tab_4545.product = tab_4542.nr AND tab_4543.producer = tab_4542.producer AND tab_4543.nr = tab_4542.nr AND tab_4543.producer = tab_4546.producer AND tab_4543.nr = tab_4546.nr AND tab_4547.countryType = 222 AND tab_4544.country = tab_4547.country 
UNION
SELECT tab_4434.label, tab_4434.propertyNum1, tab_4431.country 
FROM Product AS tab_4434, PRODUCTTYPEPRODUCT AS tab_4430, PRODUCT AS tab_4433, Producer AS tab_4431, CountryType AS tab_4435, Product AS tab_4432 
WHERE tab_4430.producttype = 1054 AND tab_4430.product = tab_4433.nr AND tab_4434.producer = tab_4433.producer AND tab_4434.nr = tab_4433.nr AND tab_4432.producer = tab_4431.nr AND tab_4434.producer = tab_4432.producer AND tab_4434.nr = tab_4432.nr AND tab_4435.countryType = 212 AND tab_4431.country = tab_4435.country 
UNION
SELECT tab_4723.label, tab_4723.propertyNum1, tab_4725.country 
FROM PRODUCTTYPEPRODUCT AS tab_4724, PRODUCT AS tab_4726, CountryType AS tab_4728, Product AS tab_4723, Producer AS tab_4725, Product AS tab_4727 
WHERE tab_4727.producer = tab_4725.nr AND tab_4727.producer = tab_4723.producer AND tab_4727.nr = tab_4723.nr AND tab_4724.producttype = 1064 AND tab_4724.product = tab_4726.nr AND tab_4727.producer = tab_4726.producer AND tab_4727.nr = tab_4726.nr AND tab_4728.countryType = 212 AND tab_4725.country = tab_4728.country 
UNION
SELECT tab_4330.label, tab_4330.propertyNum2, tab_4334.country 
FROM Producer AS tab_4334, CountryType AS tab_4335, Product AS tab_4330, PRODUCT AS tab_4331, Product AS tab_4332, PRODUCTTYPEPRODUCT AS tab_4333 
WHERE tab_4332.producer = tab_4334.nr AND tab_4330.producer = tab_4332.producer AND tab_4330.nr = t... (127 UNIONs)
1570", color = yellow] ; 
0 -> 1 ; 
2 [label="FunctionCallBindAccess
(\"{0}\", \"{1}\", <http://downlode.org/rdf/iso-3166/countries#{2}>)", color = yellow] ; 
0 -> 2 ; 
}
