<?xml version="1.0" encoding="UTF-8" standalone="no"?>
<!DOCTYPE svg PUBLIC "-//W3C//DTD SVG 1.1//EN"
 "http://www.w3.org/Graphics/SVG/1.1/DTD/svg11.dtd">
<!-- Generated by graphviz version 2.40.1 (20161225.0304)
 -->
<!-- Title: g Pages: 1 -->
<svg width="2500pt" height="471pt"
 viewBox="0.00 0.00 2499.50 471.00" xmlns="http://www.w3.org/2000/svg" xmlns:xlink="http://www.w3.org/1999/xlink">
<g id="graph0" class="graph" transform="scale(1 1) rotate(0) translate(4 467)">
<title>g</title>
<polygon fill="#ffffff" stroke="transparent" points="-4,4 -4,-467 2495.5,-467 2495.5,4 -4,4"/>
<text text-anchor="middle" x="1245.75" y="-7.8" font-family="Times,serif" font-size="14.00" fill="#000000">20:52:19.850</text>
<!-- 0 -->
<g id="node1" class="node">
<title>0</title>
<polygon fill="none" stroke="#ffff00" stroke-width="2" points="1726.5,-463 1620.5,-463 1620.5,-427 1726.5,-427 1726.5,-463"/>
<text text-anchor="middle" x="1673.5" y="-441.3" font-family="Times,serif" font-size="14.00" fill="#000000">BindAccessEval</text>
</g>
<!-- 1 -->
<g id="node2" class="node">
<title>1</title>
<polygon fill="none" stroke="#ffff00" stroke-width="2" points="2093,-391 0,-391 0,-23 2093,-23 2093,-391"/>
<text text-anchor="middle" x="1046.5" y="-375.8" font-family="Times,serif" font-size="14.00" fill="#000000">SQLQuery</text>
<text text-anchor="middle" x="1046.5" y="-360.8" font-family="Times,serif" font-size="14.00" fill="#000000">SELECT tab_24765.label, tab_24765.propertyNum2, tab_24764.country </text>
<text text-anchor="middle" x="1046.5" y="-345.8" font-family="Times,serif" font-size="14.00" fill="#000000">FROM PRODUCT AS tab_24762, Product AS tab_24765, Product AS tab_24760, PRODUCTTYPEPRODUCT AS tab_24761, Producer AS tab_24763, CountryType AS tab_24764 </text>
<text text-anchor="middle" x="1046.5" y="-330.8" font-family="Times,serif" font-size="14.00" fill="#000000">WHERE tab_24764.countryType = 112 AND tab_24760.producer = tab_24763.nr AND tab_24764.country = tab_24763.country AND tab_24761.producttype = 1071 AND tab_24761.product = tab_24762.nr AND tab_24760.producer = tab_24762.producer AND tab_24760.nr = tab_24762.nr AND tab_24760.producer = tab_24765.producer AND tab_24760.nr = tab_24765.nr </text>
<text text-anchor="middle" x="1046.5" y="-315.8" font-family="Times,serif" font-size="14.00" fill="#000000">UNION</text>
<text text-anchor="middle" x="1046.5" y="-300.8" font-family="Times,serif" font-size="14.00" fill="#000000">SELECT tab_15002.label, tab_15002.propertyNum1, tab_15000.country </text>
<text text-anchor="middle" x="1046.5" y="-285.8" font-family="Times,serif" font-size="14.00" fill="#000000">FROM CountryType AS tab_15000, PRODUCT AS tab_15003, Producer AS tab_14999, Product AS tab_15001, Product AS tab_15002, PRODUCTTYPEPRODUCT AS tab_15004 </text>
<text text-anchor="middle" x="1046.5" y="-270.8" font-family="Times,serif" font-size="14.00" fill="#000000">WHERE tab_15000.countryType = 122 AND tab_15001.producer = tab_14999.nr AND tab_15000.country = tab_14999.country AND tab_15001.producer = tab_15002.producer AND tab_15001.nr = tab_15002.nr AND tab_15004.producttype = 1090 AND tab_15004.product = tab_15003.nr AND tab_15001.producer = tab_15003.producer AND tab_15001.nr = tab_15003.nr </text>
<text text-anchor="middle" x="1046.5" y="-255.8" font-family="Times,serif" font-size="14.00" fill="#000000">UNION</text>
<text text-anchor="middle" x="1046.5" y="-240.8" font-family="Times,serif" font-size="14.00" fill="#000000">SELECT tab_23688.label, tab_23688.propertyNum1, tab_23689.country </text>
<text text-anchor="middle" x="1046.5" y="-225.8" font-family="Times,serif" font-size="14.00" fill="#000000">FROM Product AS tab_23687, PRODUCT AS tab_23690, Product AS tab_23688, PRODUCTTYPEPRODUCT AS tab_23691, CountryType AS tab_23689, Producer AS tab_23686 </text>
<text text-anchor="middle" x="1046.5" y="-210.8" font-family="Times,serif" font-size="14.00" fill="#000000">WHERE tab_23689.countryType = 121 AND tab_23687.producer = tab_23686.nr AND tab_23689.country = tab_23686.country AND tab_23687.producer = tab_23688.producer AND tab_23687.nr = tab_23688.nr AND tab_23691.producttype = 1011 AND tab_23691.product = tab_23690.nr AND tab_23687.producer = tab_23690.producer AND tab_23687.nr = tab_23690.nr </text>
<text text-anchor="middle" x="1046.5" y="-195.8" font-family="Times,serif" font-size="14.00" fill="#000000">UNION</text>
<text text-anchor="middle" x="1046.5" y="-180.8" font-family="Times,serif" font-size="14.00" fill="#000000">SELECT tab_19996.label, tab_19996.propertyNum2, tab_19997.country </text>
<text text-anchor="middle" x="1046.5" y="-165.8" font-family="Times,serif" font-size="14.00" fill="#000000">FROM Product AS tab_19996, PRODUCT AS tab_19999, CountryType AS tab_20001, Product AS tab_19998, Producer AS tab_19997, PRODUCTTYPEPRODUCT AS tab_20000 </text>
<text text-anchor="middle" x="1046.5" y="-150.8" font-family="Times,serif" font-size="14.00" fill="#000000">WHERE tab_19998.producer = tab_19997.nr AND tab_19996.producer = tab_19998.producer AND tab_19996.nr = tab_19998.nr AND tab_20000.producttype = 1063 AND tab_20000.product = tab_19999.nr AND tab_19996.producer = tab_19999.producer AND tab_19996.nr = tab_19999.nr AND tab_20001.countryType = 122 AND tab_19997.country = tab_20001.country </text>
<text text-anchor="middle" x="1046.5" y="-135.8" font-family="Times,serif" font-size="14.00" fill="#000000">UNION</text>
<text text-anchor="middle" x="1046.5" y="-120.8" font-family="Times,serif" font-size="14.00" fill="#000000">SELECT tab_17179.label, tab_17179.propertyNum2, tab_17177.country </text>
<text text-anchor="middle" x="1046.5" y="-105.8" font-family="Times,serif" font-size="14.00" fill="#000000">FROM Product AS tab_17175, Product AS tab_17179, PRODUCT AS tab_17176, Producer AS tab_17177, CountryType AS tab_17180, PRODUCTTYPEPRODUCT AS tab_17178 </text>
<text text-anchor="middle" x="1046.5" y="-90.8" font-family="Times,serif" font-size="14.00" fill="#000000">WHERE tab_17178.producttype = 1031 AND tab_17178.product = tab_17176.nr AND tab_17179.producer = tab_17176.producer AND tab_17179.nr = tab_17176.nr AND tab_17175.producer = tab_17177.nr AND tab_17179.producer = tab_17175.producer AND tab_17179.nr = tab_17175.nr AND tab_17180.countryType = 112 AND tab_17177.country = tab_17180.country </text>
<text text-anchor="middle" x="1046.5" y="-75.8" font-family="Times,serif" font-size="14.00" fill="#000000">UNION</text>
<text text-anchor="middle" x="1046.5" y="-60.8" font-family="Times,serif" font-size="14.00" fill="#000000">SELECT tab_17461.label, tab_17461.propertyNum2, tab_17462.country </text>
<text text-anchor="middle" x="1046.5" y="-45.8" font-family="Times,serif" font-size="14.00" fill="#000000">FROM PRODUCT AS tab_17459, Product AS tab_17460, PRODUCTTYPEPRODUCT AS tab_17458, Product AS tab_17461, CountryType AS... (1023 UNIONs)</text>
<text text-anchor="middle" x="1046.5" y="-30.8" font-family="Times,serif" font-size="14.00" fill="#000000">35130</text>
</g>
<!-- 0&#45;&gt;1 -->
<g id="edge1" class="edge">
<title>0&#45;&gt;1</title>
<path fill="none" stroke="#000000" d="M1625.8585,-426.916C1603.3934,-418.3886 1574.1696,-407.2957 1540.7921,-394.626"/>
<polygon fill="#000000" stroke="#000000" points="1541.8611,-391.2882 1531.2699,-391.0115 1539.377,-397.8326 1541.8611,-391.2882"/>
</g>
<!-- 2 -->
<g id="node3" class="node">
<title>2</title>
<polygon fill="none" stroke="#ffff00" stroke-width="2" points="2491.5,-226 2111.5,-226 2111.5,-188 2491.5,-188 2491.5,-226"/>
<text text-anchor="middle" x="2301.5" y="-210.8" font-family="Times,serif" font-size="14.00" fill="#000000">FunctionCallBindAccess</text>
<text text-anchor="middle" x="2301.5" y="-195.8" font-family="Times,serif" font-size="14.00" fill="#000000">(&quot;{0}&quot;, &quot;{1}&quot;, &lt;http://downlode.org/rdf/iso&#45;3166/countries#{2}&gt;)</text>
</g>
<!-- 0&#45;&gt;2 -->
<g id="edge2" class="edge">
<title>0&#45;&gt;2</title>
<path fill="none" stroke="#000000" d="M1726.7244,-442.3536C1826.3449,-436.7409 2036.8292,-421.575 2102.5,-391 2180.719,-354.5828 2248.9827,-275.9333 2281.422,-234.2356"/>
<polygon fill="#000000" stroke="#000000" points="2284.2997,-236.2347 2287.608,-226.1696 2278.7451,-231.9747 2284.2997,-236.2347"/>
</g>
</g>
</svg>
