<?xml version="1.0" encoding="UTF-8" standalone="no"?>
<!DOCTYPE svg PUBLIC "-//W3C//DTD SVG 1.1//EN"
 "http://www.w3.org/Graphics/SVG/1.1/DTD/svg11.dtd">
<!-- Generated by graphviz version 2.40.1 (20161225.0304)
 -->
<!-- Title: g Pages: 1 -->
<svg width="1892pt" height="186pt"
 viewBox="0.00 0.00 1892.00 186.00" xmlns="http://www.w3.org/2000/svg" xmlns:xlink="http://www.w3.org/1999/xlink">
<g id="graph0" class="graph" transform="scale(1 1) rotate(0) translate(4 182)">
<title>g</title>
<polygon fill="#ffffff" stroke="transparent" points="-4,4 -4,-182 1888,-182 1888,4 -4,4"/>
<text text-anchor="middle" x="942" y="-7.8" font-family="Times,serif" font-size="14.00" fill="#000000">20:52:54.849</text>
<!-- 0 -->
<g id="node1" class="node">
<title>0</title>
<polygon fill="none" stroke="#ffff00" stroke-width="2" points="869,-178 763,-178 763,-142 869,-142 869,-178"/>
<text text-anchor="middle" x="816" y="-156.3" font-family="Times,serif" font-size="14.00" fill="#000000">BindAccessEval</text>
</g>
<!-- 1 -->
<g id="node2" class="node">
<title>1</title>
<polygon fill="none" stroke="#ffff00" stroke-width="2" points="682,-106 0,-106 0,-23 682,-23 682,-106"/>
<text text-anchor="middle" x="341" y="-90.8" font-family="Times,serif" font-size="14.00" fill="#000000">SQLQuery</text>
<text text-anchor="middle" x="341" y="-75.8" font-family="Times,serif" font-size="14.00" fill="#000000">SELECT DISTINCT tab_34431.nr, tab_34431.vendor, tab_34431.offerWebpage, tab_34432.label, tab_34432.homepage </text>
<text text-anchor="middle" x="341" y="-60.8" font-family="Times,serif" font-size="14.00" fill="#000000">FROM Vendor AS tab_34432, Offer AS tab_34431 </text>
<text text-anchor="middle" x="341" y="-45.8" font-family="Times,serif" font-size="14.00" fill="#000000">WHERE tab_34431.vendor = tab_34432.nr</text>
<text text-anchor="middle" x="341" y="-30.8" font-family="Times,serif" font-size="14.00" fill="#000000">3000000</text>
</g>
<!-- 0&#45;&gt;1 -->
<g id="edge1" class="edge">
<title>0&#45;&gt;1</title>
<path fill="none" stroke="#000000" d="M762.8941,-149.3229C712.6181,-139.2148 633.7155,-123.3512 557.6809,-108.0643"/>
<polygon fill="#000000" stroke="#000000" points="557.9535,-104.5491 547.4597,-106.0093 556.5736,-111.4118 557.9535,-104.5491"/>
</g>
<!-- 2 -->
<g id="node3" class="node">
<title>2</title>
<polygon fill="none" stroke="#ffff00" stroke-width="2" points="1884,-83.5 700,-83.5 700,-45.5 1884,-45.5 1884,-83.5"/>
<text text-anchor="middle" x="1292" y="-68.3" font-family="Times,serif" font-size="14.00" fill="#000000">FunctionCallBindAccess</text>
<text text-anchor="middle" x="1292" y="-53.3" font-family="Times,serif" font-size="14.00" fill="#000000">(&lt;http://www4.wiwiss.fu&#45;berlin.de/bizer/bsbm/v01/instances/dataFromVendor{1}/Offer{0}&gt;, &lt;{2}&gt;, &lt;http://www4.wiwiss.fu&#45;berlin.de/bizer/bsbm/v01/instances/dataFromVendor{1}/Vendor{1}&gt;, &quot;{3}&quot;, &lt;{4}&gt;)</text>
</g>
<!-- 0&#45;&gt;2 -->
<g id="edge2" class="edge">
<title>0&#45;&gt;2</title>
<path fill="none" stroke="#000000" d="M869.2177,-149.3229C945.7962,-133.959 1088.6493,-105.2983 1186.95,-85.5762"/>
<polygon fill="#000000" stroke="#000000" points="1187.7998,-88.9756 1196.9159,-83.5768 1186.4227,-82.1123 1187.7998,-88.9756"/>
</g>
</g>
</svg>
