<?xml version="1.0" encoding="UTF-8" standalone="no"?>
<!DOCTYPE svg PUBLIC "-//W3C//DTD SVG 1.1//EN"
 "http://www.w3.org/Graphics/SVG/1.1/DTD/svg11.dtd">
<!-- Generated by graphviz version 2.40.1 (20161225.0304)
 -->
<!-- Title: g Pages: 1 -->
<svg width="1764pt" height="246pt"
 viewBox="0.00 0.00 1764.00 246.00" xmlns="http://www.w3.org/2000/svg" xmlns:xlink="http://www.w3.org/1999/xlink">
<g id="graph0" class="graph" transform="scale(1 1) rotate(0) translate(4 242)">
<title>g</title>
<polygon fill="#ffffff" stroke="transparent" points="-4,4 -4,-242 1760,-242 1760,4 -4,4"/>
<text text-anchor="middle" x="878" y="-7.8" font-family="Times,serif" font-size="14.00" fill="#000000">20:53:5.286</text>
<!-- 0 -->
<g id="node1" class="node">
<title>0</title>
<polygon fill="none" stroke="#ffff00" stroke-width="2" points="1077.5,-238 971.5,-238 971.5,-202 1077.5,-202 1077.5,-238"/>
<text text-anchor="middle" x="1024.5" y="-216.3" font-family="Times,serif" font-size="14.00" fill="#000000">BindAccessEval</text>
</g>
<!-- 1 -->
<g id="node2" class="node">
<title>1</title>
<polygon fill="none" stroke="#ffff00" stroke-width="2" points="1163,-166 0,-166 0,-23 1163,-23 1163,-166"/>
<text text-anchor="middle" x="581.5" y="-150.8" font-family="Times,serif" font-size="14.00" fill="#000000">SQLQuery</text>
<text text-anchor="middle" x="581.5" y="-135.8" font-family="Times,serif" font-size="14.00" fill="#000000">SELECT tab_34438.vendor, tab_34438.nr, tab_34438.offerWebpage </text>
<text text-anchor="middle" x="581.5" y="-120.8" font-family="Times,serif" font-size="14.00" fill="#000000">FROM Offer AS tab_34436, Vendor AS tab_34437, CountryType AS tab_34439, Offer AS tab_34438 </text>
<text text-anchor="middle" x="581.5" y="-105.8" font-family="Times,serif" font-size="14.00" fill="#000000">WHERE tab_34436.vendor = tab_34437.nr AND tab_34438.vendor = tab_34436.vendor AND tab_34438.nr = tab_34436.nr AND tab_34439.countryType = 111 AND tab_34437.country = tab_34439.country </text>
<text text-anchor="middle" x="581.5" y="-90.8" font-family="Times,serif" font-size="14.00" fill="#000000">UNION</text>
<text text-anchor="middle" x="581.5" y="-75.8" font-family="Times,serif" font-size="14.00" fill="#000000">SELECT tab_34444.vendor, tab_34444.nr, tab_34445.offerWebpage </text>
<text text-anchor="middle" x="581.5" y="-60.8" font-family="Times,serif" font-size="14.00" fill="#000000">FROM Offer AS tab_34445, Vendor AS tab_34443, Offer AS tab_34444, CountryType AS tab_34446 </text>
<text text-anchor="middle" x="581.5" y="-45.8" font-family="Times,serif" font-size="14.00" fill="#000000">WHERE tab_34444.vendor = tab_34443.nr AND tab_34444.vendor = tab_34445.vendor AND tab_34444.nr = tab_34445.nr AND tab_34446.countryType = 112 AND tab_34443.country = tab_34446.country</text>
<text text-anchor="middle" x="581.5" y="-30.8" font-family="Times,serif" font-size="14.00" fill="#000000">1793489</text>
</g>
<!-- 0&#45;&gt;1 -->
<g id="edge1" class="edge">
<title>0&#45;&gt;1</title>
<path fill="none" stroke="#000000" d="M971.0638,-204.8618C937.7315,-195.4189 892.0812,-182.4863 843.75,-168.7943"/>
<polygon fill="#000000" stroke="#000000" points="844.6263,-165.4049 834.0509,-166.0466 842.7182,-172.1398 844.6263,-165.4049"/>
</g>
<!-- 2 -->
<g id="node3" class="node">
<title>2</title>
<polygon fill="none" stroke="#ffff00" stroke-width="2" points="1756,-113.5 1181,-113.5 1181,-75.5 1756,-75.5 1756,-113.5"/>
<text text-anchor="middle" x="1468.5" y="-98.3" font-family="Times,serif" font-size="14.00" fill="#000000">FunctionCallBindAccess</text>
<text text-anchor="middle" x="1468.5" y="-83.3" font-family="Times,serif" font-size="14.00" fill="#000000">(&lt;http://www4.wiwiss.fu&#45;berlin.de/bizer/bsbm/v01/instances/dataFromVendor{0}/Offer{1}&gt;, &lt;{2}&gt;)</text>
</g>
<!-- 0&#45;&gt;2 -->
<g id="edge2" class="edge">
<title>0&#45;&gt;2</title>
<path fill="none" stroke="#000000" d="M1077.6158,-204.9864C1155.6004,-182.9435 1301.5339,-141.6942 1391.3433,-116.3089"/>
<polygon fill="#000000" stroke="#000000" points="1392.5293,-119.6109 1401.2002,-113.5228 1390.6252,-112.8748 1392.5293,-119.6109"/>
</g>
</g>
</svg>
