digraph  g{ graph[label = "20:56:9.504"]
node [shape=rectangle, color=black, fontcolor=black, style=bold] edge [color=black] 0 [label="BindAccessEval", color = yellow] ; 
1 [label="SQLQuery
SELECT tab_53427.country 
FROM Producer AS tab_53427, Producttypeproduct AS tab_53428, Review AS tab_53425, Product AS tab_53426, CountryType AS tab_53429 
WHERE tab_53426.nr = tab_53425.product AND tab_53426.producer = tab_53427.nr AND tab_53426.nr = tab_53428.product AND tab_53428.producttype = 1076 AND tab_53429.countryType = 222 AND tab_53427.country = tab_53429.country 
UNION
SELECT tab_64908.country 
FROM Review AS tab_64909, Producttypeproduct AS tab_64912, Product AS tab_64910, CountryType AS tab_64908, Producer AS tab_64911 
WHERE tab_64908.countryType = 221 AND tab_64910.nr = tab_64909.product AND tab_64910.producer = tab_64911.nr AND tab_64910.nr = tab_64912.product AND tab_64912.producttype = 966 AND tab_64908.country = tab_64911.country 
UNION
SELECT tab_63500.country 
FROM Producer AS tab_63500, Product AS tab_63499, Offer AS tab_63498, PRODUCTTYPEPRODUCT AS tab_63501, CountryType AS tab_63502 
WHERE tab_63499.nr = tab_63498.product AND tab_63500.nr = tab_63499.producer AND tab_63499.nr = tab_63501.product AND tab_63501.producttype = 1788 AND tab_63502.countryType = 221 AND tab_63500.country = tab_63502.country 
UNION
SELECT tab_72001.country 
FROM Producer AS tab_72001, Producttypeproduct AS tab_72002, Review AS tab_71999, CountryType AS tab_72003, Product AS tab_72000 
WHERE tab_72000.nr = tab_71999.product AND tab_72000.producer = tab_72001.nr AND tab_72000.nr = tab_72002.product AND tab_72002.producttype = 1999 AND tab_72003.countryType = 221 AND tab_72001.country = tab_72003.country 
UNION
SELECT tab_71524.country 
FROM Review AS tab_71525, Producttypeproduct AS tab_71528, Producer AS tab_71527, Product AS tab_71526, CountryType AS tab_71524 
WHERE tab_71524.countryType = 222 AND tab_71526.nr = tab_71525.product AND tab_71526.producer = tab_71527.nr AND tab_71526.nr = tab_71528.product AND tab_71528.producttype = 1711 AND tab_71524.country = tab_71527.country 
UNION
SELECT tab_58282.country 
FROM CountryType AS tab_58284, PRODUCTTYPEPRODUCT AS tab_58283, Product AS tab_58281, Producer AS tab_58282, Offer AS tab_58280 
WHERE tab_58281.nr = tab_58280.product AND tab_58282.nr = tab_58281.producer AND tab_58281.nr = tab_58283.product AND tab_58283.producttype = 793 AND tab_58284.countryType = 221 AND tab_58282.country = tab_58284.country 
UNION
SELECT tab_47672.country 
FROM Producer AS tab_47672, Offer AS tab_47670, CountryType AS tab_47674, Product AS tab_47671, PRODUCTTYPEPRODUCT AS tab_47673 
WHERE tab_47671.nr = tab_47670.product AND tab_47672.nr = tab_47671.producer AND tab_47671.nr = tab_47673.product AND tab_47673.producttype = 1867 AND tab_47674.countryType = 221 AND tab_47672.country = tab_47674.country 
UNION
SELECT tab_48697.country 
FROM Producer AS tab_48697, Product AS tab_48696, PRODUCTTYPEPRODUCT AS tab_48698, CountryType AS tab_48699, Offer AS tab_48695 
WHERE tab_48696.nr = tab_48695.product AND tab_48697.nr = tab_48696.producer AND tab_48696.nr = tab_48698.product AND tab_48698.producttype = 1570 AND tab_48699.c... (5123 UNIONs)
3", color = yellow] ; 
0 -> 1 ; 
2 [label="FunctionCallBindAccess
(<http://downlode.org/rdf/iso-3166/countries#{0}>)", color = yellow] ; 
0 -> 2 ; 
}
