<?xml version="1.0" encoding="UTF-8" standalone="no"?>
<!DOCTYPE svg PUBLIC "-//W3C//DTD SVG 1.1//EN"
 "http://www.w3.org/Graphics/SVG/1.1/DTD/svg11.dtd">
<!-- Generated by graphviz version 2.40.1 (20161225.0304)
 -->
<!-- Title: g Pages: 1 -->
<svg width="1648pt" height="332pt"
 viewBox="0.00 0.00 1647.50 332.00" xmlns="http://www.w3.org/2000/svg" xmlns:xlink="http://www.w3.org/1999/xlink">
<g id="graph0" class="graph" transform="scale(1 1) rotate(0) translate(4 328)">
<title>g</title>
<polygon fill="#ffffff" stroke="transparent" points="-4,4 -4,-328 1643.5,-328 1643.5,4 -4,4"/>
<text text-anchor="middle" x="819.75" y="-7.8" font-family="Times,serif" font-size="14.00" fill="#000000">21:42:24.254</text>
<!-- 0 -->
<g id="node1" class="node">
<title>0</title>
<polygon fill="none" stroke="#ffff00" stroke-width="2" points="1245.5,-324 1158.5,-324 1158.5,-288 1245.5,-288 1245.5,-324"/>
<text text-anchor="middle" x="1202" y="-302.3" font-family="Times,serif" font-size="14.00" fill="#000000">HashDistinct</text>
</g>
<!-- 1 -->
<g id="node2" class="node">
<title>1</title>
<polygon fill="none" stroke="#ffff00" stroke-width="2" points="1255,-252 1149,-252 1149,-216 1255,-216 1255,-252"/>
<text text-anchor="middle" x="1202" y="-230.3" font-family="Times,serif" font-size="14.00" fill="#000000">BindAccessEval</text>
</g>
<!-- 0&#45;&gt;1 -->
<g id="edge1" class="edge">
<title>0&#45;&gt;1</title>
<path fill="none" stroke="#000000" d="M1202,-287.8314C1202,-280.131 1202,-270.9743 1202,-262.4166"/>
<polygon fill="#000000" stroke="#000000" points="1205.5001,-262.4132 1202,-252.4133 1198.5001,-262.4133 1205.5001,-262.4132"/>
</g>
<!-- 2 -->
<g id="node3" class="node">
<title>2</title>
<polygon fill="none" stroke="#ffff00" stroke-width="2" points="1086,-179 980,-179 980,-143 1086,-143 1086,-179"/>
<text text-anchor="middle" x="1033" y="-157.3" font-family="Times,serif" font-size="14.00" fill="#000000">BindAccessEval</text>
</g>
<!-- 1&#45;&gt;2 -->
<g id="edge2" class="edge">
<title>1&#45;&gt;2</title>
<path fill="none" stroke="#000000" d="M1160.2247,-215.9551C1137.2713,-206.0403 1108.6102,-193.66 1084.3055,-183.1615"/>
<polygon fill="#000000" stroke="#000000" points="1085.4485,-179.8428 1074.8804,-179.0904 1082.6727,-186.2689 1085.4485,-179.8428"/>
</g>
<!-- 5 -->
<g id="node6" class="node">
<title>5</title>
<polygon fill="none" stroke="#ffff00" stroke-width="2" points="1639.5,-180 1104.5,-180 1104.5,-142 1639.5,-142 1639.5,-180"/>
<text text-anchor="middle" x="1372" y="-164.8" font-family="Times,serif" font-size="14.00" fill="#000000">FunctionCallBindAccess</text>
<text text-anchor="middle" x="1372" y="-149.8" font-family="Times,serif" font-size="14.00" fill="#000000">AddConstant{1=(&quot;&lt;http://www4.wiwiss.fu&#45;berlin.de/bizer/bsbm/v01/vocabulary/producer&gt;&quot;)}</text>
</g>
<!-- 1&#45;&gt;5 -->
<g id="edge5" class="edge">
<title>1&#45;&gt;5</title>
<path fill="none" stroke="#000000" d="M1244.0225,-215.9551C1266.4173,-206.3385 1294.2134,-194.4025 1318.1735,-184.1138"/>
<polygon fill="#000000" stroke="#000000" points="1319.683,-187.2746 1327.4907,-180.1128 1316.921,-180.8426 1319.683,-187.2746"/>
</g>
<!-- 3 -->
<g id="node4" class="node">
<title>3</title>
<polygon fill="none" stroke="#ffff00" stroke-width="2" points="1252,-106 0,-106 0,-23 1252,-23 1252,-106"/>
<text text-anchor="middle" x="626" y="-90.8" font-family="Times,serif" font-size="14.00" fill="#000000">SQLQuery</text>
<text text-anchor="middle" x="626" y="-75.8" font-family="Times,serif" font-size="14.00" fill="#000000">SELECT tab_188368.label, tab_188370.country </text>
<text text-anchor="middle" x="626" y="-60.8" font-family="Times,serif" font-size="14.00" fill="#000000">FROM CountryType AS tab_188371, Producer AS tab_188370, Product AS tab_188369, Product AS tab_188368 &#160;</text>
<text text-anchor="middle" x="626" y="-45.8" font-family="Times,serif" font-size="14.00" fill="#000000">WHERE tab_188369.producer = tab_188370.nr AND tab_188368.producer = tab_188369.producer AND tab_188368.nr = tab_188369.nr AND tab_188371.countryType = 222 AND tab_188370.country = tab_188371.country</text>
<text text-anchor="middle" x="626" y="-30.8" font-family="Times,serif" font-size="14.00" fill="#000000">14645</text>
</g>
<!-- 2&#45;&gt;3 -->
<g id="edge3" class="edge">
<title>2&#45;&gt;3</title>
<path fill="none" stroke="#000000" d="M979.7919,-148.3843C936.5335,-138.1277 872.8039,-123.0174 811.3078,-108.4366"/>
<polygon fill="#000000" stroke="#000000" points="811.9985,-105.0034 801.4607,-106.1019 810.3835,-111.8146 811.9985,-105.0034"/>
</g>
<!-- 4 -->
<g id="node5" class="node">
<title>4</title>
<polygon fill="none" stroke="#ffff00" stroke-width="2" points="1610,-83.5 1270,-83.5 1270,-45.5 1610,-45.5 1610,-83.5"/>
<text text-anchor="middle" x="1440" y="-68.3" font-family="Times,serif" font-size="14.00" fill="#000000">FunctionCallBindAccess</text>
<text text-anchor="middle" x="1440" y="-53.3" font-family="Times,serif" font-size="14.00" fill="#000000">(&quot;{0}&quot;, &lt;http://downlode.org/rdf/iso&#45;3166/countries#{1}&gt;)</text>
</g>
<!-- 2&#45;&gt;4 -->
<g id="edge4" class="edge">
<title>2&#45;&gt;4</title>
<path fill="none" stroke="#000000" d="M1086.1936,-144.6389C1089.5045,-143.7194 1092.7932,-142.832 1096,-142 1168.6528,-123.1494 1187.7722,-122.4764 1261,-106 1289.6753,-99.548 1320.8963,-92.3646 1349.1161,-85.812"/>
<polygon fill="#000000" stroke="#000000" points="1350.0158,-89.1962 1358.9635,-83.5228 1348.4307,-82.378 1350.0158,-89.1962"/>
</g>
</g>
</svg>
