<?xml version="1.0" encoding="UTF-8" standalone="no"?>
<!DOCTYPE svg PUBLIC "-//W3C//DTD SVG 1.1//EN"
 "http://www.w3.org/Graphics/SVG/1.1/DTD/svg11.dtd">
<!-- Generated by graphviz version 2.40.1 (20161225.0304)
 -->
<!-- Title: g Pages: 1 -->
<svg width="3246pt" height="404pt"
 viewBox="0.00 0.00 3246.00 404.00" xmlns="http://www.w3.org/2000/svg" xmlns:xlink="http://www.w3.org/1999/xlink">
<g id="graph0" class="graph" transform="scale(1 1) rotate(0) translate(4 400)">
<title>g</title>
<polygon fill="#ffffff" stroke="transparent" points="-4,4 -4,-400 3242,-400 3242,4 -4,4"/>
<text text-anchor="middle" x="1619" y="-7.8" font-family="Times,serif" font-size="14.00" fill="#000000">21:42:25.780</text>
<!-- 0 -->
<g id="node1" class="node">
<title>0</title>
<polygon fill="none" stroke="#ffff00" stroke-width="2" points="2059.5,-396 1972.5,-396 1972.5,-360 2059.5,-360 2059.5,-396"/>
<text text-anchor="middle" x="2016" y="-374.3" font-family="Times,serif" font-size="14.00" fill="#000000">HashDistinct</text>
</g>
<!-- 1 -->
<g id="node2" class="node">
<title>1</title>
<polygon fill="none" stroke="#ffff00" stroke-width="2" points="2043,-324 1989,-324 1989,-288 2043,-288 2043,-324"/>
<text text-anchor="middle" x="2016" y="-302.3" font-family="Times,serif" font-size="14.00" fill="#000000">Union</text>
</g>
<!-- 0&#45;&gt;1 -->
<g id="edge1" class="edge">
<title>0&#45;&gt;1</title>
<path fill="none" stroke="#000000" d="M2016,-359.8314C2016,-352.131 2016,-342.9743 2016,-334.4166"/>
<polygon fill="#000000" stroke="#000000" points="2019.5001,-334.4132 2016,-324.4133 2012.5001,-334.4133 2019.5001,-334.4132"/>
</g>
<!-- 2 -->
<g id="node3" class="node">
<title>2</title>
<polygon fill="none" stroke="#ffff00" stroke-width="2" points="1900,-252 1794,-252 1794,-216 1900,-216 1900,-252"/>
<text text-anchor="middle" x="1847" y="-230.3" font-family="Times,serif" font-size="14.00" fill="#000000">BindAccessEval</text>
</g>
<!-- 1&#45;&gt;2 -->
<g id="edge2" class="edge">
<title>1&#45;&gt;2</title>
<path fill="none" stroke="#000000" d="M1988.8472,-294.432C1964.5995,-284.1016 1928.423,-268.6891 1898.674,-256.0149"/>
<polygon fill="#000000" stroke="#000000" points="1899.836,-252.7057 1889.2643,-252.0061 1897.0924,-259.1456 1899.836,-252.7057"/>
</g>
<!-- 8 -->
<g id="node8" class="node">
<title>8</title>
<polygon fill="none" stroke="#ffff00" stroke-width="2" points="2307,-252 2201,-252 2201,-216 2307,-216 2307,-252"/>
<text text-anchor="middle" x="2254" y="-230.3" font-family="Times,serif" font-size="14.00" fill="#000000">BindAccessEval</text>
</g>
<!-- 1&#45;&gt;8 -->
<g id="edge7" class="edge">
<title>1&#45;&gt;8</title>
<path fill="none" stroke="#000000" d="M2043.3016,-297.7407C2079.0555,-286.9244 2142.8316,-267.6308 2190.8815,-253.0947"/>
<polygon fill="#000000" stroke="#000000" points="2192.0161,-256.4081 2200.5743,-250.1624 2189.9892,-249.708 2192.0161,-256.4081"/>
</g>
<!-- 3 -->
<g id="node4" class="node">
<title>3</title>
<polygon fill="none" stroke="#ffff00" stroke-width="2" points="1493,-179 1387,-179 1387,-143 1493,-143 1493,-179"/>
<text text-anchor="middle" x="1440" y="-157.3" font-family="Times,serif" font-size="14.00" fill="#000000">BindAccessEval</text>
</g>
<!-- 2&#45;&gt;3 -->
<g id="edge3" class="edge">
<title>2&#45;&gt;3</title>
<path fill="none" stroke="#000000" d="M1793.7919,-224.4565C1718.9899,-211.04 1582.9764,-186.6444 1503.1466,-172.3261"/>
<polygon fill="#000000" stroke="#000000" points="1503.6821,-168.8663 1493.2212,-170.5458 1502.4462,-175.7564 1503.6821,-168.8663"/>
</g>
<!-- 6 -->
<g id="node7" class="node">
<title>6</title>
<polygon fill="none" stroke="#ffff00" stroke-width="2" points="2114.5,-180 1579.5,-180 1579.5,-142 2114.5,-142 2114.5,-180"/>
<text text-anchor="middle" x="1847" y="-164.8" font-family="Times,serif" font-size="14.00" fill="#000000">FunctionCallBindAccess</text>
<text text-anchor="middle" x="1847" y="-149.8" font-family="Times,serif" font-size="14.00" fill="#000000">AddConstant{1=(&quot;&lt;http://www4.wiwiss.fu&#45;berlin.de/bizer/bsbm/v01/vocabulary/producer&gt;&quot;)}</text>
</g>
<!-- 2&#45;&gt;6 -->
<g id="edge6" class="edge">
<title>2&#45;&gt;6</title>
<path fill="none" stroke="#000000" d="M1847,-215.9551C1847,-208.2107 1847,-198.9622 1847,-190.2811"/>
<polygon fill="#000000" stroke="#000000" points="1850.5001,-190.1128 1847,-180.1128 1843.5001,-190.1129 1850.5001,-190.1128"/>
</g>
<!-- 4 -->
<g id="node5" class="node">
<title>4</title>
<polygon fill="none" stroke="#ffff00" stroke-width="2" points="1252,-106 0,-106 0,-23 1252,-23 1252,-106"/>
<text text-anchor="middle" x="626" y="-90.8" font-family="Times,serif" font-size="14.00" fill="#000000">SQLQuery</text>
<text text-anchor="middle" x="626" y="-75.8" font-family="Times,serif" font-size="14.00" fill="#000000">SELECT tab_188375.label, tab_188377.country </text>
<text text-anchor="middle" x="626" y="-60.8" font-family="Times,serif" font-size="14.00" fill="#000000">FROM Product AS tab_188375, Product AS tab_188376, CountryType AS tab_188378, Producer AS tab_188377 &#160;</text>
<text text-anchor="middle" x="626" y="-45.8" font-family="Times,serif" font-size="14.00" fill="#000000">WHERE tab_188376.producer = tab_188377.nr AND tab_188375.producer = tab_188376.producer AND tab_188375.nr = tab_188376.nr AND tab_188378.countryType = 212 AND tab_188377.country = tab_188378.country</text>
<text text-anchor="middle" x="626" y="-30.8" font-family="Times,serif" font-size="14.00" fill="#000000">23034</text>
</g>
<!-- 3&#45;&gt;4 -->
<g id="edge4" class="edge">
<title>3&#45;&gt;4</title>
<path fill="none" stroke="#000000" d="M1386.9052,-154.7056C1305.0415,-145.0006 1141.2302,-125.5807 986.5022,-107.2377"/>
<polygon fill="#000000" stroke="#000000" points="986.6671,-103.7328 976.3246,-106.0311 985.843,-110.6841 986.6671,-103.7328"/>
</g>
<!-- 5 -->
<g id="node6" class="node">
<title>5</title>
<polygon fill="none" stroke="#ffff00" stroke-width="2" points="1610,-83.5 1270,-83.5 1270,-45.5 1610,-45.5 1610,-83.5"/>
<text text-anchor="middle" x="1440" y="-68.3" font-family="Times,serif" font-size="14.00" fill="#000000">FunctionCallBindAccess</text>
<text text-anchor="middle" x="1440" y="-53.3" font-family="Times,serif" font-size="14.00" fill="#000000">(&quot;{0}&quot;, &lt;http://downlode.org/rdf/iso&#45;3166/countries#{1}&gt;)</text>
</g>
<!-- 3&#45;&gt;5 -->
<g id="edge5" class="edge">
<title>3&#45;&gt;5</title>
<path fill="none" stroke="#000000" d="M1440,-142.8491C1440,-129.0975 1440,-109.9147 1440,-93.9725"/>
<polygon fill="#000000" stroke="#000000" points="1443.5001,-93.5599 1440,-83.5599 1436.5001,-93.5599 1443.5001,-93.5599"/>
</g>
<!-- 9 -->
<g id="node9" class="node">
<title>9</title>
<polygon fill="none" stroke="#ffff00" stroke-width="2" points="2307,-179 2201,-179 2201,-143 2307,-143 2307,-179"/>
<text text-anchor="middle" x="2254" y="-157.3" font-family="Times,serif" font-size="14.00" fill="#000000">BindAccessEval</text>
</g>
<!-- 8&#45;&gt;9 -->
<g id="edge8" class="edge">
<title>8&#45;&gt;9</title>
<path fill="none" stroke="#000000" d="M2254,-215.9551C2254,-207.8828 2254,-198.1764 2254,-189.1817"/>
<polygon fill="#000000" stroke="#000000" points="2257.5001,-189.0903 2254,-179.0904 2250.5001,-189.0904 2257.5001,-189.0903"/>
</g>
<!-- 12 -->
<g id="node12" class="node">
<title>12</title>
<polygon fill="none" stroke="#ffff00" stroke-width="2" points="2860.5,-180 2325.5,-180 2325.5,-142 2860.5,-142 2860.5,-180"/>
<text text-anchor="middle" x="2593" y="-164.8" font-family="Times,serif" font-size="14.00" fill="#000000">FunctionCallBindAccess</text>
<text text-anchor="middle" x="2593" y="-149.8" font-family="Times,serif" font-size="14.00" fill="#000000">AddConstant{1=(&quot;&lt;http://www4.wiwiss.fu&#45;berlin.de/bizer/bsbm/v01/vocabulary/producer&gt;&quot;)}</text>
</g>
<!-- 8&#45;&gt;12 -->
<g id="edge11" class="edge">
<title>8&#45;&gt;12</title>
<path fill="none" stroke="#000000" d="M2307.3417,-222.5134C2357.4152,-211.7306 2433.5486,-195.3361 2494.6285,-182.1832"/>
<polygon fill="#000000" stroke="#000000" points="2495.6434,-185.545 2504.6825,-180.0182 2494.1697,-178.7019 2495.6434,-185.545"/>
</g>
<!-- 10 -->
<g id="node10" class="node">
<title>10</title>
<polygon fill="none" stroke="#ffff00" stroke-width="2" points="2880,-106 1628,-106 1628,-23 2880,-23 2880,-106"/>
<text text-anchor="middle" x="2254" y="-90.8" font-family="Times,serif" font-size="14.00" fill="#000000">SQLQuery</text>
<text text-anchor="middle" x="2254" y="-75.8" font-family="Times,serif" font-size="14.00" fill="#000000">SELECT tab_188384.country, tab_188385.label </text>
<text text-anchor="middle" x="2254" y="-60.8" font-family="Times,serif" font-size="14.00" fill="#000000">FROM CountryType AS tab_188384, Product AS tab_188385, Producer AS tab_188383, Product AS tab_188382 &#160;</text>
<text text-anchor="middle" x="2254" y="-45.8" font-family="Times,serif" font-size="14.00" fill="#000000">WHERE tab_188384.countryType = 211 AND tab_188382.producer = tab_188383.nr AND tab_188384.country = tab_188383.country AND tab_188382.producer = tab_188385.producer AND tab_188382.nr = tab_188385.nr</text>
<text text-anchor="middle" x="2254" y="-30.8" font-family="Times,serif" font-size="14.00" fill="#000000">23884</text>
</g>
<!-- 9&#45;&gt;10 -->
<g id="edge9" class="edge">
<title>9&#45;&gt;10</title>
<path fill="none" stroke="#000000" d="M2254,-142.8491C2254,-135.2311 2254,-125.9464 2254,-116.4692"/>
<polygon fill="#000000" stroke="#000000" points="2257.5001,-116.1796 2254,-106.1796 2250.5001,-116.1797 2257.5001,-116.1796"/>
</g>
<!-- 11 -->
<g id="node11" class="node">
<title>11</title>
<polygon fill="none" stroke="#ffff00" stroke-width="2" points="3238,-83.5 2898,-83.5 2898,-45.5 3238,-45.5 3238,-83.5"/>
<text text-anchor="middle" x="3068" y="-68.3" font-family="Times,serif" font-size="14.00" fill="#000000">FunctionCallBindAccess</text>
<text text-anchor="middle" x="3068" y="-53.3" font-family="Times,serif" font-size="14.00" fill="#000000">(&quot;{1}&quot;, &lt;http://downlode.org/rdf/iso&#45;3166/countries#{0}&gt;)</text>
</g>
<!-- 9&#45;&gt;11 -->
<g id="edge10" class="edge">
<title>9&#45;&gt;11</title>
<path fill="none" stroke="#000000" d="M2307.0664,-144.059C2310.4089,-143.2834 2313.7393,-142.5862 2317,-142 2567.7058,-96.9272 2636.9603,-142.8907 2889,-106 2921.7542,-101.2058 2957.3657,-93.4795 2988.1365,-85.9858"/>
<polygon fill="#000000" stroke="#000000" points="2989.0768,-89.3588 2997.9471,-83.565 2987.3998,-82.5627 2989.0768,-89.3588"/>
</g>
</g>
</svg>
