digraph  g{ graph[label = "21:42:25.780"]
node [shape=rectangle, color=black, fontcolor=black, style=bold] edge [color=black] 0 [label="HashDistinct", color = yellow] ; 
1 [label="Union", color = yellow] ; 
0 -> 1 ; 
2 [label="BindAccessEval", color = yellow] ; 
1 -> 2 ; 
3 [label="BindAccessEval", color = yellow] ; 
2 -> 3 ; 
4 [label="SQLQuery
SELECT tab_188375.label, tab_188377.country 
FROM Product AS tab_188375, Product AS tab_188376, CountryType AS tab_188378, Producer AS tab_188377  
WHERE tab_188376.producer = tab_188377.nr AND tab_188375.producer = tab_188376.producer AND tab_188375.nr = tab_188376.nr AND tab_188378.countryType = 212 AND tab_188377.country = tab_188378.country
23034", color = yellow] ; 
3 -> 4 ; 
5 [label="FunctionCallBindAccess
(\"{0}\", <http://downlode.org/rdf/iso-3166/countries#{1}>)", color = yellow] ; 
3 -> 5 ; 
6 [label="FunctionCallBindAccess
AddConstant{1=(\"<http://www4.wiwiss.fu-berlin.de/bizer/bsbm/v01/vocabulary/producer>\")}", color = yellow] ; 
2 -> 6 ; 
8 [label="BindAccessEval", color = yellow] ; 
1 -> 8 ; 
9 [label="BindAccessEval", color = yellow] ; 
8 -> 9 ; 
10 [label="SQLQuery
SELECT tab_188384.country, tab_188385.label 
FROM CountryType AS tab_188384, Product AS tab_188385, Producer AS tab_188383, Product AS tab_188382  
WHERE tab_188384.countryType = 211 AND tab_188382.producer = tab_188383.nr AND tab_188384.country = tab_188383.country AND tab_188382.producer = tab_188385.producer AND tab_188382.nr = tab_188385.nr
23884", color = yellow] ; 
9 -> 10 ; 
11 [label="FunctionCallBindAccess
(\"{1}\", <http://downlode.org/rdf/iso-3166/countries#{0}>)", color = yellow] ; 
9 -> 11 ; 
12 [label="FunctionCallBindAccess
AddConstant{1=(\"<http://www4.wiwiss.fu-berlin.de/bizer/bsbm/v01/vocabulary/producer>\")}", color = yellow] ; 
8 -> 12 ; 
}
