digraph  g{ graph[label = "21:42:27.897"]
node [shape=rectangle, color=black, fontcolor=black, style=bold] edge [color=black] 0 [label="HashDistinct", color = yellow] ; 
1 [label="Union", color = yellow] ; 
0 -> 1 ; 
2 [label="BindAccessEval", color = yellow] ; 
1 -> 2 ; 
3 [label="BindAccessEval", color = yellow] ; 
2 -> 3 ; 
4 [label="SQLQuery
SELECT tab_188390.country, tab_188392.label 
FROM Producer AS tab_188390, CountryType AS tab_188391, Product AS tab_188392, Product AS tab_188389  
WHERE tab_188389.producer = tab_188390.nr AND tab_188391.countryType = 111 AND tab_188390.country = tab_188391.country AND tab_188389.producer = tab_188392.producer AND tab_188389.nr = tab_188392.nr
22104", color = yellow] ; 
3 -> 4 ; 
5 [label="FunctionCallBindAccess
(\"{1}\", <http://downlode.org/rdf/iso-3166/countries#{0}>)", color = yellow] ; 
3 -> 5 ; 
6 [label="FunctionCallBindAccess
AddConstant{1=(\"<http://www4.wiwiss.fu-berlin.de/bizer/bsbm/v01/vocabulary/producer>\")}", color = yellow] ; 
2 -> 6 ; 
8 [label="BindAccessEval", color = yellow] ; 
1 -> 8 ; 
9 [label="BindAccessEval", color = yellow] ; 
8 -> 9 ; 
10 [label="SQLQuery
SELECT tab_188397.country, tab_188399.label 
FROM CountryType AS tab_188396, Producer AS tab_188397, Product AS tab_188398, Product AS tab_188399  
WHERE tab_188398.producer = tab_188397.nr AND tab_188396.countryType = 122 AND tab_188397.country = tab_188396.country AND tab_188398.producer = tab_188399.producer AND tab_188398.nr = tab_188399.nr
22374", color = yellow] ; 
9 -> 10 ; 
11 [label="FunctionCallBindAccess
(\"{1}\", <http://downlode.org/rdf/iso-3166/countries#{0}>)", color = yellow] ; 
9 -> 11 ; 
12 [label="FunctionCallBindAccess
AddConstant{1=(\"<http://www4.wiwiss.fu-berlin.de/bizer/bsbm/v01/vocabulary/producer>\")}", color = yellow] ; 
8 -> 12 ; 
14 [label="BindAccessEval", color = yellow] ; 
1 -> 14 ; 
15 [label="BindAccessEval", color = yellow] ; 
14 -> 15 ; 
16 [label="SQLQuery
SELECT tab_188404.label, tab_188403.country 
FROM Producer AS tab_188403, CountryType AS tab_188406, Product AS tab_188404, Product AS tab_188405  
WHERE tab_188405.producer = tab_188403.nr AND tab_188404.producer = tab_188405.producer AND tab_188404.nr = tab_188405.nr AND tab_188406.countryType = 121 AND tab_188403.country = tab_188406.country
23884", color = yellow] ; 
15 -> 16 ; 
17 [label="FunctionCallBindAccess
(\"{0}\", <http://downlode.org/rdf/iso-3166/countries#{1}>)", color = yellow] ; 
15 -> 17 ; 
18 [label="FunctionCallBindAccess
AddConstant{1=(\"<http://www4.wiwiss.fu-berlin.de/bizer/bsbm/v01/vocabulary/producer>\")}", color = yellow] ; 
14 -> 18 ; 
20 [label="BindAccessEval", color = yellow] ; 
1 -> 20 ; 
21 [label="BindAccessEval", color = yellow] ; 
20 -> 21 ; 
22 [label="SQLQuery
SELECT tab_188412.country, tab_188413.label 
FROM Product AS tab_188413, Producer AS tab_188412, CountryType AS tab_188410, Product AS tab_188411  
WHERE tab_188411.producer = tab_188412.nr AND tab_188410.countryType = 112 AND tab_188412.country = tab_188410.country AND tab_188411.producer = tab_188413.producer AND tab_188411.nr = tab_188413.nr
66838", color = yellow] ; 
21 -> 22 ; 
23 [label="FunctionCallBindAccess
(\"{1}\", <http://downlode.org/rdf/iso-3166/countries#{0}>)", color = yellow] ; 
21 -> 23 ; 
24 [label="FunctionCallBindAccess
AddConstant{1=(\"<http://www4.wiwiss.fu-berlin.de/bizer/bsbm/v01/vocabulary/producer>\")}", color = yellow] ; 
20 -> 24 ; 
}
