digraph  g{ graph[label = "21:42:34.43"]
node [shape=rectangle, color=black, fontcolor=black, style=bold] edge [color=black] 0 [label="HashDistinct", color = yellow] ; 
1 [label="Union", color = yellow] ; 
0 -> 1 ; 
2 [label="BindAccessEval", color = yellow] ; 
1 -> 2 ; 
3 [label="BindAccessEval", color = yellow] ; 
2 -> 3 ; 
4 [label="SQLQuery
SELECT O.nr, O.vendor, P.propertyNum3 
FROM Offer AS O, Product AS P, Producer AS PR, PRODUCTTYPEPRODUCT AS PTP  
WHERE P.nr = O.product AND PR.nr = P.producer AND P.nr = PTP.product AND PTP.producttype=769
3885", color = yellow] ; 
3 -> 4 ; 
5 [label="FunctionCallBindAccess
(<http://www4.wiwiss.fu-berlin.de/bizer/bsbm/v01/instances/dataFromVendor{1}/Offer{0}>, \"{2}\")", color = yellow] ; 
3 -> 5 ; 
6 [label="FunctionCallBindAccess
AddConstant{1=(\"<http://www4.wiwiss.fu-berlin.de/bizer/bsbm/v01/vocabulary/productPropertyNumeric>\")}", color = yellow] ; 
2 -> 6 ; 
8 [label="BindAccessEval", color = yellow] ; 
1 -> 8 ; 
9 [label="BindAccessEval", color = yellow] ; 
8 -> 9 ; 
10 [label="SQLQuery
SELECT O.nr, O.vendor, P.propertyNum4 
FROM Offer AS O, Product AS P, Producer AS PR, PRODUCTTYPEPRODUCT AS PTP  
WHERE P.nr = O.product AND PR.nr = P.producer AND P.nr = PTP.product AND PTP.producttype=769
3885", color = yellow] ; 
9 -> 10 ; 
11 [label="FunctionCallBindAccess
(<http://www4.wiwiss.fu-berlin.de/bizer/bsbm/v01/instances/dataFromVendor{1}/Offer{0}>, \"{2}\")", color = yellow] ; 
9 -> 11 ; 
12 [label="FunctionCallBindAccess
AddConstant{1=(\"<http://www4.wiwiss.fu-berlin.de/bizer/bsbm/v01/vocabulary/productPropertyNumeric>\")}", color = yellow] ; 
8 -> 12 ; 
14 [label="BindAccessEval", color = yellow] ; 
1 -> 14 ; 
15 [label="BindAccessEval", color = yellow] ; 
14 -> 15 ; 
16 [label="SQLQuery
SELECT O.nr, O.vendor, P.propertyNum3 
FROM Offer AS O, Product AS P, Producer AS PR, PRODUCTTYPEPRODUCT AS PTP  
WHERE P.nr = O.product AND PR.nr = P.producer AND P.nr = PTP.product AND PTP.producttype=768
4392", color = yellow] ; 
15 -> 16 ; 
17 [label="FunctionCallBindAccess
(<http://www4.wiwiss.fu-berlin.de/bizer/bsbm/v01/instances/dataFromVendor{1}/Offer{0}>, \"{2}\")", color = yellow] ; 
15 -> 17 ; 
18 [label="FunctionCallBindAccess
AddConstant{1=(\"<http://www4.wiwiss.fu-berlin.de/bizer/bsbm/v01/vocabulary/productPropertyNumeric>\")}", color = yellow] ; 
14 -> 18 ; 
20 [label="BindAccessEval", color = yellow] ; 
1 -> 20 ; 
21 [label="BindAccessEval", color = yellow] ; 
20 -> 21 ; 
22 [label="SQLQuery
SELECT O.nr, O.vendor, P.propertyNum4 
FROM Offer AS O, Product AS P, Producer AS PR, PRODUCTTYPEPRODUCT AS PTP  
WHERE P.nr = O.product AND PR.nr = P.producer AND P.nr = PTP.product AND PTP.producttype=768
4392", color = yellow] ; 
21 -> 22 ; 
23 [label="FunctionCallBindAccess
(<http://www4.wiwiss.fu-berlin.de/bizer/bsbm/v01/instances/dataFromVendor{1}/Offer{0}>, \"{2}\")", color = yellow] ; 
21 -> 23 ; 
24 [label="FunctionCallBindAccess
AddConstant{1=(\"<http://www4.wiwiss.fu-berlin.de/bizer/bsbm/v01/vocabulary/productPropertyNumeric>\")}", color = yellow] ; 
20 -> 24 ; 
26 [label="BindAccessEval", color = yellow] ; 
1 -> 26 ; 
27 [label="BindAccessEval", color = yellow] ; 
26 -> 27 ; 
28 [label="SQLQuery
SELECT tab_188416.propertyNum2, tab_188417.nr, tab_188417.vendor 
FROM PRODUCTTYPEPRODUCT AS tab_188419, Product AS tab_188416, Offer AS tab_188417, PRODUCT AS tab_188418  
WHERE tab_188416.producer = tab_188417.producer AND tab_188416.nr = tab_188417.product AND tab_188419.producttype = 769 AND tab_188419.product = tab_188418.nr AND tab_188416.producer = tab_188418.producer AND tab_188416.nr = tab_188418.nr
3885", color = yellow] ; 
27 -> 28 ; 
29 [label="FunctionCallBindAccess
(<http://www4.wiwiss.fu-berlin.de/bizer/bsbm/v01/instances/dataFromVendor{2}/Offer{1}>, \"{0}\")", color = yellow] ; 
27 -> 29 ; 
30 [label="FunctionCallBindAccess
AddConstant{1=(\"<http://www4.wiwiss.fu-berlin.de/bizer/bsbm/v01/vocabulary/productPropertyNumeric>\")}", color = yellow] ; 
26 -> 30 ; 
32 [label="BindAccessEval", color = yellow] ; 
1 -> 32 ; 
33 [label="BindAccessEval", color = yellow] ; 
32 -> 33 ; 
34 [label="SQLQuery
SELECT tab_188423.nr, tab_188423.vendor, tab_188426.propertyNum2 
FROM PRODUCT AS tab_188424, Product AS tab_188426, PRODUCTTYPEPRODUCT AS tab_188425, Offer AS tab_188423  
WHERE tab_188425.producttype = 768 AND tab_188425.product = tab_188424.nr AND tab_188423.producer = tab_188424.producer AND tab_188423.product = tab_188424.nr AND tab_188423.producer = tab_188426.producer AND tab_188423.product = tab_188426.nr
4392", color = yellow] ; 
33 -> 34 ; 
35 [label="FunctionCallBindAccess
(<http://www4.wiwiss.fu-berlin.de/bizer/bsbm/v01/instances/dataFromVendor{1}/Offer{0}>, \"{2}\")", color = yellow] ; 
33 -> 35 ; 
36 [label="FunctionCallBindAccess
AddConstant{1=(\"<http://www4.wiwiss.fu-berlin.de/bizer/bsbm/v01/vocabulary/productPropertyNumeric>\")}", color = yellow] ; 
32 -> 36 ; 
38 [label="BindAccessEval", color = yellow] ; 
1 -> 38 ; 
39 [label="BindAccessEval", color = yellow] ; 
38 -> 39 ; 
40 [label="SQLQuery
SELECT tab_188432.nr, tab_188432.vendor, tab_188433.propertyNum1 
FROM PRODUCTTYPEPRODUCT AS tab_188431, Offer AS tab_188432, PRODUCT AS tab_188430, Product AS tab_188433  
WHERE tab_188431.producttype = 769 AND tab_188431.product = tab_188430.nr AND tab_188430.producer = tab_188432.producer AND tab_188430.nr = tab_188432.product AND tab_188430.producer = tab_188433.producer AND tab_188430.nr = tab_188433.nr
3885", color = yellow] ; 
39 -> 40 ; 
41 [label="FunctionCallBindAccess
(<http://www4.wiwiss.fu-berlin.de/bizer/bsbm/v01/instances/dataFromVendor{1}/Offer{0}>, \"{2}\")", color = yellow] ; 
39 -> 41 ; 
42 [label="FunctionCallBindAccess
AddConstant{1=(\"<http://www4.wiwiss.fu-berlin.de/bizer/bsbm/v01/vocabulary/productPropertyNumeric>\")}", color = yellow] ; 
38 -> 42 ; 
44 [label="BindAccessEval", color = yellow] ; 
1 -> 44 ; 
45 [label="BindAccessEval", color = yellow] ; 
44 -> 45 ; 
46 [label="SQLQuery
SELECT tab_188438.propertyNum1, tab_188440.nr, tab_188440.vendor 
FROM PRODUCT AS tab_188437, Offer AS tab_188440, PRODUCTTYPEPRODUCT AS tab_188439, Product AS tab_188438  
WHERE tab_188439.producttype = 768 AND tab_188439.product = tab_188437.nr AND tab_188437.producer = tab_188438.producer AND tab_188437.nr = tab_188438.nr AND tab_188437.producer = tab_188440.producer AND tab_188437.nr = tab_188440.product
4392", color = yellow] ; 
45 -> 46 ; 
47 [label="FunctionCallBindAccess
(<http://www4.wiwiss.fu-berlin.de/bizer/bsbm/v01/instances/dataFromVendor{2}/Offer{1}>, \"{0}\")", color = yellow] ; 
45 -> 47 ; 
48 [label="FunctionCallBindAccess
AddConstant{1=(\"<http://www4.wiwiss.fu-berlin.de/bizer/bsbm/v01/vocabulary/productPropertyNumeric>\")}", color = yellow] ; 
44 -> 48 ; 
50 [label="BindAccessEval", color = yellow] ; 
1 -> 50 ; 
51 [label="BindAccessEval", color = yellow] ; 
50 -> 51 ; 
52 [label="SQLQuery
SELECT O.nr, O.vendor, P.propertyNum4 
FROM Offer AS O, Product AS P, Producer AS PR, PRODUCTTYPEPRODUCT AS PTP  
WHERE P.nr = O.product AND PR.nr = P.producer AND P.nr = PTP.product AND PTP.producttype=768
4392", color = yellow] ; 
51 -> 52 ; 
53 [label="FunctionCallBindAccess
(<http://www4.wiwiss.fu-berlin.de/bizer/bsbm/v01/instances/dataFromVendor{1}/Offer{0}>, \"{2}\")", color = yellow] ; 
51 -> 53 ; 
54 [label="FunctionCallBindAccess
AddConstant{1=(\"<http://www4.wiwiss.fu-berlin.de/bizer/bsbm/v01/vocabulary/productPropertyNumeric4>\")}", color = yellow] ; 
50 -> 54 ; 
56 [label="BindAccessEval", color = yellow] ; 
1 -> 56 ; 
57 [label="BindAccessEval", color = yellow] ; 
56 -> 57 ; 
58 [label="SQLQuery
SELECT O.nr, O.vendor, P.propertyNum4 
FROM Offer AS O, Product AS P, Producer AS PR, PRODUCTTYPEPRODUCT AS PTP  
WHERE P.nr = O.product AND PR.nr = P.producer AND P.nr = PTP.product AND PTP.producttype=769
3885", color = yellow] ; 
57 -> 58 ; 
59 [label="FunctionCallBindAccess
(<http://www4.wiwiss.fu-berlin.de/bizer/bsbm/v01/instances/dataFromVendor{1}/Offer{0}>, \"{2}\")", color = yellow] ; 
57 -> 59 ; 
60 [label="FunctionCallBindAccess
AddConstant{1=(\"<http://www4.wiwiss.fu-berlin.de/bizer/bsbm/v01/vocabulary/productPropertyNumeric4>\")}", color = yellow] ; 
56 -> 60 ; 
62 [label="BindAccessEval", color = yellow] ; 
1 -> 62 ; 
63 [label="BindAccessEval", color = yellow] ; 
62 -> 63 ; 
64 [label="SQLQuery
SELECT O.nr, O.vendor, P.propertyNum3 
FROM Offer AS O, Product AS P, Producer AS PR, PRODUCTTYPEPRODUCT AS PTP  
WHERE P.nr = O.product AND PR.nr = P.producer AND P.nr = PTP.product AND PTP.producttype=769
3885", color = yellow] ; 
63 -> 64 ; 
65 [label="FunctionCallBindAccess
(<http://www4.wiwiss.fu-berlin.de/bizer/bsbm/v01/instances/dataFromVendor{1}/Offer{0}>, \"{2}\")", color = yellow] ; 
63 -> 65 ; 
66 [label="FunctionCallBindAccess
AddConstant{1=(\"<http://www4.wiwiss.fu-berlin.de/bizer/bsbm/v01/vocabulary/productPropertyNumeric3>\")}", color = yellow] ; 
62 -> 66 ; 
68 [label="BindAccessEval", color = yellow] ; 
1 -> 68 ; 
69 [label="BindAccessEval", color = yellow] ; 
68 -> 69 ; 
70 [label="SQLQuery
SELECT O.nr, O.vendor, P.propertyNum3 
FROM Offer AS O, Product AS P, Producer AS PR, PRODUCTTYPEPRODUCT AS PTP  
WHERE P.nr = O.product AND PR.nr = P.producer AND P.nr = PTP.product AND PTP.producttype=768
4392", color = yellow] ; 
69 -> 70 ; 
71 [label="FunctionCallBindAccess
(<http://www4.wiwiss.fu-berlin.de/bizer/bsbm/v01/instances/dataFromVendor{1}/Offer{0}>, \"{2}\")", color = yellow] ; 
69 -> 71 ; 
72 [label="FunctionCallBindAccess
AddConstant{1=(\"<http://www4.wiwiss.fu-berlin.de/bizer/bsbm/v01/vocabulary/productPropertyNumeric3>\")}", color = yellow] ; 
68 -> 72 ; 
74 [label="BindAccessEval", color = yellow] ; 
1 -> 74 ; 
75 [label="BindAccessEval", color = yellow] ; 
74 -> 75 ; 
76 [label="SQLQuery
SELECT tab_188445.nr, tab_188445.vendor, tab_188447.propertyNum2 
FROM PRODUCT AS tab_188446, Product AS tab_188447, PRODUCTTYPEPRODUCT AS tab_188444, Offer AS tab_188445  
WHERE tab_188444.producttype = 769 AND tab_188444.product = tab_188446.nr AND tab_188446.producer = tab_188445.producer AND tab_188446.nr = tab_188445.product AND tab_188446.producer = tab_188447.producer AND tab_188446.nr = tab_188447.nr
3885", color = yellow] ; 
75 -> 76 ; 
77 [label="FunctionCallBindAccess
(<http://www4.wiwiss.fu-berlin.de/bizer/bsbm/v01/instances/dataFromVendor{1}/Offer{0}>, \"{2}\")", color = yellow] ; 
75 -> 77 ; 
78 [label="FunctionCallBindAccess
AddConstant{1=(\"<http://www4.wiwiss.fu-berlin.de/bizer/bsbm/v01/vocabulary/productPropertyNumeric2>\")}", color = yellow] ; 
74 -> 78 ; 
80 [label="BindAccessEval", color = yellow] ; 
1 -> 80 ; 
81 [label="BindAccessEval", color = yellow] ; 
80 -> 81 ; 
82 [label="SQLQuery
SELECT tab_188451.propertyNum2, tab_188454.nr, tab_188454.vendor 
FROM PRODUCTTYPEPRODUCT AS tab_188453, Offer AS tab_188454, Product AS tab_188451, PRODUCT AS tab_188452  
WHERE tab_188453.producttype = 768 AND tab_188453.product = tab_188452.nr AND tab_188452.producer = tab_188451.producer AND tab_188452.nr = tab_188451.nr AND tab_188452.producer = tab_188454.producer AND tab_188452.nr = tab_188454.product
4392", color = yellow] ; 
81 -> 82 ; 
83 [label="FunctionCallBindAccess
(<http://www4.wiwiss.fu-berlin.de/bizer/bsbm/v01/instances/dataFromVendor{2}/Offer{1}>, \"{0}\")", color = yellow] ; 
81 -> 83 ; 
84 [label="FunctionCallBindAccess
AddConstant{1=(\"<http://www4.wiwiss.fu-berlin.de/bizer/bsbm/v01/vocabulary/productPropertyNumeric2>\")}", color = yellow] ; 
80 -> 84 ; 
86 [label="BindAccessEval", color = yellow] ; 
1 -> 86 ; 
87 [label="BindAccessEval", color = yellow] ; 
86 -> 87 ; 
88 [label="SQLQuery
SELECT tab_188457.propertyNum1, tab_188458.nr, tab_188458.vendor 
FROM PRODUCT AS tab_188459, PRODUCTTYPEPRODUCT AS tab_188460, Product AS tab_188457, Offer AS tab_188458  
WHERE tab_188457.producer = tab_188458.producer AND tab_188457.nr = tab_188458.product AND tab_188460.producttype = 768 AND tab_188460.product = tab_188459.nr AND tab_188457.producer = tab_188459.producer AND tab_188457.nr = tab_188459.nr
4392", color = yellow] ; 
87 -> 88 ; 
89 [label="FunctionCallBindAccess
(<http://www4.wiwiss.fu-berlin.de/bizer/bsbm/v01/instances/dataFromVendor{2}/Offer{1}>, \"{0}\")", color = yellow] ; 
87 -> 89 ; 
90 [label="FunctionCallBindAccess
AddConstant{1=(\"<http://www4.wiwiss.fu-berlin.de/bizer/bsbm/v01/vocabulary/productPropertyNumeric1>\")}", color = yellow] ; 
86 -> 90 ; 
92 [label="BindAccessEval", color = yellow] ; 
1 -> 92 ; 
93 [label="BindAccessEval", color = yellow] ; 
92 -> 93 ; 
94 [label="SQLQuery
SELECT tab_188463.propertyNum1, tab_188464.nr, tab_188464.vendor 
FROM Product AS tab_188463, Offer AS tab_188464, PRODUCT AS tab_188465, PRODUCTTYPEPRODUCT AS tab_188466  
WHERE tab_188463.producer = tab_188464.producer AND tab_188463.nr = tab_188464.product AND tab_188466.producttype = 769 AND tab_188466.product = tab_188465.nr AND tab_188463.producer = tab_188465.producer AND tab_188463.nr = tab_188465.nr
3885", color = yellow] ; 
93 -> 94 ; 
95 [label="FunctionCallBindAccess
(<http://www4.wiwiss.fu-berlin.de/bizer/bsbm/v01/instances/dataFromVendor{2}/Offer{1}>, \"{0}\")", color = yellow] ; 
93 -> 95 ; 
96 [label="FunctionCallBindAccess
AddConstant{1=(\"<http://www4.wiwiss.fu-berlin.de/bizer/bsbm/v01/vocabulary/productPropertyNumeric1>\")}", color = yellow] ; 
92 -> 96 ; 
98 [label="BindAccessEval", color = yellow] ; 
1 -> 98 ; 
99 [label="BindAccessEval", color = yellow] ; 
98 -> 99 ; 
100 [label="SQLQuery
SELECT tab_188472.nr, tab_188472.vendor, tab_188473.producer 
FROM Product AS tab_188473, PRODUCTTYPEPRODUCT AS tab_188471, Offer AS tab_188472, PRODUCT AS tab_188470  
WHERE tab_188471.producttype = 769 AND tab_188471.product = tab_188470.nr AND tab_188470.producer = tab_188472.producer AND tab_188470.nr = tab_188472.product AND tab_188470.producer = tab_188473.producer AND tab_188470.nr = tab_188473.nr
3885", color = yellow] ; 
99 -> 100 ; 
101 [label="FunctionCallBindAccess
(<http://www4.wiwiss.fu-berlin.de/bizer/bsbm/v01/instances/dataFromVendor{1}/Offer{0}>, <http://www4.wiwiss.fu-berlin.de/bizer/bsbm/v01/instances/dataFromProducer{2}/Producer{2}>)", color = yellow] ; 
99 -> 101 ; 
102 [label="FunctionCallBindAccess
AddConstant{1=(\"<http://www4.wiwiss.fu-berlin.de/bizer/bsbm/v01/vocabulary/producer>\")}", color = yellow] ; 
98 -> 102 ; 
104 [label="BindAccessEval", color = yellow] ; 
1 -> 104 ; 
105 [label="BindAccessEval", color = yellow] ; 
104 -> 105 ; 
106 [label="SQLQuery
SELECT tab_188477.nr, tab_188477.vendor, tab_188480.producer 
FROM Offer AS tab_188477, Product AS tab_188480, PRODUCT AS tab_188478, PRODUCTTYPEPRODUCT AS tab_188479  
WHERE tab_188479.producttype = 768 AND tab_188479.product = tab_188478.nr AND tab_188477.producer = tab_188478.producer AND tab_188477.product = tab_188478.nr AND tab_188477.producer = tab_188480.producer AND tab_188477.product = tab_188480.nr
4392", color = yellow] ; 
105 -> 106 ; 
107 [label="FunctionCallBindAccess
(<http://www4.wiwiss.fu-berlin.de/bizer/bsbm/v01/instances/dataFromVendor{1}/Offer{0}>, <http://www4.wiwiss.fu-berlin.de/bizer/bsbm/v01/instances/dataFromProducer{2}/Producer{2}>)", color = yellow] ; 
105 -> 107 ; 
108 [label="FunctionCallBindAccess
AddConstant{1=(\"<http://www4.wiwiss.fu-berlin.de/bizer/bsbm/v01/vocabulary/producer>\")}", color = yellow] ; 
104 -> 108 ; 
110 [label="BindAccessEval", color = yellow] ; 
1 -> 110 ; 
111 [label="BindAccessEval", color = yellow] ; 
110 -> 111 ; 
112 [label="SQLQuery
SELECT tab_188484.propertyTex6, tab_188487.nr, tab_188487.vendor 
FROM Offer AS tab_188487, PRODUCTTYPEPRODUCT AS tab_188485, Product AS tab_188484, PRODUCT AS tab_188486  
WHERE tab_188485.producttype = 769 AND tab_188485.product = tab_188486.nr AND tab_188486.producer = tab_188484.producer AND tab_188486.nr = tab_188484.nr AND tab_188486.producer = tab_188487.producer AND tab_188486.nr = tab_188487.product
3885", color = yellow] ; 
111 -> 112 ; 
113 [label="FunctionCallBindAccess
(<http://www4.wiwiss.fu-berlin.de/bizer/bsbm/v01/instances/dataFromVendor{2}/Offer{1}>, \"{0}\")", color = yellow] ; 
111 -> 113 ; 
114 [label="FunctionCallBindAccess
AddConstant{1=(\"<http://www4.wiwiss.fu-berlin.de/bizer/bsbm/v01/vocabulary/productPropertyTextual6>\")}", color = yellow] ; 
110 -> 114 ; 
116 [label="BindAccessEval", color = yellow] ; 
1 -> 116 ; 
117 [label="BindAccessEval", color = yellow] ; 
116 -> 117 ; 
118 [label="SQLQuery
SELECT tab_188491.nr, tab_188491.vendor, tab_188494.propertyTex6 
FROM Product AS tab_188494, PRODUCTTYPEPRODUCT AS tab_188493, Offer AS tab_188491, PRODUCT AS tab_188492  
WHERE tab_188493.producttype = 768 AND tab_188493.product = tab_188492.nr AND tab_188491.producer = tab_188492.producer AND tab_188491.product = tab_188492.nr AND tab_188491.producer = tab_188494.producer AND tab_188491.product = tab_188494.nr
4392", color = yellow] ; 
117 -> 118 ; 
119 [label="FunctionCallBindAccess
(<http://www4.wiwiss.fu-berlin.de/bizer/bsbm/v01/instances/dataFromVendor{1}/Offer{0}>, \"{2}\")", color = yellow] ; 
117 -> 119 ; 
120 [label="FunctionCallBindAccess
AddConstant{1=(\"<http://www4.wiwiss.fu-berlin.de/bizer/bsbm/v01/vocabulary/productPropertyTextual6>\")}", color = yellow] ; 
116 -> 120 ; 
122 [label="BindAccessEval", color = yellow] ; 
1 -> 122 ; 
123 [label="BindAccessEval", color = yellow] ; 
122 -> 123 ; 
124 [label="SQLQuery
SELECT tab_188499.nr, tab_188499.vendor, tab_188501.propertyTex5 
FROM Offer AS tab_188499, PRODUCT AS tab_188500, Product AS tab_188501, PRODUCTTYPEPRODUCT AS tab_188498  
WHERE tab_188498.producttype = 769 AND tab_188498.product = tab_188500.nr AND tab_188499.producer = tab_188500.producer AND tab_188499.product = tab_188500.nr AND tab_188499.producer = tab_188501.producer AND tab_188499.product = tab_188501.nr
3885", color = yellow] ; 
123 -> 124 ; 
125 [label="FunctionCallBindAccess
(<http://www4.wiwiss.fu-berlin.de/bizer/bsbm/v01/instances/dataFromVendor{1}/Offer{0}>, \"{2}\")", color = yellow] ; 
123 -> 125 ; 
126 [label="FunctionCallBindAccess
AddConstant{1=(\"<http://www4.wiwiss.fu-berlin.de/bizer/bsbm/v01/vocabulary/productPropertyTextual5>\")}", color = yellow] ; 
122 -> 126 ; 
128 [label="BindAccessEval", color = yellow] ; 
1 -> 128 ; 
129 [label="BindAccessEval", color = yellow] ; 
128 -> 129 ; 
130 [label="SQLQuery
SELECT tab_188507.nr, tab_188507.vendor, tab_188508.propertyTex5 
FROM PRODUCTTYPEPRODUCT AS tab_188506, Product AS tab_188508, Offer AS tab_188507, PRODUCT AS tab_188505  
WHERE tab_188506.producttype = 768 AND tab_188506.product = tab_188505.nr AND tab_188507.producer = tab_188505.producer AND tab_188507.product = tab_188505.nr AND tab_188507.producer = tab_188508.producer AND tab_188507.product = tab_188508.nr
4392", color = yellow] ; 
129 -> 130 ; 
131 [label="FunctionCallBindAccess
(<http://www4.wiwiss.fu-berlin.de/bizer/bsbm/v01/instances/dataFromVendor{1}/Offer{0}>, \"{2}\")", color = yellow] ; 
129 -> 131 ; 
132 [label="FunctionCallBindAccess
AddConstant{1=(\"<http://www4.wiwiss.fu-berlin.de/bizer/bsbm/v01/vocabulary/productPropertyTextual5>\")}", color = yellow] ; 
128 -> 132 ; 
134 [label="BindAccessEval", color = yellow] ; 
1 -> 134 ; 
135 [label="BindAccessEval", color = yellow] ; 
134 -> 135 ; 
136 [label="SQLQuery
SELECT tab_188511.nr, tab_188511.vendor, tab_188512.propertyTex4 
FROM PRODUCT AS tab_188513, Product AS tab_188512, PRODUCTTYPEPRODUCT AS tab_188514, Offer AS tab_188511  
WHERE tab_188511.producer = tab_188512.producer AND tab_188511.product = tab_188512.nr AND tab_188514.producttype = 768 AND tab_188514.product = tab_188513.nr AND tab_188511.producer = tab_188513.producer AND tab_188511.product = tab_188513.nr
4392", color = yellow] ; 
135 -> 136 ; 
137 [label="FunctionCallBindAccess
(<http://www4.wiwiss.fu-berlin.de/bizer/bsbm/v01/instances/dataFromVendor{1}/Offer{0}>, \"{2}\")", color = yellow] ; 
135 -> 137 ; 
138 [label="FunctionCallBindAccess
AddConstant{1=(\"<http://www4.wiwiss.fu-berlin.de/bizer/bsbm/v01/vocabulary/productPropertyTextual4>\")}", color = yellow] ; 
134 -> 138 ; 
140 [label="BindAccessEval", color = yellow] ; 
1 -> 140 ; 
141 [label="BindAccessEval", color = yellow] ; 
140 -> 141 ; 
142 [label="SQLQuery
SELECT tab_188518.nr, tab_188518.vendor, tab_188517.propertyTex4 
FROM Product AS tab_188517, Offer AS tab_188518, PRODUCT AS tab_188519, PRODUCTTYPEPRODUCT AS tab_188520  
WHERE tab_188518.producer = tab_188517.producer AND tab_188518.product = tab_188517.nr AND tab_188520.producttype = 769 AND tab_188520.product = tab_188519.nr AND tab_188518.producer = tab_188519.producer AND tab_188518.product = tab_188519.nr
3885", color = yellow] ; 
141 -> 142 ; 
143 [label="FunctionCallBindAccess
(<http://www4.wiwiss.fu-berlin.de/bizer/bsbm/v01/instances/dataFromVendor{1}/Offer{0}>, \"{2}\")", color = yellow] ; 
141 -> 143 ; 
144 [label="FunctionCallBindAccess
AddConstant{1=(\"<http://www4.wiwiss.fu-berlin.de/bizer/bsbm/v01/vocabulary/productPropertyTextual4>\")}", color = yellow] ; 
140 -> 144 ; 
146 [label="BindAccessEval", color = yellow] ; 
1 -> 146 ; 
147 [label="BindAccessEval", color = yellow] ; 
146 -> 147 ; 
148 [label="SQLQuery
SELECT tab_188523.propertyTex3, tab_188524.nr, tab_188524.vendor 
FROM PRODUCT AS tab_188525, Product AS tab_188523, PRODUCTTYPEPRODUCT AS tab_188526, Offer AS tab_188524  
WHERE tab_188523.producer = tab_188524.producer AND tab_188523.nr = tab_188524.product AND tab_188526.producttype = 769 AND tab_188526.product = tab_188525.nr AND tab_188523.producer = tab_188525.producer AND tab_188523.nr = tab_188525.nr
3885", color = yellow] ; 
147 -> 148 ; 
149 [label="FunctionCallBindAccess
(<http://www4.wiwiss.fu-berlin.de/bizer/bsbm/v01/instances/dataFromVendor{2}/Offer{1}>, \"{0}\")", color = yellow] ; 
147 -> 149 ; 
150 [label="FunctionCallBindAccess
AddConstant{1=(\"<http://www4.wiwiss.fu-berlin.de/bizer/bsbm/v01/vocabulary/productPropertyTextual3>\")}", color = yellow] ; 
146 -> 150 ; 
152 [label="BindAccessEval", color = yellow] ; 
1 -> 152 ; 
153 [label="BindAccessEval", color = yellow] ; 
152 -> 153 ; 
154 [label="SQLQuery
SELECT tab_188530.nr, tab_188530.vendor, tab_188529.propertyTex3 
FROM Offer AS tab_188530, PRODUCT AS tab_188531, Product AS tab_188529, PRODUCTTYPEPRODUCT AS tab_188532  
WHERE tab_188530.producer = tab_188529.producer AND tab_188530.product = tab_188529.nr AND tab_188532.producttype = 768 AND tab_188532.product = tab_188531.nr AND tab_188530.producer = tab_188531.producer AND tab_188530.product = tab_188531.nr
4392", color = yellow] ; 
153 -> 154 ; 
155 [label="FunctionCallBindAccess
(<http://www4.wiwiss.fu-berlin.de/bizer/bsbm/v01/instances/dataFromVendor{1}/Offer{0}>, \"{2}\")", color = yellow] ; 
153 -> 155 ; 
156 [label="FunctionCallBindAccess
AddConstant{1=(\"<http://www4.wiwiss.fu-berlin.de/bizer/bsbm/v01/vocabulary/productPropertyTextual3>\")}", color = yellow] ; 
152 -> 156 ; 
158 [label="BindAccessEval", color = yellow] ; 
1 -> 158 ; 
159 [label="BindAccessEval", color = yellow] ; 
158 -> 159 ; 
160 [label="SQLQuery
SELECT tab_188537.propertyTex2, tab_188539.nr, tab_188539.vendor 
FROM PRODUCT AS tab_188536, PRODUCTTYPEPRODUCT AS tab_188538, Offer AS tab_188539, Product AS tab_188537  
WHERE tab_188538.producttype = 768 AND tab_188538.product = tab_188536.nr AND tab_188536.producer = tab_188537.producer AND tab_188536.nr = tab_188537.nr AND tab_188536.producer = tab_188539.producer AND tab_188536.nr = tab_188539.product
4392", color = yellow] ; 
159 -> 160 ; 
161 [label="FunctionCallBindAccess
(<http://www4.wiwiss.fu-berlin.de/bizer/bsbm/v01/instances/dataFromVendor{2}/Offer{1}>, \"{0}\")", color = yellow] ; 
159 -> 161 ; 
162 [label="FunctionCallBindAccess
AddConstant{1=(\"<http://www4.wiwiss.fu-berlin.de/bizer/bsbm/v01/vocabulary/productPropertyTextual2>\")}", color = yellow] ; 
158 -> 162 ; 
164 [label="BindAccessEval", color = yellow] ; 
1 -> 164 ; 
165 [label="BindAccessEval", color = yellow] ; 
164 -> 165 ; 
166 [label="SQLQuery
SELECT tab_188542.propertyTex2, tab_188543.nr, tab_188543.vendor 
FROM Offer AS tab_188543, PRODUCT AS tab_188544, PRODUCTTYPEPRODUCT AS tab_188545, Product AS tab_188542  
WHERE tab_188542.producer = tab_188543.producer AND tab_188542.nr = tab_188543.product AND tab_188545.producttype = 769 AND tab_188545.product = tab_188544.nr AND tab_188542.producer = tab_188544.producer AND tab_188542.nr = tab_188544.nr
3885", color = yellow] ; 
165 -> 166 ; 
167 [label="FunctionCallBindAccess
(<http://www4.wiwiss.fu-berlin.de/bizer/bsbm/v01/instances/dataFromVendor{2}/Offer{1}>, \"{0}\")", color = yellow] ; 
165 -> 167 ; 
168 [label="FunctionCallBindAccess
AddConstant{1=(\"<http://www4.wiwiss.fu-berlin.de/bizer/bsbm/v01/vocabulary/productPropertyTextual2>\")}", color = yellow] ; 
164 -> 168 ; 
170 [label="BindAccessEval", color = yellow] ; 
1 -> 170 ; 
171 [label="BindAccessEval", color = yellow] ; 
170 -> 171 ; 
172 [label="SQLQuery
SELECT tab_188551.nr, tab_188551.vendor, tab_188552.propertyTex1 
FROM PRODUCTTYPEPRODUCT AS tab_188550, Offer AS tab_188551, PRODUCT AS tab_188549, Product AS tab_188552  
WHERE tab_188550.producttype = 769 AND tab_188550.product = tab_188549.nr AND tab_188551.producer = tab_188549.producer AND tab_188551.product = tab_188549.nr AND tab_188551.producer = tab_188552.producer AND tab_188551.product = tab_188552.nr
3885", color = yellow] ; 
171 -> 172 ; 
173 [label="FunctionCallBindAccess
(<http://www4.wiwiss.fu-berlin.de/bizer/bsbm/v01/instances/dataFromVendor{1}/Offer{0}>, \"{2}\")", color = yellow] ; 
171 -> 173 ; 
174 [label="FunctionCallBindAccess
AddConstant{1=(\"<http://www4.wiwiss.fu-berlin.de/bizer/bsbm/v01/vocabulary/productPropertyTextual1>\")}", color = yellow] ; 
170 -> 174 ; 
176 [label="BindAccessEval", color = yellow] ; 
1 -> 176 ; 
177 [label="BindAccessEval", color = yellow] ; 
176 -> 177 ; 
178 [label="SQLQuery
SELECT tab_188556.nr, tab_188556.vendor, tab_188559.propertyTex1 
FROM PRODUCT AS tab_188557, PRODUCTTYPEPRODUCT AS tab_188558, Product AS tab_188559, Offer AS tab_188556  
WHERE tab_188558.producttype = 768 AND tab_188558.product = tab_188557.nr AND tab_188556.producer = tab_188557.producer AND tab_188556.product = tab_188557.nr AND tab_188556.producer = tab_188559.producer AND tab_188556.product = tab_188559.nr
4392", color = yellow] ; 
177 -> 178 ; 
179 [label="FunctionCallBindAccess
(<http://www4.wiwiss.fu-berlin.de/bizer/bsbm/v01/instances/dataFromVendor{1}/Offer{0}>, \"{2}\")", color = yellow] ; 
177 -> 179 ; 
180 [label="FunctionCallBindAccess
AddConstant{1=(\"<http://www4.wiwiss.fu-berlin.de/bizer/bsbm/v01/vocabulary/productPropertyTextual1>\")}", color = yellow] ; 
176 -> 180 ; 
182 [label="BindAccessEval", color = yellow] ; 
1 -> 182 ; 
183 [label="BindAccessEval", color = yellow] ; 
182 -> 183 ; 
184 [label="SQLQuery
SELECT tab_188564.nr, tab_188564.vendor, tab_188566.propertyTex2 
FROM PRODUCTTYPEPRODUCT AS tab_188563, Offer AS tab_188564, PRODUCT AS tab_188565, Product AS tab_188566  
WHERE tab_188563.producttype = 768 AND tab_188563.product = tab_188565.nr AND tab_188564.producer = tab_188565.producer AND tab_188564.product = tab_188565.nr AND tab_188564.producer = tab_188566.producer AND tab_188564.product = tab_188566.nr
4392", color = yellow] ; 
183 -> 184 ; 
185 [label="FunctionCallBindAccess
(<http://www4.wiwiss.fu-berlin.de/bizer/bsbm/v01/instances/dataFromVendor{1}/Offer{0}>, \"{2}\")", color = yellow] ; 
183 -> 185 ; 
186 [label="FunctionCallBindAccess
AddConstant{1=(\"<http://www4.wiwiss.fu-berlin.de/bizer/bsbm/v01/vocabulary/productPropertyTextual>\")}", color = yellow] ; 
182 -> 186 ; 
188 [label="BindAccessEval", color = yellow] ; 
1 -> 188 ; 
189 [label="BindAccessEval", color = yellow] ; 
188 -> 189 ; 
190 [label="SQLQuery
SELECT tab_188572.nr, tab_188572.vendor, tab_188573.propertyTex6 
FROM PRODUCTTYPEPRODUCT AS tab_188571, Product AS tab_188573, Offer AS tab_188572, PRODUCT AS tab_188570  
WHERE tab_188571.producttype = 769 AND tab_188571.product = tab_188570.nr AND tab_188570.producer = tab_188572.producer AND tab_188570.nr = tab_188572.product AND tab_188570.producer = tab_188573.producer AND tab_188570.nr = tab_188573.nr
3885", color = yellow] ; 
189 -> 190 ; 
191 [label="FunctionCallBindAccess
(<http://www4.wiwiss.fu-berlin.de/bizer/bsbm/v01/instances/dataFromVendor{1}/Offer{0}>, \"{2}\")", color = yellow] ; 
189 -> 191 ; 
192 [label="FunctionCallBindAccess
AddConstant{1=(\"<http://www4.wiwiss.fu-berlin.de/bizer/bsbm/v01/vocabulary/productPropertyTextual>\")}", color = yellow] ; 
188 -> 192 ; 
194 [label="BindAccessEval", color = yellow] ; 
1 -> 194 ; 
195 [label="BindAccessEval", color = yellow] ; 
194 -> 195 ; 
196 [label="SQLQuery
SELECT tab_188578.propertyTex4, tab_188580.nr, tab_188580.vendor 
FROM Offer AS tab_188580, PRODUCT AS tab_188577, Product AS tab_188578, PRODUCTTYPEPRODUCT AS tab_188579  
WHERE tab_188579.producttype = 769 AND tab_188579.product = tab_188577.nr AND tab_188577.producer = tab_188578.producer AND tab_188577.nr = tab_188578.nr AND tab_188577.producer = tab_188580.producer AND tab_188577.nr = tab_188580.product
3885", color = yellow] ; 
195 -> 196 ; 
197 [label="FunctionCallBindAccess
(<http://www4.wiwiss.fu-berlin.de/bizer/bsbm/v01/instances/dataFromVendor{2}/Offer{1}>, \"{0}\")", color = yellow] ; 
195 -> 197 ; 
198 [label="FunctionCallBindAccess
AddConstant{1=(\"<http://www4.wiwiss.fu-berlin.de/bizer/bsbm/v01/vocabulary/productPropertyTextual>\")}", color = yellow] ; 
194 -> 198 ; 
200 [label="BindAccessEval", color = yellow] ; 
1 -> 200 ; 
201 [label="BindAccessEval", color = yellow] ; 
200 -> 201 ; 
202 [label="SQLQuery
SELECT tab_188584.propertyTex3, tab_188587.nr, tab_188587.vendor 
FROM PRODUCTTYPEPRODUCT AS tab_188585, Offer AS tab_188587, Product AS tab_188584, PRODUCT AS tab_188586  
WHERE tab_188585.producttype = 768 AND tab_188585.product = tab_188586.nr AND tab_188584.producer = tab_188586.producer AND tab_188584.nr = tab_188586.nr AND tab_188584.producer = tab_188587.producer AND tab_188584.nr = tab_188587.product
4392", color = yellow] ; 
201 -> 202 ; 
203 [label="FunctionCallBindAccess
(<http://www4.wiwiss.fu-berlin.de/bizer/bsbm/v01/instances/dataFromVendor{2}/Offer{1}>, \"{0}\")", color = yellow] ; 
201 -> 203 ; 
204 [label="FunctionCallBindAccess
AddConstant{1=(\"<http://www4.wiwiss.fu-berlin.de/bizer/bsbm/v01/vocabulary/productPropertyTextual>\")}", color = yellow] ; 
200 -> 204 ; 
206 [label="BindAccessEval", color = yellow] ; 
1 -> 206 ; 
207 [label="BindAccessEval", color = yellow] ; 
206 -> 207 ; 
208 [label="SQLQuery
SELECT tab_188593.nr, tab_188593.vendor, tab_188594.propertyTex3 
FROM Product AS tab_188594, PRODUCTTYPEPRODUCT AS tab_188592, Offer AS tab_188593, PRODUCT AS tab_188591  
WHERE tab_188592.producttype = 769 AND tab_188592.product = tab_188591.nr AND tab_188593.producer = tab_188591.producer AND tab_188593.product = tab_188591.nr AND tab_188593.producer = tab_188594.producer AND tab_188593.product = tab_188594.nr
3885", color = yellow] ; 
207 -> 208 ; 
209 [label="FunctionCallBindAccess
(<http://www4.wiwiss.fu-berlin.de/bizer/bsbm/v01/instances/dataFromVendor{1}/Offer{0}>, \"{2}\")", color = yellow] ; 
207 -> 209 ; 
210 [label="FunctionCallBindAccess
AddConstant{1=(\"<http://www4.wiwiss.fu-berlin.de/bizer/bsbm/v01/vocabulary/productPropertyTextual>\")}", color = yellow] ; 
206 -> 210 ; 
212 [label="BindAccessEval", color = yellow] ; 
1 -> 212 ; 
213 [label="BindAccessEval", color = yellow] ; 
212 -> 213 ; 
214 [label="SQLQuery
SELECT tab_188598.propertyTex6, tab_188601.nr, tab_188601.vendor 
FROM PRODUCT AS tab_188599, PRODUCTTYPEPRODUCT AS tab_188600, Offer AS tab_188601, Product AS tab_188598  
WHERE tab_188600.producttype = 768 AND tab_188600.product = tab_188599.nr AND tab_188598.producer = tab_188599.producer AND tab_188598.nr = tab_188599.nr AND tab_188598.producer = tab_188601.producer AND tab_188598.nr = tab_188601.product
4392", color = yellow] ; 
213 -> 214 ; 
215 [label="FunctionCallBindAccess
(<http://www4.wiwiss.fu-berlin.de/bizer/bsbm/v01/instances/dataFromVendor{2}/Offer{1}>, \"{0}\")", color = yellow] ; 
213 -> 215 ; 
216 [label="FunctionCallBindAccess
AddConstant{1=(\"<http://www4.wiwiss.fu-berlin.de/bizer/bsbm/v01/vocabulary/productPropertyTextual>\")}", color = yellow] ; 
212 -> 216 ; 
218 [label="BindAccessEval", color = yellow] ; 
1 -> 218 ; 
219 [label="BindAccessEval", color = yellow] ; 
218 -> 219 ; 
220 [label="SQLQuery
SELECT tab_188606.propertyTex4, tab_188608.nr, tab_188608.vendor 
FROM PRODUCTTYPEPRODUCT AS tab_188607, Product AS tab_188606, Offer AS tab_188608, PRODUCT AS tab_188605  
WHERE tab_188607.producttype = 768 AND tab_188607.product = tab_188605.nr AND tab_188605.producer = tab_188606.producer AND tab_188605.nr = tab_188606.nr AND tab_188605.producer = tab_188608.producer AND tab_188605.nr = tab_188608.product
4392", color = yellow] ; 
219 -> 220 ; 
221 [label="FunctionCallBindAccess
(<http://www4.wiwiss.fu-berlin.de/bizer/bsbm/v01/instances/dataFromVendor{2}/Offer{1}>, \"{0}\")", color = yellow] ; 
219 -> 221 ; 
222 [label="FunctionCallBindAccess
AddConstant{1=(\"<http://www4.wiwiss.fu-berlin.de/bizer/bsbm/v01/vocabulary/productPropertyTextual>\")}", color = yellow] ; 
218 -> 222 ; 
224 [label="BindAccessEval", color = yellow] ; 
1 -> 224 ; 
225 [label="BindAccessEval", color = yellow] ; 
224 -> 225 ; 
226 [label="SQLQuery
SELECT tab_188612.propertyTex1, tab_188615.nr, tab_188615.vendor 
FROM PRODUCT AS tab_188613, Product AS tab_188612, PRODUCTTYPEPRODUCT AS tab_188614, Offer AS tab_188615  
WHERE tab_188614.producttype = 768 AND tab_188614.product = tab_188613.nr AND tab_188612.producer = tab_188613.producer AND tab_188612.nr = tab_188613.nr AND tab_188612.producer = tab_188615.producer AND tab_188612.nr = tab_188615.product
4392", color = yellow] ; 
225 -> 226 ; 
227 [label="FunctionCallBindAccess
(<http://www4.wiwiss.fu-berlin.de/bizer/bsbm/v01/instances/dataFromVendor{2}/Offer{1}>, \"{0}\")", color = yellow] ; 
225 -> 227 ; 
228 [label="FunctionCallBindAccess
AddConstant{1=(\"<http://www4.wiwiss.fu-berlin.de/bizer/bsbm/v01/vocabulary/productPropertyTextual>\")}", color = yellow] ; 
224 -> 228 ; 
230 [label="BindAccessEval", color = yellow] ; 
1 -> 230 ; 
231 [label="BindAccessEval", color = yellow] ; 
230 -> 231 ; 
232 [label="SQLQuery
SELECT tab_188618.propertyTex5, tab_188619.nr, tab_188619.vendor 
FROM PRODUCT AS tab_188620, Product AS tab_188618, Offer AS tab_188619, PRODUCTTYPEPRODUCT AS tab_188621  
WHERE tab_188618.producer = tab_188619.producer AND tab_188618.nr = tab_188619.product AND tab_188621.producttype = 768 AND tab_188621.product = tab_188620.nr AND tab_188618.producer = tab_188620.producer AND tab_188618.nr = tab_188620.nr
4392", color = yellow] ; 
231 -> 232 ; 
233 [label="FunctionCallBindAccess
(<http://www4.wiwiss.fu-berlin.de/bizer/bsbm/v01/instances/dataFromVendor{2}/Offer{1}>, \"{0}\")", color = yellow] ; 
231 -> 233 ; 
234 [label="FunctionCallBindAccess
AddConstant{1=(\"<http://www4.wiwiss.fu-berlin.de/bizer/bsbm/v01/vocabulary/productPropertyTextual>\")}", color = yellow] ; 
230 -> 234 ; 
236 [label="BindAccessEval", color = yellow] ; 
1 -> 236 ; 
237 [label="BindAccessEval", color = yellow] ; 
236 -> 237 ; 
238 [label="SQLQuery
SELECT tab_188624.propertyTex1, tab_188625.nr, tab_188625.vendor 
FROM PRODUCTTYPEPRODUCT AS tab_188627, Product AS tab_188624, Offer AS tab_188625, PRODUCT AS tab_188626  
WHERE tab_188624.producer = tab_188625.producer AND tab_188624.nr = tab_188625.product AND tab_188627.producttype = 769 AND tab_188627.product = tab_188626.nr AND tab_188624.producer = tab_188626.producer AND tab_188624.nr = tab_188626.nr
3885", color = yellow] ; 
237 -> 238 ; 
239 [label="FunctionCallBindAccess
(<http://www4.wiwiss.fu-berlin.de/bizer/bsbm/v01/instances/dataFromVendor{2}/Offer{1}>, \"{0}\")", color = yellow] ; 
237 -> 239 ; 
240 [label="FunctionCallBindAccess
AddConstant{1=(\"<http://www4.wiwiss.fu-berlin.de/bizer/bsbm/v01/vocabulary/productPropertyTextual>\")}", color = yellow] ; 
236 -> 240 ; 
242 [label="BindAccessEval", color = yellow] ; 
1 -> 242 ; 
243 [label="BindAccessEval", color = yellow] ; 
242 -> 243 ; 
244 [label="SQLQuery
SELECT tab_188632.propertyTex2, tab_188634.nr, tab_188634.vendor 
FROM PRODUCT AS tab_188633, Offer AS tab_188634, PRODUCTTYPEPRODUCT AS tab_188631, Product AS tab_188632  
WHERE tab_188631.producttype = 769 AND tab_188631.product = tab_188633.nr AND tab_188633.producer = tab_188632.producer AND tab_188633.nr = tab_188632.nr AND tab_188633.producer = tab_188634.producer AND tab_188633.nr = tab_188634.product
3885", color = yellow] ; 
243 -> 244 ; 
245 [label="FunctionCallBindAccess
(<http://www4.wiwiss.fu-berlin.de/bizer/bsbm/v01/instances/dataFromVendor{2}/Offer{1}>, \"{0}\")", color = yellow] ; 
243 -> 245 ; 
246 [label="FunctionCallBindAccess
AddConstant{1=(\"<http://www4.wiwiss.fu-berlin.de/bizer/bsbm/v01/vocabulary/productPropertyTextual>\")}", color = yellow] ; 
242 -> 246 ; 
248 [label="BindAccessEval", color = yellow] ; 
1 -> 248 ; 
249 [label="BindAccessEval", color = yellow] ; 
248 -> 249 ; 
250 [label="SQLQuery
SELECT tab_188637.propertyTex5, tab_188638.nr, tab_188638.vendor 
FROM PRODUCTTYPEPRODUCT AS tab_188640, Product AS tab_188637, Offer AS tab_188638, PRODUCT AS tab_188639  
WHERE tab_188637.producer = tab_188638.producer AND tab_188637.nr = tab_188638.product AND tab_188640.producttype = 769 AND tab_188640.product = tab_188639.nr AND tab_188637.producer = tab_188639.producer AND tab_188637.nr = tab_188639.nr
3885", color = yellow] ; 
249 -> 250 ; 
251 [label="FunctionCallBindAccess
(<http://www4.wiwiss.fu-berlin.de/bizer/bsbm/v01/instances/dataFromVendor{2}/Offer{1}>, \"{0}\")", color = yellow] ; 
249 -> 251 ; 
252 [label="FunctionCallBindAccess
AddConstant{1=(\"<http://www4.wiwiss.fu-berlin.de/bizer/bsbm/v01/vocabulary/productPropertyTextual>\")}", color = yellow] ; 
248 -> 252 ; 
}
