<?xml version="1.0" encoding="UTF-8" standalone="no"?>
<!DOCTYPE svg PUBLIC "-//W3C//DTD SVG 1.1//EN"
 "http://www.w3.org/Graphics/SVG/1.1/DTD/svg11.dtd">
<!-- Generated by graphviz version 2.40.1 (20161225.0304)
 -->
<!-- Title: g Pages: 1 -->
<svg width="2848pt" height="186pt"
 viewBox="0.00 0.00 2848.00 186.00" xmlns="http://www.w3.org/2000/svg" xmlns:xlink="http://www.w3.org/1999/xlink">
<g id="graph0" class="graph" transform="scale(1 1) rotate(0) translate(4 182)">
<title>g</title>
<polygon fill="#ffffff" stroke="transparent" points="-4,4 -4,-182 2844,-182 2844,4 -4,4"/>
<text text-anchor="middle" x="1420" y="-7.8" font-family="Times,serif" font-size="14.00" fill="#000000">21:48:45.113</text>
<!-- 0 -->
<g id="node1" class="node">
<title>0</title>
<polygon fill="none" stroke="#ffff00" stroke-width="2" points="1113,-178 1007,-178 1007,-142 1113,-142 1113,-178"/>
<text text-anchor="middle" x="1060" y="-156.3" font-family="Times,serif" font-size="14.00" fill="#000000">BindAccessEval</text>
</g>
<!-- 1 -->
<g id="node2" class="node">
<title>1</title>
<polygon fill="none" stroke="#ffff00" stroke-width="2" points="692,-106 0,-106 0,-23 692,-23 692,-106"/>
<text text-anchor="middle" x="346" y="-90.8" font-family="Times,serif" font-size="14.00" fill="#000000">SQLQuery</text>
<text text-anchor="middle" x="346" y="-75.8" font-family="Times,serif" font-size="14.00" fill="#000000">SELECT DISTINCT tab_217670.nr, tab_217670.product, tab_217670.producer, tab_217670.vendor, tab_217671.producer </text>
<text text-anchor="middle" x="346" y="-60.8" font-family="Times,serif" font-size="14.00" fill="#000000">FROM Offer AS tab_217670, Product AS tab_217671 </text>
<text text-anchor="middle" x="346" y="-45.8" font-family="Times,serif" font-size="14.00" fill="#000000">WHERE tab_217670.producer = tab_217671.producer AND tab_217670.product = tab_217671.nr</text>
<text text-anchor="middle" x="346" y="-30.8" font-family="Times,serif" font-size="14.00" fill="#000000">3000000</text>
</g>
<!-- 0&#45;&gt;1 -->
<g id="edge1" class="edge">
<title>0&#45;&gt;1</title>
<path fill="none" stroke="#000000" d="M1006.9173,-152.9C933.9994,-143.147 797.0042,-124.8234 666.5652,-107.3767"/>
<polygon fill="#000000" stroke="#000000" points="666.7609,-103.8718 656.3852,-106.0151 665.8329,-110.81 666.7609,-103.8718"/>
</g>
<!-- 2 -->
<g id="node3" class="node">
<title>2</title>
<polygon fill="none" stroke="#ffff00" stroke-width="2" points="2840,-83.5 710,-83.5 710,-45.5 2840,-45.5 2840,-83.5"/>
<text text-anchor="middle" x="1775" y="-68.3" font-family="Times,serif" font-size="14.00" fill="#000000">FunctionCallBindAccess</text>
<text text-anchor="middle" x="1775" y="-53.3" font-family="Times,serif" font-size="14.00" fill="#000000">(&lt;http://www4.wiwiss.fu&#45;berlin.de/bizer/bsbm/v01/instances/dataFromProducer{2}/Product{1}&gt;, &lt;http://www4.wiwiss.fu&#45;berlin.de/bizer/bsbm/v01/instances/dataFromProducer{4}/Producer{4}&gt;, &lt;http://www4.wiwiss.fu&#45;berlin.de/bizer/bsbm/v01/instances/dataFromVendor{3}/Offer{0}&gt;, &lt;http://www4.wiwiss.fu&#45;berlin.de/bizer/bsbm/v01/instances/dataFromVendor{3}/Vendor{3}&gt;)</text>
</g>
<!-- 0&#45;&gt;2 -->
<g id="edge2" class="edge">
<title>0&#45;&gt;2</title>
<path fill="none" stroke="#000000" d="M1113.1571,-152.9C1219.6696,-138.6735 1462.7124,-106.2111 1622.7555,-84.8348"/>
<polygon fill="#000000" stroke="#000000" points="1623.2483,-88.3001 1632.6969,-83.5069 1622.3215,-81.3617 1623.2483,-88.3001"/>
</g>
</g>
</svg>
