<?xml version="1.0" encoding="UTF-8" standalone="no"?>
<!DOCTYPE svg PUBLIC "-//W3C//DTD SVG 1.1//EN"
 "http://www.w3.org/Graphics/SVG/1.1/DTD/svg11.dtd">
<!-- Generated by graphviz version 2.40.1 (20161225.0304)
 -->
<!-- Title: g Pages: 1 -->
<svg width="2204pt" height="636pt"
 viewBox="0.00 0.00 2203.50 636.00" xmlns="http://www.w3.org/2000/svg" xmlns:xlink="http://www.w3.org/1999/xlink">
<g id="graph0" class="graph" transform="scale(1 1) rotate(0) translate(4 632)">
<title>g</title>
<polygon fill="#ffffff" stroke="transparent" points="-4,4 -4,-632 2199.5,-632 2199.5,4 -4,4"/>
<text text-anchor="middle" x="1097.75" y="-7.8" font-family="Times,serif" font-size="14.00" fill="#000000">21:49:21.583</text>
<!-- 0 -->
<g id="node1" class="node">
<title>0</title>
<polygon fill="none" stroke="#ffff00" stroke-width="2" points="1108,-628 1002,-628 1002,-592 1108,-592 1108,-628"/>
<text text-anchor="middle" x="1055" y="-606.3" font-family="Times,serif" font-size="14.00" fill="#000000">BindAccessEval</text>
</g>
<!-- 1 -->
<g id="node2" class="node">
<title>1</title>
<polygon fill="none" stroke="#ffff00" stroke-width="2" points="1004,-556 0,-556 0,-23 1004,-23 1004,-556"/>
<text text-anchor="middle" x="502" y="-540.8" font-family="Times,serif" font-size="14.00" fill="#000000">SQLQuery</text>
<text text-anchor="middle" x="502" y="-525.8" font-family="Times,serif" font-size="14.00" fill="#000000">SELECT tab_217872.publisher, tab_217872.nr, tab_217870.producer, tab_217870.nr, tab_217872.title, tab_217872.text </text>
<text text-anchor="middle" x="502" y="-510.8" font-family="Times,serif" font-size="14.00" fill="#000000">FROM Review AS tab_217872, PRODUCTTYPEPRODUCT AS tab_217871, PRODUCT AS tab_217870 </text>
<text text-anchor="middle" x="502" y="-495.8" font-family="Times,serif" font-size="14.00" fill="#000000">WHERE tab_217871.producttype = 806 AND tab_217871.product = tab_217870.nr AND tab_217870.producer = tab_217872.producer AND tab_217870.nr = tab_217872.product </text>
<text text-anchor="middle" x="502" y="-480.8" font-family="Times,serif" font-size="14.00" fill="#000000">UNION</text>
<text text-anchor="middle" x="502" y="-465.8" font-family="Times,serif" font-size="14.00" fill="#000000">SELECT tab_217747.publisher, tab_217747.nr, tab_217747.producer, tab_217747.product, tab_217747.title, tab_217747.text </text>
<text text-anchor="middle" x="502" y="-450.8" font-family="Times,serif" font-size="14.00" fill="#000000">FROM PRODUCTTYPEPRODUCT AS tab_217749, PRODUCT AS tab_217748, Review AS tab_217747 </text>
<text text-anchor="middle" x="502" y="-435.8" font-family="Times,serif" font-size="14.00" fill="#000000">WHERE tab_217749.producttype = 742 AND tab_217749.product = tab_217748.nr AND tab_217747.producer = tab_217748.producer AND tab_217747.product = tab_217748.nr </text>
<text text-anchor="middle" x="502" y="-420.8" font-family="Times,serif" font-size="14.00" fill="#000000">UNION</text>
<text text-anchor="middle" x="502" y="-405.8" font-family="Times,serif" font-size="14.00" fill="#000000">SELECT tab_217974.publisher, tab_217974.nr, tab_217972.producer, tab_217972.nr, tab_217974.title, tab_217974.text </text>
<text text-anchor="middle" x="502" y="-390.8" font-family="Times,serif" font-size="14.00" fill="#000000">FROM Review AS tab_217974, PRODUCTTYPEPRODUCT AS tab_217973, PRODUCT AS tab_217972 </text>
<text text-anchor="middle" x="502" y="-375.8" font-family="Times,serif" font-size="14.00" fill="#000000">WHERE tab_217973.producttype = 790 AND tab_217973.product = tab_217972.nr AND tab_217972.producer = tab_217974.producer AND tab_217972.nr = tab_217974.product </text>
<text text-anchor="middle" x="502" y="-360.8" font-family="Times,serif" font-size="14.00" fill="#000000">UNION</text>
<text text-anchor="middle" x="502" y="-345.8" font-family="Times,serif" font-size="14.00" fill="#000000">SELECT tab_218004.publisher, tab_218004.nr, tab_218002.producer, tab_218002.nr, tab_218004.title, tab_218004.text </text>
<text text-anchor="middle" x="502" y="-330.8" font-family="Times,serif" font-size="14.00" fill="#000000">FROM Review AS tab_218004, PRODUCTTYPEPRODUCT AS tab_218003, PRODUCT AS tab_218002 </text>
<text text-anchor="middle" x="502" y="-315.8" font-family="Times,serif" font-size="14.00" fill="#000000">WHERE tab_218003.producttype = 785 AND tab_218003.product = tab_218002.nr AND tab_218002.producer = tab_218004.producer AND tab_218002.nr = tab_218004.product </text>
<text text-anchor="middle" x="502" y="-300.8" font-family="Times,serif" font-size="14.00" fill="#000000">UNION</text>
<text text-anchor="middle" x="502" y="-285.8" font-family="Times,serif" font-size="14.00" fill="#000000">SELECT tab_217990.publisher, tab_217990.nr, tab_217990.producer, tab_217990.product, tab_217990.title, tab_217990.text </text>
<text text-anchor="middle" x="502" y="-270.8" font-family="Times,serif" font-size="14.00" fill="#000000">FROM Review AS tab_217990, PRODUCTTYPEPRODUCT AS tab_217992, PRODUCT AS tab_217991 </text>
<text text-anchor="middle" x="502" y="-255.8" font-family="Times,serif" font-size="14.00" fill="#000000">WHERE tab_217992.producttype = 789 AND tab_217992.product = tab_217991.nr AND tab_217990.producer = tab_217991.producer AND tab_217990.product = tab_217991.nr </text>
<text text-anchor="middle" x="502" y="-240.8" font-family="Times,serif" font-size="14.00" fill="#000000">UNION</text>
<text text-anchor="middle" x="502" y="-225.8" font-family="Times,serif" font-size="14.00" fill="#000000">SELECT tab_217804.publisher, tab_217804.nr, tab_217804.producer, tab_217804.product, tab_217804.title, tab_217804.text </text>
<text text-anchor="middle" x="502" y="-210.8" font-family="Times,serif" font-size="14.00" fill="#000000">FROM PRODUCT AS tab_217805, PRODUCTTYPEPRODUCT AS tab_217806, Review AS tab_217804 </text>
<text text-anchor="middle" x="502" y="-195.8" font-family="Times,serif" font-size="14.00" fill="#000000">WHERE tab_217806.producttype = 798 AND tab_217806.product = tab_217805.nr AND tab_217804.producer = tab_217805.producer AND tab_217804.product = tab_217805.nr </text>
<text text-anchor="middle" x="502" y="-180.8" font-family="Times,serif" font-size="14.00" fill="#000000">UNION</text>
<text text-anchor="middle" x="502" y="-165.8" font-family="Times,serif" font-size="14.00" fill="#000000">SELECT tab_217720.publisher, tab_217720.nr, tab_217720.producer, tab_217720.product, tab_217720.title, tab_217720.text </text>
<text text-anchor="middle" x="502" y="-150.8" font-family="Times,serif" font-size="14.00" fill="#000000">FROM Review AS tab_217720, PRODUCT AS tab_217721, PRODUCTTYPEPRODUCT AS tab_217722 </text>
<text text-anchor="middle" x="502" y="-135.8" font-family="Times,serif" font-size="14.00" fill="#000000">WHERE tab_217722.producttype = 746 AND tab_217722.product = tab_217721.nr AND tab_217720.producer = tab_217721.producer AND tab_217720.product = tab_217721.nr </text>
<text text-anchor="middle" x="502" y="-120.8" font-family="Times,serif" font-size="14.00" fill="#000000">UNION</text>
<text text-anchor="middle" x="502" y="-105.8" font-family="Times,serif" font-size="14.00" fill="#000000">SELECT tab_217894.publisher, tab_217894.nr, tab_217894.producer, tab_217894.product, tab_217894.title, tab_217894.text </text>
<text text-anchor="middle" x="502" y="-90.8" font-family="Times,serif" font-size="14.00" fill="#000000">FROM Review AS tab_217894, PRODUCTTYPEPRODUCT AS tab_217896, PRODUCT AS tab_217895 </text>
<text text-anchor="middle" x="502" y="-75.8" font-family="Times,serif" font-size="14.00" fill="#000000">WHERE tab_217896.producttype = 757 AND tab_217896.product = tab_217895.nr AND tab_217894.producer = tab_217895.producer AND tab_217894.product = tab_217895.nr </text>
<text text-anchor="middle" x="502" y="-60.8" font-family="Times,serif" font-size="14.00" fill="#000000">UNION</text>
<text text-anchor="middle" x="502" y="-45.8" font-family="Times,serif" font-size="14.00" fill="#000000">SELECT tab_217851.publisher, tab_217851.nr, tab_217849.... (127 UNIONs)</text>
<text text-anchor="middle" x="502" y="-30.8" font-family="Times,serif" font-size="14.00" fill="#000000">249004</text>
</g>
<!-- 0&#45;&gt;1 -->
<g id="edge1" class="edge">
<title>0&#45;&gt;1</title>
<path fill="none" stroke="#000000" d="M1023.6839,-591.8502C1009.7272,-583.7614 991.6752,-573.2991 970.7039,-561.1448"/>
<polygon fill="#000000" stroke="#000000" points="972.2795,-558.0127 961.8725,-556.0265 968.7694,-564.0691 972.2795,-558.0127"/>
</g>
<!-- 2 -->
<g id="node3" class="node">
<title>2</title>
<polygon fill="none" stroke="#ffff00" stroke-width="2" points="2195.5,-308.5 1022.5,-308.5 1022.5,-270.5 2195.5,-270.5 2195.5,-308.5"/>
<text text-anchor="middle" x="1609" y="-293.3" font-family="Times,serif" font-size="14.00" fill="#000000">FunctionCallBindAccess</text>
<text text-anchor="middle" x="1609" y="-278.3" font-family="Times,serif" font-size="14.00" fill="#000000">(&lt;http://www4.wiwiss.fu&#45;berlin.de/bizer/bsbm/v01/instances/dataFromRatingSite{0}/Review{1}&gt;, &lt;http://www4.wiwiss.fu&#45;berlin.de/bizer/bsbm/v01/instances/dataFromProducer{2}/Product{3}&gt;, &quot;{4}&quot;, &quot;{5}&quot;)</text>
</g>
<!-- 0&#45;&gt;2 -->
<g id="edge2" class="edge">
<title>0&#45;&gt;2</title>
<path fill="none" stroke="#000000" d="M1086.3728,-591.8502C1180.4541,-537.4223 1460.2887,-375.5324 1567.0102,-313.7919"/>
<polygon fill="#000000" stroke="#000000" points="1568.9884,-316.6911 1575.8916,-308.6539 1565.483,-310.632 1568.9884,-316.6911"/>
</g>
</g>
</svg>
