digraph  g{ graph[label = "21:49:21.583"]
node [shape=rectangle, color=black, fontcolor=black, style=bold] edge [color=black] 0 [label="BindAccessEval", color = yellow] ; 
1 [label="SQLQuery
SELECT tab_217872.publisher, tab_217872.nr, tab_217870.producer, tab_217870.nr, tab_217872.title, tab_217872.text 
FROM Review AS tab_217872, PRODUCTTYPEPRODUCT AS tab_217871, PRODUCT AS tab_217870 
WHERE tab_217871.producttype = 806 AND tab_217871.product = tab_217870.nr AND tab_217870.producer = tab_217872.producer AND tab_217870.nr = tab_217872.product 
UNION
SELECT tab_217747.publisher, tab_217747.nr, tab_217747.producer, tab_217747.product, tab_217747.title, tab_217747.text 
FROM PRODUCTTYPEPRODUCT AS tab_217749, PRODUCT AS tab_217748, Review AS tab_217747 
WHERE tab_217749.producttype = 742 AND tab_217749.product = tab_217748.nr AND tab_217747.producer = tab_217748.producer AND tab_217747.product = tab_217748.nr 
UNION
SELECT tab_217974.publisher, tab_217974.nr, tab_217972.producer, tab_217972.nr, tab_217974.title, tab_217974.text 
FROM Review AS tab_217974, PRODUCTTYPEPRODUCT AS tab_217973, PRODUCT AS tab_217972 
WHERE tab_217973.producttype = 790 AND tab_217973.product = tab_217972.nr AND tab_217972.producer = tab_217974.producer AND tab_217972.nr = tab_217974.product 
UNION
SELECT tab_218004.publisher, tab_218004.nr, tab_218002.producer, tab_218002.nr, tab_218004.title, tab_218004.text 
FROM Review AS tab_218004, PRODUCTTYPEPRODUCT AS tab_218003, PRODUCT AS tab_218002 
WHERE tab_218003.producttype = 785 AND tab_218003.product = tab_218002.nr AND tab_218002.producer = tab_218004.producer AND tab_218002.nr = tab_218004.product 
UNION
SELECT tab_217990.publisher, tab_217990.nr, tab_217990.producer, tab_217990.product, tab_217990.title, tab_217990.text 
FROM Review AS tab_217990, PRODUCTTYPEPRODUCT AS tab_217992, PRODUCT AS tab_217991 
WHERE tab_217992.producttype = 789 AND tab_217992.product = tab_217991.nr AND tab_217990.producer = tab_217991.producer AND tab_217990.product = tab_217991.nr 
UNION
SELECT tab_217804.publisher, tab_217804.nr, tab_217804.producer, tab_217804.product, tab_217804.title, tab_217804.text 
FROM PRODUCT AS tab_217805, PRODUCTTYPEPRODUCT AS tab_217806, Review AS tab_217804 
WHERE tab_217806.producttype = 798 AND tab_217806.product = tab_217805.nr AND tab_217804.producer = tab_217805.producer AND tab_217804.product = tab_217805.nr 
UNION
SELECT tab_217720.publisher, tab_217720.nr, tab_217720.producer, tab_217720.product, tab_217720.title, tab_217720.text 
FROM Review AS tab_217720, PRODUCT AS tab_217721, PRODUCTTYPEPRODUCT AS tab_217722 
WHERE tab_217722.producttype = 746 AND tab_217722.product = tab_217721.nr AND tab_217720.producer = tab_217721.producer AND tab_217720.product = tab_217721.nr 
UNION
SELECT tab_217894.publisher, tab_217894.nr, tab_217894.producer, tab_217894.product, tab_217894.title, tab_217894.text 
FROM Review AS tab_217894, PRODUCTTYPEPRODUCT AS tab_217896, PRODUCT AS tab_217895 
WHERE tab_217896.producttype = 757 AND tab_217896.product = tab_217895.nr AND tab_217894.producer = tab_217895.producer AND tab_217894.product = tab_217895.nr 
UNION
SELECT tab_217851.publisher, tab_217851.nr, tab_217849.... (127 UNIONs)
249004", color = yellow] ; 
0 -> 1 ; 
2 [label="FunctionCallBindAccess
(<http://www4.wiwiss.fu-berlin.de/bizer/bsbm/v01/instances/dataFromRatingSite{0}/Review{1}>, <http://www4.wiwiss.fu-berlin.de/bizer/bsbm/v01/instances/dataFromProducer{2}/Product{3}>, \"{4}\", \"{5}\")", color = yellow] ; 
0 -> 2 ; 
}
