<?xml version="1.0" encoding="UTF-8" standalone="no"?>
<!DOCTYPE svg PUBLIC "-//W3C//DTD SVG 1.1//EN"
 "http://www.w3.org/Graphics/SVG/1.1/DTD/svg11.dtd">
<!-- Generated by graphviz version 2.40.1 (20161225.0304)
 -->
<!-- Title: g Pages: 1 -->
<svg width="2438pt" height="186pt"
 viewBox="0.00 0.00 2438.00 186.00" xmlns="http://www.w3.org/2000/svg" xmlns:xlink="http://www.w3.org/1999/xlink">
<g id="graph0" class="graph" transform="scale(1 1) rotate(0) translate(4 182)">
<title>g</title>
<polygon fill="#ffffff" stroke="transparent" points="-4,4 -4,-182 2434,-182 2434,4 -4,4"/>
<text text-anchor="middle" x="1215" y="-7.8" font-family="Times,serif" font-size="14.00" fill="#000000">21:49:59.96</text>
<!-- 0 -->
<g id="node1" class="node">
<title>0</title>
<polygon fill="none" stroke="#ffff00" stroke-width="2" points="1036.5,-178 930.5,-178 930.5,-142 1036.5,-142 1036.5,-178"/>
<text text-anchor="middle" x="983.5" y="-156.3" font-family="Times,serif" font-size="14.00" fill="#000000">BindAccessEval</text>
</g>
<!-- 1 -->
<g id="node2" class="node">
<title>1</title>
<polygon fill="none" stroke="#ffff00" stroke-width="2" points="743,-106 0,-106 0,-23 743,-23 743,-106"/>
<text text-anchor="middle" x="371.5" y="-90.8" font-family="Times,serif" font-size="14.00" fill="#000000">SQLQuery</text>
<text text-anchor="middle" x="371.5" y="-75.8" font-family="Times,serif" font-size="14.00" fill="#000000">SELECT DISTINCT tab_218062.nr, tab_218062.label, tab_218062.producer, tab_218063.nr, tab_218063.vendor, tab_218063.price </text>
<text text-anchor="middle" x="371.5" y="-60.8" font-family="Times,serif" font-size="14.00" fill="#000000">FROM Offer AS tab_218063, Product AS tab_218062 </text>
<text text-anchor="middle" x="371.5" y="-45.8" font-family="Times,serif" font-size="14.00" fill="#000000">WHERE tab_218062.producer = tab_218063.producer AND tab_218062.nr = tab_218063.product</text>
<text text-anchor="middle" x="371.5" y="-30.8" font-family="Times,serif" font-size="14.00" fill="#000000">3000000</text>
</g>
<!-- 0&#45;&gt;1 -->
<g id="edge1" class="edge">
<title>0&#45;&gt;1</title>
<path fill="none" stroke="#000000" d="M930.2596,-151.6921C866.3847,-141.7247 754.4832,-124.2629 647.5161,-107.5711"/>
<polygon fill="#000000" stroke="#000000" points="647.9341,-104.0941 637.514,-106.0104 646.8548,-111.0104 647.9341,-104.0941"/>
</g>
<!-- 2 -->
<g id="node3" class="node">
<title>2</title>
<polygon fill="none" stroke="#ffff00" stroke-width="2" points="2430,-83.5 761,-83.5 761,-45.5 2430,-45.5 2430,-83.5"/>
<text text-anchor="middle" x="1595.5" y="-68.3" font-family="Times,serif" font-size="14.00" fill="#000000">FunctionCallBindAccess</text>
<text text-anchor="middle" x="1595.5" y="-53.3" font-family="Times,serif" font-size="14.00" fill="#000000">(&lt;http://www4.wiwiss.fu&#45;berlin.de/bizer/bsbm/v01/instances/dataFromVendor{4}/Offer{3}&gt;, &lt;http://www4.wiwiss.fu&#45;berlin.de/bizer/bsbm/v01/instances/dataFromProducer{2}/Product{0}&gt;, &quot;{1}&quot;, &lt;http://www4.wiwiss.fu&#45;berlin.de/bizer/bsbm/v01/instances/dataFromVendor{4}/Vendor{4}&gt;, &quot;{5}&quot;)</text>
</g>
<!-- 0&#45;&gt;2 -->
<g id="edge2" class="edge">
<title>0&#45;&gt;2</title>
<path fill="none" stroke="#000000" d="M1036.7404,-151.6921C1131.0511,-136.9753 1330.0614,-105.9206 1463.3004,-85.1292"/>
<polygon fill="#000000" stroke="#000000" points="1464.2362,-88.5256 1473.577,-83.5256 1463.1569,-81.6093 1464.2362,-88.5256"/>
</g>
</g>
</svg>
