digraph  g{ graph[label = "21:52:46.265"]
node [shape=rectangle, color=black, fontcolor=black, style=bold] edge [color=black] 0 [label="BindAccessEval", color = yellow] ; 
1 [label="SQLQuery
SELECT tab_266634.vendor, tab_266634.nr, tab_266634.offerWebpage, tab_266634.price, tab_266634.deliveryDays, tab_266636.propertyNum2 
FROM PRODUCTTYPEPRODUCT AS tab_266638, Product AS tab_266635, Product AS tab_266636, Producer AS tab_266633, Offer AS tab_266634, PRODUCT AS tab_266637, CountryType AS tab_266639 
WHERE tab_266635.producer = tab_266633.nr AND tab_266638.producttype = 762 AND tab_266638.product = tab_266637.nr AND tab_266635.producer = tab_266637.producer AND tab_266635.nr = tab_266637.nr AND tab_266635.producer = tab_266636.producer AND tab_266635.nr = tab_266636.nr AND tab_266635.producer = tab_266634.producer AND tab_266635.nr = tab_266634.product AND tab_266639.countryType = 221 AND tab_266633.country = tab_266639.country 
UNION
SELECT tab_241533.vendor, tab_241533.nr, tab_241536.offerWebpage, tab_241536.price, tab_241536.deliveryDays, tab_241535.propertyNum4 
FROM PRODUCTTYPEPRODUCT AS tab_241537, Product AS tab_241535, CountryType AS tab_241538, Offer AS tab_241533, Producer AS tab_241534, Offer AS tab_241536 
WHERE tab_241535.nr = tab_241533.product AND tab_241534.nr = tab_241535.producer AND tab_241535.nr = tab_241537.product AND tab_241537.producttype = 839 AND tab_241533.vendor = tab_241536.vendor AND tab_241533.nr = tab_241536.nr AND tab_241538.countryType = 222 AND tab_241534.country = tab_241538.country 
UNION
SELECT tab_247913.vendor, tab_247913.nr, tab_247917.offerWebpage, tab_247917.price, tab_247917.deliveryDays, tab_247915.propertyNum3 
FROM CountryType AS tab_247918, Offer AS tab_247913, PRODUCTTYPEPRODUCT AS tab_247916, Offer AS tab_247917, Producer AS tab_247914, Product AS tab_247915 
WHERE tab_247915.nr = tab_247913.product AND tab_247914.nr = tab_247915.producer AND tab_247915.nr = tab_247916.product AND tab_247916.producttype = 791 AND tab_247913.vendor = tab_247917.vendor AND tab_247913.nr = tab_247917.nr AND tab_247918.countryType = 211 AND tab_247914.country = tab_247918.country 
UNION
SELECT tab_245769.vendor, tab_245769.nr, tab_245772.offerWebpage, tab_245772.price, tab_245772.deliveryDays, tab_245770.propertyNum3 
FROM Offer AS tab_245772, PRODUCTTYPEPRODUCT AS tab_245771, Offer AS tab_245769, CountryType AS tab_245773, Product AS tab_245770, Producer AS tab_245768 
WHERE tab_245770.nr = tab_245769.product AND tab_245768.nr = tab_245770.producer AND tab_245770.nr = tab_245771.product AND tab_245771.producttype = 843 AND tab_245769.vendor = tab_245772.vendor AND tab_245769.nr = tab_245772.nr AND tab_245773.countryType = 211 AND tab_245768.country = tab_245773.country 
UNION
SELECT tab_242919.vendor, tab_242919.nr, tab_242922.offerWebpage, tab_242922.price, tab_242922.deliveryDays, tab_242923.propertyNum4 
FROM CountryType AS tab_242924, Offer AS tab_242919, Producer AS tab_242920, Offer AS tab_242922, PRODUCTTYPEPRODUCT AS tab_242921, Product AS tab_242923 
WHERE tab_242923.nr = tab_242919.product AND tab_242920.nr = tab_242923.producer AND tab_242923.nr = tab_242921.product AND tab_242921.producttype =... (2047 UNIONs)
595104", color = yellow] ; 
0 -> 1 ; 
2 [label="FunctionCallBindAccess
(<http://www4.wiwiss.fu-berlin.de/bizer/bsbm/v01/instances/dataFromVendor{0}/Offer{1}>, <{2}>, \"{3}\", \"{4}\", \"{5}\")", color = yellow] ; 
0 -> 2 ; 
}
