<?xml version="1.0" encoding="UTF-8" standalone="no"?>
<!DOCTYPE svg PUBLIC "-//W3C//DTD SVG 1.1//EN"
 "http://www.w3.org/Graphics/SVG/1.1/DTD/svg11.dtd">
<!-- Generated by graphviz version 2.40.1 (20161225.0304)
 -->
<!-- Title: g Pages: 1 -->
<svg width="3438pt" height="426pt"
 viewBox="0.00 0.00 3438.00 426.00" xmlns="http://www.w3.org/2000/svg" xmlns:xlink="http://www.w3.org/1999/xlink">
<g id="graph0" class="graph" transform="scale(1 1) rotate(0) translate(4 422)">
<title>g</title>
<polygon fill="#ffffff" stroke="transparent" points="-4,4 -4,-422 3434,-422 3434,4 -4,4"/>
<text text-anchor="middle" x="1715" y="-7.8" font-family="Times,serif" font-size="14.00" fill="#000000">21:52:46.265</text>
<!-- 0 -->
<g id="node1" class="node">
<title>0</title>
<polygon fill="none" stroke="#ffff00" stroke-width="2" points="2273.5,-418 2167.5,-418 2167.5,-382 2273.5,-382 2273.5,-418"/>
<text text-anchor="middle" x="2220.5" y="-396.3" font-family="Times,serif" font-size="14.00" fill="#000000">BindAccessEval</text>
</g>
<!-- 1 -->
<g id="node2" class="node">
<title>1</title>
<polygon fill="none" stroke="#ffff00" stroke-width="2" points="2717,-346 0,-346 0,-23 2717,-23 2717,-346"/>
<text text-anchor="middle" x="1358.5" y="-330.8" font-family="Times,serif" font-size="14.00" fill="#000000">SQLQuery</text>
<text text-anchor="middle" x="1358.5" y="-315.8" font-family="Times,serif" font-size="14.00" fill="#000000">SELECT tab_266634.vendor, tab_266634.nr, tab_266634.offerWebpage, tab_266634.price, tab_266634.deliveryDays, tab_266636.propertyNum2 </text>
<text text-anchor="middle" x="1358.5" y="-300.8" font-family="Times,serif" font-size="14.00" fill="#000000">FROM PRODUCTTYPEPRODUCT AS tab_266638, Product AS tab_266635, Product AS tab_266636, Producer AS tab_266633, Offer AS tab_266634, PRODUCT AS tab_266637, CountryType AS tab_266639 </text>
<text text-anchor="middle" x="1358.5" y="-285.8" font-family="Times,serif" font-size="14.00" fill="#000000">WHERE tab_266635.producer = tab_266633.nr AND tab_266638.producttype = 762 AND tab_266638.product = tab_266637.nr AND tab_266635.producer = tab_266637.producer AND tab_266635.nr = tab_266637.nr AND tab_266635.producer = tab_266636.producer AND tab_266635.nr = tab_266636.nr AND tab_266635.producer = tab_266634.producer AND tab_266635.nr = tab_266634.product AND tab_266639.countryType = 221 AND tab_266633.country = tab_266639.country </text>
<text text-anchor="middle" x="1358.5" y="-270.8" font-family="Times,serif" font-size="14.00" fill="#000000">UNION</text>
<text text-anchor="middle" x="1358.5" y="-255.8" font-family="Times,serif" font-size="14.00" fill="#000000">SELECT tab_241533.vendor, tab_241533.nr, tab_241536.offerWebpage, tab_241536.price, tab_241536.deliveryDays, tab_241535.propertyNum4 </text>
<text text-anchor="middle" x="1358.5" y="-240.8" font-family="Times,serif" font-size="14.00" fill="#000000">FROM PRODUCTTYPEPRODUCT AS tab_241537, Product AS tab_241535, CountryType AS tab_241538, Offer AS tab_241533, Producer AS tab_241534, Offer AS tab_241536 </text>
<text text-anchor="middle" x="1358.5" y="-225.8" font-family="Times,serif" font-size="14.00" fill="#000000">WHERE tab_241535.nr = tab_241533.product AND tab_241534.nr = tab_241535.producer AND tab_241535.nr = tab_241537.product AND tab_241537.producttype = 839 AND tab_241533.vendor = tab_241536.vendor AND tab_241533.nr = tab_241536.nr AND tab_241538.countryType = 222 AND tab_241534.country = tab_241538.country </text>
<text text-anchor="middle" x="1358.5" y="-210.8" font-family="Times,serif" font-size="14.00" fill="#000000">UNION</text>
<text text-anchor="middle" x="1358.5" y="-195.8" font-family="Times,serif" font-size="14.00" fill="#000000">SELECT tab_247913.vendor, tab_247913.nr, tab_247917.offerWebpage, tab_247917.price, tab_247917.deliveryDays, tab_247915.propertyNum3 </text>
<text text-anchor="middle" x="1358.5" y="-180.8" font-family="Times,serif" font-size="14.00" fill="#000000">FROM CountryType AS tab_247918, Offer AS tab_247913, PRODUCTTYPEPRODUCT AS tab_247916, Offer AS tab_247917, Producer AS tab_247914, Product AS tab_247915 </text>
<text text-anchor="middle" x="1358.5" y="-165.8" font-family="Times,serif" font-size="14.00" fill="#000000">WHERE tab_247915.nr = tab_247913.product AND tab_247914.nr = tab_247915.producer AND tab_247915.nr = tab_247916.product AND tab_247916.producttype = 791 AND tab_247913.vendor = tab_247917.vendor AND tab_247913.nr = tab_247917.nr AND tab_247918.countryType = 211 AND tab_247914.country = tab_247918.country </text>
<text text-anchor="middle" x="1358.5" y="-150.8" font-family="Times,serif" font-size="14.00" fill="#000000">UNION</text>
<text text-anchor="middle" x="1358.5" y="-135.8" font-family="Times,serif" font-size="14.00" fill="#000000">SELECT tab_245769.vendor, tab_245769.nr, tab_245772.offerWebpage, tab_245772.price, tab_245772.deliveryDays, tab_245770.propertyNum3 </text>
<text text-anchor="middle" x="1358.5" y="-120.8" font-family="Times,serif" font-size="14.00" fill="#000000">FROM Offer AS tab_245772, PRODUCTTYPEPRODUCT AS tab_245771, Offer AS tab_245769, CountryType AS tab_245773, Product AS tab_245770, Producer AS tab_245768 </text>
<text text-anchor="middle" x="1358.5" y="-105.8" font-family="Times,serif" font-size="14.00" fill="#000000">WHERE tab_245770.nr = tab_245769.product AND tab_245768.nr = tab_245770.producer AND tab_245770.nr = tab_245771.product AND tab_245771.producttype = 843 AND tab_245769.vendor = tab_245772.vendor AND tab_245769.nr = tab_245772.nr AND tab_245773.countryType = 211 AND tab_245768.country = tab_245773.country </text>
<text text-anchor="middle" x="1358.5" y="-90.8" font-family="Times,serif" font-size="14.00" fill="#000000">UNION</text>
<text text-anchor="middle" x="1358.5" y="-75.8" font-family="Times,serif" font-size="14.00" fill="#000000">SELECT tab_242919.vendor, tab_242919.nr, tab_242922.offerWebpage, tab_242922.price, tab_242922.deliveryDays, tab_242923.propertyNum4 </text>
<text text-anchor="middle" x="1358.5" y="-60.8" font-family="Times,serif" font-size="14.00" fill="#000000">FROM CountryType AS tab_242924, Offer AS tab_242919, Producer AS tab_242920, Offer AS tab_242922, PRODUCTTYPEPRODUCT AS tab_242921, Product AS tab_242923 </text>
<text text-anchor="middle" x="1358.5" y="-45.8" font-family="Times,serif" font-size="14.00" fill="#000000">WHERE tab_242923.nr = tab_242919.product AND tab_242920.nr = tab_242923.producer AND tab_242923.nr = tab_242921.product AND tab_242921.producttype =... (2047 UNIONs)</text>
<text text-anchor="middle" x="1358.5" y="-30.8" font-family="Times,serif" font-size="14.00" fill="#000000">595104</text>
</g>
<!-- 0&#45;&gt;1 -->
<g id="edge1" class="edge">
<title>0&#45;&gt;1</title>
<path fill="none" stroke="#000000" d="M2167.2286,-386.6821C2130.383,-377.4707 2076.8995,-364.0999 2014.7182,-348.5546"/>
<polygon fill="#000000" stroke="#000000" points="2015.2154,-345.0712 2004.6651,-346.0413 2013.5176,-351.8622 2015.2154,-345.0712"/>
</g>
<!-- 2 -->
<g id="node3" class="node">
<title>2</title>
<polygon fill="none" stroke="#ffff00" stroke-width="2" points="3430,-203.5 2735,-203.5 2735,-165.5 3430,-165.5 3430,-203.5"/>
<text text-anchor="middle" x="3082.5" y="-188.3" font-family="Times,serif" font-size="14.00" fill="#000000">FunctionCallBindAccess</text>
<text text-anchor="middle" x="3082.5" y="-173.3" font-family="Times,serif" font-size="14.00" fill="#000000">(&lt;http://www4.wiwiss.fu&#45;berlin.de/bizer/bsbm/v01/instances/dataFromVendor{0}/Offer{1}&gt;, &lt;{2}&gt;, &quot;{3}&quot;, &quot;{4}&quot;, &quot;{5}&quot;)</text>
</g>
<!-- 0&#45;&gt;2 -->
<g id="edge2" class="edge">
<title>0&#45;&gt;2</title>
<path fill="none" stroke="#000000" d="M2273.5494,-396.4699C2385.2399,-388.6886 2641.271,-368.9197 2725.5,-346 2845.5528,-313.3322 2976.287,-244.9087 3041.1616,-208.4949"/>
<polygon fill="#000000" stroke="#000000" points="3042.8846,-211.5415 3049.8706,-203.5762 3039.4422,-205.4464 3042.8846,-211.5415"/>
</g>
</g>
</svg>
