digraph  g{ graph[label = "21:52:50.373"]
node [shape=rectangle, color=black, fontcolor=black, style=bold] edge [color=black] 0 [label="BindAccessEval", color = yellow] ; 
1 [label="SQLQuery
SELECT tab_272067.vendor, tab_272067.nr, tab_272067.offerWebpage, tab_272067.price, tab_272067.deliveryDays, tab_272058.propertyNum2 
FROM Product AS tab_272065, Product AS tab_272066, Offer AS tab_272067, Product AS tab_272058, PRODUCTTYPEPRODUCT AS tab_272059, ProductFeatureProduct AS tab_272063, PRODUCT AS tab_272064, ProductFeature AS tab_272060, CountryType AS tab_272062, Producer AS tab_272061 
WHERE tab_272065.nr = tab_272063.product AND tab_272063.productFeature = tab_272060.nr AND tab_272060.label = 'babka' AND tab_272066.producer = tab_272061.nr AND tab_272065.producer = tab_272066.producer AND tab_272065.nr = tab_272066.nr AND tab_272062.countryType = 121 AND tab_272061.country = tab_272062.country AND tab_272065.producer = tab_272058.producer AND tab_272065.nr = tab_272058.nr AND tab_272059.producttype = 793 AND tab_272059.product = tab_272064.nr AND tab_272065.producer = tab_272064.producer AND tab_272065.nr = tab_272064.nr AND tab_272065.producer = tab_272067.producer AND tab_272065.nr = tab_272067.product 
UNION
SELECT tab_272132.vendor, tab_272132.nr, tab_272132.offerWebpage, tab_272132.price, tab_272132.deliveryDays, tab_272133.propertyNum1 
FROM PRODUCTTYPEPRODUCT AS tab_272134, ProductFeatureProduct AS tab_272137, Product AS tab_272133, CountryType AS tab_272140, Product AS tab_272135, Producer AS tab_272138, Product AS tab_272136, PRODUCT AS tab_272131, Offer AS tab_272132, ProductFeature AS tab_272139 
WHERE tab_272135.nr = tab_272137.product AND tab_272137.productFeature = tab_272139.nr AND tab_272139.label = 'babka' AND tab_272134.producttype = 792 AND tab_272134.product = tab_272131.nr AND tab_272135.producer = tab_272131.producer AND tab_272135.nr = tab_272131.nr AND tab_272135.producer = tab_272132.producer AND tab_272135.nr = tab_272132.product AND tab_272135.producer = tab_272133.producer AND tab_272135.nr = tab_272133.nr AND tab_272136.producer = tab_272138.nr AND tab_272135.producer = tab_272136.producer AND tab_272135.nr = tab_272136.nr AND tab_272140.countryType = 122 AND tab_272138.country = tab_272140.country 
UNION
SELECT tab_272021.vendor, tab_272021.nr, tab_272021.offerWebpage, tab_272021.price, tab_272021.deliveryDays, tab_272026.propertyNum2 
FROM ProductFeatureProduct AS tab_272029, ProductFeature AS tab_272025, CountryType AS tab_272030, Product AS tab_272024, PRODUCTTYPEPRODUCT AS tab_272028, Product AS tab_272026, Product AS tab_272027, Producer AS tab_272022, PRODUCT AS tab_272023, Offer AS tab_272021 
WHERE tab_272026.producer = tab_272021.producer AND tab_272026.nr = tab_272021.product AND tab_272027.nr = tab_272029.product AND tab_272029.productFeature = tab_272025.nr AND tab_272025.label = 'babka' AND tab_272026.producer = tab_272027.producer AND tab_272026.nr = tab_272027.nr AND tab_272024.producer = tab_272022.nr AND tab_272026.producer = tab_272024.producer AND tab_272026.nr = tab_272024.nr AND tab_272028.producttype = 792 AND tab_272028.product = tab_272023.nr AND tab_272026.producer = tab_27202... (7 UNIONs)
904", color = yellow] ; 
0 -> 1 ; 
2 [label="FunctionCallBindAccess
(<http://www4.wiwiss.fu-berlin.de/bizer/bsbm/v01/instances/dataFromVendor{0}/Offer{1}>, <{2}>, \"{3}\", \"{4}\", \"{5}\")", color = yellow] ; 
0 -> 2 ; 
}
