<?xml version="1.0" encoding="UTF-8" standalone="no"?>
<!DOCTYPE svg PUBLIC "-//W3C//DTD SVG 1.1//EN"
 "http://www.w3.org/Graphics/SVG/1.1/DTD/svg11.dtd">
<!-- Generated by graphviz version 2.40.1 (20161225.0304)
 -->
<!-- Title: g Pages: 1 -->
<svg width="4635pt" height="306pt"
 viewBox="0.00 0.00 4634.50 306.00" xmlns="http://www.w3.org/2000/svg" xmlns:xlink="http://www.w3.org/1999/xlink">
<g id="graph0" class="graph" transform="scale(1 1) rotate(0) translate(4 302)">
<title>g</title>
<polygon fill="#ffffff" stroke="transparent" points="-4,4 -4,-302 4630.5,-302 4630.5,4 -4,4"/>
<text text-anchor="middle" x="2313.25" y="-7.8" font-family="Times,serif" font-size="14.00" fill="#000000">21:52:50.373</text>
<!-- 0 -->
<g id="node1" class="node">
<title>0</title>
<polygon fill="none" stroke="#ffff00" stroke-width="2" points="3171,-298 3065,-298 3065,-262 3171,-262 3171,-298"/>
<text text-anchor="middle" x="3118" y="-276.3" font-family="Times,serif" font-size="14.00" fill="#000000">BindAccessEval</text>
</g>
<!-- 1 -->
<g id="node2" class="node">
<title>1</title>
<polygon fill="none" stroke="#ffff00" stroke-width="2" points="3914,-226 0,-226 0,-23 3914,-23 3914,-226"/>
<text text-anchor="middle" x="1957" y="-210.8" font-family="Times,serif" font-size="14.00" fill="#000000">SQLQuery</text>
<text text-anchor="middle" x="1957" y="-195.8" font-family="Times,serif" font-size="14.00" fill="#000000">SELECT tab_272067.vendor, tab_272067.nr, tab_272067.offerWebpage, tab_272067.price, tab_272067.deliveryDays, tab_272058.propertyNum2 </text>
<text text-anchor="middle" x="1957" y="-180.8" font-family="Times,serif" font-size="14.00" fill="#000000">FROM Product AS tab_272065, Product AS tab_272066, Offer AS tab_272067, Product AS tab_272058, PRODUCTTYPEPRODUCT AS tab_272059, ProductFeatureProduct AS tab_272063, PRODUCT AS tab_272064, ProductFeature AS tab_272060, CountryType AS tab_272062, Producer AS tab_272061 </text>
<text text-anchor="middle" x="1957" y="-165.8" font-family="Times,serif" font-size="14.00" fill="#000000">WHERE tab_272065.nr = tab_272063.product AND tab_272063.productFeature = tab_272060.nr AND tab_272060.label = &#39;babka&#39; AND tab_272066.producer = tab_272061.nr AND tab_272065.producer = tab_272066.producer AND tab_272065.nr = tab_272066.nr AND tab_272062.countryType = 121 AND tab_272061.country = tab_272062.country AND tab_272065.producer = tab_272058.producer AND tab_272065.nr = tab_272058.nr AND tab_272059.producttype = 793 AND tab_272059.product = tab_272064.nr AND tab_272065.producer = tab_272064.producer AND tab_272065.nr = tab_272064.nr AND tab_272065.producer = tab_272067.producer AND tab_272065.nr = tab_272067.product </text>
<text text-anchor="middle" x="1957" y="-150.8" font-family="Times,serif" font-size="14.00" fill="#000000">UNION</text>
<text text-anchor="middle" x="1957" y="-135.8" font-family="Times,serif" font-size="14.00" fill="#000000">SELECT tab_272132.vendor, tab_272132.nr, tab_272132.offerWebpage, tab_272132.price, tab_272132.deliveryDays, tab_272133.propertyNum1 </text>
<text text-anchor="middle" x="1957" y="-120.8" font-family="Times,serif" font-size="14.00" fill="#000000">FROM PRODUCTTYPEPRODUCT AS tab_272134, ProductFeatureProduct AS tab_272137, Product AS tab_272133, CountryType AS tab_272140, Product AS tab_272135, Producer AS tab_272138, Product AS tab_272136, PRODUCT AS tab_272131, Offer AS tab_272132, ProductFeature AS tab_272139 </text>
<text text-anchor="middle" x="1957" y="-105.8" font-family="Times,serif" font-size="14.00" fill="#000000">WHERE tab_272135.nr = tab_272137.product AND tab_272137.productFeature = tab_272139.nr AND tab_272139.label = &#39;babka&#39; AND tab_272134.producttype = 792 AND tab_272134.product = tab_272131.nr AND tab_272135.producer = tab_272131.producer AND tab_272135.nr = tab_272131.nr AND tab_272135.producer = tab_272132.producer AND tab_272135.nr = tab_272132.product AND tab_272135.producer = tab_272133.producer AND tab_272135.nr = tab_272133.nr AND tab_272136.producer = tab_272138.nr AND tab_272135.producer = tab_272136.producer AND tab_272135.nr = tab_272136.nr AND tab_272140.countryType = 122 AND tab_272138.country = tab_272140.country </text>
<text text-anchor="middle" x="1957" y="-90.8" font-family="Times,serif" font-size="14.00" fill="#000000">UNION</text>
<text text-anchor="middle" x="1957" y="-75.8" font-family="Times,serif" font-size="14.00" fill="#000000">SELECT tab_272021.vendor, tab_272021.nr, tab_272021.offerWebpage, tab_272021.price, tab_272021.deliveryDays, tab_272026.propertyNum2 </text>
<text text-anchor="middle" x="1957" y="-60.8" font-family="Times,serif" font-size="14.00" fill="#000000">FROM ProductFeatureProduct AS tab_272029, ProductFeature AS tab_272025, CountryType AS tab_272030, Product AS tab_272024, PRODUCTTYPEPRODUCT AS tab_272028, Product AS tab_272026, Product AS tab_272027, Producer AS tab_272022, PRODUCT AS tab_272023, Offer AS tab_272021 </text>
<text text-anchor="middle" x="1957" y="-45.8" font-family="Times,serif" font-size="14.00" fill="#000000">WHERE tab_272026.producer = tab_272021.producer AND tab_272026.nr = tab_272021.product AND tab_272027.nr = tab_272029.product AND tab_272029.productFeature = tab_272025.nr AND tab_272025.label = &#39;babka&#39; AND tab_272026.producer = tab_272027.producer AND tab_272026.nr = tab_272027.nr AND tab_272024.producer = tab_272022.nr AND tab_272026.producer = tab_272024.producer AND tab_272026.nr = tab_272024.nr AND tab_272028.producttype = 792 AND tab_272028.product = tab_272023.nr AND tab_272026.producer = tab_27202... (7 UNIONs)</text>
<text text-anchor="middle" x="1957" y="-30.8" font-family="Times,serif" font-size="14.00" fill="#000000">904</text>
</g>
<!-- 0&#45;&gt;1 -->
<g id="edge1" class="edge">
<title>0&#45;&gt;1</title>
<path fill="none" stroke="#000000" d="M3064.7148,-272.8632C2996.3976,-263.713 2869.3806,-246.7009 2725.0311,-227.3672"/>
<polygon fill="#000000" stroke="#000000" points="2725.4301,-223.8895 2715.054,-226.0309 2724.5008,-230.8275 2725.4301,-223.8895"/>
</g>
<!-- 2 -->
<g id="node3" class="node">
<title>2</title>
<polygon fill="none" stroke="#ffff00" stroke-width="2" points="4626.5,-143.5 3931.5,-143.5 3931.5,-105.5 4626.5,-105.5 4626.5,-143.5"/>
<text text-anchor="middle" x="4279" y="-128.3" font-family="Times,serif" font-size="14.00" fill="#000000">FunctionCallBindAccess</text>
<text text-anchor="middle" x="4279" y="-113.3" font-family="Times,serif" font-size="14.00" fill="#000000">(&lt;http://www4.wiwiss.fu&#45;berlin.de/bizer/bsbm/v01/instances/dataFromVendor{0}/Offer{1}&gt;, &lt;{2}&gt;, &quot;{3}&quot;, &quot;{4}&quot;, &quot;{5}&quot;)</text>
</g>
<!-- 0&#45;&gt;2 -->
<g id="edge2" class="edge">
<title>0&#45;&gt;2</title>
<path fill="none" stroke="#000000" d="M3171.2081,-277.8964C3326.5591,-271.5225 3777.6735,-251.2998 3923,-226 4027.6165,-207.7874 4145.4886,-170.8024 4215.9251,-146.8642"/>
<polygon fill="#000000" stroke="#000000" points="4217.2127,-150.123 4225.5429,-143.5764 4214.9483,-143.4994 4217.2127,-150.123"/>
</g>
</g>
</svg>
