digraph  g{ graph[label = "21:53:10.482"]
node [shape=rectangle, color=black, fontcolor=black, style=bold] edge [color=black] 0 [label="BindAccessEval", color = yellow] ; 
1 [label="SQLQuery
SELECT tab_273894.vendor, tab_273894.nr, tab_273894.offerWebpage, tab_273894.price, tab_273894.deliveryDays, tab_273893.propertyNum2 
FROM ProductFeature AS tab_273897, Offer AS tab_273894, ProductFeatureProduct AS tab_273900, Product AS tab_273893, Producer AS tab_273898, Product AS tab_273896, PRODUCTTYPEPRODUCT AS tab_273895, CountryType AS tab_273901, Product AS tab_273899, PRODUCT AS tab_273892 
WHERE tab_273896.nr = tab_273900.product AND tab_273900.productFeature = tab_273897.nr AND tab_273897.label = 'babka' AND tab_273894.producer = tab_273896.producer AND tab_273894.product = tab_273896.nr AND tab_273899.producer = tab_273898.nr AND tab_273894.producer = tab_273899.producer AND tab_273894.product = tab_273899.nr AND tab_273895.producttype = 792 AND tab_273895.product = tab_273892.nr AND tab_273894.producer = tab_273892.producer AND tab_273894.product = tab_273892.nr AND tab_273894.producer = tab_273893.producer AND tab_273894.product = tab_273893.nr AND tab_273901.countryType = 122 AND tab_273898.country = tab_273901.country 
UNION
SELECT tab_273006.vendor, tab_273006.nr, tab_273006.offerWebpage, tab_273006.price, tab_273006.deliveryDays, tab_273005.propertyNum1 
FROM PRODUCTTYPEPRODUCT AS tab_273002, ProductFeatureProduct AS tab_273009, Product AS tab_273004, Product AS tab_273005, ProductFeature AS tab_273010, Offer AS tab_273006, Producer AS tab_273003, Product AS tab_273008, PRODUCT AS tab_273001, CountryType AS tab_273007 
WHERE tab_273007.countryType = 121 AND tab_273004.producer = tab_273003.nr AND tab_273007.country = tab_273003.country AND tab_273002.producttype = 782 AND tab_273002.product = tab_273001.nr AND tab_273004.producer = tab_273001.producer AND tab_273004.nr = tab_273001.nr AND tab_273004.producer = tab_273005.producer AND tab_273004.nr = tab_273005.nr AND tab_273004.producer = tab_273006.producer AND tab_273004.nr = tab_273006.product AND tab_273008.nr = tab_273009.product AND tab_273009.productFeature = tab_273010.nr AND tab_273010.label = 'babka' AND tab_273004.producer = tab_273008.producer AND tab_273004.nr = tab_273008.nr 
UNION
SELECT tab_273341.vendor, tab_273341.nr, tab_273341.offerWebpage, tab_273341.price, tab_273341.deliveryDays, tab_273346.propertyNum2 
FROM ProductFeature AS tab_273344, ProductFeatureProduct AS tab_273349, CountryType AS tab_273350, PRODUCTTYPEPRODUCT AS tab_273348, Product AS tab_273345, Product AS tab_273346, Product AS tab_273347, Producer AS tab_273343, PRODUCT AS tab_273342, Offer AS tab_273341 
WHERE tab_273341.producer = tab_273346.producer AND tab_273341.product = tab_273346.nr AND tab_273347.nr = tab_273349.product AND tab_273349.productFeature = tab_273344.nr AND tab_273344.label = 'babka' AND tab_273341.producer = tab_273347.producer AND tab_273341.product = tab_273347.nr AND tab_273345.producer = tab_273343.nr AND tab_273341.producer = tab_273345.producer AND tab_273341.product = tab_273345.nr AND tab_273348.producttype = 788 AND tab_273348.product = tab_273342.nr AND tab_27... (63 UNIONs)
7818", color = yellow] ; 
0 -> 1 ; 
2 [label="FunctionCallBindAccess
(<http://www4.wiwiss.fu-berlin.de/bizer/bsbm/v01/instances/dataFromVendor{0}/Offer{1}>, <{2}>, \"{3}\", \"{4}\", \"{5}\")", color = yellow] ; 
0 -> 2 ; 
}
