<?xml version="1.0" encoding="UTF-8" standalone="no"?>
<!DOCTYPE svg PUBLIC "-//W3C//DTD SVG 1.1//EN"
 "http://www.w3.org/Graphics/SVG/1.1/DTD/svg11.dtd">
<!-- Generated by graphviz version 2.40.1 (20161225.0304)
 -->
<!-- Title: g Pages: 1 -->
<svg width="4725pt" height="306pt"
 viewBox="0.00 0.00 4724.50 306.00" xmlns="http://www.w3.org/2000/svg" xmlns:xlink="http://www.w3.org/1999/xlink">
<g id="graph0" class="graph" transform="scale(1 1) rotate(0) translate(4 302)">
<title>g</title>
<polygon fill="#ffffff" stroke="transparent" points="-4,4 -4,-302 4720.5,-302 4720.5,4 -4,4"/>
<text text-anchor="middle" x="2358.25" y="-7.8" font-family="Times,serif" font-size="14.00" fill="#000000">21:53:10.482</text>
<!-- 0 -->
<g id="node1" class="node">
<title>0</title>
<polygon fill="none" stroke="#ffff00" stroke-width="2" points="3238,-298 3132,-298 3132,-262 3238,-262 3238,-298"/>
<text text-anchor="middle" x="3185" y="-276.3" font-family="Times,serif" font-size="14.00" fill="#000000">BindAccessEval</text>
</g>
<!-- 1 -->
<g id="node2" class="node">
<title>1</title>
<polygon fill="none" stroke="#ffff00" stroke-width="2" points="4004,-226 0,-226 0,-23 4004,-23 4004,-226"/>
<text text-anchor="middle" x="2002" y="-210.8" font-family="Times,serif" font-size="14.00" fill="#000000">SQLQuery</text>
<text text-anchor="middle" x="2002" y="-195.8" font-family="Times,serif" font-size="14.00" fill="#000000">SELECT tab_273894.vendor, tab_273894.nr, tab_273894.offerWebpage, tab_273894.price, tab_273894.deliveryDays, tab_273893.propertyNum2 </text>
<text text-anchor="middle" x="2002" y="-180.8" font-family="Times,serif" font-size="14.00" fill="#000000">FROM ProductFeature AS tab_273897, Offer AS tab_273894, ProductFeatureProduct AS tab_273900, Product AS tab_273893, Producer AS tab_273898, Product AS tab_273896, PRODUCTTYPEPRODUCT AS tab_273895, CountryType AS tab_273901, Product AS tab_273899, PRODUCT AS tab_273892 </text>
<text text-anchor="middle" x="2002" y="-165.8" font-family="Times,serif" font-size="14.00" fill="#000000">WHERE tab_273896.nr = tab_273900.product AND tab_273900.productFeature = tab_273897.nr AND tab_273897.label = &#39;babka&#39; AND tab_273894.producer = tab_273896.producer AND tab_273894.product = tab_273896.nr AND tab_273899.producer = tab_273898.nr AND tab_273894.producer = tab_273899.producer AND tab_273894.product = tab_273899.nr AND tab_273895.producttype = 792 AND tab_273895.product = tab_273892.nr AND tab_273894.producer = tab_273892.producer AND tab_273894.product = tab_273892.nr AND tab_273894.producer = tab_273893.producer AND tab_273894.product = tab_273893.nr AND tab_273901.countryType = 122 AND tab_273898.country = tab_273901.country </text>
<text text-anchor="middle" x="2002" y="-150.8" font-family="Times,serif" font-size="14.00" fill="#000000">UNION</text>
<text text-anchor="middle" x="2002" y="-135.8" font-family="Times,serif" font-size="14.00" fill="#000000">SELECT tab_273006.vendor, tab_273006.nr, tab_273006.offerWebpage, tab_273006.price, tab_273006.deliveryDays, tab_273005.propertyNum1 </text>
<text text-anchor="middle" x="2002" y="-120.8" font-family="Times,serif" font-size="14.00" fill="#000000">FROM PRODUCTTYPEPRODUCT AS tab_273002, ProductFeatureProduct AS tab_273009, Product AS tab_273004, Product AS tab_273005, ProductFeature AS tab_273010, Offer AS tab_273006, Producer AS tab_273003, Product AS tab_273008, PRODUCT AS tab_273001, CountryType AS tab_273007 </text>
<text text-anchor="middle" x="2002" y="-105.8" font-family="Times,serif" font-size="14.00" fill="#000000">WHERE tab_273007.countryType = 121 AND tab_273004.producer = tab_273003.nr AND tab_273007.country = tab_273003.country AND tab_273002.producttype = 782 AND tab_273002.product = tab_273001.nr AND tab_273004.producer = tab_273001.producer AND tab_273004.nr = tab_273001.nr AND tab_273004.producer = tab_273005.producer AND tab_273004.nr = tab_273005.nr AND tab_273004.producer = tab_273006.producer AND tab_273004.nr = tab_273006.product AND tab_273008.nr = tab_273009.product AND tab_273009.productFeature = tab_273010.nr AND tab_273010.label = &#39;babka&#39; AND tab_273004.producer = tab_273008.producer AND tab_273004.nr = tab_273008.nr </text>
<text text-anchor="middle" x="2002" y="-90.8" font-family="Times,serif" font-size="14.00" fill="#000000">UNION</text>
<text text-anchor="middle" x="2002" y="-75.8" font-family="Times,serif" font-size="14.00" fill="#000000">SELECT tab_273341.vendor, tab_273341.nr, tab_273341.offerWebpage, tab_273341.price, tab_273341.deliveryDays, tab_273346.propertyNum2 </text>
<text text-anchor="middle" x="2002" y="-60.8" font-family="Times,serif" font-size="14.00" fill="#000000">FROM ProductFeature AS tab_273344, ProductFeatureProduct AS tab_273349, CountryType AS tab_273350, PRODUCTTYPEPRODUCT AS tab_273348, Product AS tab_273345, Product AS tab_273346, Product AS tab_273347, Producer AS tab_273343, PRODUCT AS tab_273342, Offer AS tab_273341 </text>
<text text-anchor="middle" x="2002" y="-45.8" font-family="Times,serif" font-size="14.00" fill="#000000">WHERE tab_273341.producer = tab_273346.producer AND tab_273341.product = tab_273346.nr AND tab_273347.nr = tab_273349.product AND tab_273349.productFeature = tab_273344.nr AND tab_273344.label = &#39;babka&#39; AND tab_273341.producer = tab_273347.producer AND tab_273341.product = tab_273347.nr AND tab_273345.producer = tab_273343.nr AND tab_273341.producer = tab_273345.producer AND tab_273341.product = tab_273345.nr AND tab_273348.producttype = 788 AND tab_273348.product = tab_273342.nr AND tab_27... (63 UNIONs)</text>
<text text-anchor="middle" x="2002" y="-30.8" font-family="Times,serif" font-size="14.00" fill="#000000">7818</text>
</g>
<!-- 0&#45;&gt;1 -->
<g id="edge1" class="edge">
<title>0&#45;&gt;1</title>
<path fill="none" stroke="#000000" d="M3131.8707,-273.0164C3062.5405,-263.9033 2932.4794,-246.8073 2784.5589,-227.3638"/>
<polygon fill="#000000" stroke="#000000" points="2784.7057,-223.8531 2774.3349,-226.0199 2783.7934,-230.7934 2784.7057,-223.8531"/>
</g>
<!-- 2 -->
<g id="node3" class="node">
<title>2</title>
<polygon fill="none" stroke="#ffff00" stroke-width="2" points="4716.5,-143.5 4021.5,-143.5 4021.5,-105.5 4716.5,-105.5 4716.5,-143.5"/>
<text text-anchor="middle" x="4369" y="-128.3" font-family="Times,serif" font-size="14.00" fill="#000000">FunctionCallBindAccess</text>
<text text-anchor="middle" x="4369" y="-113.3" font-family="Times,serif" font-size="14.00" fill="#000000">(&lt;http://www4.wiwiss.fu&#45;berlin.de/bizer/bsbm/v01/instances/dataFromVendor{0}/Offer{1}&gt;, &lt;{2}&gt;, &quot;{3}&quot;, &quot;{4}&quot;, &quot;{5}&quot;)</text>
</g>
<!-- 0&#45;&gt;2 -->
<g id="edge2" class="edge">
<title>0&#45;&gt;2</title>
<path fill="none" stroke="#000000" d="M3238.0325,-278.0171C3396.2074,-271.8697 3862.9833,-251.9729 4013,-226 4117.7845,-207.8583 4235.8413,-170.7643 4306.2365,-146.797"/>
<polygon fill="#000000" stroke="#000000" points="4307.5204,-150.0569 4315.8469,-143.5056 4305.2523,-143.4346 4307.5204,-150.0569"/>
</g>
</g>
</svg>
