digraph  g{ graph[label = "22:6:9.545"]
node [shape=rectangle, color=black, fontcolor=black, style=bold] edge [color=black] 0 [label="HashDistinct", color = yellow] ; 
1 [label="Union", color = yellow] ; 
0 -> 1 ; 
2 [label="BindAccessEval", color = yellow] ; 
1 -> 2 ; 
3 [label="BindAccessEval", color = yellow] ; 
2 -> 3 ; 
4 [label="SQLQuery
SELECT tab_365102.nr, tab_365101.publisher, tab_365103.rating2 
FROM Review AS tab_365103, Review AS tab_365102, CountryType AS tab_365100, Person AS tab_365101  
WHERE tab_365102.person = tab_365101.nr AND tab_365100.countryType = 121 AND tab_365101.country = tab_365100.country AND tab_365101.publisher = tab_365103.publisher AND tab_365102.nr = tab_365103.nr
223747", color = yellow] ; 
3 -> 4 ; 
5 [label="FunctionCallBindAccess
(<http://www4.wiwiss.fu-berlin.de/bizer/bsbm/v01/instances/dataFromRatingSite{1}/Review{0}>, \"{2}\")", color = yellow] ; 
3 -> 5 ; 
6 [label="FunctionCallBindAccess
AddConstant{1=(\"<http://purl.org/stuff/rev#Review>\", \"<http://www4.wiwiss.fu-berlin.de/bizer/bsbm/v01/vocabulary/rating>\")}", color = yellow] ; 
2 -> 6 ; 
8 [label="BindAccessEval", color = yellow] ; 
1 -> 8 ; 
9 [label="BindAccessEval", color = yellow] ; 
8 -> 9 ; 
10 [label="SQLQuery
SELECT tab_365107.nr, tab_365107.rating2, tab_365107.publisher 
FROM Person AS tab_365108, Review AS tab_365107, CountryType AS tab_365110, Review AS tab_365109  
WHERE tab_365109.person = tab_365108.nr AND tab_365107.publisher = tab_365108.publisher AND tab_365107.nr = tab_365109.nr AND tab_365110.countryType = 122 AND tab_365108.country = tab_365110.country
221705", color = yellow] ; 
9 -> 10 ; 
11 [label="FunctionCallBindAccess
(<http://www4.wiwiss.fu-berlin.de/bizer/bsbm/v01/instances/dataFromRatingSite{2}/Review{0}>, \"{1}\")", color = yellow] ; 
9 -> 11 ; 
12 [label="FunctionCallBindAccess
AddConstant{1=(\"<http://purl.org/stuff/rev#Review>\", \"<http://www4.wiwiss.fu-berlin.de/bizer/bsbm/v01/vocabulary/rating>\")}", color = yellow] ; 
8 -> 12 ; 
14 [label="BindAccessEval", color = yellow] ; 
1 -> 14 ; 
15 [label="BindAccessEval", color = yellow] ; 
14 -> 15 ; 
16 [label="SQLQuery
SELECT tab_365115.nr, tab_365115.producer, tab_365115.propertyTex2 
FROM Producer AS tab_365114, Product AS tab_365115, Product AS tab_365116, CountryType AS tab_365117  
WHERE tab_365116.producer = tab_365114.nr AND tab_365115.producer = tab_365116.producer AND tab_365115.nr = tab_365116.nr AND tab_365117.countryType = 121 AND tab_365114.country = tab_365117.country
23884", color = yellow] ; 
15 -> 16 ; 
17 [label="FunctionCallBindAccess
(<http://www4.wiwiss.fu-berlin.de/bizer/bsbm/v01/instances/dataFromProducer{1}/Product{0}>, \"{2}\")", color = yellow] ; 
15 -> 17 ; 
18 [label="FunctionCallBindAccess
AddConstant{1=(\"<http://www4.wiwiss.fu-berlin.de/bizer/bsbm/v01/vocabulary/Product>\", \"<http://www4.wiwiss.fu-berlin.de/bizer/bsbm/v01/vocabulary/productPropertyTextual>\")}", color = yellow] ; 
14 -> 18 ; 
20 [label="BindAccessEval", color = yellow] ; 
1 -> 20 ; 
21 [label="BindAccessEval", color = yellow] ; 
20 -> 21 ; 
22 [label="SQLQuery
SELECT tab_365122.nr, tab_365122.producer, tab_365122.propertyTex2 
FROM Product AS tab_365122, Producer AS tab_365121, Product AS tab_365123, CountryType AS tab_365124  
WHERE tab_365123.producer = tab_365121.nr AND tab_365122.producer = tab_365123.producer AND tab_365122.nr = tab_365123.nr AND tab_365124.countryType = 122 AND tab_365121.country = tab_365124.country
22374", color = yellow] ; 
21 -> 22 ; 
23 [label="FunctionCallBindAccess
(<http://www4.wiwiss.fu-berlin.de/bizer/bsbm/v01/instances/dataFromProducer{1}/Product{0}>, \"{2}\")", color = yellow] ; 
21 -> 23 ; 
24 [label="FunctionCallBindAccess
AddConstant{1=(\"<http://www4.wiwiss.fu-berlin.de/bizer/bsbm/v01/vocabulary/Product>\", \"<http://www4.wiwiss.fu-berlin.de/bizer/bsbm/v01/vocabulary/productPropertyTextual>\")}", color = yellow] ; 
20 -> 24 ; 
26 [label="BindAccessEval", color = yellow] ; 
1 -> 26 ; 
27 [label="BindAccessEval", color = yellow] ; 
26 -> 27 ; 
28 [label="SQLQuery
SELECT tab_365129.nr, tab_365129.producer, tab_365129.propertyTex1 
FROM Producer AS tab_365128, Product AS tab_365130, CountryType AS tab_365131, Product AS tab_365129  
WHERE tab_365130.producer = tab_365128.nr AND tab_365129.producer = tab_365130.producer AND tab_365129.nr = tab_365130.nr AND tab_365131.countryType = 122 AND tab_365128.country = tab_365131.country
22374", color = yellow] ; 
27 -> 28 ; 
29 [label="FunctionCallBindAccess
(<http://www4.wiwiss.fu-berlin.de/bizer/bsbm/v01/instances/dataFromProducer{1}/Product{0}>, \"{2}\")", color = yellow] ; 
27 -> 29 ; 
30 [label="FunctionCallBindAccess
AddConstant{1=(\"<http://www4.wiwiss.fu-berlin.de/bizer/bsbm/v01/vocabulary/Product>\", \"<http://www4.wiwiss.fu-berlin.de/bizer/bsbm/v01/vocabulary/productPropertyTextual>\")}", color = yellow] ; 
26 -> 30 ; 
32 [label="BindAccessEval", color = yellow] ; 
1 -> 32 ; 
33 [label="BindAccessEval", color = yellow] ; 
32 -> 33 ; 
34 [label="SQLQuery
SELECT tab_365137.nr, tab_365137.producer, tab_365138.propertyTex1 
FROM Producer AS tab_365136, CountryType AS tab_365135, Product AS tab_365137, Product AS tab_365138  
WHERE tab_365135.countryType = 121 AND tab_365137.producer = tab_365136.nr AND tab_365135.country = tab_365136.country AND tab_365137.producer = tab_365138.producer AND tab_365137.nr = tab_365138.nr
23884", color = yellow] ; 
33 -> 34 ; 
35 [label="FunctionCallBindAccess
(<http://www4.wiwiss.fu-berlin.de/bizer/bsbm/v01/instances/dataFromProducer{1}/Product{0}>, \"{2}\")", color = yellow] ; 
33 -> 35 ; 
36 [label="FunctionCallBindAccess
AddConstant{1=(\"<http://www4.wiwiss.fu-berlin.de/bizer/bsbm/v01/vocabulary/Product>\", \"<http://www4.wiwiss.fu-berlin.de/bizer/bsbm/v01/vocabulary/productPropertyTextual>\")}", color = yellow] ; 
32 -> 36 ; 
38 [label="BindAccessEval", color = yellow] ; 
1 -> 38 ; 
39 [label="BindAccessEval", color = yellow] ; 
38 -> 39 ; 
40 [label="SQLQuery
SELECT tab_365144.nr, tab_365142.publisher, tab_365145.rating1 
FROM Review AS tab_365145, CountryType AS tab_365143, Person AS tab_365142, Review AS tab_365144  
WHERE tab_365144.person = tab_365142.nr AND tab_365143.countryType = 121 AND tab_365142.country = tab_365143.country AND tab_365142.publisher = tab_365145.publisher AND tab_365144.nr = tab_365145.nr
223747", color = yellow] ; 
39 -> 40 ; 
41 [label="FunctionCallBindAccess
(<http://www4.wiwiss.fu-berlin.de/bizer/bsbm/v01/instances/dataFromRatingSite{1}/Review{0}>, \"{2}\")", color = yellow] ; 
39 -> 41 ; 
42 [label="FunctionCallBindAccess
AddConstant{1=(\"<http://xmlns.com/foaf/0.1/Document>\", \"<http://www4.wiwiss.fu-berlin.de/bizer/bsbm/v01/vocabulary/rating>\")}", color = yellow] ; 
38 -> 42 ; 
44 [label="BindAccessEval", color = yellow] ; 
1 -> 44 ; 
45 [label="BindAccessEval", color = yellow] ; 
44 -> 45 ; 
46 [label="SQLQuery
SELECT tab_365149.nr, tab_365150.publisher, tab_365152.rating1 
FROM CountryType AS tab_365151, Person AS tab_365150, Review AS tab_365149, Review AS tab_365152  
WHERE tab_365149.person = tab_365150.nr AND tab_365151.countryType = 122 AND tab_365150.country = tab_365151.country AND tab_365150.publisher = tab_365152.publisher AND tab_365149.nr = tab_365152.nr
221705", color = yellow] ; 
45 -> 46 ; 
47 [label="FunctionCallBindAccess
(<http://www4.wiwiss.fu-berlin.de/bizer/bsbm/v01/instances/dataFromRatingSite{1}/Review{0}>, \"{2}\")", color = yellow] ; 
45 -> 47 ; 
48 [label="FunctionCallBindAccess
AddConstant{1=(\"<http://xmlns.com/foaf/0.1/Document>\", \"<http://www4.wiwiss.fu-berlin.de/bizer/bsbm/v01/vocabulary/rating>\")}", color = yellow] ; 
44 -> 48 ; 
50 [label="BindAccessEval", color = yellow] ; 
1 -> 50 ; 
51 [label="BindAccessEval", color = yellow] ; 
50 -> 51 ; 
52 [label="SQLQuery
SELECT tab_365156.nr, tab_365156.producer, tab_365159.propertyTex4 
FROM Producer AS tab_365158, Product AS tab_365156, CountryType AS tab_365157, Product AS tab_365159  
WHERE tab_365156.producer = tab_365158.nr AND tab_365157.countryType = 121 AND tab_365158.country = tab_365157.country AND tab_365156.producer = tab_365159.producer AND tab_365156.nr = tab_365159.nr
23884", color = yellow] ; 
51 -> 52 ; 
53 [label="FunctionCallBindAccess
(<http://www4.wiwiss.fu-berlin.de/bizer/bsbm/v01/instances/dataFromProducer{1}/Product{0}>, \"{2}\")", color = yellow] ; 
51 -> 53 ; 
54 [label="FunctionCallBindAccess
AddConstant{1=(\"<http://www4.wiwiss.fu-berlin.de/bizer/bsbm/v01/vocabulary/Product>\", \"<http://www4.wiwiss.fu-berlin.de/bizer/bsbm/v01/vocabulary/productPropertyTextual>\")}", color = yellow] ; 
50 -> 54 ; 
56 [label="BindAccessEval", color = yellow] ; 
1 -> 56 ; 
57 [label="BindAccessEval", color = yellow] ; 
56 -> 57 ; 
58 [label="SQLQuery
SELECT tab_365163.nr, tab_365163.producer, tab_365163.propertyTex4 
FROM Product AS tab_365163, Product AS tab_365164, CountryType AS tab_365166, Producer AS tab_365165  
WHERE tab_365164.producer = tab_365165.nr AND tab_365163.producer = tab_365164.producer AND tab_365163.nr = tab_365164.nr AND tab_365166.countryType = 122 AND tab_365165.country = tab_365166.country
22374", color = yellow] ; 
57 -> 58 ; 
59 [label="FunctionCallBindAccess
(<http://www4.wiwiss.fu-berlin.de/bizer/bsbm/v01/instances/dataFromProducer{1}/Product{0}>, \"{2}\")", color = yellow] ; 
57 -> 59 ; 
60 [label="FunctionCallBindAccess
AddConstant{1=(\"<http://www4.wiwiss.fu-berlin.de/bizer/bsbm/v01/vocabulary/Product>\", \"<http://www4.wiwiss.fu-berlin.de/bizer/bsbm/v01/vocabulary/productPropertyTextual>\")}", color = yellow] ; 
56 -> 60 ; 
62 [label="BindAccessEval", color = yellow] ; 
1 -> 62 ; 
63 [label="BindAccessEval", color = yellow] ; 
62 -> 63 ; 
64 [label="SQLQuery
SELECT tab_365171.nr, tab_365171.rating1, tab_365171.publisher 
FROM CountryType AS tab_365173, Person AS tab_365172, Review AS tab_365170, Review AS tab_365171  
WHERE tab_365170.person = tab_365172.nr AND tab_365171.publisher = tab_365172.publisher AND tab_365171.nr = tab_365170.nr AND tab_365173.countryType = 122 AND tab_365172.country = tab_365173.country
221705", color = yellow] ; 
63 -> 64 ; 
65 [label="FunctionCallBindAccess
(<http://www4.wiwiss.fu-berlin.de/bizer/bsbm/v01/instances/dataFromRatingSite{2}/Review{0}>, \"{1}\")", color = yellow] ; 
63 -> 65 ; 
66 [label="FunctionCallBindAccess
AddConstant{1=(\"<http://purl.org/stuff/rev#Review>\", \"<http://www4.wiwiss.fu-berlin.de/bizer/bsbm/v01/vocabulary/rating>\")}", color = yellow] ; 
62 -> 66 ; 
68 [label="BindAccessEval", color = yellow] ; 
1 -> 68 ; 
69 [label="BindAccessEval", color = yellow] ; 
68 -> 69 ; 
70 [label="SQLQuery
SELECT tab_365179.nr, tab_365178.publisher, tab_365180.rating1 
FROM Review AS tab_365179, CountryType AS tab_365177, Review AS tab_365180, Person AS tab_365178  
WHERE tab_365179.person = tab_365178.nr AND tab_365177.countryType = 121 AND tab_365178.country = tab_365177.country AND tab_365178.publisher = tab_365180.publisher AND tab_365179.nr = tab_365180.nr
223747", color = yellow] ; 
69 -> 70 ; 
71 [label="FunctionCallBindAccess
(<http://www4.wiwiss.fu-berlin.de/bizer/bsbm/v01/instances/dataFromRatingSite{1}/Review{0}>, \"{2}\")", color = yellow] ; 
69 -> 71 ; 
72 [label="FunctionCallBindAccess
AddConstant{1=(\"<http://purl.org/stuff/rev#Review>\", \"<http://www4.wiwiss.fu-berlin.de/bizer/bsbm/v01/vocabulary/rating>\")}", color = yellow] ; 
68 -> 72 ; 
74 [label="BindAccessEval", color = yellow] ; 
1 -> 74 ; 
75 [label="BindAccessEval", color = yellow] ; 
74 -> 75 ; 
76 [label="SQLQuery
SELECT tab_365186.nr, tab_365184.publisher, tab_365187.rating2 
FROM CountryType AS tab_365185, Review AS tab_365187, Person AS tab_365184, Review AS tab_365186  
WHERE tab_365185.countryType = 121 AND tab_365186.person = tab_365184.nr AND tab_365185.country = tab_365184.country AND tab_365184.publisher = tab_365187.publisher AND tab_365186.nr = tab_365187.nr
223747", color = yellow] ; 
75 -> 76 ; 
77 [label="FunctionCallBindAccess
(<http://www4.wiwiss.fu-berlin.de/bizer/bsbm/v01/instances/dataFromRatingSite{1}/Review{0}>, \"{2}\")", color = yellow] ; 
75 -> 77 ; 
78 [label="FunctionCallBindAccess
AddConstant{1=(\"<http://xmlns.com/foaf/0.1/Document>\", \"<http://www4.wiwiss.fu-berlin.de/bizer/bsbm/v01/vocabulary/rating>\")}", color = yellow] ; 
74 -> 78 ; 
80 [label="BindAccessEval", color = yellow] ; 
1 -> 80 ; 
81 [label="BindAccessEval", color = yellow] ; 
80 -> 81 ; 
82 [label="SQLQuery
SELECT tab_365193.nr, tab_365193.rating2, tab_365193.publisher 
FROM CountryType AS tab_365194, Person AS tab_365192, Review AS tab_365191, Review AS tab_365193  
WHERE tab_365191.person = tab_365192.nr AND tab_365193.publisher = tab_365192.publisher AND tab_365193.nr = tab_365191.nr AND tab_365194.countryType = 122 AND tab_365192.country = tab_365194.country
221705", color = yellow] ; 
81 -> 82 ; 
83 [label="FunctionCallBindAccess
(<http://www4.wiwiss.fu-berlin.de/bizer/bsbm/v01/instances/dataFromRatingSite{2}/Review{0}>, \"{1}\")", color = yellow] ; 
81 -> 83 ; 
84 [label="FunctionCallBindAccess
AddConstant{1=(\"<http://xmlns.com/foaf/0.1/Document>\", \"<http://www4.wiwiss.fu-berlin.de/bizer/bsbm/v01/vocabulary/rating>\")}", color = yellow] ; 
80 -> 84 ; 
86 [label="BindAccessEval", color = yellow] ; 
1 -> 86 ; 
87 [label="BindAccessEval", color = yellow] ; 
86 -> 87 ; 
88 [label="SQLQuery
SELECT tab_365198.nr, tab_365198.producer, tab_365198.propertyTex3 
FROM Product AS tab_365198, Producer AS tab_365200, Product AS tab_365199, CountryType AS tab_365201  
WHERE tab_365199.producer = tab_365200.nr AND tab_365198.producer = tab_365199.producer AND tab_365198.nr = tab_365199.nr AND tab_365201.countryType = 121 AND tab_365200.country = tab_365201.country
23884", color = yellow] ; 
87 -> 88 ; 
89 [label="FunctionCallBindAccess
(<http://www4.wiwiss.fu-berlin.de/bizer/bsbm/v01/instances/dataFromProducer{1}/Product{0}>, \"{2}\")", color = yellow] ; 
87 -> 89 ; 
90 [label="FunctionCallBindAccess
AddConstant{1=(\"<http://www4.wiwiss.fu-berlin.de/bizer/bsbm/v01/vocabulary/Product>\", \"<http://www4.wiwiss.fu-berlin.de/bizer/bsbm/v01/vocabulary/productPropertyTextual>\")}", color = yellow] ; 
86 -> 90 ; 
92 [label="BindAccessEval", color = yellow] ; 
1 -> 92 ; 
93 [label="BindAccessEval", color = yellow] ; 
92 -> 93 ; 
94 [label="SQLQuery
SELECT tab_365207.nr, tab_365207.producer, tab_365208.propertyTex3 
FROM Producer AS tab_365205, CountryType AS tab_365206, Product AS tab_365207, Product AS tab_365208  
WHERE tab_365206.countryType = 122 AND tab_365207.producer = tab_365205.nr AND tab_365206.country = tab_365205.country AND tab_365207.producer = tab_365208.producer AND tab_365207.nr = tab_365208.nr
22374", color = yellow] ; 
93 -> 94 ; 
95 [label="FunctionCallBindAccess
(<http://www4.wiwiss.fu-berlin.de/bizer/bsbm/v01/instances/dataFromProducer{1}/Product{0}>, \"{2}\")", color = yellow] ; 
93 -> 95 ; 
96 [label="FunctionCallBindAccess
AddConstant{1=(\"<http://www4.wiwiss.fu-berlin.de/bizer/bsbm/v01/vocabulary/Product>\", \"<http://www4.wiwiss.fu-berlin.de/bizer/bsbm/v01/vocabulary/productPropertyTextual>\")}", color = yellow] ; 
92 -> 96 ; 
98 [label="BindAccessEval", color = yellow] ; 
1 -> 98 ; 
99 [label="BindAccessEval", color = yellow] ; 
98 -> 99 ; 
100 [label="SQLQuery
SELECT tab_365212.nr, tab_365212.producer, tab_365215.propertyTex6 
FROM Producer AS tab_365213, Product AS tab_365212, CountryType AS tab_365214, Product AS tab_365215  
WHERE tab_365212.producer = tab_365213.nr AND tab_365214.countryType = 121 AND tab_365213.country = tab_365214.country AND tab_365212.producer = tab_365215.producer AND tab_365212.nr = tab_365215.nr
23884", color = yellow] ; 
99 -> 100 ; 
101 [label="FunctionCallBindAccess
(<http://www4.wiwiss.fu-berlin.de/bizer/bsbm/v01/instances/dataFromProducer{1}/Product{0}>, \"{2}\")", color = yellow] ; 
99 -> 101 ; 
102 [label="FunctionCallBindAccess
AddConstant{1=(\"<http://www4.wiwiss.fu-berlin.de/bizer/bsbm/v01/vocabulary/Product>\", \"<http://www4.wiwiss.fu-berlin.de/bizer/bsbm/v01/vocabulary/productPropertyTextual>\")}", color = yellow] ; 
98 -> 102 ; 
104 [label="BindAccessEval", color = yellow] ; 
1 -> 104 ; 
105 [label="BindAccessEval", color = yellow] ; 
104 -> 105 ; 
106 [label="SQLQuery
SELECT tab_365219.nr, tab_365219.producer, tab_365219.propertyTex6 
FROM Product AS tab_365220, Producer AS tab_365221, CountryType AS tab_365222, Product AS tab_365219  
WHERE tab_365220.producer = tab_365221.nr AND tab_365219.producer = tab_365220.producer AND tab_365219.nr = tab_365220.nr AND tab_365222.countryType = 122 AND tab_365221.country = tab_365222.country
22374", color = yellow] ; 
105 -> 106 ; 
107 [label="FunctionCallBindAccess
(<http://www4.wiwiss.fu-berlin.de/bizer/bsbm/v01/instances/dataFromProducer{1}/Product{0}>, \"{2}\")", color = yellow] ; 
105 -> 107 ; 
108 [label="FunctionCallBindAccess
AddConstant{1=(\"<http://www4.wiwiss.fu-berlin.de/bizer/bsbm/v01/vocabulary/Product>\", \"<http://www4.wiwiss.fu-berlin.de/bizer/bsbm/v01/vocabulary/productPropertyTextual>\")}", color = yellow] ; 
104 -> 108 ; 
110 [label="BindAccessEval", color = yellow] ; 
1 -> 110 ; 
111 [label="BindAccessEval", color = yellow] ; 
110 -> 111 ; 
112 [label="SQLQuery
SELECT tab_365227.nr, tab_365227.producer, tab_365229.propertyNum2 
FROM Producer AS tab_365226, Product AS tab_365227, CountryType AS tab_365228, Product AS tab_365229  
WHERE tab_365228.countryType = 122 AND tab_365227.producer = tab_365226.nr AND tab_365228.country = tab_365226.country AND tab_365227.producer = tab_365229.producer AND tab_365227.nr = tab_365229.nr
22374", color = yellow] ; 
111 -> 112 ; 
113 [label="FunctionCallBindAccess
(<http://www4.wiwiss.fu-berlin.de/bizer/bsbm/v01/instances/dataFromProducer{1}/Product{0}>, \"{2}\")", color = yellow] ; 
111 -> 113 ; 
114 [label="FunctionCallBindAccess
AddConstant{1=(\"<http://www4.wiwiss.fu-berlin.de/bizer/bsbm/v01/vocabulary/Product>\", \"<http://www4.wiwiss.fu-berlin.de/bizer/bsbm/v01/vocabulary/productPropertyNumeric>\")}", color = yellow] ; 
110 -> 114 ; 
116 [label="BindAccessEval", color = yellow] ; 
1 -> 116 ; 
117 [label="BindAccessEval", color = yellow] ; 
116 -> 117 ; 
118 [label="SQLQuery
SELECT tab_365233.nr, tab_365233.producer, tab_365236.propertyNum2 
FROM Producer AS tab_365235, Product AS tab_365233, CountryType AS tab_365234, Product AS tab_365236  
WHERE tab_365234.countryType = 121 AND tab_365233.producer = tab_365235.nr AND tab_365234.country = tab_365235.country AND tab_365233.producer = tab_365236.producer AND tab_365233.nr = tab_365236.nr
23884", color = yellow] ; 
117 -> 118 ; 
119 [label="FunctionCallBindAccess
(<http://www4.wiwiss.fu-berlin.de/bizer/bsbm/v01/instances/dataFromProducer{1}/Product{0}>, \"{2}\")", color = yellow] ; 
117 -> 119 ; 
120 [label="FunctionCallBindAccess
AddConstant{1=(\"<http://www4.wiwiss.fu-berlin.de/bizer/bsbm/v01/vocabulary/Product>\", \"<http://www4.wiwiss.fu-berlin.de/bizer/bsbm/v01/vocabulary/productPropertyNumeric>\")}", color = yellow] ; 
116 -> 120 ; 
122 [label="BindAccessEval", color = yellow] ; 
1 -> 122 ; 
123 [label="BindAccessEval", color = yellow] ; 
122 -> 123 ; 
124 [label="SQLQuery
SELECT tab_365241.nr, tab_365241.producer, tab_365243.propertyTex5 
FROM Product AS tab_365241, CountryType AS tab_365242, Product AS tab_365243, Producer AS tab_365240  
WHERE tab_365241.producer = tab_365240.nr AND tab_365242.countryType = 121 AND tab_365240.country = tab_365242.country AND tab_365241.producer = tab_365243.producer AND tab_365241.nr = tab_365243.nr
23884", color = yellow] ; 
123 -> 124 ; 
125 [label="FunctionCallBindAccess
(<http://www4.wiwiss.fu-berlin.de/bizer/bsbm/v01/instances/dataFromProducer{1}/Product{0}>, \"{2}\")", color = yellow] ; 
123 -> 125 ; 
126 [label="FunctionCallBindAccess
AddConstant{1=(\"<http://www4.wiwiss.fu-berlin.de/bizer/bsbm/v01/vocabulary/Product>\", \"<http://www4.wiwiss.fu-berlin.de/bizer/bsbm/v01/vocabulary/productPropertyTextual>\")}", color = yellow] ; 
122 -> 126 ; 
128 [label="BindAccessEval", color = yellow] ; 
1 -> 128 ; 
129 [label="BindAccessEval", color = yellow] ; 
128 -> 129 ; 
130 [label="SQLQuery
SELECT tab_365248.nr, tab_365248.producer, tab_365250.propertyTex5 
FROM Producer AS tab_365247, Product AS tab_365250, Product AS tab_365248, CountryType AS tab_365249  
WHERE tab_365249.countryType = 122 AND tab_365248.producer = tab_365247.nr AND tab_365249.country = tab_365247.country AND tab_365248.producer = tab_365250.producer AND tab_365248.nr = tab_365250.nr
22374", color = yellow] ; 
129 -> 130 ; 
131 [label="FunctionCallBindAccess
(<http://www4.wiwiss.fu-berlin.de/bizer/bsbm/v01/instances/dataFromProducer{1}/Product{0}>, \"{2}\")", color = yellow] ; 
129 -> 131 ; 
132 [label="FunctionCallBindAccess
AddConstant{1=(\"<http://www4.wiwiss.fu-berlin.de/bizer/bsbm/v01/vocabulary/Product>\", \"<http://www4.wiwiss.fu-berlin.de/bizer/bsbm/v01/vocabulary/productPropertyTextual>\")}", color = yellow] ; 
128 -> 132 ; 
134 [label="BindAccessEval", color = yellow] ; 
1 -> 134 ; 
135 [label="BindAccessEval", color = yellow] ; 
134 -> 135 ; 
136 [label="SQLQuery
SELECT tab_365254.nr, tab_365254.producer, tab_365257.propertyNum1 
FROM Producer AS tab_365256, Product AS tab_365254, Product AS tab_365257, CountryType AS tab_365255  
WHERE tab_365255.countryType = 122 AND tab_365254.producer = tab_365256.nr AND tab_365255.country = tab_365256.country AND tab_365254.producer = tab_365257.producer AND tab_365254.nr = tab_365257.nr
22374", color = yellow] ; 
135 -> 136 ; 
137 [label="FunctionCallBindAccess
(<http://www4.wiwiss.fu-berlin.de/bizer/bsbm/v01/instances/dataFromProducer{1}/Product{0}>, \"{2}\")", color = yellow] ; 
135 -> 137 ; 
138 [label="FunctionCallBindAccess
AddConstant{1=(\"<http://www4.wiwiss.fu-berlin.de/bizer/bsbm/v01/vocabulary/Product>\", \"<http://www4.wiwiss.fu-berlin.de/bizer/bsbm/v01/vocabulary/productPropertyNumeric>\")}", color = yellow] ; 
134 -> 138 ; 
140 [label="BindAccessEval", color = yellow] ; 
1 -> 140 ; 
141 [label="BindAccessEval", color = yellow] ; 
140 -> 141 ; 
142 [label="SQLQuery
SELECT tab_365263.nr, tab_365263.producer, tab_365264.propertyNum1 
FROM Product AS tab_365263, Product AS tab_365264, CountryType AS tab_365262, Producer AS tab_365261  
WHERE tab_365263.producer = tab_365261.nr AND tab_365262.countryType = 121 AND tab_365261.country = tab_365262.country AND tab_365263.producer = tab_365264.producer AND tab_365263.nr = tab_365264.nr
23884", color = yellow] ; 
141 -> 142 ; 
143 [label="FunctionCallBindAccess
(<http://www4.wiwiss.fu-berlin.de/bizer/bsbm/v01/instances/dataFromProducer{1}/Product{0}>, \"{2}\")", color = yellow] ; 
141 -> 143 ; 
144 [label="FunctionCallBindAccess
AddConstant{1=(\"<http://www4.wiwiss.fu-berlin.de/bizer/bsbm/v01/vocabulary/Product>\", \"<http://www4.wiwiss.fu-berlin.de/bizer/bsbm/v01/vocabulary/productPropertyNumeric>\")}", color = yellow] ; 
140 -> 144 ; 
}
