digraph  g{ graph[label = "10:46:55.193"]
node [shape=rectangle, color=black, fontcolor=black, style=bold] edge [color=black] 0 [label="BindAccessEval", color = yellow] ; 
1 [label="HashDistinct", color = yellow] ; 
0 -> 1 ; 
2 [label="Union", color = yellow] ; 
1 -> 2 ; 
3 [label="Project
[2, 3, 6]", color = yellow] ; 
2 -> 3 ; 
4 [label="HashJoin 
[0PREDICATE_EQUAL4,1PREDICATE_EQUAL5]
7", color = yellow] ; 
3 -> 4 ; 
5 [label="SQLQuery
SELECT tab_295.nr, tab_295.producer, tab_293.label, tab_296.propertyNum1 
FROM Product AS tab_293, PRODUCT AS tab_295, Product AS tab_296, PRODUCTTYPEPRODUCT AS tab_294  
WHERE tab_294.producttype = 110 AND tab_294.product = tab_295.nr AND tab_295.producer = tab_293.producer AND tab_295.nr = tab_293.nr AND tab_295.producer = tab_296.producer AND tab_295.nr = tab_296.nr", color = yellow] ; 
4 -> 5 ; 
6 [label="Project
[0, 1, 2]", color = yellow] ; 
4 -> 6 ; 
7 [label="HashJoin 
[2PREDICATE_EQUAL3]
553", color = yellow] ; 
6 -> 7 ; 
8 [label="PhyMongoDBEval
productproducercountry
[]
[nr, producer, country]
2810", color = yellow] ; 
7 -> 8 ; 
9 [label="PhyMongoDBEval
countrytype
[{\"$match\":{\"countrytype\":121}}]
[country]
2", color = yellow] ; 
7 -> 9 ; 
11 [label="Project
[6, 5, 0]", color = yellow] ; 
2 -> 11 ; 
12 [label="HashJoin 
[1PREDICATE_EQUAL3,2PREDICATE_EQUAL4]
5", color = yellow] ; 
11 -> 12 ; 
13 [label="Project
[0, 1, 2]", color = yellow] ; 
12 -> 13 ; 
14 [label="HashJoin 
[0PREDICATE_EQUAL3]
477", color = yellow] ; 
13 -> 14 ; 
15 [label="PhyMongoDBEval
countrytype
[{\"$match\":{\"countrytype\":122}}]
[country]
2", color = yellow] ; 
14 -> 15 ; 
16 [label="PhyMongoDBEval
productproducercountry
[]
[nr, producer, country]
2810", color = yellow] ; 
14 -> 16 ; 
17 [label="SQLQuery
SELECT tab_301.nr, tab_301.producer, tab_302.propertyNum1, tab_303.label 
FROM PRODUCT AS tab_301, PRODUCTTYPEPRODUCT AS tab_300, Product AS tab_303, Product AS tab_302  
WHERE tab_300.producttype = 110 AND tab_300.product = tab_301.nr AND tab_301.nr = tab_302.nr AND tab_301.producer = tab_302.producer AND tab_302.producer = tab_303.producer AND tab_302.nr = tab_303.nr", color = yellow] ; 
12 -> 17 ; 
19 [label="Project
[6, 2, 10]", color = yellow] ; 
2 -> 19 ; 
20 [label="HashJoin 
[0PREDICATE_EQUAL8,3PREDICATE_EQUAL8,5PREDICATE_EQUAL8,4PREDICATE_EQUAL9,1PREDICATE_EQUAL9,7PREDICATE_EQUAL9]
7", color = yellow] ; 
19 -> 20 ; 
21 [label="SQLQuery
SELECT tab_307.nr, tab_307.producer, tab_307.propertyNum2, tab_309.nr, tab_309.producer, tab_310.nr, tab_310.label, tab_310.producer 
FROM Product AS tab_307, Product AS tab_310, PRODUCT AS tab_309, PRODUCTTYPEPRODUCT AS tab_308  
WHERE tab_308.producttype = 110 AND tab_308.product = tab_309.nr AND tab_307.producer = tab_309.producer AND tab_307.nr = tab_309.nr AND tab_309.nr = tab_310.nr AND tab_309.producer = tab_310.producer", color = yellow] ; 
20 -> 21 ; 
22 [label="Project
[0, 1, 2]", color = yellow] ; 
20 -> 22 ; 
23 [label="HashJoin 
[2PREDICATE_EQUAL3]
553", color = yellow] ; 
22 -> 23 ; 
24 [label="PhyMongoDBEval
productproducercountry
[]
[nr, producer, country]
2810", color = yellow] ; 
23 -> 24 ; 
25 [label="PhyMongoDBEval
countrytype
[{\"$match\":{\"countrytype\":121}}]
[country]
2", color = yellow] ; 
23 -> 25 ; 
27 [label="Project
[6, 4, 10]", color = yellow] ; 
2 -> 27 ; 
28 [label="HashJoin 
[0PREDICATE_EQUAL8,2PREDICATE_EQUAL8,5PREDICATE_EQUAL8,3PREDICATE_EQUAL9,1PREDICATE_EQUAL9,7PREDICATE_EQUAL9]
4", color = yellow] ; 
27 -> 28 ; 
29 [label="SQLQuery
SELECT tab_314.nr, tab_314.producer, tab_316.nr, tab_316.producer, tab_316.propertyNum2, tab_317.nr, tab_317.label, tab_317.producer 
FROM PRODUCT AS tab_314, Product AS tab_317, Product AS tab_316, PRODUCTTYPEPRODUCT AS tab_315  
WHERE tab_315.producttype = 110 AND tab_315.product = tab_314.nr AND tab_314.producer = tab_316.producer AND tab_314.nr = tab_316.nr AND tab_316.nr = tab_317.nr AND tab_316.producer = tab_317.producer", color = yellow] ; 
28 -> 29 ; 
30 [label="Project
[0, 1, 3]", color = yellow] ; 
28 -> 30 ; 
31 [label="HashJoin 
[2PREDICATE_EQUAL3]
277", color = yellow] ; 
30 -> 31 ; 
32 [label="PhyMongoDBEval
productproducercountry
[]
[nr, producer, country]
2810", color = yellow] ; 
31 -> 32 ; 
33 [label="PhyMongoDBEval
countrytype
[{\"$match\":{\"countrytype\":111}}]
[country]
2", color = yellow] ; 
31 -> 33 ; 
35 [label="Project
[3, 2, 8]", color = yellow] ; 
2 -> 35 ; 
36 [label="HashJoin 
[5PREDICATE_EQUAL7,1PREDICATE_EQUAL7,0PREDICATE_EQUAL6,4PREDICATE_EQUAL6]
5", color = yellow] ; 
35 -> 36 ; 
37 [label="SQLQuery
SELECT tab_319.nr, tab_319.producer, tab_319.propertyNum2, tab_318.label, tab_320.nr, tab_320.producer 
FROM Product AS tab_318, PRODUCTTYPEPRODUCT AS tab_321, PRODUCT AS tab_320, Product AS tab_319  
WHERE tab_319.producer = tab_318.producer AND tab_319.nr = tab_318.nr AND tab_321.producttype = 110 AND tab_321.product = tab_320.nr AND tab_319.producer = tab_320.producer AND tab_319.nr = tab_320.nr", color = yellow] ; 
36 -> 37 ; 
38 [label="Project
[1, 2, 3]", color = yellow] ; 
36 -> 38 ; 
39 [label="HashJoin 
[0PREDICATE_EQUAL3]
477", color = yellow] ; 
38 -> 39 ; 
40 [label="PhyMongoDBEval
countrytype
[{\"$match\":{\"countrytype\":122}}]
[country]
2", color = yellow] ; 
39 -> 40 ; 
41 [label="PhyMongoDBEval
productproducercountry
[]
[nr, producer, country]
2810", color = yellow] ; 
39 -> 41 ; 
43 [label="Project
[6, 2, 10]", color = yellow] ; 
2 -> 43 ; 
44 [label="HashJoin 
[0PREDICATE_EQUAL8,3PREDICATE_EQUAL8,5PREDICATE_EQUAL8,1PREDICATE_EQUAL9,7PREDICATE_EQUAL9,4PREDICATE_EQUAL9]
16", color = yellow] ; 
43 -> 44 ; 
45 [label="SQLQuery
SELECT tab_327.nr, tab_327.producer, tab_327.propertyNum2, tab_325.nr, tab_325.producer, tab_328.nr, tab_328.label, tab_328.producer 
FROM PRODUCT AS tab_325, Product AS tab_328, Product AS tab_327, PRODUCTTYPEPRODUCT AS tab_326  
WHERE tab_326.producttype = 110 AND tab_326.product = tab_325.nr AND tab_327.nr = tab_325.nr AND tab_327.producer = tab_325.producer AND tab_325.nr = tab_328.nr AND tab_325.producer = tab_328.producer", color = yellow] ; 
44 -> 45 ; 
46 [label="Project
[0, 1, 2]", color = yellow] ; 
44 -> 46 ; 
47 [label="HashJoin 
[2PREDICATE_EQUAL3]
1314", color = yellow] ; 
46 -> 47 ; 
48 [label="PhyMongoDBEval
productproducercountry
[]
[nr, producer, country]
2810", color = yellow] ; 
47 -> 48 ; 
49 [label="PhyMongoDBEval
countrytype
[{\"$match\":{\"countrytype\":112}}]
[country]
2", color = yellow] ; 
47 -> 49 ; 
51 [label="Project
[6, 2, 10]", color = yellow] ; 
2 -> 51 ; 
52 [label="HashJoin 
[4PREDICATE_EQUAL9,7PREDICATE_EQUAL9,1PREDICATE_EQUAL9,0PREDICATE_EQUAL8,3PREDICATE_EQUAL8,5PREDICATE_EQUAL8]
16", color = yellow] ; 
51 -> 52 ; 
53 [label="SQLQuery
SELECT tab_332.nr, tab_332.producer, tab_332.propertyNum1, tab_334.nr, tab_334.producer, tab_335.nr, tab_335.label, tab_335.producer 
FROM PRODUCT AS tab_334, PRODUCTTYPEPRODUCT AS tab_333, Product AS tab_332, Product AS tab_335  
WHERE tab_333.producttype = 110 AND tab_333.product = tab_334.nr AND tab_332.producer = tab_334.producer AND tab_332.nr = tab_334.nr AND tab_334.producer = tab_335.producer AND tab_334.nr = tab_335.nr", color = yellow] ; 
52 -> 53 ; 
54 [label="Project
[0, 1, 2]", color = yellow] ; 
52 -> 54 ; 
55 [label="HashJoin 
[2PREDICATE_EQUAL3]
1314", color = yellow] ; 
54 -> 55 ; 
56 [label="PhyMongoDBEval
productproducercountry
[]
[nr, producer, country]
2810", color = yellow] ; 
55 -> 56 ; 
57 [label="PhyMongoDBEval
countrytype
[{\"$match\":{\"countrytype\":112}}]
[country]
2", color = yellow] ; 
55 -> 57 ; 
59 [label="Project
[3, 2, 6]", color = yellow] ; 
2 -> 59 ; 
60 [label="HashJoin 
[1PREDICATE_EQUAL5,0PREDICATE_EQUAL4]
4", color = yellow] ; 
59 -> 60 ; 
61 [label="SQLQuery
SELECT tab_286.nr, tab_286.producer, tab_286.propertyNum1, tab_287.label 
FROM PRODUCT AS tab_288, PRODUCTTYPEPRODUCT AS tab_289, Product AS tab_287, Product AS tab_286  
WHERE tab_286.producer = tab_287.producer AND tab_286.nr = tab_287.nr AND tab_289.producttype = 110 AND tab_289.product = tab_288.nr AND tab_286.producer = tab_288.producer AND tab_286.nr = tab_288.nr", color = yellow] ; 
60 -> 61 ; 
62 [label="Project
[1, 2, 3]", color = yellow] ; 
60 -> 62 ; 
63 [label="HashJoin 
[0PREDICATE_EQUAL3]
277", color = yellow] ; 
62 -> 63 ; 
64 [label="PhyMongoDBEval
countrytype
[{\"$match\":{\"countrytype\":111}}]
[country]
2", color = yellow] ; 
63 -> 64 ; 
65 [label="PhyMongoDBEval
productproducercountry
[]
[nr, producer, country]
2810", color = yellow] ; 
63 -> 65 ; 
66 [label="FunctionCallBindAccess
(\"{0}\", \"{1}\", <http://downlode.org/rdf/iso-3166/countries#{2}>)", color = yellow] ; 
0 -> 66 ; 
}
