digraph  g{ graph[label = "10:47:3.985"]
node [shape=rectangle, color=black, fontcolor=black, style=bold] edge [color=black] 0 [label="BindAccessEval", color = yellow] ; 
1 [label="HashDistinct", color = yellow] ; 
0 -> 1 ; 
2 [label="Union", color = yellow] ; 
1 -> 2 ; 
3 [label="Project
[3, 2, 4]", color = yellow] ; 
2 -> 3 ; 
4 [label="HashJoin 
[1PREDICATE_EQUAL3,0PREDICATE_EQUAL2]
9262", color = yellow] ; 
3 -> 4 ; 
5 [label="Project
[1, 2]", color = yellow] ; 
4 -> 5 ; 
6 [label="HashJoin 
[[0PREDICATE_EQUAL3]]
9262", color = yellow] ; 
5 -> 6 ; 
7 [label="PhyMongoDBEval
countrytype
[{\"$match\":{\"countrytype\":111}}]
[country]
2", color = yellow] ; 
6 -> 7 ; 
8 [label="SQLQuery
SELECT O.nr AS nr, O.vendor AS vendor, V.country AS country 
FROM Offer AS O, Vendor AS V 
WHERE O.vendor = V.nr", color = yellow] ; 
6 -> 8 ; 
9 [label="PhyMongoDBEval
offer
[]
[nr, vendor, offerwebpage]
56200", color = yellow] ; 
4 -> 9 ; 
11 [label="Project
[1, 0, 4]", color = yellow] ; 
2 -> 11 ; 
12 [label="HashJoin 
[0PREDICATE_EQUAL2,1PREDICATE_EQUAL3]
23827", color = yellow] ; 
11 -> 12 ; 
13 [label="Project
[1, 2]", color = yellow] ; 
12 -> 13 ; 
14 [label="HashJoin 
[[0PREDICATE_EQUAL3]]
23827", color = yellow] ; 
13 -> 14 ; 
15 [label="PhyMongoDBEval
countrytype
[{\"$match\":{\"countrytype\":112}}]
[country]
2", color = yellow] ; 
14 -> 15 ; 
16 [label="SQLQuery
SELECT O.nr AS nr, O.vendor AS vendor, V.country AS country 
FROM Offer AS O, Vendor AS V 
WHERE O.vendor = V.nr", color = yellow] ; 
14 -> 16 ; 
17 [label="PhyMongoDBEval
offer
[]
[nr, vendor, offerwebpage]
56200", color = yellow] ; 
12 -> 17 ; 
18 [label="FunctionCallBindAccess
(<http://www4.wiwiss.fu-berlin.de/bizer/bsbm/v01/instances/dataFromVendor{0}/Offer{1}>, <{2}>)", color = yellow] ; 
0 -> 18 ; 
}
