digraph  g{ graph[label = "10:47:6.297"]
node [shape=rectangle, color=black, fontcolor=black, style=bold] edge [color=black] 0 [label="BindAccessEval", color = yellow] ; 
1 [label="HashDistinct", color = yellow] ; 
0 -> 1 ; 
2 [label="Union", color = yellow] ; 
1 -> 2 ; 
3 [label="Project
[3, 2, 4]", color = yellow] ; 
2 -> 3 ; 
4 [label="HashJoin 
[0PREDICATE_EQUAL2,1PREDICATE_EQUAL3]
23827", color = yellow] ; 
3 -> 4 ; 
5 [label="Project
[0, 1]", color = yellow] ; 
4 -> 5 ; 
6 [label="HashJoin 
[[2PREDICATE_EQUAL3]]
23827", color = yellow] ; 
5 -> 6 ; 
7 [label="SQLQuery
SELECT O.nr AS nr, O.vendor AS vendor, V.country AS country 
FROM Offer AS O, Vendor AS V 
WHERE O.vendor = V.nr", color = yellow] ; 
6 -> 7 ; 
8 [label="PhyMongoDBEval
countrytype
[{\"$match\":{\"countrytype\":112}}]
[country]
2", color = yellow] ; 
6 -> 8 ; 
9 [label="PhyMongoDBEval
offer
[]
[nr, vendor, offerwebpage]
56200", color = yellow] ; 
4 -> 9 ; 
11 [label="Project
[2, 1, 0]", color = yellow] ; 
2 -> 11 ; 
12 [label="HashJoin 
3PREDICATE_EQUAL4
15684", color = yellow] ; 
11 -> 12 ; 
13 [label="Project
[2, 3, 4, 5]", color = yellow] ; 
12 -> 13 ; 
14 [label="HashJoin 
[0PREDICATE_EQUAL3,1PREDICATE_EQUAL4]
56200", color = yellow] ; 
13 -> 14 ; 
15 [label="PhyMongoDBEval
offer
[]
[nr, vendor, offerwebpage]
56200", color = yellow] ; 
14 -> 15 ; 
16 [label="SQLQuery
SELECT O.nr, O.vendor, V.country 
FROM Offer AS O, Vendor AS V  
WHERE O.vendor = V.nr", color = yellow] ; 
14 -> 16 ; 
17 [label="PhyMongoDBEval
countrytype
[{\"$match\":{\"countrytype\":122}}]
[country]
2", color = yellow] ; 
12 -> 17 ; 
19 [label="Project
[1, 0, 3]", color = yellow] ; 
2 -> 19 ; 
20 [label="HashJoin 
2PREDICATE_EQUAL4
17869", color = yellow] ; 
19 -> 20 ; 
21 [label="Project
[0, 1, 2, 5]", color = yellow] ; 
20 -> 21 ; 
22 [label="HashJoin 
[0PREDICATE_EQUAL3,1PREDICATE_EQUAL4]
56200", color = yellow] ; 
21 -> 22 ; 
23 [label="SQLQuery
SELECT O.nr, O.vendor, V.country 
FROM Offer AS O, Vendor AS V  
WHERE O.vendor = V.nr", color = yellow] ; 
22 -> 23 ; 
24 [label="PhyMongoDBEval
offer
[]
[nr, vendor, offerwebpage]
56200", color = yellow] ; 
22 -> 24 ; 
25 [label="PhyMongoDBEval
countrytype
[{\"$match\":{\"countrytype\":121}}]
[country]
2", color = yellow] ; 
20 -> 25 ; 
27 [label="Project
[1, 0, 4]", color = yellow] ; 
2 -> 27 ; 
28 [label="HashJoin 
[1PREDICATE_EQUAL3,0PREDICATE_EQUAL2]
9262", color = yellow] ; 
27 -> 28 ; 
29 [label="Project
[1, 2]", color = yellow] ; 
28 -> 29 ; 
30 [label="HashJoin 
[[0PREDICATE_EQUAL3]]
9262", color = yellow] ; 
29 -> 30 ; 
31 [label="PhyMongoDBEval
countrytype
[{\"$match\":{\"countrytype\":111}}]
[country]
2", color = yellow] ; 
30 -> 31 ; 
32 [label="SQLQuery
SELECT O.nr AS nr, O.vendor AS vendor, V.country AS country 
FROM Offer AS O, Vendor AS V 
WHERE O.vendor = V.nr", color = yellow] ; 
30 -> 32 ; 
33 [label="PhyMongoDBEval
offer
[]
[nr, vendor, offerwebpage]
56200", color = yellow] ; 
28 -> 33 ; 
34 [label="FunctionCallBindAccess
(<http://www4.wiwiss.fu-berlin.de/bizer/bsbm/v01/instances/dataFromVendor{0}/Offer{1}>, <{2}>)", color = yellow] ; 
0 -> 34 ; 
}
