digraph  g{ graph[label = "10:47:10.412"]
node [shape=rectangle, color=black, fontcolor=black, style=bold] edge [color=black] 0 [label="BindAccessEval", color = yellow] ; 
1 [label="HashDistinct", color = yellow] ; 
0 -> 1 ; 
2 [label="Union", color = yellow] ; 
1 -> 2 ; 
3 [label="Project
[0]", color = yellow] ; 
2 -> 3 ; 
4 [label="HashJoin 
0PREDICATE_EQUAL1
0", color = yellow] ; 
3 -> 4 ; 
5 [label="PhyMongoDBEval
countrytype
[{\"$match\":{\"countrytype\":222}}]
[country]
2", color = yellow] ; 
4 -> 5 ; 
6 [label="SQLQuery
SELECT PR.country 
FROM Review AS R, Product AS P, Producer AS PR, Producttypeproduct AS PTP  
WHERE P.nr = R.product AND P.producer = PR.nr AND P.nr = PTP.product AND PTP.producttype=146", color = yellow] ; 
4 -> 6 ; 
8 [label="Project
[0]", color = yellow] ; 
2 -> 8 ; 
9 [label="HashJoin 
0PREDICATE_EQUAL1
0", color = yellow] ; 
8 -> 9 ; 
10 [label="PhyMongoDBEval
countrytype
[{\"$match\":{\"countrytype\":222}}]
[country]
2", color = yellow] ; 
9 -> 10 ; 
11 [label="SQLQuery
SELECT PR.country 
FROM Review AS R, Product AS P, Producer AS PR, Producttypeproduct AS PTP  
WHERE P.nr = R.product AND P.producer = PR.nr AND P.nr = PTP.product AND PTP.producttype=136", color = yellow] ; 
9 -> 11 ; 
13 [label="Project
[0]", color = yellow] ; 
2 -> 13 ; 
14 [label="HashJoin 
0PREDICATE_EQUAL1
43", color = yellow] ; 
13 -> 14 ; 
15 [label="PhyMongoDBEval
countrytype
[{\"$match\":{\"countrytype\":222}}]
[country]
2", color = yellow] ; 
14 -> 15 ; 
16 [label="SQLQuery
SELECT PR.country 
FROM Review AS R, Product AS P, Producer AS PR, Producttypeproduct AS PTP  
WHERE P.nr = R.product AND P.producer = PR.nr AND P.nr = PTP.product AND PTP.producttype=116", color = yellow] ; 
14 -> 16 ; 
18 [label="Project
[0]", color = yellow] ; 
2 -> 18 ; 
19 [label="HashJoin 
0PREDICATE_EQUAL1
0", color = yellow] ; 
18 -> 19 ; 
20 [label="SQLQuery
SELECT PR.country 
FROM Review AS R, Product AS P, Producer AS PR, Producttypeproduct AS PTP  
WHERE P.nr = R.product AND P.producer = PR.nr AND P.nr = PTP.product AND PTP.producttype=132", color = yellow] ; 
19 -> 20 ; 
21 [label="PhyMongoDBEval
countrytype
[{\"$match\":{\"countrytype\":222}}]
[country]
2", color = yellow] ; 
19 -> 21 ; 
23 [label="Project
[0]", color = yellow] ; 
2 -> 23 ; 
24 [label="HashJoin 
0PREDICATE_EQUAL1
40", color = yellow] ; 
23 -> 24 ; 
25 [label="SQLQuery
SELECT PR.country 
FROM Review AS R, Product AS P, Producer AS PR, Producttypeproduct AS PTP  
WHERE P.nr = R.product AND P.producer = PR.nr AND P.nr = PTP.product AND PTP.producttype=70", color = yellow] ; 
24 -> 25 ; 
26 [label="PhyMongoDBEval
countrytype
[{\"$match\":{\"countrytype\":222}}]
[country]
2", color = yellow] ; 
24 -> 26 ; 
28 [label="Project
[0]", color = yellow] ; 
2 -> 28 ; 
29 [label="HashJoin 
0PREDICATE_EQUAL1
11", color = yellow] ; 
28 -> 29 ; 
30 [label="SQLQuery
SELECT PR.country 
FROM Review AS R, Product AS P, Producer AS PR, Producttypeproduct AS PTP  
WHERE P.nr = R.product AND P.producer = PR.nr AND P.nr = PTP.product AND PTP.producttype=57", color = yellow] ; 
29 -> 30 ; 
31 [label="PhyMongoDBEval
countrytype
[{\"$match\":{\"countrytype\":222}}]
[country]
2", color = yellow] ; 
29 -> 31 ; 
33 [label="Project
[0]", color = yellow] ; 
2 -> 33 ; 
34 [label="HashJoin 
0PREDICATE_EQUAL1
11", color = yellow] ; 
33 -> 34 ; 
35 [label="PhyMongoDBEval
countrytype
[{\"$match\":{\"countrytype\":222}}]
[country]
2", color = yellow] ; 
34 -> 35 ; 
36 [label="SQLQuery
SELECT PR.country 
FROM Review AS R, Product AS P, Producer AS PR, Producttypeproduct AS PTP  
WHERE P.nr = R.product AND P.producer = PR.nr AND P.nr = PTP.product AND PTP.producttype=123", color = yellow] ; 
34 -> 36 ; 
38 [label="Project
[0]", color = yellow] ; 
2 -> 38 ; 
39 [label="HashJoin 
0PREDICATE_EQUAL1
38", color = yellow] ; 
38 -> 39 ; 
40 [label="PhyMongoDBEval
countrytype
[{\"$match\":{\"countrytype\":222}}]
[country]
2", color = yellow] ; 
39 -> 40 ; 
41 [label="SQLQuery
SELECT PR.country 
FROM Review AS R, Product AS P, Producer AS PR, Producttypeproduct AS PTP  
WHERE P.nr = R.product AND P.producer = PR.nr AND P.nr = PTP.product AND PTP.producttype=85", color = yellow] ; 
39 -> 41 ; 
43 [label="Project
[0]", color = yellow] ; 
2 -> 43 ; 
44 [label="HashJoin 
0PREDICATE_EQUAL1
0", color = yellow] ; 
43 -> 44 ; 
45 [label="SQLQuery
SELECT PR.country 
FROM Offer AS O, Product AS P, Producer AS PR, PRODUCTTYPEPRODUCT AS PTP  
WHERE P.nr = O.product AND PR.nr = P.producer AND P.nr = PTP.product AND PTP.producttype=127", color = yellow] ; 
44 -> 45 ; 
46 [label="PhyMongoDBEval
countrytype
[{\"$match\":{\"countrytype\":222}}]
[country]
2", color = yellow] ; 
44 -> 46 ; 
48 [label="Project
[0]", color = yellow] ; 
2 -> 48 ; 
49 [label="HashJoin 
0PREDICATE_EQUAL1
0", color = yellow] ; 
48 -> 49 ; 
50 [label="PhyMongoDBEval
countrytype
[{\"$match\":{\"countrytype\":222}}]
[country]
2", color = yellow] ; 
49 -> 50 ; 
51 [label="SQLQuery
SELECT PR.country 
FROM Review AS R, Product AS P, Producer AS PR, Producttypeproduct AS PTP  
WHERE P.nr = R.product AND P.producer = PR.nr AND P.nr = PTP.product AND PTP.producttype=131", color = yellow] ; 
49 -> 51 ; 
53 [label="Project
[0]", color = yellow] ; 
2 -> 53 ; 
54 [label="HashJoin 
0PREDICATE_EQUAL1
34", color = yellow] ; 
53 -> 54 ; 
55 [label="SQLQuery
SELECT PR.country 
FROM Offer AS O, Product AS P, Producer AS PR, PRODUCTTYPEPRODUCT AS PTP  
WHERE P.nr = O.product AND PR.nr = P.producer AND P.nr = PTP.product AND PTP.producttype=134", color = yellow] ; 
54 -> 55 ; 
56 [label="PhyMongoDBEval
countrytype
[{\"$match\":{\"countrytype\":222}}]
[country]
2", color = yellow] ; 
54 -> 56 ; 
58 [label="Project
[0]", color = yellow] ; 
2 -> 58 ; 
59 [label="HashJoin 
0PREDICATE_EQUAL1
25", color = yellow] ; 
58 -> 59 ; 
60 [label="PhyMongoDBEval
countrytype
[{\"$match\":{\"countrytype\":222}}]
[country]
2", color = yellow] ; 
59 -> 60 ; 
61 [label="SQLQuery
SELECT PR.country 
FROM Review AS R, Product AS P, Producer AS PR, Producttypeproduct AS PTP  
WHERE P.nr = R.product AND P.producer = PR.nr AND P.nr = PTP.product AND PTP.producttype=67", color = yellow] ; 
59 -> 61 ; 
63 [label="Project
[0]", color = yellow] ; 
2 -> 63 ; 
64 [label="HashJoin 
0PREDICATE_EQUAL1
11", color = yellow] ; 
63 -> 64 ; 
65 [label="SQLQuery
SELECT PR.country 
FROM Review AS R, Product AS P, Producer AS PR, Producttypeproduct AS PTP  
WHERE P.nr = R.product AND P.producer = PR.nr AND P.nr = PTP.product AND PTP.producttype=98", color = yellow] ; 
64 -> 65 ; 
66 [label="PhyMongoDBEval
countrytype
[{\"$match\":{\"countrytype\":222}}]
[country]
2", color = yellow] ; 
64 -> 66 ; 
68 [label="Project
[0]", color = yellow] ; 
2 -> 68 ; 
69 [label="HashJoin 
0PREDICATE_EQUAL1
0", color = yellow] ; 
68 -> 69 ; 
70 [label="SQLQuery
SELECT PR.country 
FROM Review AS R, Product AS P, Producer AS PR, Producttypeproduct AS PTP  
WHERE P.nr = R.product AND P.producer = PR.nr AND P.nr = PTP.product AND PTP.producttype=125", color = yellow] ; 
69 -> 70 ; 
71 [label="PhyMongoDBEval
countrytype
[{\"$match\":{\"countrytype\":222}}]
[country]
2", color = yellow] ; 
69 -> 71 ; 
73 [label="Project
[0]", color = yellow] ; 
2 -> 73 ; 
74 [label="HashJoin 
0PREDICATE_EQUAL1
0", color = yellow] ; 
73 -> 74 ; 
75 [label="PhyMongoDBEval
countrytype
[{\"$match\":{\"countrytype\":222}}]
[country]
2", color = yellow] ; 
74 -> 75 ; 
76 [label="SQLQuery
SELECT PR.country 
FROM Offer AS O, Product AS P, Producer AS PR, PRODUCTTYPEPRODUCT AS PTP  
WHERE P.nr = O.product AND PR.nr = P.producer AND P.nr = PTP.product AND PTP.producttype=149", color = yellow] ; 
74 -> 76 ; 
78 [label="Project
[0]", color = yellow] ; 
2 -> 78 ; 
79 [label="HashJoin 
0PREDICATE_EQUAL1
91", color = yellow] ; 
78 -> 79 ; 
80 [label="SQLQuery
SELECT PR.country 
FROM Offer AS O, Product AS P, Producer AS PR, PRODUCTTYPEPRODUCT AS PTP  
WHERE P.nr = O.product AND PR.nr = P.producer AND P.nr = PTP.product AND PTP.producttype=62", color = yellow] ; 
79 -> 80 ; 
81 [label="PhyMongoDBEval
countrytype
[{\"$match\":{\"countrytype\":222}}]
[country]
2", color = yellow] ; 
79 -> 81 ; 
83 [label="Project
[0]", color = yellow] ; 
2 -> 83 ; 
84 [label="HashJoin 
0PREDICATE_EQUAL1
97", color = yellow] ; 
83 -> 84 ; 
85 [label="PhyMongoDBEval
countrytype
[{\"$match\":{\"countrytype\":222}}]
[country]
2", color = yellow] ; 
84 -> 85 ; 
86 [label="SQLQuery
SELECT PR.country 
FROM Offer AS O, Product AS P, Producer AS PR, PRODUCTTYPEPRODUCT AS PTP  
WHERE P.nr = O.product AND PR.nr = P.producer AND P.nr = PTP.product AND PTP.producttype=64", color = yellow] ; 
84 -> 86 ; 
88 [label="Project
[0]", color = yellow] ; 
2 -> 88 ; 
89 [label="HashJoin 
0PREDICATE_EQUAL1
29", color = yellow] ; 
88 -> 89 ; 
90 [label="SQLQuery
SELECT PR.country 
FROM Review AS R, Product AS P, Producer AS PR, Producttypeproduct AS PTP  
WHERE P.nr = R.product AND P.producer = PR.nr AND P.nr = PTP.product AND PTP.producttype=99", color = yellow] ; 
89 -> 90 ; 
91 [label="PhyMongoDBEval
countrytype
[{\"$match\":{\"countrytype\":222}}]
[country]
2", color = yellow] ; 
89 -> 91 ; 
93 [label="Project
[0]", color = yellow] ; 
2 -> 93 ; 
94 [label="HashJoin 
0PREDICATE_EQUAL1
21", color = yellow] ; 
93 -> 94 ; 
95 [label="SQLQuery
SELECT PR.country 
FROM Review AS R, Product AS P, Producer AS PR, Producttypeproduct AS PTP  
WHERE P.nr = R.product AND P.producer = PR.nr AND P.nr = PTP.product AND PTP.producttype=101", color = yellow] ; 
94 -> 95 ; 
96 [label="PhyMongoDBEval
countrytype
[{\"$match\":{\"countrytype\":222}}]
[country]
2", color = yellow] ; 
94 -> 96 ; 
98 [label="Project
[0]", color = yellow] ; 
2 -> 98 ; 
99 [label="HashJoin 
0PREDICATE_EQUAL1
0", color = yellow] ; 
98 -> 99 ; 
100 [label="SQLQuery
SELECT PR.country 
FROM Review AS R, Product AS P, Producer AS PR, Producttypeproduct AS PTP  
WHERE P.nr = R.product AND P.producer = PR.nr AND P.nr = PTP.product AND PTP.producttype=127", color = yellow] ; 
99 -> 100 ; 
101 [label="PhyMongoDBEval
countrytype
[{\"$match\":{\"countrytype\":222}}]
[country]
2", color = yellow] ; 
99 -> 101 ; 
103 [label="Project
[0]", color = yellow] ; 
2 -> 103 ; 
104 [label="HashJoin 
0PREDICATE_EQUAL1
0", color = yellow] ; 
103 -> 104 ; 
105 [label="SQLQuery
SELECT PR.country 
FROM Review AS R, Product AS P, Producer AS PR, Producttypeproduct AS PTP  
WHERE P.nr = R.product AND P.producer = PR.nr AND P.nr = PTP.product AND PTP.producttype=76", color = yellow] ; 
104 -> 105 ; 
106 [label="PhyMongoDBEval
countrytype
[{\"$match\":{\"countrytype\":222}}]
[country]
2", color = yellow] ; 
104 -> 106 ; 
108 [label="Project
[0]", color = yellow] ; 
2 -> 108 ; 
109 [label="HashJoin 
0PREDICATE_EQUAL1
0", color = yellow] ; 
108 -> 109 ; 
110 [label="PhyMongoDBEval
countrytype
[{\"$match\":{\"countrytype\":222}}]
[country]
2", color = yellow] ; 
109 -> 110 ; 
111 [label="SQLQuery
SELECT PR.country 
FROM Offer AS O, Product AS P, Producer AS PR, PRODUCTTYPEPRODUCT AS PTP  
WHERE P.nr = O.product AND PR.nr = P.producer AND P.nr = PTP.product AND PTP.producttype=124", color = yellow] ; 
109 -> 111 ; 
113 [label="Project
[0]", color = yellow] ; 
2 -> 113 ; 
114 [label="HashJoin 
0PREDICATE_EQUAL1
13", color = yellow] ; 
113 -> 114 ; 
115 [label="SQLQuery
SELECT PR.country 
FROM Review AS R, Product AS P, Producer AS PR, Producttypeproduct AS PTP  
WHERE P.nr = R.product AND P.producer = PR.nr AND P.nr = PTP.product AND PTP.producttype=137", color = yellow] ; 
114 -> 115 ; 
116 [label="PhyMongoDBEval
countrytype
[{\"$match\":{\"countrytype\":222}}]
[country]
2", color = yellow] ; 
114 -> 116 ; 
118 [label="Project
[0]", color = yellow] ; 
2 -> 118 ; 
119 [label="HashJoin 
0PREDICATE_EQUAL1
30", color = yellow] ; 
118 -> 119 ; 
120 [label="SQLQuery
SELECT PR.country 
FROM Offer AS O, Product AS P, Producer AS PR, PRODUCTTYPEPRODUCT AS PTP  
WHERE P.nr = O.product AND PR.nr = P.producer AND P.nr = PTP.product AND PTP.producttype=103", color = yellow] ; 
119 -> 120 ; 
121 [label="PhyMongoDBEval
countrytype
[{\"$match\":{\"countrytype\":222}}]
[country]
2", color = yellow] ; 
119 -> 121 ; 
123 [label="Project
[0]", color = yellow] ; 
2 -> 123 ; 
124 [label="HashJoin 
0PREDICATE_EQUAL1
0", color = yellow] ; 
123 -> 124 ; 
125 [label="PhyMongoDBEval
countrytype
[{\"$match\":{\"countrytype\":222}}]
[country]
2", color = yellow] ; 
124 -> 125 ; 
126 [label="SQLQuery
SELECT PR.country 
FROM Review AS R, Product AS P, Producer AS PR, Producttypeproduct AS PTP  
WHERE P.nr = R.product AND P.producer = PR.nr AND P.nr = PTP.product AND PTP.producttype=121", color = yellow] ; 
124 -> 126 ; 
128 [label="Project
[0]", color = yellow] ; 
2 -> 128 ; 
129 [label="HashJoin 
0PREDICATE_EQUAL1
28", color = yellow] ; 
128 -> 129 ; 
130 [label="SQLQuery
SELECT PR.country 
FROM Offer AS O, Product AS P, Producer AS PR, PRODUCTTYPEPRODUCT AS PTP  
WHERE P.nr = O.product AND PR.nr = P.producer AND P.nr = PTP.product AND PTP.producttype=97", color = yellow] ; 
129 -> 130 ; 
131 [label="PhyMongoDBEval
countrytype
[{\"$match\":{\"countrytype\":222}}]
[country]
2", color = yellow] ; 
129 -> 131 ; 
133 [label="Project
[0]", color = yellow] ; 
2 -> 133 ; 
134 [label="HashJoin 
0PREDICATE_EQUAL1
0", color = yellow] ; 
133 -> 134 ; 
135 [label="PhyMongoDBEval
countrytype
[{\"$match\":{\"countrytype\":222}}]
[country]
2", color = yellow] ; 
134 -> 135 ; 
136 [label="SQLQuery
SELECT PR.country 
FROM Offer AS O, Product AS P, Producer AS PR, PRODUCTTYPEPRODUCT AS PTP  
WHERE P.nr = O.product AND PR.nr = P.producer AND P.nr = PTP.product AND PTP.producttype=108", color = yellow] ; 
134 -> 136 ; 
138 [label="Project
[0]", color = yellow] ; 
2 -> 138 ; 
139 [label="HashJoin 
0PREDICATE_EQUAL1
36", color = yellow] ; 
138 -> 139 ; 
140 [label="SQLQuery
SELECT PR.country 
FROM Offer AS O, Product AS P, Producer AS PR, PRODUCTTYPEPRODUCT AS PTP  
WHERE P.nr = O.product AND PR.nr = P.producer AND P.nr = PTP.product AND PTP.producttype=57", color = yellow] ; 
139 -> 140 ; 
141 [label="PhyMongoDBEval
countrytype
[{\"$match\":{\"countrytype\":222}}]
[country]
2", color = yellow] ; 
139 -> 141 ; 
143 [label="Project
[0]", color = yellow] ; 
2 -> 143 ; 
144 [label="HashJoin 
0PREDICATE_EQUAL1
42", color = yellow] ; 
143 -> 144 ; 
145 [label="SQLQuery
SELECT PR.country 
FROM Offer AS O, Product AS P, Producer AS PR, PRODUCTTYPEPRODUCT AS PTP  
WHERE P.nr = O.product AND PR.nr = P.producer AND P.nr = PTP.product AND PTP.producttype=81", color = yellow] ; 
144 -> 145 ; 
146 [label="PhyMongoDBEval
countrytype
[{\"$match\":{\"countrytype\":222}}]
[country]
2", color = yellow] ; 
144 -> 146 ; 
148 [label="Project
[0]", color = yellow] ; 
2 -> 148 ; 
149 [label="HashJoin 
0PREDICATE_EQUAL1
28", color = yellow] ; 
148 -> 149 ; 
150 [label="PhyMongoDBEval
countrytype
[{\"$match\":{\"countrytype\":222}}]
[country]
2", color = yellow] ; 
149 -> 150 ; 
151 [label="SQLQuery
SELECT PR.country 
FROM Offer AS O, Product AS P, Producer AS PR, PRODUCTTYPEPRODUCT AS PTP  
WHERE P.nr = O.product AND PR.nr = P.producer AND P.nr = PTP.product AND PTP.producttype=130", color = yellow] ; 
149 -> 151 ; 
153 [label="Project
[0]", color = yellow] ; 
2 -> 153 ; 
154 [label="HashJoin 
0PREDICATE_EQUAL1
16", color = yellow] ; 
153 -> 154 ; 
155 [label="SQLQuery
SELECT PR.country 
FROM Review AS R, Product AS P, Producer AS PR, Producttypeproduct AS PTP  
WHERE P.nr = R.product AND P.producer = PR.nr AND P.nr = PTP.product AND PTP.producttype=106", color = yellow] ; 
154 -> 155 ; 
156 [label="PhyMongoDBEval
countrytype
[{\"$match\":{\"countrytype\":222}}]
[country]
2", color = yellow] ; 
154 -> 156 ; 
158 [label="Project
[0]", color = yellow] ; 
2 -> 158 ; 
159 [label="HashJoin 
0PREDICATE_EQUAL1
0", color = yellow] ; 
158 -> 159 ; 
160 [label="SQLQuery
SELECT PR.country 
FROM Offer AS O, Product AS P, Producer AS PR, PRODUCTTYPEPRODUCT AS PTP  
WHERE P.nr = O.product AND PR.nr = P.producer AND P.nr = PTP.product AND PTP.producttype=141", color = yellow] ; 
159 -> 160 ; 
161 [label="PhyMongoDBEval
countrytype
[{\"$match\":{\"countrytype\":222}}]
[country]
2", color = yellow] ; 
159 -> 161 ; 
163 [label="Project
[0]", color = yellow] ; 
2 -> 163 ; 
164 [label="HashJoin 
0PREDICATE_EQUAL1
0", color = yellow] ; 
163 -> 164 ; 
165 [label="SQLQuery
SELECT PR.country 
FROM Offer AS O, Product AS P, Producer AS PR, PRODUCTTYPEPRODUCT AS PTP  
WHERE P.nr = O.product AND PR.nr = P.producer AND P.nr = PTP.product AND PTP.producttype=144", color = yellow] ; 
164 -> 165 ; 
166 [label="PhyMongoDBEval
countrytype
[{\"$match\":{\"countrytype\":222}}]
[country]
2", color = yellow] ; 
164 -> 166 ; 
168 [label="Project
[0]", color = yellow] ; 
2 -> 168 ; 
169 [label="HashJoin 
0PREDICATE_EQUAL1
31", color = yellow] ; 
168 -> 169 ; 
170 [label="PhyMongoDBEval
countrytype
[{\"$match\":{\"countrytype\":222}}]
[country]
2", color = yellow] ; 
169 -> 170 ; 
171 [label="SQLQuery
SELECT PR.country 
FROM Review AS R, Product AS P, Producer AS PR, Producttypeproduct AS PTP  
WHERE P.nr = R.product AND P.producer = PR.nr AND P.nr = PTP.product AND PTP.producttype=93", color = yellow] ; 
169 -> 171 ; 
173 [label="Project
[0]", color = yellow] ; 
2 -> 173 ; 
174 [label="HashJoin 
0PREDICATE_EQUAL1
71", color = yellow] ; 
173 -> 174 ; 
175 [label="PhyMongoDBEval
countrytype
[{\"$match\":{\"countrytype\":222}}]
[country]
2", color = yellow] ; 
174 -> 175 ; 
176 [label="SQLQuery
SELECT PR.country 
FROM Offer AS O, Product AS P, Producer AS PR, PRODUCTTYPEPRODUCT AS PTP  
WHERE P.nr = O.product AND PR.nr = P.producer AND P.nr = PTP.product AND PTP.producttype=93", color = yellow] ; 
174 -> 176 ; 
178 [label="Project
[0]", color = yellow] ; 
2 -> 178 ; 
179 [label="HashJoin 
0PREDICATE_EQUAL1
14", color = yellow] ; 
178 -> 179 ; 
180 [label="SQLQuery
SELECT PR.country 
FROM Review AS R, Product AS P, Producer AS PR, Producttypeproduct AS PTP  
WHERE P.nr = R.product AND P.producer = PR.nr AND P.nr = PTP.product AND PTP.producttype=94", color = yellow] ; 
179 -> 180 ; 
181 [label="PhyMongoDBEval
countrytype
[{\"$match\":{\"countrytype\":222}}]
[country]
2", color = yellow] ; 
179 -> 181 ; 
183 [label="Project
[0]", color = yellow] ; 
2 -> 183 ; 
184 [label="HashJoin 
0PREDICATE_EQUAL1
32", color = yellow] ; 
183 -> 184 ; 
185 [label="PhyMongoDBEval
countrytype
[{\"$match\":{\"countrytype\":222}}]
[country]
2", color = yellow] ; 
184 -> 185 ; 
186 [label="SQLQuery
SELECT PR.country 
FROM Offer AS O, Product AS P, Producer AS PR, PRODUCTTYPEPRODUCT AS PTP  
WHERE P.nr = O.product AND PR.nr = P.producer AND P.nr = PTP.product AND PTP.producttype=96", color = yellow] ; 
184 -> 186 ; 
188 [label="Project
[0]", color = yellow] ; 
2 -> 188 ; 
189 [label="HashJoin 
0PREDICATE_EQUAL1
0", color = yellow] ; 
188 -> 189 ; 
190 [label="SQLQuery
SELECT PR.country 
FROM Review AS R, Product AS P, Producer AS PR, Producttypeproduct AS PTP  
WHERE P.nr = R.product AND P.producer = PR.nr AND P.nr = PTP.product AND PTP.producttype=150", color = yellow] ; 
189 -> 190 ; 
191 [label="PhyMongoDBEval
countrytype
[{\"$match\":{\"countrytype\":222}}]
[country]
2", color = yellow] ; 
189 -> 191 ; 
193 [label="Project
[0]", color = yellow] ; 
2 -> 193 ; 
194 [label="HashJoin 
0PREDICATE_EQUAL1
0", color = yellow] ; 
193 -> 194 ; 
195 [label="PhyMongoDBEval
countrytype
[{\"$match\":{\"countrytype\":222}}]
[country]
2", color = yellow] ; 
194 -> 195 ; 
196 [label="SQLQuery
SELECT PR.country 
FROM Review AS R, Product AS P, Producer AS PR, Producttypeproduct AS PTP  
WHERE P.nr = R.product AND P.producer = PR.nr AND P.nr = PTP.product AND PTP.producttype=114", color = yellow] ; 
194 -> 196 ; 
198 [label="Project
[0]", color = yellow] ; 
2 -> 198 ; 
199 [label="HashJoin 
0PREDICATE_EQUAL1
98", color = yellow] ; 
198 -> 199 ; 
200 [label="SQLQuery
SELECT PR.country 
FROM Offer AS O, Product AS P, Producer AS PR, PRODUCTTYPEPRODUCT AS PTP  
WHERE P.nr = O.product AND PR.nr = P.producer AND P.nr = PTP.product AND PTP.producttype=84", color = yellow] ; 
199 -> 200 ; 
201 [label="PhyMongoDBEval
countrytype
[{\"$match\":{\"countrytype\":222}}]
[country]
2", color = yellow] ; 
199 -> 201 ; 
203 [label="Project
[0]", color = yellow] ; 
2 -> 203 ; 
204 [label="HashJoin 
0PREDICATE_EQUAL1
61", color = yellow] ; 
203 -> 204 ; 
205 [label="PhyMongoDBEval
countrytype
[{\"$match\":{\"countrytype\":222}}]
[country]
2", color = yellow] ; 
204 -> 205 ; 
206 [label="SQLQuery
SELECT PR.country 
FROM Review AS R, Product AS P, Producer AS PR, Producttypeproduct AS PTP  
WHERE P.nr = R.product AND P.producer = PR.nr AND P.nr = PTP.product AND PTP.producttype=60", color = yellow] ; 
204 -> 206 ; 
208 [label="Project
[0]", color = yellow] ; 
2 -> 208 ; 
209 [label="HashJoin 
0PREDICATE_EQUAL1
61", color = yellow] ; 
208 -> 209 ; 
210 [label="PhyMongoDBEval
countrytype
[{\"$match\":{\"countrytype\":222}}]
[country]
2", color = yellow] ; 
209 -> 210 ; 
211 [label="SQLQuery
SELECT PR.country 
FROM Review AS R, Product AS P, Producer AS PR, Producttypeproduct AS PTP  
WHERE P.nr = R.product AND P.producer = PR.nr AND P.nr = PTP.product AND PTP.producttype=82", color = yellow] ; 
209 -> 211 ; 
213 [label="Project
[0]", color = yellow] ; 
2 -> 213 ; 
214 [label="HashJoin 
0PREDICATE_EQUAL1
0", color = yellow] ; 
213 -> 214 ; 
215 [label="PhyMongoDBEval
countrytype
[{\"$match\":{\"countrytype\":222}}]
[country]
2", color = yellow] ; 
214 -> 215 ; 
216 [label="SQLQuery
SELECT PR.country 
FROM Offer AS O, Product AS P, Producer AS PR, PRODUCTTYPEPRODUCT AS PTP  
WHERE P.nr = O.product AND PR.nr = P.producer AND P.nr = PTP.product AND PTP.producttype=138", color = yellow] ; 
214 -> 216 ; 
218 [label="Project
[0]", color = yellow] ; 
2 -> 218 ; 
219 [label="HashJoin 
0PREDICATE_EQUAL1
95", color = yellow] ; 
218 -> 219 ; 
220 [label="PhyMongoDBEval
countrytype
[{\"$match\":{\"countrytype\":222}}]
[country]
2", color = yellow] ; 
219 -> 220 ; 
221 [label="SQLQuery
SELECT PR.country 
FROM Offer AS O, Product AS P, Producer AS PR, PRODUCTTYPEPRODUCT AS PTP  
WHERE P.nr = O.product AND PR.nr = P.producer AND P.nr = PTP.product AND PTP.producttype=82", color = yellow] ; 
219 -> 221 ; 
223 [label="Project
[0]", color = yellow] ; 
2 -> 223 ; 
224 [label="HashJoin 
0PREDICATE_EQUAL1
58", color = yellow] ; 
223 -> 224 ; 
225 [label="PhyMongoDBEval
countrytype
[{\"$match\":{\"countrytype\":222}}]
[country]
2", color = yellow] ; 
224 -> 225 ; 
226 [label="SQLQuery
SELECT PR.country 
FROM Offer AS O, Product AS P, Producer AS PR, PRODUCTTYPEPRODUCT AS PTP  
WHERE P.nr = O.product AND PR.nr = P.producer AND P.nr = PTP.product AND PTP.producttype=116", color = yellow] ; 
224 -> 226 ; 
228 [label="Project
[0]", color = yellow] ; 
2 -> 228 ; 
229 [label="HashJoin 
0PREDICATE_EQUAL1
76", color = yellow] ; 
228 -> 229 ; 
230 [label="PhyMongoDBEval
countrytype
[{\"$match\":{\"countrytype\":222}}]
[country]
2", color = yellow] ; 
229 -> 230 ; 
231 [label="SQLQuery
SELECT PR.country 
FROM Review AS R, Product AS P, Producer AS PR, Producttypeproduct AS PTP  
WHERE P.nr = R.product AND P.producer = PR.nr AND P.nr = PTP.product AND PTP.producttype=56", color = yellow] ; 
229 -> 231 ; 
233 [label="Project
[0]", color = yellow] ; 
2 -> 233 ; 
234 [label="HashJoin 
0PREDICATE_EQUAL1
0", color = yellow] ; 
233 -> 234 ; 
235 [label="PhyMongoDBEval
countrytype
[{\"$match\":{\"countrytype\":222}}]
[country]
2", color = yellow] ; 
234 -> 235 ; 
236 [label="SQLQuery
SELECT PR.country 
FROM Offer AS O, Product AS P, Producer AS PR, PRODUCTTYPEPRODUCT AS PTP  
WHERE P.nr = O.product AND PR.nr = P.producer AND P.nr = PTP.product AND PTP.producttype=150", color = yellow] ; 
234 -> 236 ; 
238 [label="Project
[0]", color = yellow] ; 
2 -> 238 ; 
239 [label="HashJoin 
0PREDICATE_EQUAL1
11", color = yellow] ; 
238 -> 239 ; 
240 [label="SQLQuery
SELECT PR.country 
FROM Review AS R, Product AS P, Producer AS PR, Producttypeproduct AS PTP  
WHERE P.nr = R.product AND P.producer = PR.nr AND P.nr = PTP.product AND PTP.producttype=110", color = yellow] ; 
239 -> 240 ; 
241 [label="PhyMongoDBEval
countrytype
[{\"$match\":{\"countrytype\":222}}]
[country]
2", color = yellow] ; 
239 -> 241 ; 
243 [label="Project
[0]", color = yellow] ; 
2 -> 243 ; 
244 [label="HashJoin 
0PREDICATE_EQUAL1
28", color = yellow] ; 
243 -> 244 ; 
245 [label="SQLQuery
SELECT PR.country 
FROM Offer AS O, Product AS P, Producer AS PR, PRODUCTTYPEPRODUCT AS PTP  
WHERE P.nr = O.product AND PR.nr = P.producer AND P.nr = PTP.product AND PTP.producttype=109", color = yellow] ; 
244 -> 245 ; 
246 [label="PhyMongoDBEval
countrytype
[{\"$match\":{\"countrytype\":222}}]
[country]
2", color = yellow] ; 
244 -> 246 ; 
248 [label="Project
[0]", color = yellow] ; 
2 -> 248 ; 
249 [label="HashJoin 
0PREDICATE_EQUAL1
0", color = yellow] ; 
248 -> 249 ; 
250 [label="SQLQuery
SELECT PR.country 
FROM Offer AS O, Product AS P, Producer AS PR, PRODUCTTYPEPRODUCT AS PTP  
WHERE P.nr = O.product AND PR.nr = P.producer AND P.nr = PTP.product AND PTP.producttype=132", color = yellow] ; 
249 -> 250 ; 
251 [label="PhyMongoDBEval
countrytype
[{\"$match\":{\"countrytype\":222}}]
[country]
2", color = yellow] ; 
249 -> 251 ; 
253 [label="Project
[0]", color = yellow] ; 
2 -> 253 ; 
254 [label="HashJoin 
0PREDICATE_EQUAL1
80", color = yellow] ; 
253 -> 254 ; 
255 [label="PhyMongoDBEval
countrytype
[{\"$match\":{\"countrytype\":222}}]
[country]
2", color = yellow] ; 
254 -> 255 ; 
256 [label="SQLQuery
SELECT PR.country 
FROM Offer AS O, Product AS P, Producer AS PR, PRODUCTTYPEPRODUCT AS PTP  
WHERE P.nr = O.product AND PR.nr = P.producer AND P.nr = PTP.product AND PTP.producttype=88", color = yellow] ; 
254 -> 256 ; 
258 [label="Project
[0]", color = yellow] ; 
2 -> 258 ; 
259 [label="HashJoin 
0PREDICATE_EQUAL1
43", color = yellow] ; 
258 -> 259 ; 
260 [label="PhyMongoDBEval
countrytype
[{\"$match\":{\"countrytype\":222}}]
[country]
2", color = yellow] ; 
259 -> 260 ; 
261 [label="SQLQuery
SELECT PR.country 
FROM Review AS R, Product AS P, Producer AS PR, Producttypeproduct AS PTP  
WHERE P.nr = R.product AND P.producer = PR.nr AND P.nr = PTP.product AND PTP.producttype=84", color = yellow] ; 
259 -> 261 ; 
263 [label="Project
[0]", color = yellow] ; 
2 -> 263 ; 
264 [label="HashJoin 
0PREDICATE_EQUAL1
38", color = yellow] ; 
263 -> 264 ; 
265 [label="PhyMongoDBEval
countrytype
[{\"$match\":{\"countrytype\":222}}]
[country]
2", color = yellow] ; 
264 -> 265 ; 
266 [label="SQLQuery
SELECT PR.country 
FROM Review AS R, Product AS P, Producer AS PR, Producttypeproduct AS PTP  
WHERE P.nr = R.product AND P.producer = PR.nr AND P.nr = PTP.product AND PTP.producttype=86", color = yellow] ; 
264 -> 266 ; 
268 [label="Project
[0]", color = yellow] ; 
2 -> 268 ; 
269 [label="HashJoin 
0PREDICATE_EQUAL1
0", color = yellow] ; 
268 -> 269 ; 
270 [label="SQLQuery
SELECT PR.country 
FROM Review AS R, Product AS P, Producer AS PR, Producttypeproduct AS PTP  
WHERE P.nr = R.product AND P.producer = PR.nr AND P.nr = PTP.product AND PTP.producttype=108", color = yellow] ; 
269 -> 270 ; 
271 [label="PhyMongoDBEval
countrytype
[{\"$match\":{\"countrytype\":222}}]
[country]
2", color = yellow] ; 
269 -> 271 ; 
273 [label="Project
[0]", color = yellow] ; 
2 -> 273 ; 
274 [label="HashJoin 
0PREDICATE_EQUAL1
33", color = yellow] ; 
273 -> 274 ; 
275 [label="SQLQuery
SELECT PR.country 
FROM Offer AS O, Product AS P, Producer AS PR, PRODUCTTYPEPRODUCT AS PTP  
WHERE P.nr = O.product AND PR.nr = P.producer AND P.nr = PTP.product AND PTP.producttype=95", color = yellow] ; 
274 -> 275 ; 
276 [label="PhyMongoDBEval
countrytype
[{\"$match\":{\"countrytype\":222}}]
[country]
2", color = yellow] ; 
274 -> 276 ; 
278 [label="Project
[0]", color = yellow] ; 
2 -> 278 ; 
279 [label="HashJoin 
0PREDICATE_EQUAL1
49", color = yellow] ; 
278 -> 279 ; 
280 [label="PhyMongoDBEval
countrytype
[{\"$match\":{\"countrytype\":222}}]
[country]
2", color = yellow] ; 
279 -> 280 ; 
281 [label="SQLQuery
SELECT PR.country 
FROM Review AS R, Product AS P, Producer AS PR, Producttypeproduct AS PTP  
WHERE P.nr = R.product AND P.producer = PR.nr AND P.nr = PTP.product AND PTP.producttype=62", color = yellow] ; 
279 -> 281 ; 
283 [label="Project
[0]", color = yellow] ; 
2 -> 283 ; 
284 [label="HashJoin 
0PREDICATE_EQUAL1
56", color = yellow] ; 
283 -> 284 ; 
285 [label="PhyMongoDBEval
countrytype
[{\"$match\":{\"countrytype\":222}}]
[country]
2", color = yellow] ; 
284 -> 285 ; 
286 [label="SQLQuery
SELECT PR.country 
FROM Offer AS O, Product AS P, Producer AS PR, PRODUCTTYPEPRODUCT AS PTP  
WHERE P.nr = O.product AND PR.nr = P.producer AND P.nr = PTP.product AND PTP.producttype=99", color = yellow] ; 
284 -> 286 ; 
288 [label="Project
[0]", color = yellow] ; 
2 -> 288 ; 
289 [label="HashJoin 
0PREDICATE_EQUAL1
0", color = yellow] ; 
288 -> 289 ; 
290 [label="PhyMongoDBEval
countrytype
[{\"$match\":{\"countrytype\":222}}]
[country]
2", color = yellow] ; 
289 -> 290 ; 
291 [label="SQLQuery
SELECT PR.country 
FROM Review AS R, Product AS P, Producer AS PR, Producttypeproduct AS PTP  
WHERE P.nr = R.product AND P.producer = PR.nr AND P.nr = PTP.product AND PTP.producttype=122", color = yellow] ; 
289 -> 291 ; 
293 [label="Project
[0]", color = yellow] ; 
2 -> 293 ; 
294 [label="HashJoin 
0PREDICATE_EQUAL1
135", color = yellow] ; 
293 -> 294 ; 
295 [label="SQLQuery
SELECT PR.country 
FROM Offer AS O, Product AS P, Producer AS PR, PRODUCTTYPEPRODUCT AS PTP  
WHERE P.nr = O.product AND PR.nr = P.producer AND P.nr = PTP.product AND PTP.producttype=74", color = yellow] ; 
294 -> 295 ; 
296 [label="PhyMongoDBEval
countrytype
[{\"$match\":{\"countrytype\":222}}]
[country]
2", color = yellow] ; 
294 -> 296 ; 
298 [label="Project
[0]", color = yellow] ; 
2 -> 298 ; 
299 [label="HashJoin 
0PREDICATE_EQUAL1
18", color = yellow] ; 
298 -> 299 ; 
300 [label="SQLQuery
SELECT PR.country 
FROM Review AS R, Product AS P, Producer AS PR, Producttypeproduct AS PTP  
WHERE P.nr = R.product AND P.producer = PR.nr AND P.nr = PTP.product AND PTP.producttype=129", color = yellow] ; 
299 -> 300 ; 
301 [label="PhyMongoDBEval
countrytype
[{\"$match\":{\"countrytype\":222}}]
[country]
2", color = yellow] ; 
299 -> 301 ; 
303 [label="Project
[0]", color = yellow] ; 
2 -> 303 ; 
304 [label="HashJoin 
0PREDICATE_EQUAL1
57", color = yellow] ; 
303 -> 304 ; 
305 [label="PhyMongoDBEval
countrytype
[{\"$match\":{\"countrytype\":222}}]
[country]
2", color = yellow] ; 
304 -> 305 ; 
306 [label="SQLQuery
SELECT PR.country 
FROM Review AS R, Product AS P, Producer AS PR, Producttypeproduct AS PTP  
WHERE P.nr = R.product AND P.producer = PR.nr AND P.nr = PTP.product AND PTP.producttype=73", color = yellow] ; 
304 -> 306 ; 
308 [label="Project
[0]", color = yellow] ; 
2 -> 308 ; 
309 [label="HashJoin 
0PREDICATE_EQUAL1
42", color = yellow] ; 
308 -> 309 ; 
310 [label="SQLQuery
SELECT PR.country 
FROM Review AS R, Product AS P, Producer AS PR, Producttypeproduct AS PTP  
WHERE P.nr = R.product AND P.producer = PR.nr AND P.nr = PTP.product AND PTP.producttype=102", color = yellow] ; 
309 -> 310 ; 
311 [label="PhyMongoDBEval
countrytype
[{\"$match\":{\"countrytype\":222}}]
[country]
2", color = yellow] ; 
309 -> 311 ; 
313 [label="Project
[0]", color = yellow] ; 
2 -> 313 ; 
314 [label="HashJoin 
0PREDICATE_EQUAL1
22", color = yellow] ; 
313 -> 314 ; 
315 [label="PhyMongoDBEval
countrytype
[{\"$match\":{\"countrytype\":222}}]
[country]
2", color = yellow] ; 
314 -> 315 ; 
316 [label="SQLQuery
SELECT PR.country 
FROM Review AS R, Product AS P, Producer AS PR, Producttypeproduct AS PTP  
WHERE P.nr = R.product AND P.producer = PR.nr AND P.nr = PTP.product AND PTP.producttype=142", color = yellow] ; 
314 -> 316 ; 
318 [label="Project
[0]", color = yellow] ; 
2 -> 318 ; 
319 [label="HashJoin 
0PREDICATE_EQUAL1
2165", color = yellow] ; 
318 -> 319 ; 
320 [label="PhyMongoDBEval
countrytype
[{\"$match\":{\"countrytype\":222}}]
[country]
2", color = yellow] ; 
319 -> 320 ; 
321 [label="SQLQuery
SELECT V.country 
FROM Offer AS O, Vendor AS V  
WHERE O.vendor = V.nr", color = yellow] ; 
319 -> 321 ; 
323 [label="Project
[0]", color = yellow] ; 
2 -> 323 ; 
324 [label="HashJoin 
0PREDICATE_EQUAL1
28", color = yellow] ; 
323 -> 324 ; 
325 [label="PhyMongoDBEval
countrytype
[{\"$match\":{\"countrytype\":222}}]
[country]
2", color = yellow] ; 
324 -> 325 ; 
326 [label="SQLQuery
SELECT PR.country 
FROM Offer AS O, Product AS P, Producer AS PR, PRODUCTTYPEPRODUCT AS PTP  
WHERE P.nr = O.product AND PR.nr = P.producer AND P.nr = PTP.product AND PTP.producttype=117", color = yellow] ; 
324 -> 326 ; 
328 [label="Project
[0]", color = yellow] ; 
2 -> 328 ; 
329 [label="HashJoin 
0PREDICATE_EQUAL1
0", color = yellow] ; 
328 -> 329 ; 
330 [label="PhyMongoDBEval
countrytype
[{\"$match\":{\"countrytype\":222}}]
[country]
2", color = yellow] ; 
329 -> 330 ; 
331 [label="SQLQuery
SELECT PR.country 
FROM Offer AS O, Product AS P, Producer AS PR, PRODUCTTYPEPRODUCT AS PTP  
WHERE P.nr = O.product AND PR.nr = P.producer AND P.nr = PTP.product AND PTP.producttype=139", color = yellow] ; 
329 -> 331 ; 
333 [label="Project
[0]", color = yellow] ; 
2 -> 333 ; 
334 [label="HashJoin 
0PREDICATE_EQUAL1
0", color = yellow] ; 
333 -> 334 ; 
335 [label="SQLQuery
SELECT PR.country 
FROM Offer AS O, Product AS P, Producer AS PR, PRODUCTTYPEPRODUCT AS PTP  
WHERE P.nr = O.product AND PR.nr = P.producer AND P.nr = PTP.product AND PTP.producttype=131", color = yellow] ; 
334 -> 335 ; 
336 [label="PhyMongoDBEval
countrytype
[{\"$match\":{\"countrytype\":222}}]
[country]
2", color = yellow] ; 
334 -> 336 ; 
338 [label="Project
[0]", color = yellow] ; 
2 -> 338 ; 
339 [label="HashJoin 
0PREDICATE_EQUAL1
19", color = yellow] ; 
338 -> 339 ; 
340 [label="SQLQuery
SELECT PR.country 
FROM Review AS R, Product AS P, Producer AS PR, Producttypeproduct AS PTP  
WHERE P.nr = R.product AND P.producer = PR.nr AND P.nr = PTP.product AND PTP.producttype=115", color = yellow] ; 
339 -> 340 ; 
341 [label="PhyMongoDBEval
countrytype
[{\"$match\":{\"countrytype\":222}}]
[country]
2", color = yellow] ; 
339 -> 341 ; 
343 [label="Project
[0]", color = yellow] ; 
2 -> 343 ; 
344 [label="HashJoin 
0PREDICATE_EQUAL1
12", color = yellow] ; 
343 -> 344 ; 
345 [label="SQLQuery
SELECT PR.country 
FROM Review AS R, Product AS P, Producer AS PR, Producttypeproduct AS PTP  
WHERE P.nr = R.product AND P.producer = PR.nr AND P.nr = PTP.product AND PTP.producttype=96", color = yellow] ; 
344 -> 345 ; 
346 [label="PhyMongoDBEval
countrytype
[{\"$match\":{\"countrytype\":222}}]
[country]
2", color = yellow] ; 
344 -> 346 ; 
348 [label="Project
[0]", color = yellow] ; 
2 -> 348 ; 
349 [label="HashJoin 
0PREDICATE_EQUAL1
12", color = yellow] ; 
348 -> 349 ; 
350 [label="SQLQuery
SELECT PR.country 
FROM Review AS R, Product AS P, Producer AS PR, Producttypeproduct AS PTP  
WHERE P.nr = R.product AND P.producer = PR.nr AND P.nr = PTP.product AND PTP.producttype=97", color = yellow] ; 
349 -> 350 ; 
351 [label="PhyMongoDBEval
countrytype
[{\"$match\":{\"countrytype\":222}}]
[country]
2", color = yellow] ; 
349 -> 351 ; 
353 [label="Project
[0]", color = yellow] ; 
2 -> 353 ; 
354 [label="HashJoin 
0PREDICATE_EQUAL1
55", color = yellow] ; 
353 -> 354 ; 
355 [label="SQLQuery
SELECT PR.country 
FROM Offer AS O, Product AS P, Producer AS PR, PRODUCTTYPEPRODUCT AS PTP  
WHERE P.nr = O.product AND PR.nr = P.producer AND P.nr = PTP.product AND PTP.producttype=67", color = yellow] ; 
354 -> 355 ; 
356 [label="PhyMongoDBEval
countrytype
[{\"$match\":{\"countrytype\":222}}]
[country]
2", color = yellow] ; 
354 -> 356 ; 
358 [label="Project
[0]", color = yellow] ; 
2 -> 358 ; 
359 [label="HashJoin 
0PREDICATE_EQUAL1
17", color = yellow] ; 
358 -> 359 ; 
360 [label="SQLQuery
SELECT PR.country 
FROM Review AS R, Product AS P, Producer AS PR, Producttypeproduct AS PTP  
WHERE P.nr = R.product AND P.producer = PR.nr AND P.nr = PTP.product AND PTP.producttype=140", color = yellow] ; 
359 -> 360 ; 
361 [label="PhyMongoDBEval
countrytype
[{\"$match\":{\"countrytype\":222}}]
[country]
2", color = yellow] ; 
359 -> 361 ; 
363 [label="Project
[0]", color = yellow] ; 
2 -> 363 ; 
364 [label="HashJoin 
0PREDICATE_EQUAL1
32", color = yellow] ; 
363 -> 364 ; 
365 [label="SQLQuery
SELECT PR.country 
FROM Offer AS O, Product AS P, Producer AS PR, PRODUCTTYPEPRODUCT AS PTP  
WHERE P.nr = O.product AND PR.nr = P.producer AND P.nr = PTP.product AND PTP.producttype=75", color = yellow] ; 
364 -> 365 ; 
366 [label="PhyMongoDBEval
countrytype
[{\"$match\":{\"countrytype\":222}}]
[country]
2", color = yellow] ; 
364 -> 366 ; 
368 [label="Project
[0]", color = yellow] ; 
2 -> 368 ; 
369 [label="HashJoin 
0PREDICATE_EQUAL1
63", color = yellow] ; 
368 -> 369 ; 
370 [label="SQLQuery
SELECT PR.country 
FROM Offer AS O, Product AS P, Producer AS PR, PRODUCTTYPEPRODUCT AS PTP  
WHERE P.nr = O.product AND PR.nr = P.producer AND P.nr = PTP.product AND PTP.producttype=107", color = yellow] ; 
369 -> 370 ; 
371 [label="PhyMongoDBEval
countrytype
[{\"$match\":{\"countrytype\":222}}]
[country]
2", color = yellow] ; 
369 -> 371 ; 
373 [label="Project
[0]", color = yellow] ; 
2 -> 373 ; 
374 [label="HashJoin 
0PREDICATE_EQUAL1
0", color = yellow] ; 
373 -> 374 ; 
375 [label="PhyMongoDBEval
countrytype
[{\"$match\":{\"countrytype\":222}}]
[country]
2", color = yellow] ; 
374 -> 375 ; 
376 [label="SQLQuery
SELECT PR.country 
FROM Offer AS O, Product AS P, Producer AS PR, PRODUCTTYPEPRODUCT AS PTP  
WHERE P.nr = O.product AND PR.nr = P.producer AND P.nr = PTP.product AND PTP.producttype=61", color = yellow] ; 
374 -> 376 ; 
378 [label="Project
[0]", color = yellow] ; 
2 -> 378 ; 
379 [label="HashJoin 
0PREDICATE_EQUAL1
37", color = yellow] ; 
378 -> 379 ; 
380 [label="PhyMongoDBEval
countrytype
[{\"$match\":{\"countrytype\":222}}]
[country]
2", color = yellow] ; 
379 -> 380 ; 
381 [label="SQLQuery
SELECT PR.country 
FROM Offer AS O, Product AS P, Producer AS PR, PRODUCTTYPEPRODUCT AS PTP  
WHERE P.nr = O.product AND PR.nr = P.producer AND P.nr = PTP.product AND PTP.producttype=140", color = yellow] ; 
379 -> 381 ; 
383 [label="Project
[0]", color = yellow] ; 
2 -> 383 ; 
384 [label="HashJoin 
0PREDICATE_EQUAL1
0", color = yellow] ; 
383 -> 384 ; 
385 [label="PhyMongoDBEval
countrytype
[{\"$match\":{\"countrytype\":222}}]
[country]
2", color = yellow] ; 
384 -> 385 ; 
386 [label="SQLQuery
SELECT PR.country 
FROM Offer AS O, Product AS P, Producer AS PR, PRODUCTTYPEPRODUCT AS PTP  
WHERE P.nr = O.product AND PR.nr = P.producer AND P.nr = PTP.product AND PTP.producttype=114", color = yellow] ; 
384 -> 386 ; 
388 [label="Project
[0]", color = yellow] ; 
2 -> 388 ; 
389 [label="HashJoin 
0PREDICATE_EQUAL1
29", color = yellow] ; 
388 -> 389 ; 
390 [label="PhyMongoDBEval
countrytype
[{\"$match\":{\"countrytype\":222}}]
[country]
2", color = yellow] ; 
389 -> 390 ; 
391 [label="SQLQuery
SELECT PR.country 
FROM Offer AS O, Product AS P, Producer AS PR, PRODUCTTYPEPRODUCT AS PTP  
WHERE P.nr = O.product AND PR.nr = P.producer AND P.nr = PTP.product AND PTP.producttype=145", color = yellow] ; 
389 -> 391 ; 
393 [label="Project
[0]", color = yellow] ; 
2 -> 393 ; 
394 [label="HashJoin 
0PREDICATE_EQUAL1
14", color = yellow] ; 
393 -> 394 ; 
395 [label="PhyMongoDBEval
countrytype
[{\"$match\":{\"countrytype\":222}}]
[country]
2", color = yellow] ; 
394 -> 395 ; 
396 [label="SQLQuery
SELECT PR.country 
FROM Review AS R, Product AS P, Producer AS PR, Producttypeproduct AS PTP  
WHERE P.nr = R.product AND P.producer = PR.nr AND P.nr = PTP.product AND PTP.producttype=112", color = yellow] ; 
394 -> 396 ; 
398 [label="Project
[0]", color = yellow] ; 
2 -> 398 ; 
399 [label="HashJoin 
0PREDICATE_EQUAL1
93", color = yellow] ; 
398 -> 399 ; 
400 [label="PhyMongoDBEval
countrytype
[{\"$match\":{\"countrytype\":222}}]
[country]
2", color = yellow] ; 
399 -> 400 ; 
401 [label="SQLQuery
SELECT PR.country 
FROM Review AS R, Product AS P, Producer AS PR, Producttypeproduct AS PTP  
WHERE P.nr = R.product AND P.producer = PR.nr AND P.nr = PTP.product AND PTP.producttype=69", color = yellow] ; 
399 -> 401 ; 
403 [label="Project
[0]", color = yellow] ; 
2 -> 403 ; 
404 [label="HashJoin 
0PREDICATE_EQUAL1
16", color = yellow] ; 
403 -> 404 ; 
405 [label="SQLQuery
SELECT PR.country 
FROM Review AS R, Product AS P, Producer AS PR, Producttypeproduct AS PTP  
WHERE P.nr = R.product AND P.producer = PR.nr AND P.nr = PTP.product AND PTP.producttype=92", color = yellow] ; 
404 -> 405 ; 
406 [label="PhyMongoDBEval
countrytype
[{\"$match\":{\"countrytype\":222}}]
[country]
2", color = yellow] ; 
404 -> 406 ; 
408 [label="Project
[0]", color = yellow] ; 
2 -> 408 ; 
409 [label="HashJoin 
0PREDICATE_EQUAL1
10", color = yellow] ; 
408 -> 409 ; 
410 [label="PhyMongoDBEval
countrytype
[{\"$match\":{\"countrytype\":222}}]
[country]
2", color = yellow] ; 
409 -> 410 ; 
411 [label="SQLQuery
SELECT PR.country 
FROM Review AS R, Product AS P, Producer AS PR, Producttypeproduct AS PTP  
WHERE P.nr = R.product AND P.producer = PR.nr AND P.nr = PTP.product AND PTP.producttype=83", color = yellow] ; 
409 -> 411 ; 
413 [label="Project
[0]", color = yellow] ; 
2 -> 413 ; 
414 [label="HashJoin 
0PREDICATE_EQUAL1
0", color = yellow] ; 
413 -> 414 ; 
415 [label="SQLQuery
SELECT PR.country 
FROM Offer AS O, Product AS P, Producer AS PR, PRODUCTTYPEPRODUCT AS PTP  
WHERE P.nr = O.product AND PR.nr = P.producer AND P.nr = PTP.product AND PTP.producttype=136", color = yellow] ; 
414 -> 415 ; 
416 [label="PhyMongoDBEval
countrytype
[{\"$match\":{\"countrytype\":222}}]
[country]
2", color = yellow] ; 
414 -> 416 ; 
418 [label="Project
[0]", color = yellow] ; 
2 -> 418 ; 
419 [label="HashJoin 
0PREDICATE_EQUAL1
0", color = yellow] ; 
418 -> 419 ; 
420 [label="PhyMongoDBEval
countrytype
[{\"$match\":{\"countrytype\":222}}]
[country]
2", color = yellow] ; 
419 -> 420 ; 
421 [label="SQLQuery
SELECT PR.country 
FROM Review AS R, Product AS P, Producer AS PR, Producttypeproduct AS PTP  
WHERE P.nr = R.product AND P.producer = PR.nr AND P.nr = PTP.product AND PTP.producttype=148", color = yellow] ; 
419 -> 421 ; 
423 [label="Project
[0]", color = yellow] ; 
2 -> 423 ; 
424 [label="HashJoin 
0PREDICATE_EQUAL1
0", color = yellow] ; 
423 -> 424 ; 
425 [label="SQLQuery
SELECT PR.country 
FROM Offer AS O, Product AS P, Producer AS PR, PRODUCTTYPEPRODUCT AS PTP  
WHERE P.nr = O.product AND PR.nr = P.producer AND P.nr = PTP.product AND PTP.producttype=135", color = yellow] ; 
424 -> 425 ; 
426 [label="PhyMongoDBEval
countrytype
[{\"$match\":{\"countrytype\":222}}]
[country]
2", color = yellow] ; 
424 -> 426 ; 
428 [label="Project
[0]", color = yellow] ; 
2 -> 428 ; 
429 [label="HashJoin 
0PREDICATE_EQUAL1
0", color = yellow] ; 
428 -> 429 ; 
430 [label="PhyMongoDBEval
countrytype
[{\"$match\":{\"countrytype\":222}}]
[country]
2", color = yellow] ; 
429 -> 430 ; 
431 [label="SQLQuery
SELECT PR.country 
FROM Review AS R, Product AS P, Producer AS PR, Producttypeproduct AS PTP  
WHERE P.nr = R.product AND P.producer = PR.nr AND P.nr = PTP.product AND PTP.producttype=144", color = yellow] ; 
429 -> 431 ; 
433 [label="Project
[0]", color = yellow] ; 
2 -> 433 ; 
434 [label="HashJoin 
0PREDICATE_EQUAL1
16", color = yellow] ; 
433 -> 434 ; 
435 [label="PhyMongoDBEval
countrytype
[{\"$match\":{\"countrytype\":222}}]
[country]
2", color = yellow] ; 
434 -> 435 ; 
436 [label="SQLQuery
SELECT PR.country 
FROM Review AS R, Product AS P, Producer AS PR, Producttypeproduct AS PTP  
WHERE P.nr = R.product AND P.producer = PR.nr AND P.nr = PTP.product AND PTP.producttype=95", color = yellow] ; 
434 -> 436 ; 
438 [label="Project
[0]", color = yellow] ; 
2 -> 438 ; 
439 [label="HashJoin 
0PREDICATE_EQUAL1
17", color = yellow] ; 
438 -> 439 ; 
440 [label="PhyMongoDBEval
countrytype
[{\"$match\":{\"countrytype\":222}}]
[country]
2", color = yellow] ; 
439 -> 440 ; 
441 [label="SQLQuery
SELECT PR.country 
FROM Review AS R, Product AS P, Producer AS PR, Producttypeproduct AS PTP  
WHERE P.nr = R.product AND P.producer = PR.nr AND P.nr = PTP.product AND PTP.producttype=128", color = yellow] ; 
439 -> 441 ; 
443 [label="Project
[0]", color = yellow] ; 
2 -> 443 ; 
444 [label="HashJoin 
0PREDICATE_EQUAL1
12", color = yellow] ; 
443 -> 444 ; 
445 [label="PhyMongoDBEval
countrytype
[{\"$match\":{\"countrytype\":222}}]
[country]
2", color = yellow] ; 
444 -> 445 ; 
446 [label="SQLQuery
SELECT PR.country 
FROM Review AS R, Product AS P, Producer AS PR, Producttypeproduct AS PTP  
WHERE P.nr = R.product AND P.producer = PR.nr AND P.nr = PTP.product AND PTP.producttype=78", color = yellow] ; 
444 -> 446 ; 
448 [label="Project
[0]", color = yellow] ; 
2 -> 448 ; 
449 [label="HashJoin 
0PREDICATE_EQUAL1
20", color = yellow] ; 
448 -> 449 ; 
450 [label="PhyMongoDBEval
countrytype
[{\"$match\":{\"countrytype\":222}}]
[country]
2", color = yellow] ; 
449 -> 450 ; 
451 [label="SQLQuery
SELECT PR.country 
FROM Offer AS O, Product AS P, Producer AS PR, PRODUCTTYPEPRODUCT AS PTP  
WHERE P.nr = O.product AND PR.nr = P.producer AND P.nr = PTP.product AND PTP.producttype=113", color = yellow] ; 
449 -> 451 ; 
453 [label="Project
[0]", color = yellow] ; 
2 -> 453 ; 
454 [label="HashJoin 
0PREDICATE_EQUAL1
35", color = yellow] ; 
453 -> 454 ; 
455 [label="SQLQuery
SELECT PR.country 
FROM Offer AS O, Product AS P, Producer AS PR, PRODUCTTYPEPRODUCT AS PTP  
WHERE P.nr = O.product AND PR.nr = P.producer AND P.nr = PTP.product AND PTP.producttype=78", color = yellow] ; 
454 -> 455 ; 
456 [label="PhyMongoDBEval
countrytype
[{\"$match\":{\"countrytype\":222}}]
[country]
2", color = yellow] ; 
454 -> 456 ; 
458 [label="Project
[0]", color = yellow] ; 
2 -> 458 ; 
459 [label="HashJoin 
0PREDICATE_EQUAL1
32", color = yellow] ; 
458 -> 459 ; 
460 [label="PhyMongoDBEval
countrytype
[{\"$match\":{\"countrytype\":222}}]
[country]
2", color = yellow] ; 
459 -> 460 ; 
461 [label="SQLQuery
SELECT PR.country 
FROM Review AS R, Product AS P, Producer AS PR, Producttypeproduct AS PTP  
WHERE P.nr = R.product AND P.producer = PR.nr AND P.nr = PTP.product AND PTP.producttype=107", color = yellow] ; 
459 -> 461 ; 
463 [label="Project
[0]", color = yellow] ; 
2 -> 463 ; 
464 [label="HashJoin 
0PREDICATE_EQUAL1
0", color = yellow] ; 
463 -> 464 ; 
465 [label="SQLQuery
SELECT PR.country 
FROM Offer AS O, Product AS P, Producer AS PR, PRODUCTTYPEPRODUCT AS PTP  
WHERE P.nr = O.product AND PR.nr = P.producer AND P.nr = PTP.product AND PTP.producttype=100", color = yellow] ; 
464 -> 465 ; 
466 [label="PhyMongoDBEval
countrytype
[{\"$match\":{\"countrytype\":222}}]
[country]
2", color = yellow] ; 
464 -> 466 ; 
468 [label="Project
[0]", color = yellow] ; 
2 -> 468 ; 
469 [label="HashJoin 
0PREDICATE_EQUAL1
116", color = yellow] ; 
468 -> 469 ; 
470 [label="PhyMongoDBEval
countrytype
[{\"$match\":{\"countrytype\":222}}]
[country]
2", color = yellow] ; 
469 -> 470 ; 
471 [label="SQLQuery
SELECT PR.country 
FROM Offer AS O, Product AS P, Producer AS PR, PRODUCTTYPEPRODUCT AS PTP  
WHERE P.nr = O.product AND PR.nr = P.producer AND P.nr = PTP.product AND PTP.producttype=65", color = yellow] ; 
469 -> 471 ; 
473 [label="Project
[0]", color = yellow] ; 
2 -> 473 ; 
474 [label="HashJoin 
0PREDICATE_EQUAL1
28", color = yellow] ; 
473 -> 474 ; 
475 [label="PhyMongoDBEval
countrytype
[{\"$match\":{\"countrytype\":222}}]
[country]
2", color = yellow] ; 
474 -> 475 ; 
476 [label="SQLQuery
SELECT PR.country 
FROM Offer AS O, Product AS P, Producer AS PR, PRODUCTTYPEPRODUCT AS PTP  
WHERE P.nr = O.product AND PR.nr = P.producer AND P.nr = PTP.product AND PTP.producttype=147", color = yellow] ; 
474 -> 476 ; 
478 [label="Project
[0]", color = yellow] ; 
2 -> 478 ; 
479 [label="HashJoin 
0PREDICATE_EQUAL1
16", color = yellow] ; 
478 -> 479 ; 
480 [label="SQLQuery
SELECT PR.country 
FROM Review AS R, Product AS P, Producer AS PR, Producttypeproduct AS PTP  
WHERE P.nr = R.product AND P.producer = PR.nr AND P.nr = PTP.product AND PTP.producttype=145", color = yellow] ; 
479 -> 480 ; 
481 [label="PhyMongoDBEval
countrytype
[{\"$match\":{\"countrytype\":222}}]
[country]
2", color = yellow] ; 
479 -> 481 ; 
483 [label="Project
[0]", color = yellow] ; 
2 -> 483 ; 
484 [label="HashJoin 
0PREDICATE_EQUAL1
10", color = yellow] ; 
483 -> 484 ; 
485 [label="PhyMongoDBEval
countrytype
[{\"$match\":{\"countrytype\":222}}]
[country]
2", color = yellow] ; 
484 -> 485 ; 
486 [label="SQLQuery
SELECT PR.country 
FROM Review AS R, Product AS P, Producer AS PR, Producttypeproduct AS PTP  
WHERE P.nr = R.product AND P.producer = PR.nr AND P.nr = PTP.product AND PTP.producttype=79", color = yellow] ; 
484 -> 486 ; 
488 [label="Project
[0]", color = yellow] ; 
2 -> 488 ; 
489 [label="HashJoin 
0PREDICATE_EQUAL1
0", color = yellow] ; 
488 -> 489 ; 
490 [label="SQLQuery
SELECT PR.country 
FROM Offer AS O, Product AS P, Producer AS PR, PRODUCTTYPEPRODUCT AS PTP  
WHERE P.nr = O.product AND PR.nr = P.producer AND P.nr = PTP.product AND PTP.producttype=119", color = yellow] ; 
489 -> 490 ; 
491 [label="PhyMongoDBEval
countrytype
[{\"$match\":{\"countrytype\":222}}]
[country]
2", color = yellow] ; 
489 -> 491 ; 
493 [label="Project
[0]", color = yellow] ; 
2 -> 493 ; 
494 [label="HashJoin 
0PREDICATE_EQUAL1
60", color = yellow] ; 
493 -> 494 ; 
495 [label="PhyMongoDBEval
countrytype
[{\"$match\":{\"countrytype\":222}}]
[country]
2", color = yellow] ; 
494 -> 495 ; 
496 [label="SQLQuery
SELECT PR.country 
FROM Review AS R, Product AS P, Producer AS PR, Producttypeproduct AS PTP  
WHERE P.nr = R.product AND P.producer = PR.nr AND P.nr = PTP.product AND PTP.producttype=74", color = yellow] ; 
494 -> 496 ; 
498 [label="Project
[0]", color = yellow] ; 
2 -> 498 ; 
499 [label="HashJoin 
0PREDICATE_EQUAL1
0", color = yellow] ; 
498 -> 499 ; 
500 [label="SQLQuery
SELECT PR.country 
FROM Offer AS O, Product AS P, Producer AS PR, PRODUCTTYPEPRODUCT AS PTP  
WHERE P.nr = O.product AND PR.nr = P.producer AND P.nr = PTP.product AND PTP.producttype=122", color = yellow] ; 
499 -> 500 ; 
501 [label="PhyMongoDBEval
countrytype
[{\"$match\":{\"countrytype\":222}}]
[country]
2", color = yellow] ; 
499 -> 501 ; 
503 [label="Project
[0]", color = yellow] ; 
2 -> 503 ; 
504 [label="HashJoin 
0PREDICATE_EQUAL1
77", color = yellow] ; 
503 -> 504 ; 
505 [label="PhyMongoDBEval
countrytype
[{\"$match\":{\"countrytype\":222}}]
[country]
2", color = yellow] ; 
504 -> 505 ; 
506 [label="SQLQuery
SELECT PR.country 
FROM Offer AS O, Product AS P, Producer AS PR, PRODUCTTYPEPRODUCT AS PTP  
WHERE P.nr = O.product AND PR.nr = P.producer AND P.nr = PTP.product AND PTP.producttype=70", color = yellow] ; 
504 -> 506 ; 
508 [label="Project
[0]", color = yellow] ; 
2 -> 508 ; 
509 [label="HashJoin 
0PREDICATE_EQUAL1
0", color = yellow] ; 
508 -> 509 ; 
510 [label="PhyMongoDBEval
countrytype
[{\"$match\":{\"countrytype\":222}}]
[country]
2", color = yellow] ; 
509 -> 510 ; 
511 [label="SQLQuery
SELECT PR.country 
FROM Review AS R, Product AS P, Producer AS PR, Producttypeproduct AS PTP  
WHERE P.nr = R.product AND P.producer = PR.nr AND P.nr = PTP.product AND PTP.producttype=133", color = yellow] ; 
509 -> 511 ; 
513 [label="Project
[0]", color = yellow] ; 
2 -> 513 ; 
514 [label="HashJoin 
0PREDICATE_EQUAL1
35", color = yellow] ; 
513 -> 514 ; 
515 [label="SQLQuery
SELECT PR.country 
FROM Review AS R, Product AS P, Producer AS PR, Producttypeproduct AS PTP  
WHERE P.nr = R.product AND P.producer = PR.nr AND P.nr = PTP.product AND PTP.producttype=80", color = yellow] ; 
514 -> 515 ; 
516 [label="PhyMongoDBEval
countrytype
[{\"$match\":{\"countrytype\":222}}]
[country]
2", color = yellow] ; 
514 -> 516 ; 
518 [label="Project
[0]", color = yellow] ; 
2 -> 518 ; 
519 [label="HashJoin 
0PREDICATE_EQUAL1
0", color = yellow] ; 
518 -> 519 ; 
520 [label="PhyMongoDBEval
countrytype
[{\"$match\":{\"countrytype\":222}}]
[country]
2", color = yellow] ; 
519 -> 520 ; 
521 [label="SQLQuery
SELECT PR.country 
FROM Review AS R, Product AS P, Producer AS PR, Producttypeproduct AS PTP  
WHERE P.nr = R.product AND P.producer = PR.nr AND P.nr = PTP.product AND PTP.producttype=111", color = yellow] ; 
519 -> 521 ; 
523 [label="Project
[0]", color = yellow] ; 
2 -> 523 ; 
524 [label="HashJoin 
0PREDICATE_EQUAL1
27", color = yellow] ; 
523 -> 524 ; 
525 [label="SQLQuery
SELECT PR.country 
FROM Offer AS O, Product AS P, Producer AS PR, PRODUCTTYPEPRODUCT AS PTP  
WHERE P.nr = O.product AND PR.nr = P.producer AND P.nr = PTP.product AND PTP.producttype=105", color = yellow] ; 
524 -> 525 ; 
526 [label="PhyMongoDBEval
countrytype
[{\"$match\":{\"countrytype\":222}}]
[country]
2", color = yellow] ; 
524 -> 526 ; 
528 [label="Project
[0]", color = yellow] ; 
2 -> 528 ; 
529 [label="HashJoin 
0PREDICATE_EQUAL1
26", color = yellow] ; 
528 -> 529 ; 
530 [label="PhyMongoDBEval
countrytype
[{\"$match\":{\"countrytype\":222}}]
[country]
2", color = yellow] ; 
529 -> 530 ; 
531 [label="SQLQuery
SELECT PR.country 
FROM Offer AS O, Product AS P, Producer AS PR, PRODUCTTYPEPRODUCT AS PTP  
WHERE P.nr = O.product AND PR.nr = P.producer AND P.nr = PTP.product AND PTP.producttype=63", color = yellow] ; 
529 -> 531 ; 
533 [label="Project
[0]", color = yellow] ; 
2 -> 533 ; 
534 [label="HashJoin 
0PREDICATE_EQUAL1
14", color = yellow] ; 
533 -> 534 ; 
535 [label="PhyMongoDBEval
countrytype
[{\"$match\":{\"countrytype\":222}}]
[country]
2", color = yellow] ; 
534 -> 535 ; 
536 [label="SQLQuery
SELECT PR.country 
FROM Review AS R, Product AS P, Producer AS PR, Producttypeproduct AS PTP  
WHERE P.nr = R.product AND P.producer = PR.nr AND P.nr = PTP.product AND PTP.producttype=117", color = yellow] ; 
534 -> 536 ; 
538 [label="Project
[0]", color = yellow] ; 
2 -> 538 ; 
539 [label="HashJoin 
0PREDICATE_EQUAL1
13", color = yellow] ; 
538 -> 539 ; 
540 [label="SQLQuery
SELECT PR.country 
FROM Review AS R, Product AS P, Producer AS PR, Producttypeproduct AS PTP  
WHERE P.nr = R.product AND P.producer = PR.nr AND P.nr = PTP.product AND PTP.producttype=103", color = yellow] ; 
539 -> 540 ; 
541 [label="PhyMongoDBEval
countrytype
[{\"$match\":{\"countrytype\":222}}]
[country]
2", color = yellow] ; 
539 -> 541 ; 
543 [label="Project
[0]", color = yellow] ; 
2 -> 543 ; 
544 [label="HashJoin 
0PREDICATE_EQUAL1
0", color = yellow] ; 
543 -> 544 ; 
545 [label="PhyMongoDBEval
countrytype
[{\"$match\":{\"countrytype\":222}}]
[country]
2", color = yellow] ; 
544 -> 545 ; 
546 [label="SQLQuery
SELECT PR.country 
FROM Review AS R, Product AS P, Producer AS PR, Producttypeproduct AS PTP  
WHERE P.nr = R.product AND P.producer = PR.nr AND P.nr = PTP.product AND PTP.producttype=141", color = yellow] ; 
544 -> 546 ; 
548 [label="Project
[0]", color = yellow] ; 
2 -> 548 ; 
549 [label="HashJoin 
0PREDICATE_EQUAL1
36", color = yellow] ; 
548 -> 549 ; 
550 [label="SQLQuery
SELECT PR.country 
FROM Offer AS O, Product AS P, Producer AS PR, PRODUCTTYPEPRODUCT AS PTP  
WHERE P.nr = O.product AND PR.nr = P.producer AND P.nr = PTP.product AND PTP.producttype=112", color = yellow] ; 
549 -> 550 ; 
551 [label="PhyMongoDBEval
countrytype
[{\"$match\":{\"countrytype\":222}}]
[country]
2", color = yellow] ; 
549 -> 551 ; 
553 [label="Project
[0]", color = yellow] ; 
2 -> 553 ; 
554 [label="HashJoin 
0PREDICATE_EQUAL1
0", color = yellow] ; 
553 -> 554 ; 
555 [label="PhyMongoDBEval
countrytype
[{\"$match\":{\"countrytype\":222}}]
[country]
2", color = yellow] ; 
554 -> 555 ; 
556 [label="SQLQuery
SELECT PR.country 
FROM Review AS R, Product AS P, Producer AS PR, Producttypeproduct AS PTP  
WHERE P.nr = R.product AND P.producer = PR.nr AND P.nr = PTP.product AND PTP.producttype=138", color = yellow] ; 
554 -> 556 ; 
558 [label="Project
[0]", color = yellow] ; 
2 -> 558 ; 
559 [label="HashJoin 
0PREDICATE_EQUAL1
28", color = yellow] ; 
558 -> 559 ; 
560 [label="PhyMongoDBEval
countrytype
[{\"$match\":{\"countrytype\":222}}]
[country]
2", color = yellow] ; 
559 -> 560 ; 
561 [label="SQLQuery
SELECT PR.country 
FROM Offer AS O, Product AS P, Producer AS PR, PRODUCTTYPEPRODUCT AS PTP  
WHERE P.nr = O.product AND PR.nr = P.producer AND P.nr = PTP.product AND PTP.producttype=110", color = yellow] ; 
559 -> 561 ; 
563 [label="Project
[0]", color = yellow] ; 
2 -> 563 ; 
564 [label="HashJoin 
0PREDICATE_EQUAL1
81", color = yellow] ; 
563 -> 564 ; 
565 [label="SQLQuery
SELECT PR.country 
FROM Offer AS O, Product AS P, Producer AS PR, PRODUCTTYPEPRODUCT AS PTP  
WHERE P.nr = O.product AND PR.nr = P.producer AND P.nr = PTP.product AND PTP.producttype=80", color = yellow] ; 
564 -> 565 ; 
566 [label="PhyMongoDBEval
countrytype
[{\"$match\":{\"countrytype\":222}}]
[country]
2", color = yellow] ; 
564 -> 566 ; 
568 [label="Project
[0]", color = yellow] ; 
2 -> 568 ; 
569 [label="HashJoin 
0PREDICATE_EQUAL1
34", color = yellow] ; 
568 -> 569 ; 
570 [label="SQLQuery
SELECT PR.country 
FROM Offer AS O, Product AS P, Producer AS PR, PRODUCTTYPEPRODUCT AS PTP  
WHERE P.nr = O.product AND PR.nr = P.producer AND P.nr = PTP.product AND PTP.producttype=89", color = yellow] ; 
569 -> 570 ; 
571 [label="PhyMongoDBEval
countrytype
[{\"$match\":{\"countrytype\":222}}]
[country]
2", color = yellow] ; 
569 -> 571 ; 
573 [label="Project
[0]", color = yellow] ; 
2 -> 573 ; 
574 [label="HashJoin 
0PREDICATE_EQUAL1
60", color = yellow] ; 
573 -> 574 ; 
575 [label="PhyMongoDBEval
countrytype
[{\"$match\":{\"countrytype\":222}}]
[country]
2", color = yellow] ; 
574 -> 575 ; 
576 [label="SQLQuery
SELECT PR.country 
FROM Offer AS O, Product AS P, Producer AS PR, PRODUCTTYPEPRODUCT AS PTP  
WHERE P.nr = O.product AND PR.nr = P.producer AND P.nr = PTP.product AND PTP.producttype=68", color = yellow] ; 
574 -> 576 ; 
578 [label="Project
[0]", color = yellow] ; 
2 -> 578 ; 
579 [label="HashJoin 
0PREDICATE_EQUAL1
10", color = yellow] ; 
578 -> 579 ; 
580 [label="SQLQuery
SELECT PR.country 
FROM Review AS R, Product AS P, Producer AS PR, Producttypeproduct AS PTP  
WHERE P.nr = R.product AND P.producer = PR.nr AND P.nr = PTP.product AND PTP.producttype=126", color = yellow] ; 
579 -> 580 ; 
581 [label="PhyMongoDBEval
countrytype
[{\"$match\":{\"countrytype\":222}}]
[country]
2", color = yellow] ; 
579 -> 581 ; 
583 [label="Project
[0]", color = yellow] ; 
2 -> 583 ; 
584 [label="HashJoin 
0PREDICATE_EQUAL1
0", color = yellow] ; 
583 -> 584 ; 
585 [label="PhyMongoDBEval
countrytype
[{\"$match\":{\"countrytype\":222}}]
[country]
2", color = yellow] ; 
584 -> 585 ; 
586 [label="SQLQuery
SELECT PR.country 
FROM Review AS R, Product AS P, Producer AS PR, Producttypeproduct AS PTP  
WHERE P.nr = R.product AND P.producer = PR.nr AND P.nr = PTP.product AND PTP.producttype=104", color = yellow] ; 
584 -> 586 ; 
588 [label="Project
[0]", color = yellow] ; 
2 -> 588 ; 
589 [label="HashJoin 
0PREDICATE_EQUAL1
0", color = yellow] ; 
588 -> 589 ; 
590 [label="PhyMongoDBEval
countrytype
[{\"$match\":{\"countrytype\":222}}]
[country]
2", color = yellow] ; 
589 -> 590 ; 
591 [label="SQLQuery
SELECT PR.country 
FROM Review AS R, Product AS P, Producer AS PR, Producttypeproduct AS PTP  
WHERE P.nr = R.product AND P.producer = PR.nr AND P.nr = PTP.product AND PTP.producttype=61", color = yellow] ; 
589 -> 591 ; 
593 [label="Project
[0]", color = yellow] ; 
2 -> 593 ; 
594 [label="HashJoin 
0PREDICATE_EQUAL1
36", color = yellow] ; 
593 -> 594 ; 
595 [label="SQLQuery
SELECT PR.country 
FROM Offer AS O, Product AS P, Producer AS PR, PRODUCTTYPEPRODUCT AS PTP  
WHERE P.nr = O.product AND PR.nr = P.producer AND P.nr = PTP.product AND PTP.producttype=79", color = yellow] ; 
594 -> 595 ; 
596 [label="PhyMongoDBEval
countrytype
[{\"$match\":{\"countrytype\":222}}]
[country]
2", color = yellow] ; 
594 -> 596 ; 
598 [label="Project
[0]", color = yellow] ; 
2 -> 598 ; 
599 [label="HashJoin 
0PREDICATE_EQUAL1
38", color = yellow] ; 
598 -> 599 ; 
600 [label="PhyMongoDBEval
countrytype
[{\"$match\":{\"countrytype\":222}}]
[country]
2", color = yellow] ; 
599 -> 600 ; 
601 [label="SQLQuery
SELECT PR.country 
FROM Offer AS O, Product AS P, Producer AS PR, PRODUCTTYPEPRODUCT AS PTP  
WHERE P.nr = O.product AND PR.nr = P.producer AND P.nr = PTP.product AND PTP.producttype=115", color = yellow] ; 
599 -> 601 ; 
603 [label="Project
[0]", color = yellow] ; 
2 -> 603 ; 
604 [label="HashJoin 
0PREDICATE_EQUAL1
0", color = yellow] ; 
603 -> 604 ; 
605 [label="SQLQuery
SELECT PR.country 
FROM Offer AS O, Product AS P, Producer AS PR, PRODUCTTYPEPRODUCT AS PTP  
WHERE P.nr = O.product AND PR.nr = P.producer AND P.nr = PTP.product AND PTP.producttype=104", color = yellow] ; 
604 -> 605 ; 
606 [label="PhyMongoDBEval
countrytype
[{\"$match\":{\"countrytype\":222}}]
[country]
2", color = yellow] ; 
604 -> 606 ; 
608 [label="Project
[0]", color = yellow] ; 
2 -> 608 ; 
609 [label="HashJoin 
0PREDICATE_EQUAL1
0", color = yellow] ; 
608 -> 609 ; 
610 [label="SQLQuery
SELECT PR.country 
FROM Review AS R, Product AS P, Producer AS PR, Producttypeproduct AS PTP  
WHERE P.nr = R.product AND P.producer = PR.nr AND P.nr = PTP.product AND PTP.producttype=118", color = yellow] ; 
609 -> 610 ; 
611 [label="PhyMongoDBEval
countrytype
[{\"$match\":{\"countrytype\":222}}]
[country]
2", color = yellow] ; 
609 -> 611 ; 
613 [label="Project
[0]", color = yellow] ; 
2 -> 613 ; 
614 [label="HashJoin 
0PREDICATE_EQUAL1
0", color = yellow] ; 
613 -> 614 ; 
615 [label="SQLQuery
SELECT PR.country 
FROM Offer AS O, Product AS P, Producer AS PR, PRODUCTTYPEPRODUCT AS PTP  
WHERE P.nr = O.product AND PR.nr = P.producer AND P.nr = PTP.product AND PTP.producttype=118", color = yellow] ; 
614 -> 615 ; 
616 [label="PhyMongoDBEval
countrytype
[{\"$match\":{\"countrytype\":222}}]
[country]
2", color = yellow] ; 
614 -> 616 ; 
618 [label="Project
[0]", color = yellow] ; 
2 -> 618 ; 
619 [label="HashJoin 
0PREDICATE_EQUAL1
26", color = yellow] ; 
618 -> 619 ; 
620 [label="SQLQuery
SELECT PR.country 
FROM Review AS R, Product AS P, Producer AS PR, Producttypeproduct AS PTP  
WHERE P.nr = R.product AND P.producer = PR.nr AND P.nr = PTP.product AND PTP.producttype=68", color = yellow] ; 
619 -> 620 ; 
621 [label="PhyMongoDBEval
countrytype
[{\"$match\":{\"countrytype\":222}}]
[country]
2", color = yellow] ; 
619 -> 621 ; 
623 [label="Project
[0]", color = yellow] ; 
2 -> 623 ; 
624 [label="HashJoin 
0PREDICATE_EQUAL1
0", color = yellow] ; 
623 -> 624 ; 
625 [label="SQLQuery
SELECT PR.country 
FROM Offer AS O, Product AS P, Producer AS PR, PRODUCTTYPEPRODUCT AS PTP  
WHERE P.nr = O.product AND PR.nr = P.producer AND P.nr = PTP.product AND PTP.producttype=133", color = yellow] ; 
624 -> 625 ; 
626 [label="PhyMongoDBEval
countrytype
[{\"$match\":{\"countrytype\":222}}]
[country]
2", color = yellow] ; 
624 -> 626 ; 
628 [label="Project
[0]", color = yellow] ; 
2 -> 628 ; 
629 [label="HashJoin 
0PREDICATE_EQUAL1
15", color = yellow] ; 
628 -> 629 ; 
630 [label="SQLQuery
SELECT PR.country 
FROM Review AS R, Product AS P, Producer AS PR, Producttypeproduct AS PTP  
WHERE P.nr = R.product AND P.producer = PR.nr AND P.nr = PTP.product AND PTP.producttype=89", color = yellow] ; 
629 -> 630 ; 
631 [label="PhyMongoDBEval
countrytype
[{\"$match\":{\"countrytype\":222}}]
[country]
2", color = yellow] ; 
629 -> 631 ; 
633 [label="Project
[0]", color = yellow] ; 
2 -> 633 ; 
634 [label="HashJoin 
0PREDICATE_EQUAL1
0", color = yellow] ; 
633 -> 634 ; 
635 [label="PhyMongoDBEval
countrytype
[{\"$match\":{\"countrytype\":222}}]
[country]
2", color = yellow] ; 
634 -> 635 ; 
636 [label="SQLQuery
SELECT PR.country 
FROM Offer AS O, Product AS P, Producer AS PR, PRODUCTTYPEPRODUCT AS PTP  
WHERE P.nr = O.product AND PR.nr = P.producer AND P.nr = PTP.product AND PTP.producttype=91", color = yellow] ; 
634 -> 636 ; 
638 [label="Project
[0]", color = yellow] ; 
2 -> 638 ; 
639 [label="HashJoin 
0PREDICATE_EQUAL1
15", color = yellow] ; 
638 -> 639 ; 
640 [label="PhyMongoDBEval
countrytype
[{\"$match\":{\"countrytype\":222}}]
[country]
2", color = yellow] ; 
639 -> 640 ; 
641 [label="SQLQuery
SELECT PR.country 
FROM Review AS R, Product AS P, Producer AS PR, Producttypeproduct AS PTP  
WHERE P.nr = R.product AND P.producer = PR.nr AND P.nr = PTP.product AND PTP.producttype=105", color = yellow] ; 
639 -> 641 ; 
643 [label="Project
[0]", color = yellow] ; 
2 -> 643 ; 
644 [label="HashJoin 
0PREDICATE_EQUAL1
29", color = yellow] ; 
643 -> 644 ; 
645 [label="SQLQuery
SELECT PR.country 
FROM Offer AS O, Product AS P, Producer AS PR, PRODUCTTYPEPRODUCT AS PTP  
WHERE P.nr = O.product AND PR.nr = P.producer AND P.nr = PTP.product AND PTP.producttype=83", color = yellow] ; 
644 -> 645 ; 
646 [label="PhyMongoDBEval
countrytype
[{\"$match\":{\"countrytype\":222}}]
[country]
2", color = yellow] ; 
644 -> 646 ; 
648 [label="Project
[0]", color = yellow] ; 
2 -> 648 ; 
649 [label="HashJoin 
0PREDICATE_EQUAL1
23", color = yellow] ; 
648 -> 649 ; 
650 [label="SQLQuery
SELECT PR.country 
FROM Offer AS O, Product AS P, Producer AS PR, PRODUCTTYPEPRODUCT AS PTP  
WHERE P.nr = O.product AND PR.nr = P.producer AND P.nr = PTP.product AND PTP.producttype=92", color = yellow] ; 
649 -> 650 ; 
651 [label="PhyMongoDBEval
countrytype
[{\"$match\":{\"countrytype\":222}}]
[country]
2", color = yellow] ; 
649 -> 651 ; 
653 [label="Project
[0]", color = yellow] ; 
2 -> 653 ; 
654 [label="HashJoin 
0PREDICATE_EQUAL1
217", color = yellow] ; 
653 -> 654 ; 
655 [label="PhyMongoDBEval
countrytype
[{\"$match\":{\"countrytype\":222}}]
[country]
2", color = yellow] ; 
654 -> 655 ; 
656 [label="SQLQuery
SELECT PR.country 
FROM Offer AS O, Product AS P, Producer AS PR, PRODUCTTYPEPRODUCT AS PTP  
WHERE P.nr = O.product AND PR.nr = P.producer AND P.nr = PTP.product AND PTP.producttype=69", color = yellow] ; 
654 -> 656 ; 
658 [label="Project
[0]", color = yellow] ; 
2 -> 658 ; 
659 [label="HashJoin 
0PREDICATE_EQUAL1
116", color = yellow] ; 
658 -> 659 ; 
660 [label="PhyMongoDBEval
countrytype
[{\"$match\":{\"countrytype\":222}}]
[country]
2", color = yellow] ; 
659 -> 660 ; 
661 [label="PhyMongoDBEval
productproducercountry
[]
[country]
2810", color = yellow] ; 
659 -> 661 ; 
663 [label="Project
[0]", color = yellow] ; 
2 -> 663 ; 
664 [label="HashJoin 
0PREDICATE_EQUAL1
20", color = yellow] ; 
663 -> 664 ; 
665 [label="PhyMongoDBEval
countrytype
[{\"$match\":{\"countrytype\":222}}]
[country]
2", color = yellow] ; 
664 -> 665 ; 
666 [label="SQLQuery
SELECT PR.country 
FROM Review AS R, Product AS P, Producer AS PR, Producttypeproduct AS PTP  
WHERE P.nr = R.product AND P.producer = PR.nr AND P.nr = PTP.product AND PTP.producttype=134", color = yellow] ; 
664 -> 666 ; 
668 [label="Project
[0]", color = yellow] ; 
2 -> 668 ; 
669 [label="HashJoin 
0PREDICATE_EQUAL1
15", color = yellow] ; 
668 -> 669 ; 
670 [label="SQLQuery
SELECT PR.country 
FROM Review AS R, Product AS P, Producer AS PR, Producttypeproduct AS PTP  
WHERE P.nr = R.product AND P.producer = PR.nr AND P.nr = PTP.product AND PTP.producttype=130", color = yellow] ; 
669 -> 670 ; 
671 [label="PhyMongoDBEval
countrytype
[{\"$match\":{\"countrytype\":222}}]
[country]
2", color = yellow] ; 
669 -> 671 ; 
673 [label="Project
[0]", color = yellow] ; 
2 -> 673 ; 
674 [label="HashJoin 
0PREDICATE_EQUAL1
80", color = yellow] ; 
673 -> 674 ; 
675 [label="SQLQuery
SELECT PR.country 
FROM Offer AS O, Product AS P, Producer AS PR, PRODUCTTYPEPRODUCT AS PTP  
WHERE P.nr = O.product AND PR.nr = P.producer AND P.nr = PTP.product AND PTP.producttype=60", color = yellow] ; 
674 -> 675 ; 
676 [label="PhyMongoDBEval
countrytype
[{\"$match\":{\"countrytype\":222}}]
[country]
2", color = yellow] ; 
674 -> 676 ; 
678 [label="Project
[0]", color = yellow] ; 
2 -> 678 ; 
679 [label="HashJoin 
0PREDICATE_EQUAL1
36", color = yellow] ; 
678 -> 679 ; 
680 [label="SQLQuery
SELECT PR.country 
FROM Offer AS O, Product AS P, Producer AS PR, PRODUCTTYPEPRODUCT AS PTP  
WHERE P.nr = O.product AND PR.nr = P.producer AND P.nr = PTP.product AND PTP.producttype=106", color = yellow] ; 
679 -> 680 ; 
681 [label="PhyMongoDBEval
countrytype
[{\"$match\":{\"countrytype\":222}}]
[country]
2", color = yellow] ; 
679 -> 681 ; 
683 [label="Project
[0]", color = yellow] ; 
2 -> 683 ; 
684 [label="HashJoin 
0PREDICATE_EQUAL1
0", color = yellow] ; 
683 -> 684 ; 
685 [label="PhyMongoDBEval
countrytype
[{\"$match\":{\"countrytype\":222}}]
[country]
2", color = yellow] ; 
684 -> 685 ; 
686 [label="SQLQuery
SELECT PR.country 
FROM Review AS R, Product AS P, Producer AS PR, Producttypeproduct AS PTP  
WHERE P.nr = R.product AND P.producer = PR.nr AND P.nr = PTP.product AND PTP.producttype=58", color = yellow] ; 
684 -> 686 ; 
688 [label="Project
[0]", color = yellow] ; 
2 -> 688 ; 
689 [label="HashJoin 
0PREDICATE_EQUAL1
61", color = yellow] ; 
688 -> 689 ; 
690 [label="SQLQuery
SELECT PR.country 
FROM Offer AS O, Product AS P, Producer AS PR, PRODUCTTYPEPRODUCT AS PTP  
WHERE P.nr = O.product AND PR.nr = P.producer AND P.nr = PTP.product AND PTP.producttype=72", color = yellow] ; 
689 -> 690 ; 
691 [label="PhyMongoDBEval
countrytype
[{\"$match\":{\"countrytype\":222}}]
[country]
2", color = yellow] ; 
689 -> 691 ; 
693 [label="Project
[0]", color = yellow] ; 
2 -> 693 ; 
694 [label="HashJoin 
0PREDICATE_EQUAL1
36", color = yellow] ; 
693 -> 694 ; 
695 [label="PhyMongoDBEval
countrytype
[{\"$match\":{\"countrytype\":222}}]
[country]
2", color = yellow] ; 
694 -> 695 ; 
696 [label="SQLQuery
SELECT PR.country 
FROM Offer AS O, Product AS P, Producer AS PR, PRODUCTTYPEPRODUCT AS PTP  
WHERE P.nr = O.product AND PR.nr = P.producer AND P.nr = PTP.product AND PTP.producttype=98", color = yellow] ; 
694 -> 696 ; 
698 [label="Project
[0]", color = yellow] ; 
2 -> 698 ; 
699 [label="HashJoin 
0PREDICATE_EQUAL1
0", color = yellow] ; 
698 -> 699 ; 
700 [label="PhyMongoDBEval
countrytype
[{\"$match\":{\"countrytype\":222}}]
[country]
2", color = yellow] ; 
699 -> 700 ; 
701 [label="SQLQuery
SELECT PR.country 
FROM Offer AS O, Product AS P, Producer AS PR, PRODUCTTYPEPRODUCT AS PTP  
WHERE P.nr = O.product AND PR.nr = P.producer AND P.nr = PTP.product AND PTP.producttype=121", color = yellow] ; 
699 -> 701 ; 
703 [label="Project
[0]", color = yellow] ; 
2 -> 703 ; 
704 [label="HashJoin 
0PREDICATE_EQUAL1
0", color = yellow] ; 
703 -> 704 ; 
705 [label="SQLQuery
SELECT PR.country 
FROM Review AS R, Product AS P, Producer AS PR, Producttypeproduct AS PTP  
WHERE P.nr = R.product AND P.producer = PR.nr AND P.nr = PTP.product AND PTP.producttype=100", color = yellow] ; 
704 -> 705 ; 
706 [label="PhyMongoDBEval
countrytype
[{\"$match\":{\"countrytype\":222}}]
[country]
2", color = yellow] ; 
704 -> 706 ; 
708 [label="Project
[0]", color = yellow] ; 
2 -> 708 ; 
709 [label="HashJoin 
0PREDICATE_EQUAL1
45", color = yellow] ; 
708 -> 709 ; 
710 [label="SQLQuery
SELECT PR.country 
FROM Review AS R, Product AS P, Producer AS PR, Producttypeproduct AS PTP  
WHERE P.nr = R.product AND P.producer = PR.nr AND P.nr = PTP.product AND PTP.producttype=87", color = yellow] ; 
709 -> 710 ; 
711 [label="PhyMongoDBEval
countrytype
[{\"$match\":{\"countrytype\":222}}]
[country]
2", color = yellow] ; 
709 -> 711 ; 
713 [label="Project
[0]", color = yellow] ; 
2 -> 713 ; 
714 [label="HashJoin 
0PREDICATE_EQUAL1
68", color = yellow] ; 
713 -> 714 ; 
715 [label="PhyMongoDBEval
countrytype
[{\"$match\":{\"countrytype\":222}}]
[country]
2", color = yellow] ; 
714 -> 715 ; 
716 [label="SQLQuery
SELECT PR.country 
FROM Offer AS O, Product AS P, Producer AS PR, PRODUCTTYPEPRODUCT AS PTP  
WHERE P.nr = O.product AND PR.nr = P.producer AND P.nr = PTP.product AND PTP.producttype=59", color = yellow] ; 
714 -> 716 ; 
718 [label="Project
[0]", color = yellow] ; 
2 -> 718 ; 
719 [label="HashJoin 
0PREDICATE_EQUAL1
114", color = yellow] ; 
718 -> 719 ; 
720 [label="SQLQuery
SELECT PR.country 
FROM Offer AS O, Product AS P, Producer AS PR, PRODUCTTYPEPRODUCT AS PTP  
WHERE P.nr = O.product AND PR.nr = P.producer AND P.nr = PTP.product AND PTP.producttype=87", color = yellow] ; 
719 -> 720 ; 
721 [label="PhyMongoDBEval
countrytype
[{\"$match\":{\"countrytype\":222}}]
[country]
2", color = yellow] ; 
719 -> 721 ; 
723 [label="Project
[0]", color = yellow] ; 
2 -> 723 ; 
724 [label="HashJoin 
0PREDICATE_EQUAL1
46", color = yellow] ; 
723 -> 724 ; 
725 [label="PhyMongoDBEval
countrytype
[{\"$match\":{\"countrytype\":222}}]
[country]
2", color = yellow] ; 
724 -> 725 ; 
726 [label="SQLQuery
SELECT PR.country 
FROM Offer AS O, Product AS P, Producer AS PR, PRODUCTTYPEPRODUCT AS PTP  
WHERE P.nr = O.product AND PR.nr = P.producer AND P.nr = PTP.product AND PTP.producttype=102", color = yellow] ; 
724 -> 726 ; 
728 [label="Project
[0]", color = yellow] ; 
2 -> 728 ; 
729 [label="HashJoin 
0PREDICATE_EQUAL1
26", color = yellow] ; 
728 -> 729 ; 
730 [label="PhyMongoDBEval
countrytype
[{\"$match\":{\"countrytype\":222}}]
[country]
2", color = yellow] ; 
729 -> 730 ; 
731 [label="SQLQuery
SELECT PR.country 
FROM Offer AS O, Product AS P, Producer AS PR, PRODUCTTYPEPRODUCT AS PTP  
WHERE P.nr = O.product AND PR.nr = P.producer AND P.nr = PTP.product AND PTP.producttype=129", color = yellow] ; 
729 -> 731 ; 
733 [label="Project
[0]", color = yellow] ; 
2 -> 733 ; 
734 [label="HashJoin 
0PREDICATE_EQUAL1
85", color = yellow] ; 
733 -> 734 ; 
735 [label="SQLQuery
SELECT PR.country 
FROM Offer AS O, Product AS P, Producer AS PR, PRODUCTTYPEPRODUCT AS PTP  
WHERE P.nr = O.product AND PR.nr = P.producer AND P.nr = PTP.product AND PTP.producttype=71", color = yellow] ; 
734 -> 735 ; 
736 [label="PhyMongoDBEval
countrytype
[{\"$match\":{\"countrytype\":222}}]
[country]
2", color = yellow] ; 
734 -> 736 ; 
738 [label="Project
[0]", color = yellow] ; 
2 -> 738 ; 
739 [label="HashJoin 
0PREDICATE_EQUAL1
64", color = yellow] ; 
738 -> 739 ; 
740 [label="SQLQuery
SELECT PR.country 
FROM Offer AS O, Product AS P, Producer AS PR, PRODUCTTYPEPRODUCT AS PTP  
WHERE P.nr = O.product AND PR.nr = P.producer AND P.nr = PTP.product AND PTP.producttype=77", color = yellow] ; 
739 -> 740 ; 
741 [label="PhyMongoDBEval
countrytype
[{\"$match\":{\"countrytype\":222}}]
[country]
2", color = yellow] ; 
739 -> 741 ; 
743 [label="Project
[0]", color = yellow] ; 
2 -> 743 ; 
744 [label="HashJoin 
0PREDICATE_EQUAL1
24", color = yellow] ; 
743 -> 744 ; 
745 [label="SQLQuery
SELECT PR.country 
FROM Review AS R, Product AS P, Producer AS PR, Producttypeproduct AS PTP  
WHERE P.nr = R.product AND P.producer = PR.nr AND P.nr = PTP.product AND PTP.producttype=113", color = yellow] ; 
744 -> 745 ; 
746 [label="PhyMongoDBEval
countrytype
[{\"$match\":{\"countrytype\":222}}]
[country]
2", color = yellow] ; 
744 -> 746 ; 
748 [label="Project
[0]", color = yellow] ; 
2 -> 748 ; 
749 [label="HashJoin 
0PREDICATE_EQUAL1
32", color = yellow] ; 
748 -> 749 ; 
750 [label="PhyMongoDBEval
countrytype
[{\"$match\":{\"countrytype\":222}}]
[country]
2", color = yellow] ; 
749 -> 750 ; 
751 [label="SQLQuery
SELECT PR.country 
FROM Offer AS O, Product AS P, Producer AS PR, PRODUCTTYPEPRODUCT AS PTP  
WHERE P.nr = O.product AND PR.nr = P.producer AND P.nr = PTP.product AND PTP.producttype=123", color = yellow] ; 
749 -> 751 ; 
753 [label="Project
[0]", color = yellow] ; 
2 -> 753 ; 
754 [label="HashJoin 
0PREDICATE_EQUAL1
38", color = yellow] ; 
753 -> 754 ; 
755 [label="PhyMongoDBEval
countrytype
[{\"$match\":{\"countrytype\":222}}]
[country]
2", color = yellow] ; 
754 -> 755 ; 
756 [label="SQLQuery
SELECT PR.country 
FROM Review AS R, Product AS P, Producer AS PR, Producttypeproduct AS PTP  
WHERE P.nr = R.product AND P.producer = PR.nr AND P.nr = PTP.product AND PTP.producttype=71", color = yellow] ; 
754 -> 756 ; 
758 [label="Project
[0]", color = yellow] ; 
2 -> 758 ; 
759 [label="HashJoin 
0PREDICATE_EQUAL1
56", color = yellow] ; 
758 -> 759 ; 
760 [label="PhyMongoDBEval
countrytype
[{\"$match\":{\"countrytype\":222}}]
[country]
2", color = yellow] ; 
759 -> 760 ; 
761 [label="SQLQuery
SELECT PR.country 
FROM Offer AS O, Product AS P, Producer AS PR, PRODUCTTYPEPRODUCT AS PTP  
WHERE P.nr = O.product AND PR.nr = P.producer AND P.nr = PTP.product AND PTP.producttype=151", color = yellow] ; 
759 -> 761 ; 
763 [label="Project
[0]", color = yellow] ; 
2 -> 763 ; 
764 [label="HashJoin 
0PREDICATE_EQUAL1
9", color = yellow] ; 
763 -> 764 ; 
765 [label="PhyMongoDBEval
countrytype
[{\"$match\":{\"countrytype\":222}}]
[country]
2", color = yellow] ; 
764 -> 765 ; 
766 [label="SQLQuery
SELECT PR.country 
FROM Review AS R, Product AS P, Producer AS PR, Producttypeproduct AS PTP  
WHERE P.nr = R.product AND P.producer = PR.nr AND P.nr = PTP.product AND PTP.producttype=63", color = yellow] ; 
764 -> 766 ; 
768 [label="Project
[0]", color = yellow] ; 
2 -> 768 ; 
769 [label="HashJoin 
0PREDICATE_EQUAL1
0", color = yellow] ; 
768 -> 769 ; 
770 [label="PhyMongoDBEval
countrytype
[{\"$match\":{\"countrytype\":222}}]
[country]
2", color = yellow] ; 
769 -> 770 ; 
771 [label="SQLQuery
SELECT PR.country 
FROM Offer AS O, Product AS P, Producer AS PR, PRODUCTTYPEPRODUCT AS PTP  
WHERE P.nr = O.product AND PR.nr = P.producer AND P.nr = PTP.product AND PTP.producttype=148", color = yellow] ; 
769 -> 771 ; 
773 [label="Project
[0]", color = yellow] ; 
2 -> 773 ; 
774 [label="HashJoin 
0PREDICATE_EQUAL1
0", color = yellow] ; 
773 -> 774 ; 
775 [label="PhyMongoDBEval
countrytype
[{\"$match\":{\"countrytype\":222}}]
[country]
2", color = yellow] ; 
774 -> 775 ; 
776 [label="SQLQuery
SELECT PR.country 
FROM Offer AS O, Product AS P, Producer AS PR, PRODUCTTYPEPRODUCT AS PTP  
WHERE P.nr = O.product AND PR.nr = P.producer AND P.nr = PTP.product AND PTP.producttype=143", color = yellow] ; 
774 -> 776 ; 
778 [label="Project
[0]", color = yellow] ; 
2 -> 778 ; 
779 [label="HashJoin 
0PREDICATE_EQUAL1
0", color = yellow] ; 
778 -> 779 ; 
780 [label="SQLQuery
SELECT PR.country 
FROM Review AS R, Product AS P, Producer AS PR, Producttypeproduct AS PTP  
WHERE P.nr = R.product AND P.producer = PR.nr AND P.nr = PTP.product AND PTP.producttype=139", color = yellow] ; 
779 -> 780 ; 
781 [label="PhyMongoDBEval
countrytype
[{\"$match\":{\"countrytype\":222}}]
[country]
2", color = yellow] ; 
779 -> 781 ; 
783 [label="Project
[0]", color = yellow] ; 
2 -> 783 ; 
784 [label="HashJoin 
0PREDICATE_EQUAL1
17", color = yellow] ; 
783 -> 784 ; 
785 [label="PhyMongoDBEval
countrytype
[{\"$match\":{\"countrytype\":222}}]
[country]
2", color = yellow] ; 
784 -> 785 ; 
786 [label="SQLQuery
SELECT PR.country 
FROM Review AS R, Product AS P, Producer AS PR, Producttypeproduct AS PTP  
WHERE P.nr = R.product AND P.producer = PR.nr AND P.nr = PTP.product AND PTP.producttype=81", color = yellow] ; 
784 -> 786 ; 
788 [label="Project
[0]", color = yellow] ; 
2 -> 788 ; 
789 [label="HashJoin 
0PREDICATE_EQUAL1
76", color = yellow] ; 
788 -> 789 ; 
790 [label="PhyMongoDBEval
countrytype
[{\"$match\":{\"countrytype\":222}}]
[country]
2", color = yellow] ; 
789 -> 790 ; 
791 [label="SQLQuery
SELECT PR.country 
FROM Offer AS O, Product AS P, Producer AS PR, PRODUCTTYPEPRODUCT AS PTP  
WHERE P.nr = O.product AND PR.nr = P.producer AND P.nr = PTP.product AND PTP.producttype=86", color = yellow] ; 
789 -> 791 ; 
793 [label="Project
[0]", color = yellow] ; 
2 -> 793 ; 
794 [label="HashJoin 
0PREDICATE_EQUAL1
0", color = yellow] ; 
793 -> 794 ; 
795 [label="PhyMongoDBEval
countrytype
[{\"$match\":{\"countrytype\":222}}]
[country]
2", color = yellow] ; 
794 -> 795 ; 
796 [label="SQLQuery
SELECT PR.country 
FROM Offer AS O, Product AS P, Producer AS PR, PRODUCTTYPEPRODUCT AS PTP  
WHERE P.nr = O.product AND PR.nr = P.producer AND P.nr = PTP.product AND PTP.producttype=120", color = yellow] ; 
794 -> 796 ; 
798 [label="Project
[0]", color = yellow] ; 
2 -> 798 ; 
799 [label="HashJoin 
0PREDICATE_EQUAL1
61", color = yellow] ; 
798 -> 799 ; 
800 [label="PhyMongoDBEval
countrytype
[{\"$match\":{\"countrytype\":222}}]
[country]
2", color = yellow] ; 
799 -> 800 ; 
801 [label="SQLQuery
SELECT PR.country 
FROM Review AS R, Product AS P, Producer AS PR, Producttypeproduct AS PTP  
WHERE P.nr = R.product AND P.producer = PR.nr AND P.nr = PTP.product AND PTP.producttype=65", color = yellow] ; 
799 -> 801 ; 
803 [label="Project
[0]", color = yellow] ; 
2 -> 803 ; 
804 [label="HashJoin 
0PREDICATE_EQUAL1
0", color = yellow] ; 
803 -> 804 ; 
805 [label="SQLQuery
SELECT PR.country 
FROM Offer AS O, Product AS P, Producer AS PR, PRODUCTTYPEPRODUCT AS PTP  
WHERE P.nr = O.product AND PR.nr = P.producer AND P.nr = PTP.product AND PTP.producttype=146", color = yellow] ; 
804 -> 805 ; 
806 [label="PhyMongoDBEval
countrytype
[{\"$match\":{\"countrytype\":222}}]
[country]
2", color = yellow] ; 
804 -> 806 ; 
808 [label="Project
[0]", color = yellow] ; 
2 -> 808 ; 
809 [label="HashJoin 
0PREDICATE_EQUAL1
32", color = yellow] ; 
808 -> 809 ; 
810 [label="PhyMongoDBEval
countrytype
[{\"$match\":{\"countrytype\":222}}]
[country]
2", color = yellow] ; 
809 -> 810 ; 
811 [label="SQLQuery
SELECT PR.country 
FROM Review AS R, Product AS P, Producer AS PR, Producttypeproduct AS PTP  
WHERE P.nr = R.product AND P.producer = PR.nr AND P.nr = PTP.product AND PTP.producttype=77", color = yellow] ; 
809 -> 811 ; 
813 [label="Project
[0]", color = yellow] ; 
2 -> 813 ; 
814 [label="HashJoin 
0PREDICATE_EQUAL1
33", color = yellow] ; 
813 -> 814 ; 
815 [label="SQLQuery
SELECT PR.country 
FROM Review AS R, Product AS P, Producer AS PR, Producttypeproduct AS PTP  
WHERE P.nr = R.product AND P.producer = PR.nr AND P.nr = PTP.product AND PTP.producttype=88", color = yellow] ; 
814 -> 815 ; 
816 [label="PhyMongoDBEval
countrytype
[{\"$match\":{\"countrytype\":222}}]
[country]
2", color = yellow] ; 
814 -> 816 ; 
818 [label="Project
[0]", color = yellow] ; 
2 -> 818 ; 
819 [label="HashJoin 
0PREDICATE_EQUAL1
30", color = yellow] ; 
818 -> 819 ; 
820 [label="PhyMongoDBEval
countrytype
[{\"$match\":{\"countrytype\":222}}]
[country]
2", color = yellow] ; 
819 -> 820 ; 
821 [label="SQLQuery
SELECT PR.country 
FROM Review AS R, Product AS P, Producer AS PR, Producttypeproduct AS PTP  
WHERE P.nr = R.product AND P.producer = PR.nr AND P.nr = PTP.product AND PTP.producttype=59", color = yellow] ; 
819 -> 821 ; 
823 [label="Project
[0]", color = yellow] ; 
2 -> 823 ; 
824 [label="HashJoin 
0PREDICATE_EQUAL1
31", color = yellow] ; 
823 -> 824 ; 
825 [label="SQLQuery
SELECT PR.country 
FROM Review AS R, Product AS P, Producer AS PR, Producttypeproduct AS PTP  
WHERE P.nr = R.product AND P.producer = PR.nr AND P.nr = PTP.product AND PTP.producttype=72", color = yellow] ; 
824 -> 825 ; 
826 [label="PhyMongoDBEval
countrytype
[{\"$match\":{\"countrytype\":222}}]
[country]
2", color = yellow] ; 
824 -> 826 ; 
828 [label="Project
[0]", color = yellow] ; 
2 -> 828 ; 
829 [label="HashJoin 
0PREDICATE_EQUAL1
178", color = yellow] ; 
828 -> 829 ; 
830 [label="PhyMongoDBEval
countrytype
[{\"$match\":{\"countrytype\":222}}]
[country]
2", color = yellow] ; 
829 -> 830 ; 
831 [label="SQLQuery
SELECT PR.country 
FROM Offer AS O, Product AS P, Producer AS PR, PRODUCTTYPEPRODUCT AS PTP  
WHERE P.nr = O.product AND PR.nr = P.producer AND P.nr = PTP.product AND PTP.producttype=56", color = yellow] ; 
829 -> 831 ; 
833 [label="Project
[0]", color = yellow] ; 
2 -> 833 ; 
834 [label="HashJoin 
0PREDICATE_EQUAL1
30", color = yellow] ; 
833 -> 834 ; 
835 [label="SQLQuery
SELECT PR.country 
FROM Offer AS O, Product AS P, Producer AS PR, PRODUCTTYPEPRODUCT AS PTP  
WHERE P.nr = O.product AND PR.nr = P.producer AND P.nr = PTP.product AND PTP.producttype=137", color = yellow] ; 
834 -> 835 ; 
836 [label="PhyMongoDBEval
countrytype
[{\"$match\":{\"countrytype\":222}}]
[country]
2", color = yellow] ; 
834 -> 836 ; 
838 [label="Project
[0]", color = yellow] ; 
2 -> 838 ; 
839 [label="HashJoin 
0PREDICATE_EQUAL1
0", color = yellow] ; 
838 -> 839 ; 
840 [label="SQLQuery
SELECT PR.country 
FROM Offer AS O, Product AS P, Producer AS PR, PRODUCTTYPEPRODUCT AS PTP  
WHERE P.nr = O.product AND PR.nr = P.producer AND P.nr = PTP.product AND PTP.producttype=111", color = yellow] ; 
839 -> 840 ; 
841 [label="PhyMongoDBEval
countrytype
[{\"$match\":{\"countrytype\":222}}]
[country]
2", color = yellow] ; 
839 -> 841 ; 
843 [label="Project
[0]", color = yellow] ; 
2 -> 843 ; 
844 [label="HashJoin 
0PREDICATE_EQUAL1
0", color = yellow] ; 
843 -> 844 ; 
845 [label="SQLQuery
SELECT PR.country 
FROM Review AS R, Product AS P, Producer AS PR, Producttypeproduct AS PTP  
WHERE P.nr = R.product AND P.producer = PR.nr AND P.nr = PTP.product AND PTP.producttype=124", color = yellow] ; 
844 -> 845 ; 
846 [label="PhyMongoDBEval
countrytype
[{\"$match\":{\"countrytype\":222}}]
[country]
2", color = yellow] ; 
844 -> 846 ; 
848 [label="Project
[0]", color = yellow] ; 
2 -> 848 ; 
849 [label="HashJoin 
0PREDICATE_EQUAL1
0", color = yellow] ; 
848 -> 849 ; 
850 [label="SQLQuery
SELECT PR.country 
FROM Review AS R, Product AS P, Producer AS PR, Producttypeproduct AS PTP  
WHERE P.nr = R.product AND P.producer = PR.nr AND P.nr = PTP.product AND PTP.producttype=90", color = yellow] ; 
849 -> 850 ; 
851 [label="PhyMongoDBEval
countrytype
[{\"$match\":{\"countrytype\":222}}]
[country]
2", color = yellow] ; 
849 -> 851 ; 
853 [label="Project
[0]", color = yellow] ; 
2 -> 853 ; 
854 [label="HashJoin 
0PREDICATE_EQUAL1
0", color = yellow] ; 
853 -> 854 ; 
855 [label="SQLQuery
SELECT PR.country 
FROM Review AS R, Product AS P, Producer AS PR, Producttypeproduct AS PTP  
WHERE P.nr = R.product AND P.producer = PR.nr AND P.nr = PTP.product AND PTP.producttype=149", color = yellow] ; 
854 -> 855 ; 
856 [label="PhyMongoDBEval
countrytype
[{\"$match\":{\"countrytype\":222}}]
[country]
2", color = yellow] ; 
854 -> 856 ; 
858 [label="Project
[0]", color = yellow] ; 
2 -> 858 ; 
859 [label="HashJoin 
0PREDICATE_EQUAL1
26", color = yellow] ; 
858 -> 859 ; 
860 [label="SQLQuery
SELECT PR.country 
FROM Review AS R, Product AS P, Producer AS PR, Producttypeproduct AS PTP  
WHERE P.nr = R.product AND P.producer = PR.nr AND P.nr = PTP.product AND PTP.producttype=64", color = yellow] ; 
859 -> 860 ; 
861 [label="PhyMongoDBEval
countrytype
[{\"$match\":{\"countrytype\":222}}]
[country]
2", color = yellow] ; 
859 -> 861 ; 
863 [label="Project
[0]", color = yellow] ; 
2 -> 863 ; 
864 [label="HashJoin 
0PREDICATE_EQUAL1
0", color = yellow] ; 
863 -> 864 ; 
865 [label="SQLQuery
SELECT PR.country 
FROM Offer AS O, Product AS P, Producer AS PR, PRODUCTTYPEPRODUCT AS PTP  
WHERE P.nr = O.product AND PR.nr = P.producer AND P.nr = PTP.product AND PTP.producttype=58", color = yellow] ; 
864 -> 865 ; 
866 [label="PhyMongoDBEval
countrytype
[{\"$match\":{\"countrytype\":222}}]
[country]
2", color = yellow] ; 
864 -> 866 ; 
868 [label="Project
[0]", color = yellow] ; 
2 -> 868 ; 
869 [label="HashJoin 
0PREDICATE_EQUAL1
22", color = yellow] ; 
868 -> 869 ; 
870 [label="PhyMongoDBEval
countrytype
[{\"$match\":{\"countrytype\":222}}]
[country]
2", color = yellow] ; 
869 -> 870 ; 
871 [label="SQLQuery
SELECT PR.country 
FROM Review AS R, Product AS P, Producer AS PR, Producttypeproduct AS PTP  
WHERE P.nr = R.product AND P.producer = PR.nr AND P.nr = PTP.product AND PTP.producttype=75", color = yellow] ; 
869 -> 871 ; 
873 [label="Project
[0]", color = yellow] ; 
2 -> 873 ; 
874 [label="HashJoin 
0PREDICATE_EQUAL1
0", color = yellow] ; 
873 -> 874 ; 
875 [label="SQLQuery
SELECT PR.country 
FROM Review AS R, Product AS P, Producer AS PR, Producttypeproduct AS PTP  
WHERE P.nr = R.product AND P.producer = PR.nr AND P.nr = PTP.product AND PTP.producttype=91", color = yellow] ; 
874 -> 875 ; 
876 [label="PhyMongoDBEval
countrytype
[{\"$match\":{\"countrytype\":222}}]
[country]
2", color = yellow] ; 
874 -> 876 ; 
878 [label="Project
[0]", color = yellow] ; 
2 -> 878 ; 
879 [label="HashJoin 
0PREDICATE_EQUAL1
57", color = yellow] ; 
878 -> 879 ; 
880 [label="SQLQuery
SELECT PR.country 
FROM Offer AS O, Product AS P, Producer AS PR, PRODUCTTYPEPRODUCT AS PTP  
WHERE P.nr = O.product AND PR.nr = P.producer AND P.nr = PTP.product AND PTP.producttype=85", color = yellow] ; 
879 -> 880 ; 
881 [label="PhyMongoDBEval
countrytype
[{\"$match\":{\"countrytype\":222}}]
[country]
2", color = yellow] ; 
879 -> 881 ; 
883 [label="Project
[0]", color = yellow] ; 
2 -> 883 ; 
884 [label="HashJoin 
0PREDICATE_EQUAL1
0", color = yellow] ; 
883 -> 884 ; 
885 [label="PhyMongoDBEval
countrytype
[{\"$match\":{\"countrytype\":222}}]
[country]
2", color = yellow] ; 
884 -> 885 ; 
886 [label="SQLQuery
SELECT PR.country 
FROM Review AS R, Product AS P, Producer AS PR, Producttypeproduct AS PTP  
WHERE P.nr = R.product AND P.producer = PR.nr AND P.nr = PTP.product AND PTP.producttype=120", color = yellow] ; 
884 -> 886 ; 
888 [label="Project
[0]", color = yellow] ; 
2 -> 888 ; 
889 [label="HashJoin 
0PREDICATE_EQUAL1
17", color = yellow] ; 
888 -> 889 ; 
890 [label="SQLQuery
SELECT PR.country 
FROM Review AS R, Product AS P, Producer AS PR, Producttypeproduct AS PTP  
WHERE P.nr = R.product AND P.producer = PR.nr AND P.nr = PTP.product AND PTP.producttype=109", color = yellow] ; 
889 -> 890 ; 
891 [label="PhyMongoDBEval
countrytype
[{\"$match\":{\"countrytype\":222}}]
[country]
2", color = yellow] ; 
889 -> 891 ; 
893 [label="Project
[0]", color = yellow] ; 
2 -> 893 ; 
894 [label="HashJoin 
0PREDICATE_EQUAL1
80", color = yellow] ; 
893 -> 894 ; 
895 [label="SQLQuery
SELECT PR.country 
FROM Offer AS O, Product AS P, Producer AS PR, PRODUCTTYPEPRODUCT AS PTP  
WHERE P.nr = O.product AND PR.nr = P.producer AND P.nr = PTP.product AND PTP.producttype=73", color = yellow] ; 
894 -> 895 ; 
896 [label="PhyMongoDBEval
countrytype
[{\"$match\":{\"countrytype\":222}}]
[country]
2", color = yellow] ; 
894 -> 896 ; 
898 [label="Project
[0]", color = yellow] ; 
2 -> 898 ; 
899 [label="HashJoin 
0PREDICATE_EQUAL1
0", color = yellow] ; 
898 -> 899 ; 
900 [label="SQLQuery
SELECT PR.country 
FROM Offer AS O, Product AS P, Producer AS PR, PRODUCTTYPEPRODUCT AS PTP  
WHERE P.nr = O.product AND PR.nr = P.producer AND P.nr = PTP.product AND PTP.producttype=125", color = yellow] ; 
899 -> 900 ; 
901 [label="PhyMongoDBEval
countrytype
[{\"$match\":{\"countrytype\":222}}]
[country]
2", color = yellow] ; 
899 -> 901 ; 
903 [label="Project
[0]", color = yellow] ; 
2 -> 903 ; 
904 [label="HashJoin 
0PREDICATE_EQUAL1
16", color = yellow] ; 
903 -> 904 ; 
905 [label="PhyMongoDBEval
countrytype
[{\"$match\":{\"countrytype\":222}}]
[country]
2", color = yellow] ; 
904 -> 905 ; 
906 [label="SQLQuery
SELECT PR.country 
FROM Review AS R, Product AS P, Producer AS PR, Producttypeproduct AS PTP  
WHERE P.nr = R.product AND P.producer = PR.nr AND P.nr = PTP.product AND PTP.producttype=66", color = yellow] ; 
904 -> 906 ; 
908 [label="Project
[0]", color = yellow] ; 
2 -> 908 ; 
909 [label="HashJoin 
0PREDICATE_EQUAL1
30", color = yellow] ; 
908 -> 909 ; 
910 [label="SQLQuery
SELECT PR.country 
FROM Offer AS O, Product AS P, Producer AS PR, PRODUCTTYPEPRODUCT AS PTP  
WHERE P.nr = O.product AND PR.nr = P.producer AND P.nr = PTP.product AND PTP.producttype=66", color = yellow] ; 
909 -> 910 ; 
911 [label="PhyMongoDBEval
countrytype
[{\"$match\":{\"countrytype\":222}}]
[country]
2", color = yellow] ; 
909 -> 911 ; 
913 [label="Project
[0]", color = yellow] ; 
2 -> 913 ; 
914 [label="HashJoin 
0PREDICATE_EQUAL1
0", color = yellow] ; 
913 -> 914 ; 
915 [label="SQLQuery
SELECT PR.country 
FROM Review AS R, Product AS P, Producer AS PR, Producttypeproduct AS PTP  
WHERE P.nr = R.product AND P.producer = PR.nr AND P.nr = PTP.product AND PTP.producttype=119", color = yellow] ; 
914 -> 915 ; 
916 [label="PhyMongoDBEval
countrytype
[{\"$match\":{\"countrytype\":222}}]
[country]
2", color = yellow] ; 
914 -> 916 ; 
918 [label="Project
[0]", color = yellow] ; 
2 -> 918 ; 
919 [label="HashJoin 
0PREDICATE_EQUAL1
34", color = yellow] ; 
918 -> 919 ; 
920 [label="PhyMongoDBEval
countrytype
[{\"$match\":{\"countrytype\":222}}]
[country]
2", color = yellow] ; 
919 -> 920 ; 
921 [label="SQLQuery
SELECT PR.country 
FROM Review AS R, Product AS P, Producer AS PR, Producttypeproduct AS PTP  
WHERE P.nr = R.product AND P.producer = PR.nr AND P.nr = PTP.product AND PTP.producttype=151", color = yellow] ; 
919 -> 921 ; 
923 [label="Project
[0]", color = yellow] ; 
2 -> 923 ; 
924 [label="HashJoin 
0PREDICATE_EQUAL1
0", color = yellow] ; 
923 -> 924 ; 
925 [label="PhyMongoDBEval
countrytype
[{\"$match\":{\"countrytype\":222}}]
[country]
2", color = yellow] ; 
924 -> 925 ; 
926 [label="SQLQuery
SELECT PR.country 
FROM Review AS R, Product AS P, Producer AS PR, Producttypeproduct AS PTP  
WHERE P.nr = R.product AND P.producer = PR.nr AND P.nr = PTP.product AND PTP.producttype=135", color = yellow] ; 
924 -> 926 ; 
928 [label="Project
[0]", color = yellow] ; 
2 -> 928 ; 
929 [label="HashJoin 
0PREDICATE_EQUAL1
33", color = yellow] ; 
928 -> 929 ; 
930 [label="SQLQuery
SELECT PR.country 
FROM Offer AS O, Product AS P, Producer AS PR, PRODUCTTYPEPRODUCT AS PTP  
WHERE P.nr = O.product AND PR.nr = P.producer AND P.nr = PTP.product AND PTP.producttype=128", color = yellow] ; 
929 -> 930 ; 
931 [label="PhyMongoDBEval
countrytype
[{\"$match\":{\"countrytype\":222}}]
[country]
2", color = yellow] ; 
929 -> 931 ; 
933 [label="Project
[0]", color = yellow] ; 
2 -> 933 ; 
934 [label="HashJoin 
0PREDICATE_EQUAL1
0", color = yellow] ; 
933 -> 934 ; 
935 [label="PhyMongoDBEval
countrytype
[{\"$match\":{\"countrytype\":222}}]
[country]
2", color = yellow] ; 
934 -> 935 ; 
936 [label="SQLQuery
SELECT PR.country 
FROM Review AS R, Product AS P, Producer AS PR, Producttypeproduct AS PTP  
WHERE P.nr = R.product AND P.producer = PR.nr AND P.nr = PTP.product AND PTP.producttype=143", color = yellow] ; 
934 -> 936 ; 
938 [label="Project
[0]", color = yellow] ; 
2 -> 938 ; 
939 [label="HashJoin 
0PREDICATE_EQUAL1
31", color = yellow] ; 
938 -> 939 ; 
940 [label="PhyMongoDBEval
countrytype
[{\"$match\":{\"countrytype\":222}}]
[country]
2", color = yellow] ; 
939 -> 940 ; 
941 [label="SQLQuery
SELECT PR.country 
FROM Offer AS O, Product AS P, Producer AS PR, PRODUCTTYPEPRODUCT AS PTP  
WHERE P.nr = O.product AND PR.nr = P.producer AND P.nr = PTP.product AND PTP.producttype=94", color = yellow] ; 
939 -> 941 ; 
943 [label="Project
[0]", color = yellow] ; 
2 -> 943 ; 
944 [label="HashJoin 
0PREDICATE_EQUAL1
0", color = yellow] ; 
943 -> 944 ; 
945 [label="PhyMongoDBEval
countrytype
[{\"$match\":{\"countrytype\":222}}]
[country]
2", color = yellow] ; 
944 -> 945 ; 
946 [label="SQLQuery
SELECT PR.country 
FROM Offer AS O, Product AS P, Producer AS PR, PRODUCTTYPEPRODUCT AS PTP  
WHERE P.nr = O.product AND PR.nr = P.producer AND P.nr = PTP.product AND PTP.producttype=76", color = yellow] ; 
944 -> 946 ; 
948 [label="Project
[0]", color = yellow] ; 
2 -> 948 ; 
949 [label="HashJoin 
0PREDICATE_EQUAL1
56", color = yellow] ; 
948 -> 949 ; 
950 [label="SQLQuery
SELECT PR.country 
FROM Offer AS O, Product AS P, Producer AS PR, PRODUCTTYPEPRODUCT AS PTP  
WHERE P.nr = O.product AND PR.nr = P.producer AND P.nr = PTP.product AND PTP.producttype=101", color = yellow] ; 
949 -> 950 ; 
951 [label="PhyMongoDBEval
countrytype
[{\"$match\":{\"countrytype\":222}}]
[country]
2", color = yellow] ; 
949 -> 951 ; 
953 [label="Project
[0]", color = yellow] ; 
2 -> 953 ; 
954 [label="HashJoin 
0PREDICATE_EQUAL1
54", color = yellow] ; 
953 -> 954 ; 
955 [label="PhyMongoDBEval
countrytype
[{\"$match\":{\"countrytype\":222}}]
[country]
2", color = yellow] ; 
954 -> 955 ; 
956 [label="SQLQuery
SELECT PR.country 
FROM Offer AS O, Product AS P, Producer AS PR, PRODUCTTYPEPRODUCT AS PTP  
WHERE P.nr = O.product AND PR.nr = P.producer AND P.nr = PTP.product AND PTP.producttype=142", color = yellow] ; 
954 -> 956 ; 
958 [label="Project
[0]", color = yellow] ; 
2 -> 958 ; 
959 [label="HashJoin 
0PREDICATE_EQUAL1
0", color = yellow] ; 
958 -> 959 ; 
960 [label="PhyMongoDBEval
countrytype
[{\"$match\":{\"countrytype\":222}}]
[country]
2", color = yellow] ; 
959 -> 960 ; 
961 [label="SQLQuery
SELECT PR.country 
FROM Offer AS O, Product AS P, Producer AS PR, PRODUCTTYPEPRODUCT AS PTP  
WHERE P.nr = O.product AND PR.nr = P.producer AND P.nr = PTP.product AND PTP.producttype=90", color = yellow] ; 
959 -> 961 ; 
963 [label="Project
[0]", color = yellow] ; 
2 -> 963 ; 
964 [label="HashJoin 
0PREDICATE_EQUAL1
21", color = yellow] ; 
963 -> 964 ; 
965 [label="SQLQuery
SELECT PR.country 
FROM Review AS R, Product AS P, Producer AS PR, Producttypeproduct AS PTP  
WHERE P.nr = R.product AND P.producer = PR.nr AND P.nr = PTP.product AND PTP.producttype=147", color = yellow] ; 
964 -> 965 ; 
966 [label="PhyMongoDBEval
countrytype
[{\"$match\":{\"countrytype\":222}}]
[country]
2", color = yellow] ; 
964 -> 966 ; 
968 [label="Project
[0]", color = yellow] ; 
2 -> 968 ; 
969 [label="HashJoin 
0PREDICATE_EQUAL1
23", color = yellow] ; 
968 -> 969 ; 
970 [label="SQLQuery
SELECT PR.country 
FROM Offer AS O, Product AS P, Producer AS PR, PRODUCTTYPEPRODUCT AS PTP  
WHERE P.nr = O.product AND PR.nr = P.producer AND P.nr = PTP.product AND PTP.producttype=126", color = yellow] ; 
969 -> 970 ; 
971 [label="PhyMongoDBEval
countrytype
[{\"$match\":{\"countrytype\":222}}]
[country]
2", color = yellow] ; 
969 -> 971 ; 
972 [label="FunctionCallBindAccess
(<http://downlode.org/rdf/iso-3166/countries#{0}>)", color = yellow] ; 
0 -> 972 ; 
}
