digraph  g{ graph[label = "10:47:15.606"]
node [shape=rectangle, color=black, fontcolor=black, style=bold] edge [color=black] 0 [label="BindAccessEval", color = yellow] ; 
1 [label="SQLQuery
SELECT producer, nr, propertyNum1 
FROM Product 
UNION
SELECT producer, nr, propertyNum2 
FROM Product", color = yellow] ; 
0 -> 1 ; 
2 [label="FunctionCallBindAccess
(<http://www4.wiwiss.fu-berlin.de/bizer/bsbm/v01/instances/dataFromProducer{0}/Product{1}>, \"{2}\")", color = yellow] ; 
0 -> 2 ; 
}
