digraph  g{ graph[label = "10:48:3.833"]
node [shape=rectangle, color=black, fontcolor=black, style=bold] edge [color=black] 0 [label="BindAccessEval", color = yellow] ; 
1 [label="SQLQuery
SELECT tab_2665.publisher, tab_2665.nr, tab_2667.producer, tab_2667.nr, tab_2669.title, tab_2666.text 
FROM PRODUCT AS tab_2667, PRODUCTTYPEPRODUCT AS tab_2668, Review AS tab_2665, Review AS tab_2666, Review AS tab_2669 
WHERE tab_2668.producttype = 59 AND tab_2668.product = tab_2667.nr AND tab_2667.producer = tab_2665.producer AND tab_2667.nr = tab_2665.product AND tab_2665.publisher = tab_2666.publisher AND tab_2665.nr = tab_2666.nr AND tab_2665.publisher = tab_2669.publisher AND tab_2665.nr = tab_2669.nr 
UNION
SELECT tab_2633.publisher, tab_2633.nr, tab_2634.producer, tab_2634.product, tab_2633.title, tab_2635.text 
FROM PRODUCT AS tab_2636, PRODUCTTYPEPRODUCT AS tab_2637, Review AS tab_2633, Review AS tab_2634, Review AS tab_2635 
WHERE tab_2633.publisher = tab_2634.publisher AND tab_2633.nr = tab_2634.nr AND tab_2633.publisher = tab_2635.publisher AND tab_2633.nr = tab_2635.nr AND tab_2637.producttype = 70 AND tab_2637.product = tab_2636.nr AND tab_2634.producer = tab_2636.producer AND tab_2634.product = tab_2636.nr 
UNION
SELECT tab_2701.publisher, tab_2701.nr, tab_2700.producer, tab_2700.nr, tab_2702.title, tab_2703.text 
FROM Review AS tab_2703, PRODUCTTYPEPRODUCT AS tab_2699, PRODUCT AS tab_2700, Review AS tab_2701, Review AS tab_2702 
WHERE tab_2699.producttype = 62 AND tab_2699.product = tab_2700.nr AND tab_2700.producer = tab_2701.producer AND tab_2700.nr = tab_2701.product AND tab_2701.publisher = tab_2702.publisher AND tab_2701.nr = tab_2702.nr AND tab_2701.publisher = tab_2703.publisher AND tab_2701.nr = tab_2703.nr 
UNION
SELECT tab_2623.publisher, tab_2623.nr, tab_2625.producer, tab_2625.product, tab_2624.title, tab_2623.text 
FROM PRODUCT AS tab_2626, PRODUCTTYPEPRODUCT AS tab_2627, Review AS tab_2623, Review AS tab_2624, Review AS tab_2625 
WHERE tab_2623.publisher = tab_2624.publisher AND tab_2623.nr = tab_2624.nr AND tab_2623.publisher = tab_2625.publisher AND tab_2623.nr = tab_2625.nr AND tab_2627.producttype = 69 AND tab_2627.product = tab_2626.nr AND tab_2625.producer = tab_2626.producer AND tab_2625.product = tab_2626.nr 
UNION
SELECT tab_2675.publisher, tab_2675.nr, tab_2675.producer, tab_2675.product, tab_2676.title, tab_2677.text 
FROM PRODUCT AS tab_2678, PRODUCTTYPEPRODUCT AS tab_2679, Review AS tab_2675, Review AS tab_2676, Review AS tab_2677 
WHERE tab_2675.publisher = tab_2676.publisher AND tab_2675.nr = tab_2676.nr AND tab_2675.publisher = tab_2677.publisher AND tab_2675.nr = tab_2677.nr AND tab_2679.producttype = 57 AND tab_2679.product = tab_2678.nr AND tab_2675.producer = tab_2678.producer AND tab_2675.product = tab_2678.nr 
UNION
SELECT tab_2643.publisher, tab_2643.nr, tab_2643.producer, tab_2643.product, tab_2644.title, tab_2645.text 
FROM PRODUCT AS tab_2646, PRODUCTTYPEPRODUCT AS tab_2647, Review AS tab_2643, Review AS tab_2644, Review AS tab_2645 
WHERE tab_2643.publisher = tab_2644.publisher AND tab_2643.nr = tab_2644.nr AND tab_2643.publisher = tab_2645.publisher AND tab_2643.nr = tab_2645.nr AND tab_2... (15 UNIONs)", color = yellow] ; 
0 -> 1 ; 
2 [label="FunctionCallBindAccess
(<http://www4.wiwiss.fu-berlin.de/bizer/bsbm/v01/instances/dataFromRatingSite{0}/Review{1}>, <http://www4.wiwiss.fu-berlin.de/bizer/bsbm/v01/instances/dataFromProducer{2}/Product{3}>, \"{4}\", \"{5}\")", color = yellow] ; 
0 -> 2 ; 
}
