digraph  g{ graph[label = "10:48:5.516"]
node [shape=rectangle, color=black, fontcolor=black, style=bold] edge [color=black] 0 [label="BindAccessEval", color = yellow] ; 
1 [label="HashDistinct", color = yellow] ; 
0 -> 1 ; 
2 [label="Project
[6, 7, 3, 4, 5, 1]", color = yellow] ; 
1 -> 2 ; 
3 [label="HashJoin 
[2PREDICATE_EQUAL5,0PREDICATE_EQUAL4]
56200", color = yellow] ; 
2 -> 3 ; 
4 [label="SQLQuery
SELECT nr, label, producer 
FROM Product", color = yellow] ; 
3 -> 4 ; 
5 [label="Project
[0, 2, 3, 5, 6]", color = yellow] ; 
3 -> 5 ; 
6 [label="HashJoin 
[1PREDICATE_EQUAL5,4PREDICATE_EQUAL6]
56200", color = yellow] ; 
5 -> 6 ; 
7 [label="Project
[2, 3, 4, 5, 6]", color = yellow] ; 
6 -> 7 ; 
8 [label="HashJoin 
[0PREDICATE_EQUAL3,1PREDICATE_EQUAL6]
56200", color = yellow] ; 
7 -> 8 ; 
9 [label="PhyMongoDBEval
offer
[]
[nr, vendor, price]
56200", color = yellow] ; 
8 -> 9 ; 
10 [label="PhyMongoDBEval
offer
[]
[nr, product, producer, vendor]
56200", color = yellow] ; 
8 -> 10 ; 
11 [label="PhyMongoDBEval
offer
[]
[nr, vendor]
56200", color = yellow] ; 
6 -> 11 ; 
12 [label="FunctionCallBindAccess
(<http://www4.wiwiss.fu-berlin.de/bizer/bsbm/v01/instances/dataFromVendor{1}/Offer{0}>, <http://www4.wiwiss.fu-berlin.de/bizer/bsbm/v01/instances/dataFromProducer{4}/Product{3}>, \"{5}\", <http://www4.wiwiss.fu-berlin.de/bizer/bsbm/v01/instances/dataFromVendor{1}/Vendor{1}>, \"{2}\")", color = yellow] ; 
0 -> 12 ; 
}
