digraph  g{ graph[label = "10:48:28.592"]
node [shape=rectangle, color=black, fontcolor=black, style=bold] edge [color=black] 0 [label="BindAccessEval", color = yellow] ; 
1 [label="HashDistinct", color = yellow] ; 
0 -> 1 ; 
2 [label="Union", color = yellow] ; 
1 -> 2 ; 
3 [label="Project
[1, 0, 2, 3, 4, 5]", color = yellow] ; 
2 -> 3 ; 
4 [label="HashJoin 
6PREDICATE_EQUAL7
250", color = yellow] ; 
3 -> 4 ; 
5 [label="Project
[0, 1, 2, 5, 8, 11, 12]", color = yellow] ; 
4 -> 5 ; 
6 [label="HashJoin 
[4PREDICATE_EQUAL10,1PREDICATE_EQUAL10,7PREDICATE_EQUAL10,0PREDICATE_EQUAL9,3PREDICATE_EQUAL9,6PREDICATE_EQUAL9]
1203", color = yellow] ; 
5 -> 6 ; 
7 [label="HashJoin 
[4PREDICATE_EQUAL7,3PREDICATE_EQUAL6]
56200", color = yellow] ; 
6 -> 7 ; 
8 [label="HashJoin 
[1PREDICATE_EQUAL4,0PREDICATE_EQUAL3]
56200", color = yellow] ; 
7 -> 8 ; 
9 [label="PhyMongoDBEval
offer
[]
[nr, vendor, offerwebpage]
56200", color = yellow] ; 
8 -> 9 ; 
10 [label="PhyMongoDBEval
offer
[]
[nr, vendor, price]
56200", color = yellow] ; 
8 -> 10 ; 
11 [label="PhyMongoDBEval
offer
[]
[nr, vendor, deliverydays]
56200", color = yellow] ; 
7 -> 11 ; 
12 [label="SQLQuery
SELECT O.nr, O.vendor, P.propertyNum4, PR.country 
FROM Offer AS O, Product AS P, Producer AS PR, PRODUCTTYPEPRODUCT AS PTP  
WHERE P.nr = O.product AND PR.nr = P.producer AND P.nr = PTP.product AND PTP.producttype=57", color = yellow] ; 
6 -> 12 ; 
13 [label="PhyMongoDBEval
countrytype
[{\"$match\":{\"countrytype\":121}}]
[country]
2", color = yellow] ; 
4 -> 13 ; 
15 [label="Project
[4, 3, 0, 1, 2, 5]", color = yellow] ; 
2 -> 15 ; 
16 [label="HashJoin 
6PREDICATE_EQUAL7
58", color = yellow] ; 
15 -> 16 ; 
17 [label="Project
[2, 5, 8, 9, 10, 11, 12]", color = yellow] ; 
16 -> 17 ; 
18 [label="HashJoin 
[0PREDICATE_EQUAL9,3PREDICATE_EQUAL9,6PREDICATE_EQUAL9,1PREDICATE_EQUAL10,4PREDICATE_EQUAL10,7PREDICATE_EQUAL10]
915", color = yellow] ; 
17 -> 18 ; 
19 [label="HashJoin 
[4PREDICATE_EQUAL7,3PREDICATE_EQUAL6]
56200", color = yellow] ; 
18 -> 19 ; 
20 [label="HashJoin 
[0PREDICATE_EQUAL3,1PREDICATE_EQUAL4]
56200", color = yellow] ; 
19 -> 20 ; 
21 [label="PhyMongoDBEval
offer
[]
[nr, vendor, offerwebpage]
56200", color = yellow] ; 
20 -> 21 ; 
22 [label="PhyMongoDBEval
offer
[]
[nr, vendor, price]
56200", color = yellow] ; 
20 -> 22 ; 
23 [label="PhyMongoDBEval
offer
[]
[nr, vendor, deliverydays]
56200", color = yellow] ; 
19 -> 23 ; 
24 [label="SQLQuery
SELECT O.nr, O.vendor, P.propertyNum3, PR.country 
FROM Offer AS O, Product AS P, Producer AS PR, PRODUCTTYPEPRODUCT AS PTP  
WHERE P.nr = O.product AND PR.nr = P.producer AND P.nr = PTP.product AND PTP.producttype=56", color = yellow] ; 
18 -> 24 ; 
25 [label="PhyMongoDBEval
countrytype
[{\"$match\":{\"countrytype\":122}}]
[country]
2", color = yellow] ; 
16 -> 25 ; 
27 [label="Project
[4, 3, 0, 5, 6, 11]", color = yellow] ; 
2 -> 27 ; 
28 [label="HashJoin 
[8PREDICATE_EQUAL10,2PREDICATE_EQUAL10,1PREDICATE_EQUAL9,7PREDICATE_EQUAL9]
58", color = yellow] ; 
27 -> 28 ; 
29 [label="Project
[0, 1, 2, 3, 4, 5, 6, 7, 8]", color = yellow] ; 
28 -> 29 ; 
30 [label="HashJoin 
9PREDICATE_EQUAL10
9356", color = yellow] ; 
29 -> 30 ; 
31 [label="HashJoin 
[2PREDICATE_EQUAL8,1PREDICATE_EQUAL7]
56200", color = yellow] ; 
30 -> 31 ; 
32 [label="Project
[0, 1, 2, 3, 4, 5, 8]", color = yellow] ; 
31 -> 32 ; 
33 [label="HashJoin 
[4PREDICATE_EQUAL7,3PREDICATE_EQUAL6]
56200", color = yellow] ; 
32 -> 33 ; 
34 [label="Project
[0, 2, 3, 5, 6, 7]", color = yellow] ; 
33 -> 34 ; 
35 [label="HashJoin 
[4PREDICATE_EQUAL6,1PREDICATE_EQUAL5]
56200", color = yellow] ; 
34 -> 35 ; 
36 [label="Project
[2, 3, 4, 5, 6]", color = yellow] ; 
35 -> 36 ; 
37 [label="HashJoin 
[0PREDICATE_EQUAL3,1PREDICATE_EQUAL6]
56200", color = yellow] ; 
36 -> 37 ; 
38 [label="PhyMongoDBEval
offer
[]
[nr, vendor, offerwebpage]
56200", color = yellow] ; 
37 -> 38 ; 
39 [label="PhyMongoDBEval
offer
[]
[nr, product, producer, vendor]
56200", color = yellow] ; 
37 -> 39 ; 
40 [label="PhyMongoDBEval
offer
[]
[nr, vendor, price]
56200", color = yellow] ; 
35 -> 40 ; 
41 [label="PhyMongoDBEval
offer
[]
[nr, vendor, deliverydays]
56200", color = yellow] ; 
33 -> 41 ; 
42 [label="PhyMongoDBEval
productproducercountry
[]
[nr, producer, country]
2810", color = yellow] ; 
31 -> 42 ; 
43 [label="PhyMongoDBEval
countrytype
[{\"$match\":{\"countrytype\":122}}]
[country]
2", color = yellow] ; 
30 -> 43 ; 
44 [label="SQLQuery
SELECT tab_2795.nr, tab_2795.producer, tab_2797.propertyNum2 
FROM Product AS tab_2797, PRODUCTTYPEPRODUCT AS tab_2796, PRODUCT AS tab_2795  
WHERE tab_2796.producttype = 56 AND tab_2796.product = tab_2795.nr AND tab_2795.nr = tab_2797.nr AND tab_2795.producer = tab_2797.producer", color = yellow] ; 
28 -> 44 ; 
46 [label="Project
[1, 0, 4, 3, 2, 11]", color = yellow] ; 
2 -> 46 ; 
47 [label="HashJoin 
[5PREDICATE_EQUAL9,7PREDICATE_EQUAL9,6PREDICATE_EQUAL10,8PREDICATE_EQUAL10]
250", color = yellow] ; 
46 -> 47 ; 
48 [label="Project
[0, 1, 2, 3, 4, 5, 6, 7, 8]", color = yellow] ; 
47 -> 48 ; 
49 [label="HashJoin 
9PREDICATE_EQUAL10
13186", color = yellow] ; 
48 -> 49 ; 
50 [label="HashJoin 
[5PREDICATE_EQUAL7,6PREDICATE_EQUAL8]
56200", color = yellow] ; 
49 -> 50 ; 
51 [label="Project
[0, 1, 2, 3, 6, 8, 9]", color = yellow] ; 
50 -> 51 ; 
52 [label="HashJoin 
[5PREDICATE_EQUAL10,4PREDICATE_EQUAL7]
56200", color = yellow] ; 
51 -> 52 ; 
53 [label="Project
[0, 1, 2, 5, 6, 7, 8]", color = yellow] ; 
52 -> 53 ; 
54 [label="HashJoin 
[3PREDICATE_EQUAL6,4PREDICATE_EQUAL7]
56200", color = yellow] ; 
53 -> 54 ; 
55 [label="HashJoin 
[1PREDICATE_EQUAL4,0PREDICATE_EQUAL3]
56200", color = yellow] ; 
54 -> 55 ; 
56 [label="PhyMongoDBEval
offer
[]
[nr, vendor, deliverydays]
56200", color = yellow] ; 
55 -> 56 ; 
57 [label="PhyMongoDBEval
offer
[]
[nr, vendor, price]
56200", color = yellow] ; 
55 -> 57 ; 
58 [label="PhyMongoDBEval
offer
[]
[nr, vendor, offerwebpage]
56200", color = yellow] ; 
54 -> 58 ; 
59 [label="PhyMongoDBEval
offer
[]
[nr, product, producer, vendor]
56200", color = yellow] ; 
52 -> 59 ; 
60 [label="PhyMongoDBEval
productproducercountry
[]
[nr, producer, country]
2810", color = yellow] ; 
50 -> 60 ; 
61 [label="PhyMongoDBEval
countrytype
[{\"$match\":{\"countrytype\":121}}]
[country]
2", color = yellow] ; 
49 -> 61 ; 
62 [label="SQLQuery
SELECT tab_2798.nr, tab_2798.producer, tab_2800.propertyNum2 
FROM PRODUCTTYPEPRODUCT AS tab_2799, Product AS tab_2800, PRODUCT AS tab_2798  
WHERE tab_2799.producttype = 57 AND tab_2799.product = tab_2798.nr AND tab_2798.nr = tab_2800.nr AND tab_2798.producer = tab_2800.producer", color = yellow] ; 
47 -> 62 ; 
64 [label="Project
[5, 4, 8, 6, 7, 11]", color = yellow] ; 
2 -> 64 ; 
65 [label="HashJoin 
[3PREDICATE_EQUAL10,1PREDICATE_EQUAL10,0PREDICATE_EQUAL9,2PREDICATE_EQUAL9]
162", color = yellow] ; 
64 -> 65 ; 
66 [label="Project
[0, 1, 2, 3, 4, 5, 6, 9, 12]", color = yellow] ; 
65 -> 66 ; 
67 [label="HashJoin 
[7PREDICATE_EQUAL10,8PREDICATE_EQUAL11]
13186", color = yellow] ; 
66 -> 67 ; 
68 [label="HashJoin 
[4PREDICATE_EQUAL7,5PREDICATE_EQUAL8]
13186", color = yellow] ; 
67 -> 68 ; 
69 [label="Project
[0, 1, 3, 4, 6, 7, 8]", color = yellow] ; 
68 -> 69 ; 
70 [label="HashJoin 
[2PREDICATE_EQUAL6,5PREDICATE_EQUAL7]
13186", color = yellow] ; 
69 -> 70 ; 
71 [label="Project
[0, 1, 3, 4, 5, 6]", color = yellow] ; 
70 -> 71 ; 
72 [label="HashJoin 
2PREDICATE_EQUAL7
13186", color = yellow] ; 
71 -> 72 ; 
73 [label="HashJoin 
[1PREDICATE_EQUAL5,0PREDICATE_EQUAL4]
56200", color = yellow] ; 
72 -> 73 ; 
74 [label="PhyMongoDBEval
productproducercountry
[]
[nr, producer, country]
2810", color = yellow] ; 
73 -> 74 ; 
75 [label="PhyMongoDBEval
offer
[]
[nr, product, producer, vendor]
56200", color = yellow] ; 
73 -> 75 ; 
76 [label="PhyMongoDBEval
countrytype
[{\"$match\":{\"countrytype\":121}}]
[country]
2", color = yellow] ; 
72 -> 76 ; 
77 [label="PhyMongoDBEval
offer
[]
[nr, vendor, price]
56200", color = yellow] ; 
70 -> 77 ; 
78 [label="PhyMongoDBEval
offer
[]
[nr, vendor, deliverydays]
56200", color = yellow] ; 
68 -> 78 ; 
79 [label="PhyMongoDBEval
offer
[]
[nr, vendor, offerwebpage]
56200", color = yellow] ; 
67 -> 79 ; 
80 [label="SQLQuery
SELECT tab_2801.nr, tab_2801.producer, tab_2803.propertyNum2 
FROM PRODUCT AS tab_2801, PRODUCTTYPEPRODUCT AS tab_2802, Product AS tab_2803  
WHERE tab_2802.producttype = 56 AND tab_2802.product = tab_2801.nr AND tab_2801.nr = tab_2803.nr AND tab_2801.producer = tab_2803.producer", color = yellow] ; 
65 -> 80 ; 
82 [label="Project
[4, 3, 2, 0, 1, 5]", color = yellow] ; 
2 -> 82 ; 
83 [label="HashJoin 
6PREDICATE_EQUAL7
191", color = yellow] ; 
82 -> 83 ; 
84 [label="Project
[2, 5, 8, 9, 10, 11, 12]", color = yellow] ; 
83 -> 84 ; 
85 [label="HashJoin 
[1PREDICATE_EQUAL10,4PREDICATE_EQUAL10,7PREDICATE_EQUAL10,0PREDICATE_EQUAL9,3PREDICATE_EQUAL9,6PREDICATE_EQUAL9]
1203", color = yellow] ; 
84 -> 85 ; 
86 [label="HashJoin 
[4PREDICATE_EQUAL7,3PREDICATE_EQUAL6]
56200", color = yellow] ; 
85 -> 86 ; 
87 [label="HashJoin 
[0PREDICATE_EQUAL3,1PREDICATE_EQUAL4]
56200", color = yellow] ; 
86 -> 87 ; 
88 [label="PhyMongoDBEval
offer
[]
[nr, vendor, price]
56200", color = yellow] ; 
87 -> 88 ; 
89 [label="PhyMongoDBEval
offer
[]
[nr, vendor, deliverydays]
56200", color = yellow] ; 
87 -> 89 ; 
90 [label="PhyMongoDBEval
offer
[]
[nr, vendor, offerwebpage]
56200", color = yellow] ; 
86 -> 90 ; 
91 [label="SQLQuery
SELECT O.nr, O.vendor, P.propertyNum3, PR.country 
FROM Offer AS O, Product AS P, Producer AS PR, PRODUCTTYPEPRODUCT AS PTP  
WHERE P.nr = O.product AND PR.nr = P.producer AND P.nr = PTP.product AND PTP.producttype=57", color = yellow] ; 
85 -> 91 ; 
92 [label="PhyMongoDBEval
countrytype
[{\"$match\":{\"countrytype\":122}}]
[country]
2", color = yellow] ; 
83 -> 92 ; 
94 [label="Project
[10, 7, 6, 5, 11, 2]", color = yellow] ; 
2 -> 94 ; 
95 [label="HashJoin 
[1PREDICATE_EQUAL9,4PREDICATE_EQUAL9,0PREDICATE_EQUAL8,3PREDICATE_EQUAL8]
58", color = yellow] ; 
94 -> 95 ; 
96 [label="SQLQuery
SELECT tab_2804.nr, tab_2804.producer, tab_2804.propertyNum1, tab_2805.nr, tab_2805.producer 
FROM Product AS tab_2804, PRODUCTTYPEPRODUCT AS tab_2806, PRODUCT AS tab_2805  
WHERE tab_2806.producttype = 56 AND tab_2806.product = tab_2805.nr AND tab_2804.producer = tab_2805.producer AND tab_2804.nr = tab_2805.nr", color = yellow] ; 
95 -> 96 ; 
97 [label="Project
[0, 1, 2, 3, 4, 5, 6]", color = yellow] ; 
95 -> 97 ; 
98 [label="HashJoin 
7PREDICATE_EQUAL8
9356", color = yellow] ; 
97 -> 98 ; 
99 [label="Project
[0, 1, 2, 3, 4, 5, 6, 9]", color = yellow] ; 
98 -> 99 ; 
100 [label="HashJoin 
[4PREDICATE_EQUAL8,3PREDICATE_EQUAL7]
56200", color = yellow] ; 
99 -> 100 ; 
101 [label="Project
[0, 1, 2, 3, 4, 5, 8]", color = yellow] ; 
100 -> 101 ; 
102 [label="HashJoin 
[5PREDICATE_EQUAL7,2PREDICATE_EQUAL6]
56200", color = yellow] ; 
101 -> 102 ; 
103 [label="Project
[0, 3, 4, 5, 6, 7]", color = yellow] ; 
102 -> 103 ; 
104 [label="HashJoin 
[2PREDICATE_EQUAL7,1PREDICATE_EQUAL4]
56200", color = yellow] ; 
103 -> 104 ; 
105 [label="Project
[2, 3, 4, 5]", color = yellow] ; 
104 -> 105 ; 
106 [label="HashJoin 
[1PREDICATE_EQUAL4,0PREDICATE_EQUAL3]
56200", color = yellow] ; 
105 -> 106 ; 
107 [label="PhyMongoDBEval
offer
[]
[nr, vendor, price]
56200", color = yellow] ; 
106 -> 107 ; 
108 [label="PhyMongoDBEval
offer
[]
[nr, vendor, offerwebpage]
56200", color = yellow] ; 
106 -> 108 ; 
109 [label="PhyMongoDBEval
offer
[]
[nr, product, producer, vendor]
56200", color = yellow] ; 
104 -> 109 ; 
110 [label="PhyMongoDBEval
offer
[]
[nr, vendor, deliverydays]
56200", color = yellow] ; 
102 -> 110 ; 
111 [label="PhyMongoDBEval
productproducercountry
[]
[nr, producer, country]
2810", color = yellow] ; 
100 -> 111 ; 
112 [label="PhyMongoDBEval
countrytype
[{\"$match\":{\"countrytype\":122}}]
[country]
2", color = yellow] ; 
98 -> 112 ; 
114 [label="Project
[1, 0, 6, 3, 2, 11]", color = yellow] ; 
2 -> 114 ; 
115 [label="HashJoin 
[7PREDICATE_EQUAL9,4PREDICATE_EQUAL9,8PREDICATE_EQUAL10,5PREDICATE_EQUAL10]
162", color = yellow] ; 
114 -> 115 ; 
116 [label="Project
[0, 1, 2, 3, 4, 5, 6, 7, 8]", color = yellow] ; 
115 -> 116 ; 
117 [label="HashJoin 
9PREDICATE_EQUAL10
13186", color = yellow] ; 
116 -> 117 ; 
118 [label="HashJoin 
[5PREDICATE_EQUAL8,4PREDICATE_EQUAL7]
56200", color = yellow] ; 
117 -> 118 ; 
119 [label="Project
[0, 1, 2, 3, 5, 6, 10]", color = yellow] ; 
118 -> 119 ; 
120 [label="HashJoin 
[7PREDICATE_EQUAL9,4PREDICATE_EQUAL8]
56200", color = yellow] ; 
119 -> 120 ; 
121 [label="Project
[0, 1, 2, 5, 6, 7, 8, 9]", color = yellow] ; 
120 -> 121 ; 
122 [label="HashJoin 
[4PREDICATE_EQUAL9,3PREDICATE_EQUAL6]
56200", color = yellow] ; 
121 -> 122 ; 
123 [label="HashJoin 
[0PREDICATE_EQUAL3,1PREDICATE_EQUAL4]
56200", color = yellow] ; 
122 -> 123 ; 
124 [label="PhyMongoDBEval
offer
[]
[nr, vendor, deliverydays]
56200", color = yellow] ; 
123 -> 124 ; 
125 [label="PhyMongoDBEval
offer
[]
[nr, vendor, price]
56200", color = yellow] ; 
123 -> 125 ; 
126 [label="PhyMongoDBEval
offer
[]
[nr, product, producer, vendor]
56200", color = yellow] ; 
122 -> 126 ; 
127 [label="PhyMongoDBEval
offer
[]
[nr, vendor, offerwebpage]
56200", color = yellow] ; 
120 -> 127 ; 
128 [label="PhyMongoDBEval
productproducercountry
[]
[nr, producer, country]
2810", color = yellow] ; 
118 -> 128 ; 
129 [label="PhyMongoDBEval
countrytype
[{\"$match\":{\"countrytype\":121}}]
[country]
2", color = yellow] ; 
117 -> 129 ; 
130 [label="SQLQuery
SELECT tab_2807.nr, tab_2807.producer, tab_2809.propertyNum1 
FROM PRODUCT AS tab_2807, Product AS tab_2809, PRODUCTTYPEPRODUCT AS tab_2808  
WHERE tab_2808.producttype = 56 AND tab_2808.product = tab_2807.nr AND tab_2807.nr = tab_2809.nr AND tab_2807.producer = tab_2809.producer", color = yellow] ; 
115 -> 130 ; 
132 [label="Project
[1, 0, 6, 7, 5, 2]", color = yellow] ; 
2 -> 132 ; 
133 [label="HashJoin 
[1PREDICATE_EQUAL4,0PREDICATE_EQUAL3]
162", color = yellow] ; 
132 -> 133 ; 
134 [label="Project
[1, 2, 3]", color = yellow] ; 
133 -> 134 ; 
135 [label="HashJoin 
0PREDICATE_EQUAL4
162", color = yellow] ; 
134 -> 135 ; 
136 [label="PhyMongoDBEval
countrytype
[{\"$match\":{\"countrytype\":121}}]
[country]
2", color = yellow] ; 
135 -> 136 ; 
137 [label="SQLQuery
SELECT O.nr, O.vendor, P.propertyNum3, PR.country 
FROM Offer AS O, Product AS P, Producer AS PR, PRODUCTTYPEPRODUCT AS PTP  
WHERE P.nr = O.product AND PR.nr = P.producer AND P.nr = PTP.product AND PTP.producttype=56", color = yellow] ; 
135 -> 137 ; 
138 [label="Project
[0, 1, 2, 5, 8]", color = yellow] ; 
133 -> 138 ; 
139 [label="HashJoin 
[4PREDICATE_EQUAL7,3PREDICATE_EQUAL6]
56200", color = yellow] ; 
138 -> 139 ; 
140 [label="HashJoin 
[1PREDICATE_EQUAL4,0PREDICATE_EQUAL3]
56200", color = yellow] ; 
139 -> 140 ; 
141 [label="PhyMongoDBEval
offer
[]
[nr, vendor, deliverydays]
56200", color = yellow] ; 
140 -> 141 ; 
142 [label="PhyMongoDBEval
offer
[]
[nr, vendor, offerwebpage]
56200", color = yellow] ; 
140 -> 142 ; 
143 [label="PhyMongoDBEval
offer
[]
[nr, vendor, price]
56200", color = yellow] ; 
139 -> 143 ; 
145 [label="Project
[1, 0, 2, 3, 4, 5]", color = yellow] ; 
2 -> 145 ; 
146 [label="HashJoin 
6PREDICATE_EQUAL7
250", color = yellow] ; 
145 -> 146 ; 
147 [label="Project
[0, 1, 2, 5, 8, 11, 12]", color = yellow] ; 
146 -> 147 ; 
148 [label="HashJoin 
[1PREDICATE_EQUAL10,4PREDICATE_EQUAL10,7PREDICATE_EQUAL10,0PREDICATE_EQUAL9,3PREDICATE_EQUAL9,6PREDICATE_EQUAL9]
1203", color = yellow] ; 
147 -> 148 ; 
149 [label="HashJoin 
[3PREDICATE_EQUAL6,4PREDICATE_EQUAL7]
56200", color = yellow] ; 
148 -> 149 ; 
150 [label="HashJoin 
[1PREDICATE_EQUAL4,0PREDICATE_EQUAL3]
56200", color = yellow] ; 
149 -> 150 ; 
151 [label="PhyMongoDBEval
offer
[]
[nr, vendor, offerwebpage]
56200", color = yellow] ; 
150 -> 151 ; 
152 [label="PhyMongoDBEval
offer
[]
[nr, vendor, price]
56200", color = yellow] ; 
150 -> 152 ; 
153 [label="PhyMongoDBEval
offer
[]
[nr, vendor, deliverydays]
56200", color = yellow] ; 
149 -> 153 ; 
154 [label="SQLQuery
SELECT O.nr, O.vendor, P.propertyNum3, PR.country 
FROM Offer AS O, Product AS P, Producer AS PR, PRODUCTTYPEPRODUCT AS PTP  
WHERE P.nr = O.product AND PR.nr = P.producer AND P.nr = PTP.product AND PTP.producttype=57", color = yellow] ; 
148 -> 154 ; 
155 [label="PhyMongoDBEval
countrytype
[{\"$match\":{\"countrytype\":121}}]
[country]
2", color = yellow] ; 
146 -> 155 ; 
157 [label="Project
[4, 3, 1, 2, 0, 5]", color = yellow] ; 
2 -> 157 ; 
158 [label="HashJoin 
6PREDICATE_EQUAL7
191", color = yellow] ; 
157 -> 158 ; 
159 [label="Project
[2, 5, 8, 9, 10, 11, 12]", color = yellow] ; 
158 -> 159 ; 
160 [label="HashJoin 
[0PREDICATE_EQUAL9,3PREDICATE_EQUAL9,6PREDICATE_EQUAL9,4PREDICATE_EQUAL10,7PREDICATE_EQUAL10,1PREDICATE_EQUAL10]
1203", color = yellow] ; 
159 -> 160 ; 
161 [label="HashJoin 
[3PREDICATE_EQUAL6,4PREDICATE_EQUAL7]
56200", color = yellow] ; 
160 -> 161 ; 
162 [label="HashJoin 
[1PREDICATE_EQUAL4,0PREDICATE_EQUAL3]
56200", color = yellow] ; 
161 -> 162 ; 
163 [label="PhyMongoDBEval
offer
[]
[nr, vendor, deliverydays]
56200", color = yellow] ; 
162 -> 163 ; 
164 [label="PhyMongoDBEval
offer
[]
[nr, vendor, offerwebpage]
56200", color = yellow] ; 
162 -> 164 ; 
165 [label="PhyMongoDBEval
offer
[]
[nr, vendor, price]
56200", color = yellow] ; 
161 -> 165 ; 
166 [label="SQLQuery
SELECT O.nr, O.vendor, P.propertyNum4, PR.country 
FROM Offer AS O, Product AS P, Producer AS PR, PRODUCTTYPEPRODUCT AS PTP  
WHERE P.nr = O.product AND PR.nr = P.producer AND P.nr = PTP.product AND PTP.producttype=57", color = yellow] ; 
160 -> 166 ; 
167 [label="PhyMongoDBEval
countrytype
[{\"$match\":{\"countrytype\":122}}]
[country]
2", color = yellow] ; 
158 -> 167 ; 
169 [label="Project
[5, 4, 6, 3, 2, 0]", color = yellow] ; 
2 -> 169 ; 
170 [label="HashJoin 
1PREDICATE_EQUAL7
162", color = yellow] ; 
169 -> 170 ; 
171 [label="Project
[2, 3, 6, 7, 8, 9, 10]", color = yellow] ; 
170 -> 171 ; 
172 [label="HashJoin 
[1PREDICATE_EQUAL5,0PREDICATE_EQUAL4]
915", color = yellow] ; 
171 -> 172 ; 
173 [label="SQLQuery
SELECT O.nr, O.vendor, P.propertyNum4, PR.country 
FROM Offer AS O, Product AS P, Producer AS PR, PRODUCTTYPEPRODUCT AS PTP  
WHERE P.nr = O.product AND PR.nr = P.producer AND P.nr = PTP.product AND PTP.producttype=56", color = yellow] ; 
172 -> 173 ; 
174 [label="Project
[0, 1, 2, 5, 6, 7, 8]", color = yellow] ; 
172 -> 174 ; 
175 [label="HashJoin 
[4PREDICATE_EQUAL7,3PREDICATE_EQUAL6]
56200", color = yellow] ; 
174 -> 175 ; 
176 [label="HashJoin 
[0PREDICATE_EQUAL3,1PREDICATE_EQUAL4]
56200", color = yellow] ; 
175 -> 176 ; 
177 [label="PhyMongoDBEval
offer
[]
[nr, vendor, deliverydays]
56200", color = yellow] ; 
176 -> 177 ; 
178 [label="PhyMongoDBEval
offer
[]
[nr, vendor, price]
56200", color = yellow] ; 
176 -> 178 ; 
179 [label="PhyMongoDBEval
offer
[]
[nr, vendor, offerwebpage]
56200", color = yellow] ; 
175 -> 179 ; 
180 [label="PhyMongoDBEval
countrytype
[{\"$match\":{\"countrytype\":121}}]
[country]
2", color = yellow] ; 
170 -> 180 ; 
182 [label="Project
[9, 6, 3, 5, 4, 2]", color = yellow] ; 
2 -> 182 ; 
183 [label="HashJoin 
[1PREDICATE_EQUAL8,0PREDICATE_EQUAL7]
191", color = yellow] ; 
182 -> 183 ; 
184 [label="SQLQuery
SELECT tab_2792.nr, tab_2792.producer, tab_2794.propertyNum2 
FROM PRODUCT AS tab_2792, PRODUCTTYPEPRODUCT AS tab_2793, Product AS tab_2794  
WHERE tab_2793.producttype = 57 AND tab_2793.product = tab_2792.nr AND tab_2792.producer = tab_2794.producer AND tab_2792.nr = tab_2794.nr", color = yellow] ; 
183 -> 184 ; 
185 [label="Project
[0, 1, 2, 3, 4, 5, 6]", color = yellow] ; 
183 -> 185 ; 
186 [label="HashJoin 
7PREDICATE_EQUAL8
9356", color = yellow] ; 
185 -> 186 ; 
187 [label="Project
[0, 1, 2, 3, 4, 5, 6, 9]", color = yellow] ; 
186 -> 187 ; 
188 [label="HashJoin 
[5PREDICATE_EQUAL8,4PREDICATE_EQUAL7]
56200", color = yellow] ; 
187 -> 188 ; 
189 [label="Project
[0, 1, 4, 5, 6, 7, 8]", color = yellow] ; 
188 -> 189 ; 
190 [label="HashJoin 
[3PREDICATE_EQUAL8,2PREDICATE_EQUAL5]
56200", color = yellow] ; 
189 -> 190 ; 
191 [label="Project
[0, 3, 4, 5, 6]", color = yellow] ; 
190 -> 191 ; 
192 [label="HashJoin 
[1PREDICATE_EQUAL4,2PREDICATE_EQUAL5]
56200", color = yellow] ; 
191 -> 192 ; 
193 [label="Project
[2, 3, 4, 5]", color = yellow] ; 
192 -> 193 ; 
194 [label="HashJoin 
[0PREDICATE_EQUAL3,1PREDICATE_EQUAL4]
56200", color = yellow] ; 
193 -> 194 ; 
195 [label="PhyMongoDBEval
offer
[]
[nr, vendor, offerwebpage]
56200", color = yellow] ; 
194 -> 195 ; 
196 [label="PhyMongoDBEval
offer
[]
[nr, vendor, deliverydays]
56200", color = yellow] ; 
194 -> 196 ; 
197 [label="PhyMongoDBEval
offer
[]
[nr, vendor, price]
56200", color = yellow] ; 
192 -> 197 ; 
198 [label="PhyMongoDBEval
offer
[]
[nr, product, producer, vendor]
56200", color = yellow] ; 
190 -> 198 ; 
199 [label="PhyMongoDBEval
productproducercountry
[]
[nr, producer, country]
2810", color = yellow] ; 
188 -> 199 ; 
200 [label="PhyMongoDBEval
countrytype
[{\"$match\":{\"countrytype\":122}}]
[country]
2", color = yellow] ; 
186 -> 200 ; 
202 [label="Project
[2, 1, 4, 0, 3, 5]", color = yellow] ; 
2 -> 202 ; 
203 [label="HashJoin 
6PREDICATE_EQUAL7
58", color = yellow] ; 
202 -> 203 ; 
204 [label="Project
[2, 3, 4, 5, 8, 11, 12]", color = yellow] ; 
203 -> 204 ; 
205 [label="HashJoin 
[1PREDICATE_EQUAL10,4PREDICATE_EQUAL10,7PREDICATE_EQUAL10,0PREDICATE_EQUAL9,3PREDICATE_EQUAL9,6PREDICATE_EQUAL9]
915", color = yellow] ; 
204 -> 205 ; 
206 [label="HashJoin 
[3PREDICATE_EQUAL6,4PREDICATE_EQUAL7]
56200", color = yellow] ; 
205 -> 206 ; 
207 [label="HashJoin 
[1PREDICATE_EQUAL4,0PREDICATE_EQUAL3]
56200", color = yellow] ; 
206 -> 207 ; 
208 [label="PhyMongoDBEval
offer
[]
[nr, vendor, price]
56200", color = yellow] ; 
207 -> 208 ; 
209 [label="PhyMongoDBEval
offer
[]
[nr, vendor, deliverydays]
56200", color = yellow] ; 
207 -> 209 ; 
210 [label="PhyMongoDBEval
offer
[]
[nr, vendor, offerwebpage]
56200", color = yellow] ; 
206 -> 210 ; 
211 [label="SQLQuery
SELECT O.nr, O.vendor, P.propertyNum4, PR.country 
FROM Offer AS O, Product AS P, Producer AS PR, PRODUCTTYPEPRODUCT AS PTP  
WHERE P.nr = O.product AND PR.nr = P.producer AND P.nr = PTP.product AND PTP.producttype=56", color = yellow] ; 
205 -> 211 ; 
212 [label="PhyMongoDBEval
countrytype
[{\"$match\":{\"countrytype\":122}}]
[country]
2", color = yellow] ; 
203 -> 212 ; 
214 [label="Project
[3, 2, 6, 4, 5, 11]", color = yellow] ; 
2 -> 214 ; 
215 [label="HashJoin 
[0PREDICATE_EQUAL9,7PREDICATE_EQUAL9,8PREDICATE_EQUAL10,1PREDICATE_EQUAL10]
250", color = yellow] ; 
214 -> 215 ; 
216 [label="Project
[0, 1, 2, 3, 4, 5, 6, 7, 8]", color = yellow] ; 
215 -> 216 ; 
217 [label="HashJoin 
9PREDICATE_EQUAL10
13186", color = yellow] ; 
216 -> 217 ; 
218 [label="HashJoin 
[1PREDICATE_EQUAL8,0PREDICATE_EQUAL7]
56200", color = yellow] ; 
217 -> 218 ; 
219 [label="Project
[0, 1, 2, 3, 4, 7, 10]", color = yellow] ; 
218 -> 219 ; 
220 [label="HashJoin 
[6PREDICATE_EQUAL9,5PREDICATE_EQUAL8]
56200", color = yellow] ; 
219 -> 220 ; 
221 [label="HashJoin 
[2PREDICATE_EQUAL5,3PREDICATE_EQUAL6]
56200", color = yellow] ; 
220 -> 221 ; 
222 [label="Project
[1, 2, 4, 5, 6]", color = yellow] ; 
221 -> 222 ; 
223 [label="HashJoin 
[3PREDICATE_EQUAL5,0PREDICATE_EQUAL4]
56200", color = yellow] ; 
222 -> 223 ; 
224 [label="PhyMongoDBEval
offer
[]
[nr, product, producer, vendor]
56200", color = yellow] ; 
223 -> 224 ; 
225 [label="PhyMongoDBEval
offer
[]
[nr, vendor, price]
56200", color = yellow] ; 
223 -> 225 ; 
226 [label="PhyMongoDBEval
offer
[]
[nr, vendor, deliverydays]
56200", color = yellow] ; 
221 -> 226 ; 
227 [label="PhyMongoDBEval
offer
[]
[nr, vendor, offerwebpage]
56200", color = yellow] ; 
220 -> 227 ; 
228 [label="PhyMongoDBEval
productproducercountry
[]
[nr, producer, country]
2810", color = yellow] ; 
218 -> 228 ; 
229 [label="PhyMongoDBEval
countrytype
[{\"$match\":{\"countrytype\":121}}]
[country]
2", color = yellow] ; 
217 -> 229 ; 
230 [label="SQLQuery
SELECT tab_2810.nr, tab_2810.producer, tab_2812.propertyNum1 
FROM PRODUCT AS tab_2810, Product AS tab_2812, PRODUCTTYPEPRODUCT AS tab_2811  
WHERE tab_2811.producttype = 57 AND tab_2811.product = tab_2810.nr AND tab_2810.producer = tab_2812.producer AND tab_2810.nr = tab_2812.nr", color = yellow] ; 
215 -> 230 ; 
232 [label="Project
[5, 2, 8, 7, 6, 11]", color = yellow] ; 
2 -> 232 ; 
233 [label="HashJoin 
[0PREDICATE_EQUAL9,3PREDICATE_EQUAL9,1PREDICATE_EQUAL10,4PREDICATE_EQUAL10]
191", color = yellow] ; 
232 -> 233 ; 
234 [label="Project
[0, 1, 2, 3, 4, 5, 6, 9, 12]", color = yellow] ; 
233 -> 234 ; 
235 [label="HashJoin 
[7PREDICATE_EQUAL10,8PREDICATE_EQUAL11]
9356", color = yellow] ; 
234 -> 235 ; 
236 [label="Project
[0, 1, 2, 3, 4, 5, 8, 9, 10, 11]", color = yellow] ; 
235 -> 236 ; 
237 [label="HashJoin 
[6PREDICATE_EQUAL9,7PREDICATE_EQUAL10]
9356", color = yellow] ; 
236 -> 237 ; 
238 [label="HashJoin 
[2PREDICATE_EQUAL6,5PREDICATE_EQUAL7]
9356", color = yellow] ; 
237 -> 238 ; 
239 [label="Project
[0, 1, 3, 4, 5, 6]", color = yellow] ; 
238 -> 239 ; 
240 [label="HashJoin 
2PREDICATE_EQUAL7
9356", color = yellow] ; 
239 -> 240 ; 
241 [label="HashJoin 
[1PREDICATE_EQUAL5,0PREDICATE_EQUAL4]
56200", color = yellow] ; 
240 -> 241 ; 
242 [label="PhyMongoDBEval
productproducercountry
[]
[nr, producer, country]
2810", color = yellow] ; 
241 -> 242 ; 
243 [label="PhyMongoDBEval
offer
[]
[nr, product, producer, vendor]
56200", color = yellow] ; 
241 -> 243 ; 
244 [label="PhyMongoDBEval
countrytype
[{\"$match\":{\"countrytype\":122}}]
[country]
2", color = yellow] ; 
240 -> 244 ; 
245 [label="PhyMongoDBEval
offer
[]
[nr, vendor, deliverydays]
56200", color = yellow] ; 
238 -> 245 ; 
246 [label="PhyMongoDBEval
offer
[]
[nr, vendor, price]
56200", color = yellow] ; 
237 -> 246 ; 
247 [label="PhyMongoDBEval
offer
[]
[nr, vendor, offerwebpage]
56200", color = yellow] ; 
235 -> 247 ; 
248 [label="SQLQuery
SELECT tab_2813.nr, tab_2813.producer, tab_2815.propertyNum1 
FROM PRODUCT AS tab_2813, PRODUCTTYPEPRODUCT AS tab_2814, Product AS tab_2815  
WHERE tab_2814.producttype = 57 AND tab_2814.product = tab_2813.nr AND tab_2813.producer = tab_2815.producer AND tab_2813.nr = tab_2815.nr", color = yellow] ; 
233 -> 248 ; 
249 [label="FunctionCallBindAccess
(<http://www4.wiwiss.fu-berlin.de/bizer/bsbm/v01/instances/dataFromVendor{0}/Offer{1}>, <{2}>, \"{3}\", \"{4}\", \"{5}\")", color = yellow] ; 
0 -> 249 ; 
}
