digraph  g{ graph[label = "10:52:49.554"]
node [shape=rectangle, color=black, fontcolor=black, style=bold] edge [color=black] 0 [label="BindAccessEval", color = yellow] ; 
1 [label="HashDistinct", color = yellow] ; 
0 -> 1 ; 
2 [label="Union", color = yellow] ; 
1 -> 2 ; 
3 [label="Project
[2, 1, 4, 0, 3, 13]", color = yellow] ; 
2 -> 3 ; 
4 [label="HashJoin 
[5PREDICATE_EQUAL11,7PREDICATE_EQUAL11,9PREDICATE_EQUAL11,6PREDICATE_EQUAL12,8PREDICATE_EQUAL12,10PREDICATE_EQUAL12]
0", color = yellow] ; 
3 -> 4 ; 
5 [label="Project
[0, 1, 2, 3, 4, 5, 6, 7, 8, 10, 11]", color = yellow] ; 
4 -> 5 ; 
6 [label="HashJoin 
9PREDICATE_EQUAL12
931", color = yellow] ; 
5 -> 6 ; 
7 [label="HashJoin 
[8PREDICATE_EQUAL11,7PREDICATE_EQUAL10]
4525", color = yellow] ; 
6 -> 7 ; 
8 [label="HashJoin 
[6PREDICATE_EQUAL8,5PREDICATE_EQUAL7]
56200", color = yellow] ; 
7 -> 8 ; 
9 [label="Project
[0, 1, 2, 3, 6, 8, 9]", color = yellow] ; 
8 -> 9 ; 
10 [label="HashJoin 
[4PREDICATE_EQUAL7,5PREDICATE_EQUAL10]
56200", color = yellow] ; 
9 -> 10 ; 
11 [label="HashJoin 
[2PREDICATE_EQUAL5,1PREDICATE_EQUAL4]
56200", color = yellow] ; 
10 -> 11 ; 
12 [label="Project
[2, 3, 4, 5]", color = yellow] ; 
11 -> 12 ; 
13 [label="HashJoin 
[1PREDICATE_EQUAL4,0PREDICATE_EQUAL3]
56200", color = yellow] ; 
12 -> 13 ; 
14 [label="PhyMongoDBEval
offer
[]
[nr, vendor, price]
56200", color = yellow] ; 
13 -> 14 ; 
15 [label="PhyMongoDBEval
offer
[]
[nr, vendor, deliverydays]
56200", color = yellow] ; 
13 -> 15 ; 
16 [label="PhyMongoDBEval
offer
[]
[nr, vendor, offerwebpage]
56200", color = yellow] ; 
11 -> 16 ; 
17 [label="PhyMongoDBEval
offer
[]
[nr, product, producer, vendor]
56200", color = yellow] ; 
10 -> 17 ; 
18 [label="PhyMongoDBEval
productproducercountry
[]
[nr, producer, country]
2810", color = yellow] ; 
8 -> 18 ; 
19 [label="PhyMongoDBEval
productfeatureproduct
[{ $match: {$expr: {$eq: [\"$label\", \"biographies\"] } } }]
[nr, producer]
217", color = yellow] ; 
7 -> 19 ; 
20 [label="PhyMongoDBEval
countrytype
[{\"$match\":{\"countrytype\":121}}]
[country]
2", color = yellow] ; 
6 -> 20 ; 
21 [label="SQLQuery
SELECT tab_3056.nr, tab_3056.producer, tab_3058.propertyNum2 
FROM PRODUCT AS tab_3056, PRODUCTTYPEPRODUCT AS tab_3057, Product AS tab_3058  
WHERE tab_3057.producttype = 110 AND tab_3057.product = tab_3056.nr AND tab_3056.nr = tab_3058.nr AND tab_3056.producer = tab_3058.producer", color = yellow] ; 
4 -> 21 ; 
23 [label="Project
[4, 1, 5, 6, 0, 13]", color = yellow] ; 
2 -> 23 ; 
24 [label="HashJoin 
[7PREDICATE_EQUAL11,2PREDICATE_EQUAL11,9PREDICATE_EQUAL11,10PREDICATE_EQUAL12,3PREDICATE_EQUAL12,8PREDICATE_EQUAL12]
0", color = yellow] ; 
23 -> 24 ; 
25 [label="Project
[0, 1, 2, 3, 4, 5, 6, 7, 8, 9, 10]", color = yellow] ; 
24 -> 25 ; 
26 [label="HashJoin 
11PREDICATE_EQUAL12
635", color = yellow] ; 
25 -> 26 ; 
27 [label="HashJoin 
[8PREDICATE_EQUAL10,7PREDICATE_EQUAL9]
4525", color = yellow] ; 
26 -> 27 ; 
28 [label="HashJoin 
[2PREDICATE_EQUAL7,3PREDICATE_EQUAL8]
4525", color = yellow] ; 
27 -> 28 ; 
29 [label="Project
[0, 1, 2, 3, 4, 7, 10]", color = yellow] ; 
28 -> 29 ; 
30 [label="HashJoin 
[5PREDICATE_EQUAL8,6PREDICATE_EQUAL9]
56200", color = yellow] ; 
29 -> 30 ; 
31 [label="HashJoin 
[4PREDICATE_EQUAL6,1PREDICATE_EQUAL5]
56200", color = yellow] ; 
30 -> 31 ; 
32 [label="Project
[2, 3, 4, 5, 6]", color = yellow] ; 
31 -> 32 ; 
33 [label="HashJoin 
[1PREDICATE_EQUAL6,0PREDICATE_EQUAL3]
56200", color = yellow] ; 
32 -> 33 ; 
34 [label="PhyMongoDBEval
offer
[]
[nr, vendor, deliverydays]
56200", color = yellow] ; 
33 -> 34 ; 
35 [label="PhyMongoDBEval
offer
[]
[nr, product, producer, vendor]
56200", color = yellow] ; 
33 -> 35 ; 
36 [label="PhyMongoDBEval
offer
[]
[nr, vendor, offerwebpage]
56200", color = yellow] ; 
31 -> 36 ; 
37 [label="PhyMongoDBEval
offer
[]
[nr, vendor, price]
56200", color = yellow] ; 
30 -> 37 ; 
38 [label="PhyMongoDBEval
productfeatureproduct
[{ $match: {$expr: {$eq: [\"$label\", \"biographies\"] } } }]
[nr, producer]
217", color = yellow] ; 
28 -> 38 ; 
39 [label="PhyMongoDBEval
productproducercountry
[]
[nr, producer, country]
2810", color = yellow] ; 
27 -> 39 ; 
40 [label="PhyMongoDBEval
countrytype
[{\"$match\":{\"countrytype\":122}}]
[country]
2", color = yellow] ; 
26 -> 40 ; 
41 [label="SQLQuery
SELECT tab_3059.nr, tab_3059.producer, tab_3061.propertyNum1 
FROM PRODUCT AS tab_3059, PRODUCTTYPEPRODUCT AS tab_3060, Product AS tab_3061  
WHERE tab_3060.producttype = 110 AND tab_3060.product = tab_3059.nr AND tab_3059.producer = tab_3061.producer AND tab_3059.nr = tab_3061.nr", color = yellow] ; 
24 -> 41 ; 
43 [label="Project
[3, 0, 6, 8, 7, 13]", color = yellow] ; 
2 -> 43 ; 
44 [label="HashJoin 
[4PREDICATE_EQUAL11,9PREDICATE_EQUAL11,1PREDICATE_EQUAL11,10PREDICATE_EQUAL12,5PREDICATE_EQUAL12,2PREDICATE_EQUAL12]
0", color = yellow] ; 
43 -> 44 ; 
45 [label="Project
[0, 1, 2, 3, 4, 5, 7, 8, 9, 10, 11]", color = yellow] ; 
44 -> 45 ; 
46 [label="HashJoin 
6PREDICATE_EQUAL12
635", color = yellow] ; 
45 -> 46 ; 
47 [label="HashJoin 
[5PREDICATE_EQUAL11,4PREDICATE_EQUAL10]
4525", color = yellow] ; 
46 -> 47 ; 
48 [label="Project
[0, 1, 2, 3, 4, 5, 6, 7, 10, 13]", color = yellow] ; 
47 -> 48 ; 
49 [label="HashJoin 
[9PREDICATE_EQUAL12,8PREDICATE_EQUAL11]
56200", color = yellow] ; 
48 -> 49 ; 
50 [label="Project
[0, 1, 2, 3, 4, 5, 6, 9, 10, 11, 12]", color = yellow] ; 
49 -> 50 ; 
51 [label="HashJoin 
[8PREDICATE_EQUAL11,7PREDICATE_EQUAL10]
56200", color = yellow] ; 
50 -> 51 ; 
52 [label="HashJoin 
[0PREDICATE_EQUAL7,3PREDICATE_EQUAL8]
56200", color = yellow] ; 
51 -> 52 ; 
53 [label="HashJoin 
[1PREDICATE_EQUAL4,2PREDICATE_EQUAL5]
56200", color = yellow] ; 
52 -> 53 ; 
54 [label="PhyMongoDBEval
offer
[]
[nr, product, producer, vendor]
56200", color = yellow] ; 
53 -> 54 ; 
55 [label="PhyMongoDBEval
productproducercountry
[]
[nr, producer, country]
2810", color = yellow] ; 
53 -> 55 ; 
56 [label="PhyMongoDBEval
offer
[]
[nr, vendor, offerwebpage]
56200", color = yellow] ; 
52 -> 56 ; 
57 [label="PhyMongoDBEval
offer
[]
[nr, vendor, deliverydays]
56200", color = yellow] ; 
51 -> 57 ; 
58 [label="PhyMongoDBEval
offer
[]
[nr, vendor, price]
56200", color = yellow] ; 
49 -> 58 ; 
59 [label="PhyMongoDBEval
productfeatureproduct
[{ $match: {$expr: {$eq: [\"$label\", \"biographies\"] } } }]
[nr, producer]
217", color = yellow] ; 
47 -> 59 ; 
60 [label="PhyMongoDBEval
countrytype
[{\"$match\":{\"countrytype\":122}}]
[country]
2", color = yellow] ; 
46 -> 60 ; 
61 [label="SQLQuery
SELECT tab_3062.nr, tab_3062.producer, tab_3064.propertyNum2 
FROM Product AS tab_3064, PRODUCTTYPEPRODUCT AS tab_3063, PRODUCT AS tab_3062  
WHERE tab_3063.producttype = 110 AND tab_3063.product = tab_3062.nr AND tab_3062.nr = tab_3064.nr AND tab_3062.producer = tab_3064.producer", color = yellow] ; 
44 -> 61 ; 
63 [label="Project
[5, 2, 8, 9, 10, 13]", color = yellow] ; 
2 -> 63 ; 
64 [label="HashJoin 
[7PREDICATE_EQUAL12,1PREDICATE_EQUAL12,4PREDICATE_EQUAL12,0PREDICATE_EQUAL11,6PREDICATE_EQUAL11,3PREDICATE_EQUAL11]
0", color = yellow] ; 
63 -> 64 ; 
65 [label="Project
[0, 1, 2, 3, 4, 5, 6, 7, 8, 11, 14]", color = yellow] ; 
64 -> 65 ; 
66 [label="HashJoin 
[10PREDICATE_EQUAL13,9PREDICATE_EQUAL12]
931", color = yellow] ; 
65 -> 66 ; 
67 [label="Project
[0, 1, 2, 3, 4, 5, 6, 7, 10, 11, 12, 13]", color = yellow] ; 
66 -> 67 ; 
68 [label="HashJoin 
[9PREDICATE_EQUAL12,8PREDICATE_EQUAL11]
931", color = yellow] ; 
67 -> 68 ; 
69 [label="HashJoin 
[2PREDICATE_EQUAL8,5PREDICATE_EQUAL9]
931", color = yellow] ; 
68 -> 69 ; 
70 [label="Project
[0, 1, 3, 4, 5, 6, 7, 8]", color = yellow] ; 
69 -> 70 ; 
71 [label="HashJoin 
2PREDICATE_EQUAL9
931", color = yellow] ; 
70 -> 71 ; 
72 [label="HashJoin 
[5PREDICATE_EQUAL8,4PREDICATE_EQUAL7]
4525", color = yellow] ; 
71 -> 72 ; 
73 [label="HashJoin 
[1PREDICATE_EQUAL5,0PREDICATE_EQUAL4]
56200", color = yellow] ; 
72 -> 73 ; 
74 [label="PhyMongoDBEval
productproducercountry
[]
[nr, producer, country]
2810", color = yellow] ; 
73 -> 74 ; 
75 [label="PhyMongoDBEval
offer
[]
[nr, product, producer, vendor]
56200", color = yellow] ; 
73 -> 75 ; 
76 [label="PhyMongoDBEval
productfeatureproduct
[{ $match: {$expr: {$eq: [\"$label\", \"biographies\"] } } }]
[nr, producer]
217", color = yellow] ; 
72 -> 76 ; 
77 [label="PhyMongoDBEval
countrytype
[{\"$match\":{\"countrytype\":121}}]
[country]
2", color = yellow] ; 
71 -> 77 ; 
78 [label="PhyMongoDBEval
offer
[]
[nr, vendor, offerwebpage]
56200", color = yellow] ; 
69 -> 78 ; 
79 [label="PhyMongoDBEval
offer
[]
[nr, vendor, price]
56200", color = yellow] ; 
68 -> 79 ; 
80 [label="PhyMongoDBEval
offer
[]
[nr, vendor, deliverydays]
56200", color = yellow] ; 
66 -> 80 ; 
81 [label="SQLQuery
SELECT tab_3065.nr, tab_3065.producer, tab_3065.propertyNum1 
FROM PRODUCT AS tab_3066, Product AS tab_3065, PRODUCTTYPEPRODUCT AS tab_3067  
WHERE tab_3067.producttype = 110 AND tab_3067.product = tab_3066.nr AND tab_3065.producer = tab_3066.producer AND tab_3065.nr = tab_3066.nr", color = yellow] ; 
64 -> 81 ; 
82 [label="FunctionCallBindAccess
(<http://www4.wiwiss.fu-berlin.de/bizer/bsbm/v01/instances/dataFromVendor{0}/Offer{1}>, <{2}>, \"{3}\", \"{4}\", \"{5}\")", color = yellow] ; 
0 -> 82 ; 
}
