digraph  g{ graph[label = "15:29:7.926"]
node [shape=rectangle, color=black, fontcolor=black, style=bold] edge [color=black] 0 [label="BindAccessEval", color = yellow] ; 
1 [label="HashDistinct", color = yellow] ; 
0 -> 1 ; 
2 [label="Union", color = yellow] ; 
1 -> 2 ; 
3 [label="Project
[5, 2, 6]", color = yellow] ; 
2 -> 3 ; 
4 [label="HashJoin 
[0PREDICATE_EQUAL3,1PREDICATE_EQUAL4]
636", color = yellow] ; 
3 -> 4 ; 
5 [label="PhyMongoDBEval
productfeatureproduct
[]
[nr, producer, label]
57700", color = yellow] ; 
4 -> 5 ; 
6 [label="SQLQuery
SELECT tab_5.nr, tab_5.producer, tab_8.label, tab_7.propertyNum1 
FROM PRODUCTTYPEPRODUCT AS tab_6, Product AS tab_8, Product AS tab_7, PRODUCT AS tab_5  
WHERE tab_6.producttype = 110 AND tab_6.product = tab_5.nr AND tab_8.producer = tab_7.producer AND tab_8.nr = tab_7.nr AND tab_5.nr = tab_8.nr AND tab_5.producer = tab_8.producer", color = yellow] ; 
4 -> 6 ; 
8 [label="Project
[4, 2, 6]", color = yellow] ; 
2 -> 8 ; 
9 [label="HashJoin 
[1PREDICATE_EQUAL5,0PREDICATE_EQUAL3]
636", color = yellow] ; 
8 -> 9 ; 
10 [label="PhyMongoDBEval
productfeatureproduct
[]
[nr, producer, label]
57700", color = yellow] ; 
9 -> 10 ; 
11 [label="SQLQuery
SELECT tab_9.nr, tab_9.label, tab_9.producer, tab_11.propertyNum2 
FROM Product AS tab_11, Product AS tab_9, PRODUCTTYPEPRODUCT AS tab_10, PRODUCT AS tab_12  
WHERE tab_10.producttype = 110 AND tab_10.product = tab_12.nr AND tab_12.producer = tab_11.producer AND tab_12.nr = tab_11.nr AND tab_9.producer = tab_12.producer AND tab_9.nr = tab_12.nr", color = yellow] ; 
9 -> 11 ; 
12 [label="FunctionCallBindAccess
(\"{0}\", \"{1}\", \"{2}\")", color = yellow] ; 
0 -> 12 ; 
}
