digraph  g{ graph[label = "15:29:19.842"]
node [shape=rectangle, color=black, fontcolor=black, style=bold] edge [color=black] 0 [label="BindAccessEval", color = yellow] ; 
1 [label="HashDistinct", color = yellow] ; 
0 -> 1 ; 
2 [label="Union", color = yellow] ; 
1 -> 2 ; 
3 [label="Project
[3, 6, 2]", color = yellow] ; 
2 -> 3 ; 
4 [label="HashJoin 
[1PREDICATE_EQUAL5,0PREDICATE_EQUAL4]
530", color = yellow] ; 
3 -> 4 ; 
5 [label="SQLQuery
SELECT tab_63.nr, tab_63.producer, tab_63.propertyNum2, tab_64.label 
FROM Product AS tab_63, Product AS tab_64, PRODUCTTYPEPRODUCT AS tab_61, PRODUCT AS tab_62  
WHERE tab_61.producttype = 91 AND tab_61.product = tab_62.nr AND tab_63.producer = tab_62.producer AND tab_63.nr = tab_62.nr AND tab_63.producer = tab_64.producer AND tab_63.nr = tab_64.nr", color = yellow] ; 
4 -> 5 ; 
6 [label="PhyMongoDBEval
productfeatureproduct
[]
[nr, producer, label]
57700", color = yellow] ; 
4 -> 6 ; 
8 [label="Project
[4, 10, 2]", color = yellow] ; 
2 -> 8 ; 
9 [label="HashJoin 
[1PREDICATE_EQUAL9,7PREDICATE_EQUAL9,5PREDICATE_EQUAL9,0PREDICATE_EQUAL8,3PREDICATE_EQUAL8,6PREDICATE_EQUAL8]
700", color = yellow] ; 
8 -> 9 ; 
10 [label="SQLQuery
SELECT tab_107.nr, tab_107.producer, tab_107.propertyNum1, tab_106.nr, tab_106.label, tab_106.producer, tab_108.nr, tab_108.producer 
FROM Product AS tab_107, Product AS tab_106, PRODUCTTYPEPRODUCT AS tab_109, PRODUCT AS tab_108  
WHERE tab_107.producer = tab_106.producer AND tab_107.nr = tab_106.nr AND tab_109.producttype = 96 AND tab_109.product = tab_108.nr AND tab_106.producer = tab_108.producer AND tab_106.nr = tab_108.nr", color = yellow] ; 
9 -> 10 ; 
11 [label="PhyMongoDBEval
productfeatureproduct
[]
[nr, producer, label]
57700", color = yellow] ; 
9 -> 11 ; 
13 [label="Project
[1, 10, 7]", color = yellow] ; 
2 -> 13 ; 
14 [label="HashJoin 
[2PREDICATE_EQUAL9,4PREDICATE_EQUAL9,6PREDICATE_EQUAL9,0PREDICATE_EQUAL8,3PREDICATE_EQUAL8,5PREDICATE_EQUAL8]
640", color = yellow] ; 
13 -> 14 ; 
15 [label="SQLQuery
SELECT tab_115.nr, tab_115.label, tab_115.producer, tab_114.nr, tab_114.producer, tab_116.nr, tab_116.producer, tab_116.propertyNum2 
FROM PRODUCT AS tab_114, PRODUCTTYPEPRODUCT AS tab_113, Product AS tab_116, Product AS tab_115  
WHERE tab_113.producttype = 99 AND tab_113.product = tab_114.nr AND tab_115.nr = tab_114.nr AND tab_115.producer = tab_114.producer AND tab_114.producer = tab_116.producer AND tab_114.nr = tab_116.nr", color = yellow] ; 
14 -> 15 ; 
16 [label="PhyMongoDBEval
productfeatureproduct
[]
[nr, producer, label]
57700", color = yellow] ; 
14 -> 16 ; 
18 [label="Project
[6, 2, 5]", color = yellow] ; 
2 -> 18 ; 
19 [label="HashJoin 
[0PREDICATE_EQUAL3,1PREDICATE_EQUAL4]
756", color = yellow] ; 
18 -> 19 ; 
20 [label="PhyMongoDBEval
productfeatureproduct
[]
[nr, producer, label]
57700", color = yellow] ; 
19 -> 20 ; 
21 [label="SQLQuery
SELECT tab_117.nr, tab_117.producer, tab_117.propertyNum2, tab_118.label 
FROM PRODUCTTYPEPRODUCT AS tab_120, Product AS tab_118, Product AS tab_117, PRODUCT AS tab_119  
WHERE tab_120.producttype = 102 AND tab_120.product = tab_119.nr AND tab_118.producer = tab_119.producer AND tab_118.nr = tab_119.nr AND tab_117.producer = tab_118.producer AND tab_117.nr = tab_118.nr", color = yellow] ; 
19 -> 21 ; 
23 [label="Project
[1, 6, 3]", color = yellow] ; 
2 -> 23 ; 
24 [label="HashJoin 
[2PREDICATE_EQUAL5,0PREDICATE_EQUAL4]
545", color = yellow] ; 
23 -> 24 ; 
25 [label="SQLQuery
SELECT tab_67.nr, tab_67.label, tab_67.producer, tab_68.propertyNum1 
FROM Product AS tab_67, PRODUCT AS tab_69, Product AS tab_68, PRODUCTTYPEPRODUCT AS tab_70  
WHERE tab_67.producer = tab_68.producer AND tab_67.nr = tab_68.nr AND tab_70.producttype = 100 AND tab_70.product = tab_69.nr AND tab_67.producer = tab_69.producer AND tab_67.nr = tab_69.nr", color = yellow] ; 
24 -> 25 ; 
26 [label="PhyMongoDBEval
productfeatureproduct
[]
[nr, producer, label]
57700", color = yellow] ; 
24 -> 26 ; 
28 [label="Project
[5, 2, 6]", color = yellow] ; 
2 -> 28 ; 
29 [label="HashJoin 
[1PREDICATE_EQUAL4,0PREDICATE_EQUAL3]
853", color = yellow] ; 
28 -> 29 ; 
30 [label="PhyMongoDBEval
productfeatureproduct
[]
[nr, producer, label]
57700", color = yellow] ; 
29 -> 30 ; 
31 [label="SQLQuery
SELECT tab_125.nr, tab_125.producer, tab_126.label, tab_127.propertyNum1 
FROM PRODUCT AS tab_125, PRODUCTTYPEPRODUCT AS tab_124, Product AS tab_127, Product AS tab_126  
WHERE tab_124.producttype = 92 AND tab_124.product = tab_125.nr AND tab_125.nr = tab_126.nr AND tab_125.producer = tab_126.producer AND tab_126.nr = tab_127.nr AND tab_126.producer = tab_127.producer", color = yellow] ; 
29 -> 31 ; 
33 [label="Project
[3, 6, 2]", color = yellow] ; 
2 -> 33 ; 
34 [label="HashJoin 
[1PREDICATE_EQUAL5,0PREDICATE_EQUAL4]
681", color = yellow] ; 
33 -> 34 ; 
35 [label="SQLQuery
SELECT tab_99.nr, tab_99.producer, tab_98.propertyNum1, tab_100.label 
FROM PRODUCT AS tab_99, Product AS tab_98, PRODUCTTYPEPRODUCT AS tab_97, Product AS tab_100  
WHERE tab_97.producttype = 94 AND tab_97.product = tab_99.nr AND tab_99.producer = tab_98.producer AND tab_99.nr = tab_98.nr AND tab_99.producer = tab_100.producer AND tab_99.nr = tab_100.nr", color = yellow] ; 
34 -> 35 ; 
36 [label="PhyMongoDBEval
productfeatureproduct
[]
[nr, producer, label]
57700", color = yellow] ; 
34 -> 36 ; 
38 [label="Project
[5, 2, 6]", color = yellow] ; 
2 -> 38 ; 
39 [label="HashJoin 
[0PREDICATE_EQUAL3,1PREDICATE_EQUAL4]
681", color = yellow] ; 
38 -> 39 ; 
40 [label="PhyMongoDBEval
productfeatureproduct
[]
[nr, producer, label]
57700", color = yellow] ; 
39 -> 40 ; 
41 [label="SQLQuery
SELECT tab_133.nr, tab_133.producer, tab_131.label, tab_134.propertyNum2 
FROM PRODUCTTYPEPRODUCT AS tab_132, PRODUCT AS tab_133, Product AS tab_134, Product AS tab_131  
WHERE tab_132.producttype = 94 AND tab_132.product = tab_133.nr AND tab_133.producer = tab_131.producer AND tab_133.nr = tab_131.nr AND tab_131.nr = tab_134.nr AND tab_131.producer = tab_134.producer", color = yellow] ; 
39 -> 41 ; 
43 [label="Project
[4, 2, 6]", color = yellow] ; 
2 -> 43 ; 
44 [label="HashJoin 
[1PREDICATE_EQUAL5,0PREDICATE_EQUAL3]
733", color = yellow] ; 
43 -> 44 ; 
45 [label="PhyMongoDBEval
productfeatureproduct
[]
[nr, producer, label]
57700", color = yellow] ; 
44 -> 45 ; 
46 [label="SQLQuery
SELECT tab_135.nr, tab_135.label, tab_135.producer, tab_137.propertyNum1 
FROM PRODUCT AS tab_138, PRODUCTTYPEPRODUCT AS tab_136, Product AS tab_137, Product AS tab_135  
WHERE tab_136.producttype = 101 AND tab_136.product = tab_138.nr AND tab_138.producer = tab_137.producer AND tab_138.nr = tab_137.nr AND tab_135.producer = tab_138.producer AND tab_135.nr = tab_138.nr", color = yellow] ; 
44 -> 46 ; 
48 [label="Project
[1, 10, 7]", color = yellow] ; 
2 -> 48 ; 
49 [label="HashJoin 
[4PREDICATE_EQUAL9,2PREDICATE_EQUAL9,6PREDICATE_EQUAL9,0PREDICATE_EQUAL8,3PREDICATE_EQUAL8,5PREDICATE_EQUAL8]
756", color = yellow] ; 
48 -> 49 ; 
50 [label="SQLQuery
SELECT tab_143.nr, tab_143.label, tab_143.producer, tab_144.nr, tab_144.producer, tab_145.nr, tab_145.producer, tab_145.propertyNum1 
FROM PRODUCTTYPEPRODUCT AS tab_142, PRODUCT AS tab_144, Product AS tab_145, Product AS tab_143  
WHERE tab_142.producttype = 102 AND tab_142.product = tab_144.nr AND tab_143.producer = tab_144.producer AND tab_143.nr = tab_144.nr AND tab_144.producer = tab_145.producer AND tab_144.nr = tab_145.nr", color = yellow] ; 
49 -> 50 ; 
51 [label="PhyMongoDBEval
productfeatureproduct
[]
[nr, producer, label]
57700", color = yellow] ; 
49 -> 51 ; 
53 [label="Project
[2, 6, 3]", color = yellow] ; 
2 -> 53 ; 
54 [label="HashJoin 
[1PREDICATE_EQUAL5,0PREDICATE_EQUAL4]
873", color = yellow] ; 
53 -> 54 ; 
55 [label="SQLQuery
SELECT tab_75.nr, tab_75.producer, tab_76.label, tab_77.propertyNum1 
FROM PRODUCTTYPEPRODUCT AS tab_74, Product AS tab_76, PRODUCT AS tab_75, Product AS tab_77  
WHERE tab_74.producttype = 97 AND tab_74.product = tab_75.nr AND tab_75.producer = tab_76.producer AND tab_75.nr = tab_76.nr AND tab_75.producer = tab_77.producer AND tab_75.nr = tab_77.nr", color = yellow] ; 
54 -> 55 ; 
56 [label="PhyMongoDBEval
productfeatureproduct
[]
[nr, producer, label]
57700", color = yellow] ; 
54 -> 56 ; 
58 [label="Project
[6, 2, 5]", color = yellow] ; 
2 -> 58 ; 
59 [label="HashJoin 
[1PREDICATE_EQUAL4,0PREDICATE_EQUAL3]
658", color = yellow] ; 
58 -> 59 ; 
60 [label="PhyMongoDBEval
productfeatureproduct
[]
[nr, producer, label]
57700", color = yellow] ; 
59 -> 60 ; 
61 [label="SQLQuery
SELECT tab_146.nr, tab_146.producer, tab_146.propertyNum2, tab_149.label 
FROM PRODUCT AS tab_148, PRODUCTTYPEPRODUCT AS tab_147, Product AS tab_149, Product AS tab_146  
WHERE tab_147.producttype = 103 AND tab_147.product = tab_148.nr AND tab_149.producer = tab_148.producer AND tab_149.nr = tab_148.nr AND tab_146.nr = tab_149.nr AND tab_146.producer = tab_149.producer", color = yellow] ; 
59 -> 61 ; 
63 [label="Project
[6, 2, 5]", color = yellow] ; 
2 -> 63 ; 
64 [label="HashJoin 
[0PREDICATE_EQUAL3,1PREDICATE_EQUAL4]
700", color = yellow] ; 
63 -> 64 ; 
65 [label="PhyMongoDBEval
productfeatureproduct
[]
[nr, producer, label]
57700", color = yellow] ; 
64 -> 65 ; 
66 [label="SQLQuery
SELECT tab_153.nr, tab_153.producer, tab_153.propertyNum2, tab_152.label 
FROM PRODUCTTYPEPRODUCT AS tab_155, Product AS tab_152, PRODUCT AS tab_154, Product AS tab_153  
WHERE tab_153.producer = tab_152.producer AND tab_153.nr = tab_152.nr AND tab_155.producttype = 96 AND tab_155.product = tab_154.nr AND tab_152.producer = tab_154.producer AND tab_152.nr = tab_154.nr", color = yellow] ; 
64 -> 66 ; 
68 [label="Project
[1, 6, 3]", color = yellow] ; 
2 -> 68 ; 
69 [label="HashJoin 
[2PREDICATE_EQUAL5,0PREDICATE_EQUAL4]
714", color = yellow] ; 
68 -> 69 ; 
70 [label="SQLQuery
SELECT tab_81.nr, tab_81.label, tab_81.producer, tab_84.propertyNum2 
FROM PRODUCTTYPEPRODUCT AS tab_82, Product AS tab_81, PRODUCT AS tab_83, Product AS tab_84  
WHERE tab_82.producttype = 95 AND tab_82.product = tab_83.nr AND tab_81.producer = tab_83.producer AND tab_81.nr = tab_83.nr AND tab_81.producer = tab_84.producer AND tab_81.nr = tab_84.nr", color = yellow] ; 
69 -> 70 ; 
71 [label="PhyMongoDBEval
productfeatureproduct
[]
[nr, producer, label]
57700", color = yellow] ; 
69 -> 71 ; 
73 [label="Project
[4, 2, 6]", color = yellow] ; 
2 -> 73 ; 
74 [label="HashJoin 
[1PREDICATE_EQUAL5,0PREDICATE_EQUAL3]
633", color = yellow] ; 
73 -> 74 ; 
75 [label="PhyMongoDBEval
productfeatureproduct
[]
[nr, producer, label]
57700", color = yellow] ; 
74 -> 75 ; 
76 [label="SQLQuery
SELECT tab_161.nr, tab_161.label, tab_161.producer, tab_162.propertyNum1 
FROM PRODUCT AS tab_159, Product AS tab_162, Product AS tab_161, PRODUCTTYPEPRODUCT AS tab_160  
WHERE tab_160.producttype = 93 AND tab_160.product = tab_159.nr AND tab_161.nr = tab_159.nr AND tab_161.producer = tab_159.producer AND tab_159.producer = tab_162.producer AND tab_159.nr = tab_162.nr", color = yellow] ; 
74 -> 76 ; 
78 [label="Project
[6, 10, 4]", color = yellow] ; 
2 -> 78 ; 
79 [label="HashJoin 
[1PREDICATE_EQUAL9,7PREDICATE_EQUAL9,3PREDICATE_EQUAL9,0PREDICATE_EQUAL8,2PREDICATE_EQUAL8,5PREDICATE_EQUAL8]
714", color = yellow] ; 
78 -> 79 ; 
80 [label="SQLQuery
SELECT tab_167.nr, tab_167.producer, tab_168.nr, tab_168.producer, tab_168.propertyNum1, tab_169.nr, tab_169.label, tab_169.producer 
FROM PRODUCTTYPEPRODUCT AS tab_166, PRODUCT AS tab_167, Product AS tab_169, Product AS tab_168  
WHERE tab_166.producttype = 95 AND tab_166.product = tab_167.nr AND tab_167.producer = tab_168.producer AND tab_167.nr = tab_168.nr AND tab_168.producer = tab_169.producer AND tab_168.nr = tab_169.nr", color = yellow] ; 
79 -> 80 ; 
81 [label="PhyMongoDBEval
productfeatureproduct
[]
[nr, producer, label]
57700", color = yellow] ; 
79 -> 81 ; 
83 [label="Project
[1, 8, 5]", color = yellow] ; 
2 -> 83 ; 
84 [label="HashJoin 
[0PREDICATE_EQUAL6,3PREDICATE_EQUAL6,4PREDICATE_EQUAL7,2PREDICATE_EQUAL7]
683", color = yellow] ; 
83 -> 84 ; 
85 [label="SQLQuery
SELECT tab_170.nr, tab_170.label, tab_170.producer, tab_173.nr, tab_173.producer, tab_173.propertyNum2 
FROM Product AS tab_170, Product AS tab_173, PRODUCT AS tab_172, PRODUCTTYPEPRODUCT AS tab_171  
WHERE tab_171.producttype = 98 AND tab_171.product = tab_172.nr AND tab_170.producer = tab_172.producer AND tab_170.nr = tab_172.nr AND tab_170.producer = tab_173.producer AND tab_170.nr = tab_173.nr", color = yellow] ; 
84 -> 85 ; 
86 [label="PhyMongoDBEval
productfeatureproduct
[]
[nr, producer, label]
57700", color = yellow] ; 
84 -> 86 ; 
88 [label="Project
[6, 2, 5]", color = yellow] ; 
2 -> 88 ; 
89 [label="HashJoin 
[0PREDICATE_EQUAL3,1PREDICATE_EQUAL4]
1014", color = yellow] ; 
88 -> 89 ; 
90 [label="PhyMongoDBEval
productfeatureproduct
[]
[nr, producer, label]
57700", color = yellow] ; 
89 -> 90 ; 
91 [label="SQLQuery
SELECT tab_178.nr, tab_178.producer, tab_179.propertyNum2, tab_180.label 
FROM Product AS tab_180, PRODUCTTYPEPRODUCT AS tab_177, PRODUCT AS tab_178, Product AS tab_179  
WHERE tab_177.producttype = 88 AND tab_177.product = tab_178.nr AND tab_178.nr = tab_179.nr AND tab_178.producer = tab_179.producer AND tab_179.producer = tab_180.producer AND tab_179.nr = tab_180.nr", color = yellow] ; 
89 -> 91 ; 
93 [label="Project
[1, 10, 7]", color = yellow] ; 
2 -> 93 ; 
94 [label="HashJoin 
[2PREDICATE_EQUAL9,6PREDICATE_EQUAL9,4PREDICATE_EQUAL9,0PREDICATE_EQUAL8,3PREDICATE_EQUAL8,5PREDICATE_EQUAL8]
658", color = yellow] ; 
93 -> 94 ; 
95 [label="SQLQuery
SELECT tab_184.nr, tab_184.label, tab_184.producer, tab_185.nr, tab_185.producer, tab_187.nr, tab_187.producer, tab_187.propertyNum1 
FROM PRODUCTTYPEPRODUCT AS tab_186, Product AS tab_184, PRODUCT AS tab_185, Product AS tab_187  
WHERE tab_186.producttype = 103 AND tab_186.product = tab_185.nr AND tab_184.nr = tab_185.nr AND tab_184.producer = tab_185.producer AND tab_185.producer = tab_187.producer AND tab_185.nr = tab_187.nr", color = yellow] ; 
94 -> 95 ; 
96 [label="PhyMongoDBEval
productfeatureproduct
[]
[nr, producer, label]
57700", color = yellow] ; 
94 -> 96 ; 
98 [label="Project
[1, 6, 3]", color = yellow] ; 
2 -> 98 ; 
99 [label="HashJoin 
[2PREDICATE_EQUAL5,0PREDICATE_EQUAL4]
1014", color = yellow] ; 
98 -> 99 ; 
100 [label="SQLQuery
SELECT tab_45.nr, tab_45.label, tab_45.producer, tab_46.propertyNum1 
FROM PRODUCTTYPEPRODUCT AS tab_48, Product AS tab_45, PRODUCT AS tab_47, Product AS tab_46  
WHERE tab_45.producer = tab_46.producer AND tab_45.nr = tab_46.nr AND tab_48.producttype = 88 AND tab_48.product = tab_47.nr AND tab_45.producer = tab_47.producer AND tab_45.nr = tab_47.nr", color = yellow] ; 
99 -> 100 ; 
101 [label="PhyMongoDBEval
productfeatureproduct
[]
[nr, producer, label]
57700", color = yellow] ; 
99 -> 101 ; 
103 [label="Project
[5, 2, 6]", color = yellow] ; 
2 -> 103 ; 
104 [label="HashJoin 
[0PREDICATE_EQUAL3,1PREDICATE_EQUAL4]
733", color = yellow] ; 
103 -> 104 ; 
105 [label="PhyMongoDBEval
productfeatureproduct
[]
[nr, producer, label]
57700", color = yellow] ; 
104 -> 105 ; 
106 [label="SQLQuery
SELECT tab_193.nr, tab_193.producer, tab_191.label, tab_194.propertyNum2 
FROM Product AS tab_191, Product AS tab_194, PRODUCT AS tab_193, PRODUCTTYPEPRODUCT AS tab_192  
WHERE tab_192.producttype = 101 AND tab_192.product = tab_193.nr AND tab_193.nr = tab_191.nr AND tab_193.producer = tab_191.producer AND tab_191.producer = tab_194.producer AND tab_191.nr = tab_194.nr", color = yellow] ; 
104 -> 106 ; 
108 [label="Project
[6, 10, 4]", color = yellow] ; 
2 -> 108 ; 
109 [label="HashJoin 
[0PREDICATE_EQUAL8,2PREDICATE_EQUAL8,5PREDICATE_EQUAL8,1PREDICATE_EQUAL9,3PREDICATE_EQUAL9,7PREDICATE_EQUAL9]
853", color = yellow] ; 
108 -> 109 ; 
110 [label="SQLQuery
SELECT tab_199.nr, tab_199.producer, tab_200.nr, tab_200.producer, tab_200.propertyNum2, tab_201.nr, tab_201.label, tab_201.producer 
FROM PRODUCTTYPEPRODUCT AS tab_198, PRODUCT AS tab_199, Product AS tab_200, Product AS tab_201  
WHERE tab_198.producttype = 92 AND tab_198.product = tab_199.nr AND tab_199.producer = tab_200.producer AND tab_199.nr = tab_200.nr AND tab_200.producer = tab_201.producer AND tab_200.nr = tab_201.nr", color = yellow] ; 
109 -> 110 ; 
111 [label="PhyMongoDBEval
productfeatureproduct
[]
[nr, producer, label]
57700", color = yellow] ; 
109 -> 111 ; 
113 [label="Project
[6, 2, 5]", color = yellow] ; 
2 -> 113 ; 
114 [label="HashJoin 
[0PREDICATE_EQUAL3,1PREDICATE_EQUAL4]
772", color = yellow] ; 
113 -> 114 ; 
115 [label="PhyMongoDBEval
productfeatureproduct
[]
[nr, producer, label]
57700", color = yellow] ; 
114 -> 115 ; 
116 [label="SQLQuery
SELECT tab_205.nr, tab_205.producer, tab_207.propertyNum2, tab_208.label 
FROM Product AS tab_208, Product AS tab_207, PRODUCTTYPEPRODUCT AS tab_206, PRODUCT AS tab_205  
WHERE tab_206.producttype = 90 AND tab_206.product = tab_205.nr AND tab_205.producer = tab_207.producer AND tab_205.nr = tab_207.nr AND tab_207.nr = tab_208.nr AND tab_207.producer = tab_208.producer", color = yellow] ; 
114 -> 116 ; 
118 [label="Project
[6, 2, 5]", color = yellow] ; 
2 -> 118 ; 
119 [label="HashJoin 
[0PREDICATE_EQUAL3,1PREDICATE_EQUAL4]
584", color = yellow] ; 
118 -> 119 ; 
120 [label="PhyMongoDBEval
productfeatureproduct
[]
[nr, producer, label]
57700", color = yellow] ; 
119 -> 120 ; 
121 [label="SQLQuery
SELECT tab_214.nr, tab_214.producer, tab_214.propertyNum1, tab_215.label 
FROM PRODUCT AS tab_213, PRODUCTTYPEPRODUCT AS tab_212, Product AS tab_215, Product AS tab_214  
WHERE tab_212.producttype = 89 AND tab_212.product = tab_213.nr AND tab_214.producer = tab_213.producer AND tab_214.nr = tab_213.nr AND tab_213.nr = tab_215.nr AND tab_213.producer = tab_215.producer", color = yellow] ; 
119 -> 121 ; 
123 [label="Project
[6, 2, 5]", color = yellow] ; 
2 -> 123 ; 
124 [label="HashJoin 
[1PREDICATE_EQUAL4,0PREDICATE_EQUAL3]
873", color = yellow] ; 
123 -> 124 ; 
125 [label="PhyMongoDBEval
productfeatureproduct
[]
[nr, producer, label]
57700", color = yellow] ; 
124 -> 125 ; 
126 [label="SQLQuery
SELECT tab_219.nr, tab_219.producer, tab_219.propertyNum2, tab_218.label 
FROM Product AS tab_219, Product AS tab_218, PRODUCTTYPEPRODUCT AS tab_221, PRODUCT AS tab_220  
WHERE tab_219.nr = tab_218.nr AND tab_219.producer = tab_218.producer AND tab_221.producttype = 97 AND tab_221.product = tab_220.nr AND tab_218.producer = tab_220.producer AND tab_218.nr = tab_220.nr", color = yellow] ; 
124 -> 126 ; 
128 [label="Project
[6, 2, 5]", color = yellow] ; 
2 -> 128 ; 
129 [label="HashJoin 
[1PREDICATE_EQUAL4,0PREDICATE_EQUAL3]
545", color = yellow] ; 
128 -> 129 ; 
130 [label="PhyMongoDBEval
productfeatureproduct
[]
[nr, producer, label]
57700", color = yellow] ; 
129 -> 130 ; 
131 [label="SQLQuery
SELECT tab_222.nr, tab_222.producer, tab_222.propertyNum2, tab_223.label 
FROM PRODUCT AS tab_224, PRODUCTTYPEPRODUCT AS tab_225, Product AS tab_222, Product AS tab_223  
WHERE tab_225.producttype = 100 AND tab_225.product = tab_224.nr AND tab_223.producer = tab_224.producer AND tab_223.nr = tab_224.nr AND tab_222.nr = tab_223.nr AND tab_222.producer = tab_223.producer", color = yellow] ; 
129 -> 131 ; 
133 [label="Project
[1, 10, 7]", color = yellow] ; 
2 -> 133 ; 
134 [label="HashJoin 
[2PREDICATE_EQUAL9,6PREDICATE_EQUAL9,4PREDICATE_EQUAL9,0PREDICATE_EQUAL8,3PREDICATE_EQUAL8,5PREDICATE_EQUAL8]
683", color = yellow] ; 
133 -> 134 ; 
135 [label="SQLQuery
SELECT tab_230.nr, tab_230.label, tab_230.producer, tab_231.nr, tab_231.producer, tab_232.nr, tab_232.producer, tab_232.propertyNum1 
FROM PRODUCT AS tab_231, Product AS tab_232, PRODUCTTYPEPRODUCT AS tab_229, Product AS tab_230  
WHERE tab_229.producttype = 98 AND tab_229.product = tab_231.nr AND tab_230.nr = tab_231.nr AND tab_230.producer = tab_231.producer AND tab_231.producer = tab_232.producer AND tab_231.nr = tab_232.nr", color = yellow] ; 
134 -> 135 ; 
136 [label="PhyMongoDBEval
productfeatureproduct
[]
[nr, producer, label]
57700", color = yellow] ; 
134 -> 136 ; 
138 [label="Project
[6, 2, 5]", color = yellow] ; 
2 -> 138 ; 
139 [label="HashJoin 
[1PREDICATE_EQUAL4,0PREDICATE_EQUAL3]
530", color = yellow] ; 
138 -> 139 ; 
140 [label="PhyMongoDBEval
productfeatureproduct
[]
[nr, producer, label]
57700", color = yellow] ; 
139 -> 140 ; 
141 [label="SQLQuery
SELECT tab_235.nr, tab_235.producer, tab_235.propertyNum1, tab_236.label 
FROM PRODUCT AS tab_237, PRODUCTTYPEPRODUCT AS tab_238, Product AS tab_236, Product AS tab_235  
WHERE tab_235.producer = tab_236.producer AND tab_235.nr = tab_236.nr AND tab_238.producttype = 91 AND tab_238.product = tab_237.nr AND tab_236.producer = tab_237.producer AND tab_236.nr = tab_237.nr", color = yellow] ; 
139 -> 141 ; 
143 [label="Project
[6, 2, 5]", color = yellow] ; 
2 -> 143 ; 
144 [label="HashJoin 
[0PREDICATE_EQUAL3,1PREDICATE_EQUAL4]
640", color = yellow] ; 
143 -> 144 ; 
145 [label="PhyMongoDBEval
productfeatureproduct
[]
[nr, producer, label]
57700", color = yellow] ; 
144 -> 145 ; 
146 [label="SQLQuery
SELECT tab_241.nr, tab_241.producer, tab_241.propertyNum1, tab_242.label 
FROM PRODUCTTYPEPRODUCT AS tab_244, PRODUCT AS tab_243, Product AS tab_242, Product AS tab_241  
WHERE tab_241.nr = tab_242.nr AND tab_241.producer = tab_242.producer AND tab_244.producttype = 99 AND tab_244.product = tab_243.nr AND tab_242.producer = tab_243.producer AND tab_242.nr = tab_243.nr", color = yellow] ; 
144 -> 146 ; 
148 [label="Project
[6, 2, 5]", color = yellow] ; 
2 -> 148 ; 
149 [label="HashJoin 
[0PREDICATE_EQUAL3,1PREDICATE_EQUAL4]
772", color = yellow] ; 
148 -> 149 ; 
150 [label="PhyMongoDBEval
productfeatureproduct
[]
[nr, producer, label]
57700", color = yellow] ; 
149 -> 150 ; 
151 [label="SQLQuery
SELECT tab_245.nr, tab_245.producer, tab_245.propertyNum1, tab_248.label 
FROM PRODUCT AS tab_246, PRODUCTTYPEPRODUCT AS tab_247, Product AS tab_248, Product AS tab_245  
WHERE tab_247.producttype = 90 AND tab_247.product = tab_246.nr AND tab_246.producer = tab_248.producer AND tab_246.nr = tab_248.nr AND tab_245.producer = tab_246.producer AND tab_245.nr = tab_246.nr", color = yellow] ; 
149 -> 151 ; 
153 [label="Project
[1, 6, 3]", color = yellow] ; 
2 -> 153 ; 
154 [label="HashJoin 
[2PREDICATE_EQUAL5,0PREDICATE_EQUAL4]
633", color = yellow] ; 
153 -> 154 ; 
155 [label="SQLQuery
SELECT tab_52.nr, tab_52.label, tab_52.producer, tab_51.propertyNum2 
FROM Product AS tab_52, PRODUCT AS tab_53, Product AS tab_51, PRODUCTTYPEPRODUCT AS tab_54  
WHERE tab_52.producer = tab_51.producer AND tab_52.nr = tab_51.nr AND tab_54.producttype = 93 AND tab_54.product = tab_53.nr AND tab_52.producer = tab_53.producer AND tab_52.nr = tab_53.nr", color = yellow] ; 
154 -> 155 ; 
156 [label="PhyMongoDBEval
productfeatureproduct
[]
[nr, producer, label]
57700", color = yellow] ; 
154 -> 156 ; 
158 [label="Project
[4, 2, 6]", color = yellow] ; 
2 -> 158 ; 
159 [label="HashJoin 
[1PREDICATE_EQUAL5,0PREDICATE_EQUAL3]
584", color = yellow] ; 
158 -> 159 ; 
160 [label="PhyMongoDBEval
productfeatureproduct
[]
[nr, producer, label]
57700", color = yellow] ; 
159 -> 160 ; 
161 [label="SQLQuery
SELECT tab_251.nr, tab_251.label, tab_251.producer, tab_252.propertyNum2 
FROM PRODUCTTYPEPRODUCT AS tab_254, Product AS tab_251, PRODUCT AS tab_253, Product AS tab_252  
WHERE tab_251.producer = tab_252.producer AND tab_251.nr = tab_252.nr AND tab_254.producttype = 89 AND tab_254.product = tab_253.nr AND tab_252.producer = tab_253.producer AND tab_252.nr = tab_253.nr", color = yellow] ; 
159 -> 161 ; 
162 [label="FunctionCallBindAccess
(\"{0}\", \"{1}\", \"{2}\")", color = yellow] ; 
0 -> 162 ; 
}
