digraph  g{ graph[label = "15:31:2.102"]
node [shape=rectangle, color=black, fontcolor=black, style=bold] edge [color=black] 0 [label="BindAccessEval", color = yellow] ; 
1 [label="SQLQuery
SELECT tab_2624.publisher, tab_2624.nr, tab_2625.producer, tab_2625.product, tab_2626.title, tab_2624.text 
FROM Review AS tab_2626, PRODUCTTYPEPRODUCT AS tab_2628, PRODUCT AS tab_2627, Review AS tab_2624, Review AS tab_2625 
WHERE tab_2624.publisher = tab_2625.publisher AND tab_2624.nr = tab_2625.nr AND tab_2624.publisher = tab_2626.publisher AND tab_2624.nr = tab_2626.nr AND tab_2628.producttype = 62 AND tab_2628.product = tab_2627.nr AND tab_2625.producer = tab_2627.producer AND tab_2625.product = tab_2627.nr 
UNION
SELECT tab_2656.publisher, tab_2656.nr, tab_2656.producer, tab_2656.product, tab_2658.title, tab_2657.text 
FROM PRODUCT AS tab_2659, Review AS tab_2656, Review AS tab_2657, Review AS tab_2658, PRODUCTTYPEPRODUCT AS tab_2660 
WHERE tab_2656.publisher = tab_2657.publisher AND tab_2656.nr = tab_2657.nr AND tab_2656.publisher = tab_2658.publisher AND tab_2656.nr = tab_2658.nr AND tab_2660.producttype = 59 AND tab_2660.product = tab_2659.nr AND tab_2656.producer = tab_2659.producer AND tab_2656.product = tab_2659.nr 
UNION
SELECT tab_2750.publisher, tab_2750.nr, tab_2751.producer, tab_2751.product, tab_2750.title, tab_2752.text 
FROM PRODUCTTYPEPRODUCT AS tab_2754, PRODUCT AS tab_2753, Review AS tab_2750, Review AS tab_2751, Review AS tab_2752 
WHERE tab_2750.publisher = tab_2751.publisher AND tab_2750.nr = tab_2751.nr AND tab_2750.publisher = tab_2752.publisher AND tab_2750.nr = tab_2752.nr AND tab_2754.producttype = 57 AND tab_2754.product = tab_2753.nr AND tab_2751.producer = tab_2753.producer AND tab_2751.product = tab_2753.nr 
UNION
SELECT tab_2764.publisher, tab_2764.nr, tab_2762.producer, tab_2762.nr, tab_2766.title, tab_2765.text 
FROM PRODUCTTYPEPRODUCT AS tab_2763, PRODUCT AS tab_2762, Review AS tab_2764, Review AS tab_2765, Review AS tab_2766 
WHERE tab_2763.producttype = 70 AND tab_2763.product = tab_2762.nr AND tab_2762.producer = tab_2764.producer AND tab_2762.nr = tab_2764.product AND tab_2764.publisher = tab_2765.publisher AND tab_2764.nr = tab_2765.nr AND tab_2764.publisher = tab_2766.publisher AND tab_2764.nr = tab_2766.nr 
UNION
SELECT tab_2638.publisher, tab_2638.nr, tab_2637.producer, tab_2637.nr, tab_2640.title, tab_2639.text 
FROM Review AS tab_2638, PRODUCT AS tab_2637, Review AS tab_2639, PRODUCTTYPEPRODUCT AS tab_2636, Review AS tab_2640 
WHERE tab_2636.producttype = 61 AND tab_2636.product = tab_2637.nr AND tab_2637.producer = tab_2638.producer AND tab_2637.nr = tab_2638.product AND tab_2638.publisher = tab_2639.publisher AND tab_2638.nr = tab_2639.nr AND tab_2638.publisher = tab_2640.publisher AND tab_2638.nr = tab_2640.nr 
UNION
SELECT tab_2720.publisher, tab_2720.nr, tab_2722.producer, tab_2722.product, tab_2721.title, tab_2720.text 
FROM PRODUCT AS tab_2723, PRODUCTTYPEPRODUCT AS tab_2724, Review AS tab_2720, Review AS tab_2721, Review AS tab_2722 
WHERE tab_2720.publisher = tab_2721.publisher AND tab_2720.nr = tab_2721.nr AND tab_2720.publisher = tab_2722.publisher AND tab_2720.nr = tab_2722.nr AND tab_2... (15 UNIONs)", color = yellow] ; 
0 -> 1 ; 
2 [label="FunctionCallBindAccess
(<http://www4.wiwiss.fu-berlin.de/bizer/bsbm/v01/instances/dataFromRatingSite{0}/Review{1}>, <http://www4.wiwiss.fu-berlin.de/bizer/bsbm/v01/instances/dataFromProducer{2}/Product{3}>, \"{4}\", \"{5}\")", color = yellow] ; 
0 -> 2 ; 
}
