digraph  g{ graph[label = "15:31:12.796"]
node [shape=rectangle, color=black, fontcolor=black, style=bold] edge [color=black] 0 [label="BindAccessEval", color = yellow] ; 
1 [label="HashDistinct", color = yellow] ; 
0 -> 1 ; 
2 [label="Project
[6, 7, 5, 3, 4, 1]", color = yellow] ; 
1 -> 2 ; 
3 [label="HashJoin 
[2PREDICATE_EQUAL4,0PREDICATE_EQUAL3]
56200", color = yellow] ; 
2 -> 3 ; 
4 [label="SQLQuery
SELECT nr, label, producer 
FROM Product", color = yellow] ; 
3 -> 4 ; 
5 [label="PhyMongoDBEval
offer
[{$lookup: { from: \"offer\", let: { \"nr\": \"$nr\", \"vendor\": \"$vendor\"}, pipeline: [ { $match: {$expr: {$eq: [\"$$nr\", \"$nr\"] } } }, { $match: {$expr: {$eq: [\"$$vendor\", \"$vendor\"] } } } ], as: \"mongojoin200\"}},
{$unwind: \"$mongojoin200\"},
{$lookup: { from: \"offer\", let: { \"mongojoin200_vendor\": \"$mongojoin200.vendor\", \"mongojoin200_nr\": \"$mongojoin200.nr\"}, pipeline: [ { $match: {$expr: {$eq: [\"$$mongojoin200_vendor\", \"$vendor\"] } } }, { $match: {$expr: {$eq: [\"$$mongojoin200_nr\", \"$nr\"] } } } ], as: \"mongojoin201\"}},
{$unwind: \"$mongojoin201\"}]
[product, producer, mongojoin200.price, mongojoin201.nr, mongojoin201.vendor]
56200", color = yellow] ; 
3 -> 5 ; 
6 [label="FunctionCallBindAccess
(<http://www4.wiwiss.fu-berlin.de/bizer/bsbm/v01/instances/dataFromVendor{1}/Offer{0}>, <http://www4.wiwiss.fu-berlin.de/bizer/bsbm/v01/instances/dataFromProducer{4}/Product{3}>, \"{5}\", <http://www4.wiwiss.fu-berlin.de/bizer/bsbm/v01/instances/dataFromVendor{1}/Vendor{1}>, \"{2}\")", color = yellow] ; 
0 -> 6 ; 
}
