<?xml version="1.0" encoding="UTF-8" standalone="no"?>
<!DOCTYPE svg PUBLIC "-//W3C//DTD SVG 1.1//EN"
 "http://www.w3.org/Graphics/SVG/1.1/DTD/svg11.dtd">
<!-- Generated by graphviz version 2.40.1 (20161225.0304)
 -->
<!-- Title: g Pages: 1 -->
<svg width="29046pt" height="540pt"
 viewBox="0.00 0.00 29046.00 540.00" xmlns="http://www.w3.org/2000/svg" xmlns:xlink="http://www.w3.org/1999/xlink">
<g id="graph0" class="graph" transform="scale(1 1) rotate(0) translate(4 536)">
<title>g</title>
<polygon fill="#ffffff" stroke="transparent" points="-4,4 -4,-536 29042,-536 29042,4 -4,4"/>
<text text-anchor="middle" x="14519" y="-7.8" font-family="Times,serif" font-size="14.00" fill="#000000">17:39:52.233</text>
<!-- 0 -->
<g id="node1" class="node">
<title>0</title>
<polygon fill="none" stroke="#ffff00" stroke-width="2" points="14463,-532 14357,-532 14357,-496 14463,-496 14463,-532"/>
<text text-anchor="middle" x="14410" y="-510.3" font-family="Times,serif" font-size="14.00" fill="#000000">BindAccessEval</text>
</g>
<!-- 1 -->
<g id="node2" class="node">
<title>1</title>
<polygon fill="none" stroke="#ffff00" stroke-width="2" points="14327.5,-459 14240.5,-459 14240.5,-423 14327.5,-423 14327.5,-459"/>
<text text-anchor="middle" x="14284" y="-437.3" font-family="Times,serif" font-size="14.00" fill="#000000">HashDistinct</text>
</g>
<!-- 0&#45;&gt;1 -->
<g id="edge1" class="edge">
<title>0&#45;&gt;1</title>
<path fill="none" stroke="#000000" d="M14378.8539,-495.9551C14362.3465,-486.3912 14341.8796,-474.5334 14324.1876,-464.2833"/>
<polygon fill="#000000" stroke="#000000" points="14325.6318,-461.075 14315.2245,-459.0904 14322.1226,-467.1319 14325.6318,-461.075"/>
</g>
<!-- 82 -->
<g id="node68" class="node">
<title>82</title>
<polygon fill="none" stroke="#ffff00" stroke-width="2" points="14726,-460 14346,-460 14346,-422 14726,-422 14726,-460"/>
<text text-anchor="middle" x="14536" y="-444.8" font-family="Times,serif" font-size="14.00" fill="#000000">FunctionCallBindAccess</text>
<text text-anchor="middle" x="14536" y="-429.8" font-family="Times,serif" font-size="14.00" fill="#000000">(&quot;{0}&quot;, &quot;{1}&quot;, &lt;http://downlode.org/rdf/iso&#45;3166/countries#{2}&gt;)</text>
</g>
<!-- 0&#45;&gt;82 -->
<g id="edge67" class="edge">
<title>0&#45;&gt;82</title>
<path fill="none" stroke="#000000" d="M14441.1461,-495.9551C14457.157,-486.6789 14476.8929,-475.2446 14494.2088,-465.2124"/>
<polygon fill="#000000" stroke="#000000" points="14496.1126,-468.1544 14503.0107,-460.1128 14492.6034,-462.0975 14496.1126,-468.1544"/>
</g>
<!-- 2 -->
<g id="node3" class="node">
<title>2</title>
<polygon fill="none" stroke="#ffff00" stroke-width="2" points="14311,-386 14257,-386 14257,-350 14311,-350 14311,-386"/>
<text text-anchor="middle" x="14284" y="-364.3" font-family="Times,serif" font-size="14.00" fill="#000000">Union</text>
</g>
<!-- 1&#45;&gt;2 -->
<g id="edge2" class="edge">
<title>1&#45;&gt;2</title>
<path fill="none" stroke="#000000" d="M14284,-422.9551C14284,-414.8828 14284,-405.1764 14284,-396.1817"/>
<polygon fill="#000000" stroke="#000000" points="14287.5001,-396.0903 14284,-386.0904 14280.5001,-396.0904 14287.5001,-396.0903"/>
</g>
<!-- 3 -->
<g id="node4" class="node">
<title>3</title>
<polygon fill="none" stroke="#ffff00" stroke-width="2" points="3093.5,-314 3032.5,-314 3032.5,-276 3093.5,-276 3093.5,-314"/>
<text text-anchor="middle" x="3063" y="-298.8" font-family="Times,serif" font-size="14.00" fill="#000000">Project</text>
<text text-anchor="middle" x="3063" y="-283.8" font-family="Times,serif" font-size="14.00" fill="#000000">[2, 3, 6]</text>
</g>
<!-- 2&#45;&gt;3 -->
<g id="edge3" class="edge">
<title>2&#45;&gt;3</title>
<path fill="none" stroke="#000000" d="M14256.822,-367.9178C13746.1261,-366.3644 6184.0604,-342.9844 3970,-314 3635.3016,-309.6184 3231.2219,-299.4171 3103.6308,-296.0787"/>
<polygon fill="#000000" stroke="#000000" points="3103.6217,-292.5773 3093.5333,-295.8137 3103.438,-299.5749 3103.6217,-292.5773"/>
</g>
<!-- 8 -->
<g id="node8" class="node">
<title>8</title>
<polygon fill="none" stroke="#ffff00" stroke-width="2" points="4040.5,-314 3979.5,-314 3979.5,-276 4040.5,-276 4040.5,-314"/>
<text text-anchor="middle" x="4010" y="-298.8" font-family="Times,serif" font-size="14.00" fill="#000000">Project</text>
<text text-anchor="middle" x="4010" y="-283.8" font-family="Times,serif" font-size="14.00" fill="#000000">[2, 3, 6]</text>
</g>
<!-- 2&#45;&gt;8 -->
<g id="edge7" class="edge">
<title>2&#45;&gt;8</title>
<path fill="none" stroke="#000000" d="M14256.8317,-367.8733C13868.592,-366.0532 9395.9319,-344.7793 5786,-314 5091.5232,-308.0787 4244.3234,-297.8694 4050.7037,-295.5008"/>
<polygon fill="#000000" stroke="#000000" points="4050.7274,-292.001 4040.6853,-295.3781 4050.6416,-299.0004 4050.7274,-292.001"/>
</g>
<!-- 13 -->
<g id="node12" class="node">
<title>13</title>
<polygon fill="none" stroke="#ffff00" stroke-width="2" points="5856.5,-314 5795.5,-314 5795.5,-276 5856.5,-276 5856.5,-314"/>
<text text-anchor="middle" x="5826" y="-298.8" font-family="Times,serif" font-size="14.00" fill="#000000">Project</text>
<text text-anchor="middle" x="5826" y="-283.8" font-family="Times,serif" font-size="14.00" fill="#000000">[2, 3, 4]</text>
</g>
<!-- 2&#45;&gt;13 -->
<g id="edge11" class="edge">
<title>2&#45;&gt;13</title>
<path fill="none" stroke="#000000" d="M14256.9255,-367.8087C13916.0663,-365.3943 10423.8367,-340.4965 7602,-314 6907.5286,-307.4791 6060.3247,-297.7253 5866.7039,-295.4748"/>
<polygon fill="#000000" stroke="#000000" points="5866.7255,-291.975 5856.6855,-295.3583 5866.6441,-298.9745 5866.7255,-291.975"/>
</g>
<!-- 18 -->
<g id="node16" class="node">
<title>18</title>
<polygon fill="none" stroke="#ffff00" stroke-width="2" points="7672.5,-314 7611.5,-314 7611.5,-276 7672.5,-276 7672.5,-314"/>
<text text-anchor="middle" x="7642" y="-298.8" font-family="Times,serif" font-size="14.00" fill="#000000">Project</text>
<text text-anchor="middle" x="7642" y="-283.8" font-family="Times,serif" font-size="14.00" fill="#000000">[2, 3, 4]</text>
</g>
<!-- 2&#45;&gt;18 -->
<g id="edge15" class="edge">
<title>2&#45;&gt;18</title>
<path fill="none" stroke="#000000" d="M14256.8899,-367.702C13819.0494,-362.8899 8217.572,-301.3259 7682.9188,-295.4497"/>
<polygon fill="#000000" stroke="#000000" points="7682.6401,-291.9465 7672.6022,-295.3363 7682.5631,-298.9461 7682.6401,-291.9465"/>
</g>
<!-- 23 -->
<g id="node20" class="node">
<title>23</title>
<polygon fill="none" stroke="#ffff00" stroke-width="2" points="9488.5,-314 9427.5,-314 9427.5,-276 9488.5,-276 9488.5,-314"/>
<text text-anchor="middle" x="9458" y="-298.8" font-family="Times,serif" font-size="14.00" fill="#000000">Project</text>
<text text-anchor="middle" x="9458" y="-283.8" font-family="Times,serif" font-size="14.00" fill="#000000">[2, 3, 6]</text>
</g>
<!-- 2&#45;&gt;23 -->
<g id="edge19" class="edge">
<title>2&#45;&gt;23</title>
<path fill="none" stroke="#000000" d="M14256.8594,-367.5895C13891.0615,-362.0563 9943.545,-302.3445 9498.7111,-295.6158"/>
<polygon fill="#000000" stroke="#000000" points="9498.621,-292.1141 9488.5692,-295.4624 9498.515,-299.1133 9498.621,-292.1141"/>
</g>
<!-- 28 -->
<g id="node24" class="node">
<title>28</title>
<polygon fill="none" stroke="#ffff00" stroke-width="2" points="11304.5,-314 11243.5,-314 11243.5,-276 11304.5,-276 11304.5,-314"/>
<text text-anchor="middle" x="11274" y="-298.8" font-family="Times,serif" font-size="14.00" fill="#000000">Project</text>
<text text-anchor="middle" x="11274" y="-283.8" font-family="Times,serif" font-size="14.00" fill="#000000">[2, 3, 6]</text>
</g>
<!-- 2&#45;&gt;28 -->
<g id="edge23" class="edge">
<title>2&#45;&gt;28</title>
<path fill="none" stroke="#000000" d="M14256.5935,-367.3353C13977.4531,-360.5655 11653.0775,-304.1936 11314.9582,-295.9933"/>
<polygon fill="#000000" stroke="#000000" points="11314.7332,-292.4869 11304.6512,-295.7434 11314.5634,-299.4849 11314.7332,-292.4869"/>
</g>
<!-- 33 -->
<g id="node28" class="node">
<title>33</title>
<polygon fill="none" stroke="#ffff00" stroke-width="2" points="13120.5,-314 13059.5,-314 13059.5,-276 13120.5,-276 13120.5,-314"/>
<text text-anchor="middle" x="13090" y="-298.8" font-family="Times,serif" font-size="14.00" fill="#000000">Project</text>
<text text-anchor="middle" x="13090" y="-283.8" font-family="Times,serif" font-size="14.00" fill="#000000">[2, 3, 6]</text>
</g>
<!-- 2&#45;&gt;33 -->
<g id="edge27" class="edge">
<title>2&#45;&gt;33</title>
<path fill="none" stroke="#000000" d="M14256.8183,-366.3381C14100.7003,-356.7932 13318.527,-308.9719 13130.6303,-297.4841"/>
<polygon fill="#000000" stroke="#000000" points="13130.8139,-293.9889 13120.6189,-296.872 13130.3867,-300.9758 13130.8139,-293.9889"/>
</g>
<!-- 38 -->
<g id="node32" class="node">
<title>38</title>
<polygon fill="none" stroke="#ffff00" stroke-width="2" points="14275.5,-314 14214.5,-314 14214.5,-276 14275.5,-276 14275.5,-314"/>
<text text-anchor="middle" x="14245" y="-298.8" font-family="Times,serif" font-size="14.00" fill="#000000">Project</text>
<text text-anchor="middle" x="14245" y="-283.8" font-family="Times,serif" font-size="14.00" fill="#000000">[2, 3, 4]</text>
</g>
<!-- 2&#45;&gt;38 -->
<g id="edge31" class="edge">
<title>2&#45;&gt;38</title>
<path fill="none" stroke="#000000" d="M14274.3595,-349.9551C14270.0403,-341.8703 14264.8452,-332.1462 14260.0336,-323.1398"/>
<polygon fill="#000000" stroke="#000000" points="14263.0102,-321.2838 14255.211,-314.1128 14256.8361,-324.5823 14263.0102,-321.2838"/>
</g>
<!-- 43 -->
<g id="node36" class="node">
<title>43</title>
<polygon fill="none" stroke="#ffff00" stroke-width="2" points="14768.5,-314 14707.5,-314 14707.5,-276 14768.5,-276 14768.5,-314"/>
<text text-anchor="middle" x="14738" y="-298.8" font-family="Times,serif" font-size="14.00" fill="#000000">Project</text>
<text text-anchor="middle" x="14738" y="-283.8" font-family="Times,serif" font-size="14.00" fill="#000000">[2, 3, 4]</text>
</g>
<!-- 2&#45;&gt;43 -->
<g id="edge35" class="edge">
<title>2&#45;&gt;43</title>
<path fill="none" stroke="#000000" d="M14311.0402,-363.6521C14387.5971,-351.3423 14606.1792,-316.1958 14697.3222,-301.5407"/>
<polygon fill="#000000" stroke="#000000" points="14697.9592,-304.9833 14707.2767,-299.9401 14696.8479,-298.0721 14697.9592,-304.9833"/>
</g>
<!-- 48 -->
<g id="node40" class="node">
<title>48</title>
<polygon fill="none" stroke="#ffff00" stroke-width="2" points="15923.5,-314 15862.5,-314 15862.5,-276 15923.5,-276 15923.5,-314"/>
<text text-anchor="middle" x="15893" y="-298.8" font-family="Times,serif" font-size="14.00" fill="#000000">Project</text>
<text text-anchor="middle" x="15893" y="-283.8" font-family="Times,serif" font-size="14.00" fill="#000000">[2, 3, 4]</text>
</g>
<!-- 2&#45;&gt;48 -->
<g id="edge39" class="edge">
<title>2&#45;&gt;48</title>
<path fill="none" stroke="#000000" d="M14311.2521,-366.7636C14500.8874,-358.1599 15622.7508,-307.2612 15852.0713,-296.8569"/>
<polygon fill="#000000" stroke="#000000" points="15852.4783,-300.3422 15862.3094,-296.3924 15852.161,-293.3493 15852.4783,-300.3422"/>
</g>
<!-- 53 -->
<g id="node44" class="node">
<title>53</title>
<polygon fill="none" stroke="#ffff00" stroke-width="2" points="17408.5,-314 17347.5,-314 17347.5,-276 17408.5,-276 17408.5,-314"/>
<text text-anchor="middle" x="17378" y="-298.8" font-family="Times,serif" font-size="14.00" fill="#000000">Project</text>
<text text-anchor="middle" x="17378" y="-283.8" font-family="Times,serif" font-size="14.00" fill="#000000">[2, 3, 6]</text>
</g>
<!-- 2&#45;&gt;53 -->
<g id="edge43" class="edge">
<title>2&#45;&gt;53</title>
<path fill="none" stroke="#000000" d="M14311.2184,-367.3578C14594.1066,-360.6833 16993.7416,-304.0662 17337.1505,-295.9638"/>
<polygon fill="#000000" stroke="#000000" points="17337.4666,-299.4574 17347.3813,-295.7224 17337.3014,-292.4594 17337.4666,-299.4574"/>
</g>
<!-- 58 -->
<g id="node48" class="node">
<title>58</title>
<polygon fill="none" stroke="#ffff00" stroke-width="2" points="19059.5,-314 18998.5,-314 18998.5,-276 19059.5,-276 19059.5,-314"/>
<text text-anchor="middle" x="19029" y="-298.8" font-family="Times,serif" font-size="14.00" fill="#000000">Project</text>
<text text-anchor="middle" x="19029" y="-283.8" font-family="Times,serif" font-size="14.00" fill="#000000">[2, 3, 6]</text>
</g>
<!-- 2&#45;&gt;58 -->
<g id="edge47" class="edge">
<title>2&#45;&gt;58</title>
<path fill="none" stroke="#000000" d="M14311.2723,-367.5804C14674.3689,-361.9943 18548.0983,-302.3985 18988.3367,-295.6256"/>
<polygon fill="#000000" stroke="#000000" points="18988.4355,-299.1246 18998.3804,-295.4711 18988.3277,-292.1254 18988.4355,-299.1246"/>
</g>
<!-- 63 -->
<g id="node52" class="node">
<title>63</title>
<polygon fill="none" stroke="#ffff00" stroke-width="2" points="20792.5,-314 20731.5,-314 20731.5,-276 20792.5,-276 20792.5,-314"/>
<text text-anchor="middle" x="20762" y="-298.8" font-family="Times,serif" font-size="14.00" fill="#000000">Project</text>
<text text-anchor="middle" x="20762" y="-283.8" font-family="Times,serif" font-size="14.00" fill="#000000">[2, 3, 6]</text>
</g>
<!-- 2&#45;&gt;63 -->
<g id="edge51" class="edge">
<title>2&#45;&gt;63</title>
<path fill="none" stroke="#000000" d="M14311.1274,-367.6943C14743.0803,-362.8267 20195.6375,-301.3823 20721.3316,-295.4583"/>
<polygon fill="#000000" stroke="#000000" points="20721.5233,-298.9564 20731.4832,-295.3439 20721.4444,-291.9569 20721.5233,-298.9564"/>
</g>
<!-- 68 -->
<g id="node56" class="node">
<title>68</title>
<polygon fill="none" stroke="#ffff00" stroke-width="2" points="22567.5,-314 22506.5,-314 22506.5,-276 22567.5,-276 22567.5,-314"/>
<text text-anchor="middle" x="22537" y="-298.8" font-family="Times,serif" font-size="14.00" fill="#000000">Project</text>
<text text-anchor="middle" x="22537" y="-283.8" font-family="Times,serif" font-size="14.00" fill="#000000">[2, 3, 6]</text>
</g>
<!-- 2&#45;&gt;68 -->
<g id="edge55" class="edge">
<title>2&#45;&gt;68</title>
<path fill="none" stroke="#000000" d="M14311.1802,-367.8028C14648.0988,-365.3526 18050.9662,-340.4425 20801,-314 21478.7535,-307.4832 22305.3255,-297.7547 22496.3072,-295.4853"/>
<polygon fill="#000000" stroke="#000000" points="22496.4945,-298.9834 22506.4522,-295.3647 22496.4112,-291.9839 22496.4945,-298.9834"/>
</g>
<!-- 73 -->
<g id="node60" class="node">
<title>73</title>
<polygon fill="none" stroke="#ffff00" stroke-width="2" points="24362.5,-314 24301.5,-314 24301.5,-276 24362.5,-276 24362.5,-314"/>
<text text-anchor="middle" x="24332" y="-298.8" font-family="Times,serif" font-size="14.00" fill="#000000">Project</text>
<text text-anchor="middle" x="24332" y="-283.8" font-family="Times,serif" font-size="14.00" fill="#000000">[2, 3, 6]</text>
</g>
<!-- 2&#45;&gt;73 -->
<g id="edge59" class="edge">
<title>2&#45;&gt;73</title>
<path fill="none" stroke="#000000" d="M14311.0935,-367.869C14693.7969,-366.0088 19055.3766,-344.5102 22576,-314 23261.9407,-308.0555 24098.5699,-297.8836 24291.1542,-295.507"/>
<polygon fill="#000000" stroke="#000000" points="24291.425,-299.004 24301.381,-295.3806 24291.3384,-292.0045 24291.425,-299.004"/>
</g>
<!-- 78 -->
<g id="node64" class="node">
<title>78</title>
<polygon fill="none" stroke="#ffff00" stroke-width="2" points="26168.5,-314 26107.5,-314 26107.5,-276 26168.5,-276 26168.5,-314"/>
<text text-anchor="middle" x="26138" y="-298.8" font-family="Times,serif" font-size="14.00" fill="#000000">Project</text>
<text text-anchor="middle" x="26138" y="-283.8" font-family="Times,serif" font-size="14.00" fill="#000000">[2, 3, 4]</text>
</g>
<!-- 2&#45;&gt;78 -->
<g id="edge63" class="edge">
<title>2&#45;&gt;78</title>
<path fill="none" stroke="#000000" d="M14311.1653,-367.9118C14736.3869,-366.5194 20069.6553,-348.6387 24371,-314 25061.617,-308.4385 25904.0265,-297.9657 26097.2149,-295.5199"/>
<polygon fill="#000000" stroke="#000000" points="26097.5155,-299.0165 26107.4703,-295.3899 26097.4267,-292.0171 26097.5155,-299.0165"/>
</g>
<!-- 4 -->
<g id="node5" class="node">
<title>4</title>
<polygon fill="none" stroke="#ffff00" stroke-width="2" points="1375.5,-240 1276.5,-240 1276.5,-187 1375.5,-187 1375.5,-240"/>
<text text-anchor="middle" x="1326" y="-224.8" font-family="Times,serif" font-size="14.00" fill="#000000">RightBindJoin </text>
<text text-anchor="middle" x="1326" y="-209.8" font-family="Times,serif" font-size="14.00" fill="#000000">[0, 1]</text>
<text text-anchor="middle" x="1326" y="-194.8" font-family="Times,serif" font-size="14.00" fill="#000000">22</text>
</g>
<!-- 3&#45;&gt;4 -->
<g id="edge4" class="edge">
<title>3&#45;&gt;4</title>
<path fill="none" stroke="#000000" d="M3032.4836,-293.5682C2828.7242,-284.0078 1665.0994,-229.4105 1386.1122,-216.3205"/>
<polygon fill="#000000" stroke="#000000" points="1385.9458,-212.8089 1375.7928,-215.8363 1385.6177,-219.8012 1385.9458,-212.8089"/>
</g>
<!-- 5 -->
<g id="node6" class="node">
<title>5</title>
<polygon fill="none" stroke="#ffff00" stroke-width="2" points="836,-128.5 0,-128.5 0,-45.5 836,-45.5 836,-128.5"/>
<text text-anchor="middle" x="418" y="-113.3" font-family="Times,serif" font-size="14.00" fill="#000000">SQLQuery</text>
<text text-anchor="middle" x="418" y="-98.3" font-family="Times,serif" font-size="14.00" fill="#000000">SELECT tab_930.nr, tab_930.producer, tab_932.label, tab_932.propertyNum2 </text>
<text text-anchor="middle" x="418" y="-83.3" font-family="Times,serif" font-size="14.00" fill="#000000">FROM Product AS tab_932, PRODUCTTYPEPRODUCT AS tab_931, PRODUCT AS tab_930 &#160;</text>
<text text-anchor="middle" x="418" y="-68.3" font-family="Times,serif" font-size="14.00" fill="#000000">WHERE tab_931.producttype = 1059 AND tab_931.product = tab_930.nr AND tab_930.nr = tab_932.nr AND tab_930.producer = tab_932.producer</text>
<text text-anchor="middle" x="418" y="-53.3" font-family="Times,serif" font-size="14.00" fill="#000000">183</text>
</g>
<!-- 4&#45;&gt;5 -->
<g id="edge5" class="edge">
<title>4&#45;&gt;5</title>
<path fill="none" stroke="#000000" d="M1276.448,-207.3859C1189.1829,-196.5459 1002.4115,-173.0213 845,-151 797.9461,-144.4173 748.0168,-137.171 699.5204,-129.9931"/>
<polygon fill="#000000" stroke="#000000" points="699.924,-126.5148 689.5189,-128.5108 698.8977,-133.4392 699.924,-126.5148"/>
</g>
<!-- 6 -->
<g id="node7" class="node">
<title>6</title>
<polygon fill="none" stroke="#ffff00" stroke-width="2" points="1798,-151 854,-151 854,-23 1798,-23 1798,-151"/>
<text text-anchor="middle" x="1326" y="-135.8" font-family="Times,serif" font-size="14.00" fill="#000000">PhyMongoDBEval</text>
<text text-anchor="middle" x="1326" y="-120.8" font-family="Times,serif" font-size="14.00" fill="#000000">countrytype</text>
<text text-anchor="middle" x="1326" y="-105.8" font-family="Times,serif" font-size="14.00" fill="#000000">[{&quot;$match&quot;:{&quot;countrytype&quot;:122}},</text>
<text text-anchor="middle" x="1326" y="-90.8" font-family="Times,serif" font-size="14.00" fill="#000000">{$lookup: { from: &quot;productproducercountry&quot;, let: { &quot;country&quot;: &quot;$country&quot;}, pipeline: [ { $match: {$expr: {$eq: [&quot;$$country&quot;, &quot;$country&quot;] } } } ], as: &quot;mongojoin16&quot;}},</text>
<text text-anchor="middle" x="1326" y="-75.8" font-family="Times,serif" font-size="14.00" fill="#000000">{$unwind: &quot;$mongojoin16&quot;},</text>
<text text-anchor="middle" x="1326" y="-60.8" font-family="Times,serif" font-size="14.00" fill="#000000">{ &quot;$match&quot;: { &quot;mongojoin16.nr&quot;: %s, &quot;mongojoin16.producer&quot;: %s } }]</text>
<text text-anchor="middle" x="1326" y="-45.8" font-family="Times,serif" font-size="14.00" fill="#000000">[mongojoin16.nr, mongojoin16.producer, mongojoin16.country]</text>
<text text-anchor="middle" x="1326" y="-30.8" font-family="Times,serif" font-size="14.00" fill="#000000">22</text>
</g>
<!-- 4&#45;&gt;6 -->
<g id="edge6" class="edge">
<title>4&#45;&gt;6</title>
<path fill="none" stroke="#000000" d="M1326,-186.9815C1326,-179.2136 1326,-170.3145 1326,-161.0988"/>
<polygon fill="#000000" stroke="#000000" points="1329.5001,-161.0129 1326,-151.0129 1322.5001,-161.0129 1329.5001,-161.0129"/>
</g>
<!-- 9 -->
<g id="node9" class="node">
<title>9</title>
<polygon fill="none" stroke="#ffff00" stroke-width="2" points="3191.5,-240 3092.5,-240 3092.5,-187 3191.5,-187 3191.5,-240"/>
<text text-anchor="middle" x="3142" y="-224.8" font-family="Times,serif" font-size="14.00" fill="#000000">RightBindJoin </text>
<text text-anchor="middle" x="3142" y="-209.8" font-family="Times,serif" font-size="14.00" fill="#000000">[0, 1]</text>
<text text-anchor="middle" x="3142" y="-194.8" font-family="Times,serif" font-size="14.00" fill="#000000">31</text>
</g>
<!-- 8&#45;&gt;9 -->
<g id="edge8" class="edge">
<title>8&#45;&gt;9</title>
<path fill="none" stroke="#000000" d="M3979.3624,-292.1233C3853.0266,-280.2611 3371.1965,-235.0202 3201.538,-219.0903"/>
<polygon fill="#000000" stroke="#000000" points="3201.8203,-215.6015 3191.5369,-218.1512 3201.1659,-222.5708 3201.8203,-215.6015"/>
</g>
<!-- 10 -->
<g id="node10" class="node">
<title>10</title>
<polygon fill="none" stroke="#ffff00" stroke-width="2" points="2652,-128.5 1816,-128.5 1816,-45.5 2652,-45.5 2652,-128.5"/>
<text text-anchor="middle" x="2234" y="-113.3" font-family="Times,serif" font-size="14.00" fill="#000000">SQLQuery</text>
<text text-anchor="middle" x="2234" y="-98.3" font-family="Times,serif" font-size="14.00" fill="#000000">SELECT tab_927.nr, tab_927.producer, tab_929.label, tab_929.propertyNum2 </text>
<text text-anchor="middle" x="2234" y="-83.3" font-family="Times,serif" font-size="14.00" fill="#000000">FROM PRODUCTTYPEPRODUCT AS tab_928, PRODUCT AS tab_927, Product AS tab_929 &#160;</text>
<text text-anchor="middle" x="2234" y="-68.3" font-family="Times,serif" font-size="14.00" fill="#000000">WHERE tab_928.producttype = 1058 AND tab_928.product = tab_927.nr AND tab_927.producer = tab_929.producer AND tab_927.nr = tab_929.nr</text>
<text text-anchor="middle" x="2234" y="-53.3" font-family="Times,serif" font-size="14.00" fill="#000000">182</text>
</g>
<!-- 9&#45;&gt;10 -->
<g id="edge9" class="edge">
<title>9&#45;&gt;10</title>
<path fill="none" stroke="#000000" d="M3092.448,-207.3859C3005.1829,-196.5459 2818.4115,-173.0213 2661,-151 2613.9461,-144.4173 2564.0168,-137.171 2515.5204,-129.9931"/>
<polygon fill="#000000" stroke="#000000" points="2515.924,-126.5148 2505.5189,-128.5108 2514.8977,-133.4392 2515.924,-126.5148"/>
</g>
<!-- 11 -->
<g id="node11" class="node">
<title>11</title>
<polygon fill="none" stroke="#ffff00" stroke-width="2" points="3614,-151 2670,-151 2670,-23 3614,-23 3614,-151"/>
<text text-anchor="middle" x="3142" y="-135.8" font-family="Times,serif" font-size="14.00" fill="#000000">PhyMongoDBEval</text>
<text text-anchor="middle" x="3142" y="-120.8" font-family="Times,serif" font-size="14.00" fill="#000000">countrytype</text>
<text text-anchor="middle" x="3142" y="-105.8" font-family="Times,serif" font-size="14.00" fill="#000000">[{&quot;$match&quot;:{&quot;countrytype&quot;:111}},</text>
<text text-anchor="middle" x="3142" y="-90.8" font-family="Times,serif" font-size="14.00" fill="#000000">{$lookup: { from: &quot;productproducercountry&quot;, let: { &quot;country&quot;: &quot;$country&quot;}, pipeline: [ { $match: {$expr: {$eq: [&quot;$$country&quot;, &quot;$country&quot;] } } } ], as: &quot;mongojoin17&quot;}},</text>
<text text-anchor="middle" x="3142" y="-75.8" font-family="Times,serif" font-size="14.00" fill="#000000">{$unwind: &quot;$mongojoin17&quot;},</text>
<text text-anchor="middle" x="3142" y="-60.8" font-family="Times,serif" font-size="14.00" fill="#000000">{ &quot;$match&quot;: { &quot;mongojoin17.nr&quot;: %s, &quot;mongojoin17.producer&quot;: %s } }]</text>
<text text-anchor="middle" x="3142" y="-45.8" font-family="Times,serif" font-size="14.00" fill="#000000">[mongojoin17.nr, mongojoin17.producer, mongojoin17.country]</text>
<text text-anchor="middle" x="3142" y="-30.8" font-family="Times,serif" font-size="14.00" fill="#000000">31</text>
</g>
<!-- 9&#45;&gt;11 -->
<g id="edge10" class="edge">
<title>9&#45;&gt;11</title>
<path fill="none" stroke="#000000" d="M3142,-186.9815C3142,-179.2136 3142,-170.3145 3142,-161.0988"/>
<polygon fill="#000000" stroke="#000000" points="3145.5001,-161.0129 3142,-151.0129 3138.5001,-161.0129 3145.5001,-161.0129"/>
</g>
<!-- 14 -->
<g id="node13" class="node">
<title>14</title>
<polygon fill="none" stroke="#ffff00" stroke-width="2" points="5007.5,-240 4908.5,-240 4908.5,-187 5007.5,-187 5007.5,-240"/>
<text text-anchor="middle" x="4958" y="-224.8" font-family="Times,serif" font-size="14.00" fill="#000000">RightBindJoin </text>
<text text-anchor="middle" x="4958" y="-209.8" font-family="Times,serif" font-size="14.00" fill="#000000">[1, 0]</text>
<text text-anchor="middle" x="4958" y="-194.8" font-family="Times,serif" font-size="14.00" fill="#000000">31</text>
</g>
<!-- 13&#45;&gt;14 -->
<g id="edge12" class="edge">
<title>13&#45;&gt;14</title>
<path fill="none" stroke="#000000" d="M5795.3624,-292.1233C5669.0266,-280.2611 5187.1965,-235.0202 5017.538,-219.0903"/>
<polygon fill="#000000" stroke="#000000" points="5017.8203,-215.6015 5007.5369,-218.1512 5017.1659,-222.5708 5017.8203,-215.6015"/>
</g>
<!-- 15 -->
<g id="node14" class="node">
<title>15</title>
<polygon fill="none" stroke="#ffff00" stroke-width="2" points="4468,-128.5 3632,-128.5 3632,-45.5 4468,-45.5 4468,-128.5"/>
<text text-anchor="middle" x="4050" y="-113.3" font-family="Times,serif" font-size="14.00" fill="#000000">SQLQuery</text>
<text text-anchor="middle" x="4050" y="-98.3" font-family="Times,serif" font-size="14.00" fill="#000000">SELECT tab_933.nr, tab_933.producer, tab_935.label, tab_935.propertyNum1 </text>
<text text-anchor="middle" x="4050" y="-83.3" font-family="Times,serif" font-size="14.00" fill="#000000">FROM PRODUCT AS tab_933, Product AS tab_935, PRODUCTTYPEPRODUCT AS tab_934 &#160;</text>
<text text-anchor="middle" x="4050" y="-68.3" font-family="Times,serif" font-size="14.00" fill="#000000">WHERE tab_934.producttype = 1058 AND tab_934.product = tab_933.nr AND tab_933.producer = tab_935.producer AND tab_933.nr = tab_935.nr</text>
<text text-anchor="middle" x="4050" y="-53.3" font-family="Times,serif" font-size="14.00" fill="#000000">182</text>
</g>
<!-- 14&#45;&gt;15 -->
<g id="edge13" class="edge">
<title>14&#45;&gt;15</title>
<path fill="none" stroke="#000000" d="M4908.448,-207.3859C4821.1829,-196.5459 4634.4115,-173.0213 4477,-151 4429.9461,-144.4173 4380.0168,-137.171 4331.5204,-129.9931"/>
<polygon fill="#000000" stroke="#000000" points="4331.924,-126.5148 4321.5189,-128.5108 4330.8977,-133.4392 4331.924,-126.5148"/>
</g>
<!-- 16 -->
<g id="node15" class="node">
<title>16</title>
<polygon fill="none" stroke="#ffff00" stroke-width="2" points="5430,-151 4486,-151 4486,-23 5430,-23 5430,-151"/>
<text text-anchor="middle" x="4958" y="-135.8" font-family="Times,serif" font-size="14.00" fill="#000000">PhyMongoDBEval</text>
<text text-anchor="middle" x="4958" y="-120.8" font-family="Times,serif" font-size="14.00" fill="#000000">countrytype</text>
<text text-anchor="middle" x="4958" y="-105.8" font-family="Times,serif" font-size="14.00" fill="#000000">[{&quot;$match&quot;:{&quot;countrytype&quot;:111}},</text>
<text text-anchor="middle" x="4958" y="-90.8" font-family="Times,serif" font-size="14.00" fill="#000000">{$lookup: { from: &quot;productproducercountry&quot;, let: { &quot;country&quot;: &quot;$country&quot;}, pipeline: [ { $match: {$expr: {$eq: [&quot;$$country&quot;, &quot;$country&quot;] } } } ], as: &quot;mongojoin18&quot;}},</text>
<text text-anchor="middle" x="4958" y="-75.8" font-family="Times,serif" font-size="14.00" fill="#000000">{$unwind: &quot;$mongojoin18&quot;},</text>
<text text-anchor="middle" x="4958" y="-60.8" font-family="Times,serif" font-size="14.00" fill="#000000">{ &quot;$match&quot;: { &quot;mongojoin18.producer&quot;: %s, &quot;mongojoin18.nr&quot;: %s } }]</text>
<text text-anchor="middle" x="4958" y="-45.8" font-family="Times,serif" font-size="14.00" fill="#000000">[country, mongojoin18.nr, mongojoin18.producer]</text>
<text text-anchor="middle" x="4958" y="-30.8" font-family="Times,serif" font-size="14.00" fill="#000000">31</text>
</g>
<!-- 14&#45;&gt;16 -->
<g id="edge14" class="edge">
<title>14&#45;&gt;16</title>
<path fill="none" stroke="#000000" d="M4958,-186.9815C4958,-179.2136 4958,-170.3145 4958,-161.0988"/>
<polygon fill="#000000" stroke="#000000" points="4961.5001,-161.0129 4958,-151.0129 4954.5001,-161.0129 4961.5001,-161.0129"/>
</g>
<!-- 19 -->
<g id="node17" class="node">
<title>19</title>
<polygon fill="none" stroke="#ffff00" stroke-width="2" points="6823.5,-240 6724.5,-240 6724.5,-187 6823.5,-187 6823.5,-240"/>
<text text-anchor="middle" x="6774" y="-224.8" font-family="Times,serif" font-size="14.00" fill="#000000">RightBindJoin </text>
<text text-anchor="middle" x="6774" y="-209.8" font-family="Times,serif" font-size="14.00" fill="#000000">[1, 0]</text>
<text text-anchor="middle" x="6774" y="-194.8" font-family="Times,serif" font-size="14.00" fill="#000000">27</text>
</g>
<!-- 18&#45;&gt;19 -->
<g id="edge16" class="edge">
<title>18&#45;&gt;19</title>
<path fill="none" stroke="#000000" d="M7611.3624,-292.1233C7485.0266,-280.2611 7003.1965,-235.0202 6833.538,-219.0903"/>
<polygon fill="#000000" stroke="#000000" points="6833.8203,-215.6015 6823.5369,-218.1512 6833.1659,-222.5708 6833.8203,-215.6015"/>
</g>
<!-- 20 -->
<g id="node18" class="node">
<title>20</title>
<polygon fill="none" stroke="#ffff00" stroke-width="2" points="6284,-128.5 5448,-128.5 5448,-45.5 6284,-45.5 6284,-128.5"/>
<text text-anchor="middle" x="5866" y="-113.3" font-family="Times,serif" font-size="14.00" fill="#000000">SQLQuery</text>
<text text-anchor="middle" x="5866" y="-98.3" font-family="Times,serif" font-size="14.00" fill="#000000">SELECT tab_936.nr, tab_936.producer, tab_938.label, tab_938.propertyNum1 </text>
<text text-anchor="middle" x="5866" y="-83.3" font-family="Times,serif" font-size="14.00" fill="#000000">FROM Product AS tab_938, PRODUCT AS tab_936, PRODUCTTYPEPRODUCT AS tab_937 &#160;</text>
<text text-anchor="middle" x="5866" y="-68.3" font-family="Times,serif" font-size="14.00" fill="#000000">WHERE tab_937.producttype = 1059 AND tab_937.product = tab_936.nr AND tab_936.producer = tab_938.producer AND tab_936.nr = tab_938.nr</text>
<text text-anchor="middle" x="5866" y="-53.3" font-family="Times,serif" font-size="14.00" fill="#000000">183</text>
</g>
<!-- 19&#45;&gt;20 -->
<g id="edge17" class="edge">
<title>19&#45;&gt;20</title>
<path fill="none" stroke="#000000" d="M6724.448,-207.3859C6637.1829,-196.5459 6450.4115,-173.0213 6293,-151 6245.9461,-144.4173 6196.0168,-137.171 6147.5204,-129.9931"/>
<polygon fill="#000000" stroke="#000000" points="6147.924,-126.5148 6137.5189,-128.5108 6146.8977,-133.4392 6147.924,-126.5148"/>
</g>
<!-- 21 -->
<g id="node19" class="node">
<title>21</title>
<polygon fill="none" stroke="#ffff00" stroke-width="2" points="7246,-151 6302,-151 6302,-23 7246,-23 7246,-151"/>
<text text-anchor="middle" x="6774" y="-135.8" font-family="Times,serif" font-size="14.00" fill="#000000">PhyMongoDBEval</text>
<text text-anchor="middle" x="6774" y="-120.8" font-family="Times,serif" font-size="14.00" fill="#000000">countrytype</text>
<text text-anchor="middle" x="6774" y="-105.8" font-family="Times,serif" font-size="14.00" fill="#000000">[{&quot;$match&quot;:{&quot;countrytype&quot;:111}},</text>
<text text-anchor="middle" x="6774" y="-90.8" font-family="Times,serif" font-size="14.00" fill="#000000">{$lookup: { from: &quot;productproducercountry&quot;, let: { &quot;country&quot;: &quot;$country&quot;}, pipeline: [ { $match: {$expr: {$eq: [&quot;$$country&quot;, &quot;$country&quot;] } } } ], as: &quot;mongojoin19&quot;}},</text>
<text text-anchor="middle" x="6774" y="-75.8" font-family="Times,serif" font-size="14.00" fill="#000000">{$unwind: &quot;$mongojoin19&quot;},</text>
<text text-anchor="middle" x="6774" y="-60.8" font-family="Times,serif" font-size="14.00" fill="#000000">{ &quot;$match&quot;: { &quot;mongojoin19.producer&quot;: %s, &quot;mongojoin19.nr&quot;: %s } }]</text>
<text text-anchor="middle" x="6774" y="-45.8" font-family="Times,serif" font-size="14.00" fill="#000000">[country, mongojoin19.nr, mongojoin19.producer]</text>
<text text-anchor="middle" x="6774" y="-30.8" font-family="Times,serif" font-size="14.00" fill="#000000">27</text>
</g>
<!-- 19&#45;&gt;21 -->
<g id="edge18" class="edge">
<title>19&#45;&gt;21</title>
<path fill="none" stroke="#000000" d="M6774,-186.9815C6774,-179.2136 6774,-170.3145 6774,-161.0988"/>
<polygon fill="#000000" stroke="#000000" points="6777.5001,-161.0129 6774,-151.0129 6770.5001,-161.0129 6777.5001,-161.0129"/>
</g>
<!-- 24 -->
<g id="node21" class="node">
<title>24</title>
<polygon fill="none" stroke="#ffff00" stroke-width="2" points="8639.5,-240 8540.5,-240 8540.5,-187 8639.5,-187 8639.5,-240"/>
<text text-anchor="middle" x="8590" y="-224.8" font-family="Times,serif" font-size="14.00" fill="#000000">RightBindJoin </text>
<text text-anchor="middle" x="8590" y="-209.8" font-family="Times,serif" font-size="14.00" fill="#000000">[0, 1]</text>
<text text-anchor="middle" x="8590" y="-194.8" font-family="Times,serif" font-size="14.00" fill="#000000">27</text>
</g>
<!-- 23&#45;&gt;24 -->
<g id="edge20" class="edge">
<title>23&#45;&gt;24</title>
<path fill="none" stroke="#000000" d="M9427.3624,-292.1233C9301.0266,-280.2611 8819.1965,-235.0202 8649.538,-219.0903"/>
<polygon fill="#000000" stroke="#000000" points="8649.8203,-215.6015 8639.5369,-218.1512 8649.1659,-222.5708 8649.8203,-215.6015"/>
</g>
<!-- 25 -->
<g id="node22" class="node">
<title>25</title>
<polygon fill="none" stroke="#ffff00" stroke-width="2" points="8100,-128.5 7264,-128.5 7264,-45.5 8100,-45.5 8100,-128.5"/>
<text text-anchor="middle" x="7682" y="-113.3" font-family="Times,serif" font-size="14.00" fill="#000000">SQLQuery</text>
<text text-anchor="middle" x="7682" y="-98.3" font-family="Times,serif" font-size="14.00" fill="#000000">SELECT tab_939.nr, tab_939.producer, tab_941.label, tab_941.propertyNum2 </text>
<text text-anchor="middle" x="7682" y="-83.3" font-family="Times,serif" font-size="14.00" fill="#000000">FROM PRODUCTTYPEPRODUCT AS tab_940, PRODUCT AS tab_939, Product AS tab_941 &#160;</text>
<text text-anchor="middle" x="7682" y="-68.3" font-family="Times,serif" font-size="14.00" fill="#000000">WHERE tab_940.producttype = 1059 AND tab_940.product = tab_939.nr AND tab_939.nr = tab_941.nr AND tab_939.producer = tab_941.producer</text>
<text text-anchor="middle" x="7682" y="-53.3" font-family="Times,serif" font-size="14.00" fill="#000000">183</text>
</g>
<!-- 24&#45;&gt;25 -->
<g id="edge21" class="edge">
<title>24&#45;&gt;25</title>
<path fill="none" stroke="#000000" d="M8540.448,-207.3859C8453.1829,-196.5459 8266.4115,-173.0213 8109,-151 8061.9461,-144.4173 8012.0168,-137.171 7963.5204,-129.9931"/>
<polygon fill="#000000" stroke="#000000" points="7963.924,-126.5148 7953.5189,-128.5108 7962.8977,-133.4392 7963.924,-126.5148"/>
</g>
<!-- 26 -->
<g id="node23" class="node">
<title>26</title>
<polygon fill="none" stroke="#ffff00" stroke-width="2" points="9062,-151 8118,-151 8118,-23 9062,-23 9062,-151"/>
<text text-anchor="middle" x="8590" y="-135.8" font-family="Times,serif" font-size="14.00" fill="#000000">PhyMongoDBEval</text>
<text text-anchor="middle" x="8590" y="-120.8" font-family="Times,serif" font-size="14.00" fill="#000000">countrytype</text>
<text text-anchor="middle" x="8590" y="-105.8" font-family="Times,serif" font-size="14.00" fill="#000000">[{&quot;$match&quot;:{&quot;countrytype&quot;:111}},</text>
<text text-anchor="middle" x="8590" y="-90.8" font-family="Times,serif" font-size="14.00" fill="#000000">{$lookup: { from: &quot;productproducercountry&quot;, let: { &quot;country&quot;: &quot;$country&quot;}, pipeline: [ { $match: {$expr: {$eq: [&quot;$$country&quot;, &quot;$country&quot;] } } } ], as: &quot;mongojoin20&quot;}},</text>
<text text-anchor="middle" x="8590" y="-75.8" font-family="Times,serif" font-size="14.00" fill="#000000">{$unwind: &quot;$mongojoin20&quot;},</text>
<text text-anchor="middle" x="8590" y="-60.8" font-family="Times,serif" font-size="14.00" fill="#000000">{ &quot;$match&quot;: { &quot;mongojoin20.nr&quot;: %s, &quot;mongojoin20.producer&quot;: %s } }]</text>
<text text-anchor="middle" x="8590" y="-45.8" font-family="Times,serif" font-size="14.00" fill="#000000">[mongojoin20.nr, mongojoin20.producer, mongojoin20.country]</text>
<text text-anchor="middle" x="8590" y="-30.8" font-family="Times,serif" font-size="14.00" fill="#000000">27</text>
</g>
<!-- 24&#45;&gt;26 -->
<g id="edge22" class="edge">
<title>24&#45;&gt;26</title>
<path fill="none" stroke="#000000" d="M8590,-186.9815C8590,-179.2136 8590,-170.3145 8590,-161.0988"/>
<polygon fill="#000000" stroke="#000000" points="8593.5001,-161.0129 8590,-151.0129 8586.5001,-161.0129 8593.5001,-161.0129"/>
</g>
<!-- 29 -->
<g id="node25" class="node">
<title>29</title>
<polygon fill="none" stroke="#ffff00" stroke-width="2" points="10455.5,-240 10356.5,-240 10356.5,-187 10455.5,-187 10455.5,-240"/>
<text text-anchor="middle" x="10406" y="-224.8" font-family="Times,serif" font-size="14.00" fill="#000000">RightBindJoin </text>
<text text-anchor="middle" x="10406" y="-209.8" font-family="Times,serif" font-size="14.00" fill="#000000">[1, 0]</text>
<text text-anchor="middle" x="10406" y="-194.8" font-family="Times,serif" font-size="14.00" fill="#000000">22</text>
</g>
<!-- 28&#45;&gt;29 -->
<g id="edge24" class="edge">
<title>28&#45;&gt;29</title>
<path fill="none" stroke="#000000" d="M11243.3624,-292.1233C11117.0266,-280.2611 10635.1965,-235.0202 10465.538,-219.0903"/>
<polygon fill="#000000" stroke="#000000" points="10465.8203,-215.6015 10455.5369,-218.1512 10465.1659,-222.5708 10465.8203,-215.6015"/>
</g>
<!-- 30 -->
<g id="node26" class="node">
<title>30</title>
<polygon fill="none" stroke="#ffff00" stroke-width="2" points="9916,-128.5 9080,-128.5 9080,-45.5 9916,-45.5 9916,-128.5"/>
<text text-anchor="middle" x="9498" y="-113.3" font-family="Times,serif" font-size="14.00" fill="#000000">SQLQuery</text>
<text text-anchor="middle" x="9498" y="-98.3" font-family="Times,serif" font-size="14.00" fill="#000000">SELECT tab_942.nr, tab_942.producer, tab_944.label, tab_944.propertyNum2 </text>
<text text-anchor="middle" x="9498" y="-83.3" font-family="Times,serif" font-size="14.00" fill="#000000">FROM PRODUCT AS tab_942, Product AS tab_944, PRODUCTTYPEPRODUCT AS tab_943 &#160;</text>
<text text-anchor="middle" x="9498" y="-68.3" font-family="Times,serif" font-size="14.00" fill="#000000">WHERE tab_943.producttype = 1059 AND tab_943.product = tab_942.nr AND tab_942.producer = tab_944.producer AND tab_942.nr = tab_944.nr</text>
<text text-anchor="middle" x="9498" y="-53.3" font-family="Times,serif" font-size="14.00" fill="#000000">183</text>
</g>
<!-- 29&#45;&gt;30 -->
<g id="edge25" class="edge">
<title>29&#45;&gt;30</title>
<path fill="none" stroke="#000000" d="M10356.448,-207.3859C10269.1829,-196.5459 10082.4115,-173.0213 9925,-151 9877.9461,-144.4173 9828.0168,-137.171 9779.5204,-129.9931"/>
<polygon fill="#000000" stroke="#000000" points="9779.924,-126.5148 9769.5189,-128.5108 9778.8977,-133.4392 9779.924,-126.5148"/>
</g>
<!-- 31 -->
<g id="node27" class="node">
<title>31</title>
<polygon fill="none" stroke="#ffff00" stroke-width="2" points="10878,-151 9934,-151 9934,-23 10878,-23 10878,-151"/>
<text text-anchor="middle" x="10406" y="-135.8" font-family="Times,serif" font-size="14.00" fill="#000000">PhyMongoDBEval</text>
<text text-anchor="middle" x="10406" y="-120.8" font-family="Times,serif" font-size="14.00" fill="#000000">countrytype</text>
<text text-anchor="middle" x="10406" y="-105.8" font-family="Times,serif" font-size="14.00" fill="#000000">[{&quot;$match&quot;:{&quot;countrytype&quot;:121}},</text>
<text text-anchor="middle" x="10406" y="-90.8" font-family="Times,serif" font-size="14.00" fill="#000000">{$lookup: { from: &quot;productproducercountry&quot;, let: { &quot;country&quot;: &quot;$country&quot;}, pipeline: [ { $match: {$expr: {$eq: [&quot;$$country&quot;, &quot;$country&quot;] } } } ], as: &quot;mongojoin21&quot;}},</text>
<text text-anchor="middle" x="10406" y="-75.8" font-family="Times,serif" font-size="14.00" fill="#000000">{$unwind: &quot;$mongojoin21&quot;},</text>
<text text-anchor="middle" x="10406" y="-60.8" font-family="Times,serif" font-size="14.00" fill="#000000">{ &quot;$match&quot;: { &quot;mongojoin21.producer&quot;: %s, &quot;mongojoin21.nr&quot;: %s } }]</text>
<text text-anchor="middle" x="10406" y="-45.8" font-family="Times,serif" font-size="14.00" fill="#000000">[mongojoin21.nr, mongojoin21.producer, mongojoin21.country]</text>
<text text-anchor="middle" x="10406" y="-30.8" font-family="Times,serif" font-size="14.00" fill="#000000">22</text>
</g>
<!-- 29&#45;&gt;31 -->
<g id="edge26" class="edge">
<title>29&#45;&gt;31</title>
<path fill="none" stroke="#000000" d="M10406,-186.9815C10406,-179.2136 10406,-170.3145 10406,-161.0988"/>
<polygon fill="#000000" stroke="#000000" points="10409.5001,-161.0129 10406,-151.0129 10402.5001,-161.0129 10409.5001,-161.0129"/>
</g>
<!-- 34 -->
<g id="node29" class="node">
<title>34</title>
<polygon fill="none" stroke="#ffff00" stroke-width="2" points="12271.5,-240 12172.5,-240 12172.5,-187 12271.5,-187 12271.5,-240"/>
<text text-anchor="middle" x="12222" y="-224.8" font-family="Times,serif" font-size="14.00" fill="#000000">RightBindJoin </text>
<text text-anchor="middle" x="12222" y="-209.8" font-family="Times,serif" font-size="14.00" fill="#000000">[0, 1]</text>
<text text-anchor="middle" x="12222" y="-194.8" font-family="Times,serif" font-size="14.00" fill="#000000">84</text>
</g>
<!-- 33&#45;&gt;34 -->
<g id="edge28" class="edge">
<title>33&#45;&gt;34</title>
<path fill="none" stroke="#000000" d="M13059.3624,-292.1233C12933.0266,-280.2611 12451.1965,-235.0202 12281.538,-219.0903"/>
<polygon fill="#000000" stroke="#000000" points="12281.8203,-215.6015 12271.5369,-218.1512 12281.1659,-222.5708 12281.8203,-215.6015"/>
</g>
<!-- 35 -->
<g id="node30" class="node">
<title>35</title>
<polygon fill="none" stroke="#ffff00" stroke-width="2" points="11732,-128.5 10896,-128.5 10896,-45.5 11732,-45.5 11732,-128.5"/>
<text text-anchor="middle" x="11314" y="-113.3" font-family="Times,serif" font-size="14.00" fill="#000000">SQLQuery</text>
<text text-anchor="middle" x="11314" y="-98.3" font-family="Times,serif" font-size="14.00" fill="#000000">SELECT tab_945.nr, tab_945.producer, tab_947.label, tab_947.propertyNum1 </text>
<text text-anchor="middle" x="11314" y="-83.3" font-family="Times,serif" font-size="14.00" fill="#000000">FROM PRODUCT AS tab_945, Product AS tab_947, PRODUCTTYPEPRODUCT AS tab_946 &#160;</text>
<text text-anchor="middle" x="11314" y="-68.3" font-family="Times,serif" font-size="14.00" fill="#000000">WHERE tab_946.producttype = 1058 AND tab_946.product = tab_945.nr AND tab_945.producer = tab_947.producer AND tab_945.nr = tab_947.nr</text>
<text text-anchor="middle" x="11314" y="-53.3" font-family="Times,serif" font-size="14.00" fill="#000000">182</text>
</g>
<!-- 34&#45;&gt;35 -->
<g id="edge29" class="edge">
<title>34&#45;&gt;35</title>
<path fill="none" stroke="#000000" d="M12172.448,-207.3859C12085.1829,-196.5459 11898.4115,-173.0213 11741,-151 11693.9461,-144.4173 11644.0168,-137.171 11595.5204,-129.9931"/>
<polygon fill="#000000" stroke="#000000" points="11595.924,-126.5148 11585.5189,-128.5108 11594.8977,-133.4392 11595.924,-126.5148"/>
</g>
<!-- 36 -->
<g id="node31" class="node">
<title>36</title>
<polygon fill="none" stroke="#ffff00" stroke-width="2" points="12694,-151 11750,-151 11750,-23 12694,-23 12694,-151"/>
<text text-anchor="middle" x="12222" y="-135.8" font-family="Times,serif" font-size="14.00" fill="#000000">PhyMongoDBEval</text>
<text text-anchor="middle" x="12222" y="-120.8" font-family="Times,serif" font-size="14.00" fill="#000000">countrytype</text>
<text text-anchor="middle" x="12222" y="-105.8" font-family="Times,serif" font-size="14.00" fill="#000000">[{&quot;$match&quot;:{&quot;countrytype&quot;:112}},</text>
<text text-anchor="middle" x="12222" y="-90.8" font-family="Times,serif" font-size="14.00" fill="#000000">{$lookup: { from: &quot;productproducercountry&quot;, let: { &quot;country&quot;: &quot;$country&quot;}, pipeline: [ { $match: {$expr: {$eq: [&quot;$$country&quot;, &quot;$country&quot;] } } } ], as: &quot;mongojoin22&quot;}},</text>
<text text-anchor="middle" x="12222" y="-75.8" font-family="Times,serif" font-size="14.00" fill="#000000">{$unwind: &quot;$mongojoin22&quot;},</text>
<text text-anchor="middle" x="12222" y="-60.8" font-family="Times,serif" font-size="14.00" fill="#000000">{ &quot;$match&quot;: { &quot;mongojoin22.nr&quot;: %s, &quot;mongojoin22.producer&quot;: %s } }]</text>
<text text-anchor="middle" x="12222" y="-45.8" font-family="Times,serif" font-size="14.00" fill="#000000">[mongojoin22.nr, mongojoin22.producer, mongojoin22.country]</text>
<text text-anchor="middle" x="12222" y="-30.8" font-family="Times,serif" font-size="14.00" fill="#000000">84</text>
</g>
<!-- 34&#45;&gt;36 -->
<g id="edge30" class="edge">
<title>34&#45;&gt;36</title>
<path fill="none" stroke="#000000" d="M12222,-186.9815C12222,-179.2136 12222,-170.3145 12222,-161.0988"/>
<polygon fill="#000000" stroke="#000000" points="12225.5001,-161.0129 12222,-151.0129 12218.5001,-161.0129 12225.5001,-161.0129"/>
</g>
<!-- 39 -->
<g id="node33" class="node">
<title>39</title>
<polygon fill="none" stroke="#ffff00" stroke-width="2" points="14087.5,-240 13988.5,-240 13988.5,-187 14087.5,-187 14087.5,-240"/>
<text text-anchor="middle" x="14038" y="-224.8" font-family="Times,serif" font-size="14.00" fill="#000000">RightBindJoin </text>
<text text-anchor="middle" x="14038" y="-209.8" font-family="Times,serif" font-size="14.00" fill="#000000">[0, 1]</text>
<text text-anchor="middle" x="14038" y="-194.8" font-family="Times,serif" font-size="14.00" fill="#000000">95</text>
</g>
<!-- 38&#45;&gt;39 -->
<g id="edge32" class="edge">
<title>38&#45;&gt;39</title>
<path fill="none" stroke="#000000" d="M14214.4564,-282.9744C14183.6647,-270.8511 14135.3445,-251.8264 14097.0482,-236.7485"/>
<polygon fill="#000000" stroke="#000000" points="14098.1317,-233.4136 14087.5446,-233.0067 14095.5672,-239.9269 14098.1317,-233.4136"/>
</g>
<!-- 40 -->
<g id="node34" class="node">
<title>40</title>
<polygon fill="none" stroke="#ffff00" stroke-width="2" points="13548,-128.5 12712,-128.5 12712,-45.5 13548,-45.5 13548,-128.5"/>
<text text-anchor="middle" x="13130" y="-113.3" font-family="Times,serif" font-size="14.00" fill="#000000">SQLQuery</text>
<text text-anchor="middle" x="13130" y="-98.3" font-family="Times,serif" font-size="14.00" fill="#000000">SELECT tab_948.nr, tab_948.producer, tab_950.label, tab_950.propertyNum1 </text>
<text text-anchor="middle" x="13130" y="-83.3" font-family="Times,serif" font-size="14.00" fill="#000000">FROM PRODUCTTYPEPRODUCT AS tab_949, PRODUCT AS tab_948, Product AS tab_950 &#160;</text>
<text text-anchor="middle" x="13130" y="-68.3" font-family="Times,serif" font-size="14.00" fill="#000000">WHERE tab_949.producttype = 1059 AND tab_949.product = tab_948.nr AND tab_948.producer = tab_950.producer AND tab_948.nr = tab_950.nr</text>
<text text-anchor="middle" x="13130" y="-53.3" font-family="Times,serif" font-size="14.00" fill="#000000">183</text>
</g>
<!-- 39&#45;&gt;40 -->
<g id="edge33" class="edge">
<title>39&#45;&gt;40</title>
<path fill="none" stroke="#000000" d="M13988.448,-207.3859C13901.1829,-196.5459 13714.4115,-173.0213 13557,-151 13509.9461,-144.4173 13460.0168,-137.171 13411.5204,-129.9931"/>
<polygon fill="#000000" stroke="#000000" points="13411.924,-126.5148 13401.5189,-128.5108 13410.8977,-133.4392 13411.924,-126.5148"/>
</g>
<!-- 41 -->
<g id="node35" class="node">
<title>41</title>
<polygon fill="none" stroke="#ffff00" stroke-width="2" points="14510,-151 13566,-151 13566,-23 14510,-23 14510,-151"/>
<text text-anchor="middle" x="14038" y="-135.8" font-family="Times,serif" font-size="14.00" fill="#000000">PhyMongoDBEval</text>
<text text-anchor="middle" x="14038" y="-120.8" font-family="Times,serif" font-size="14.00" fill="#000000">countrytype</text>
<text text-anchor="middle" x="14038" y="-105.8" font-family="Times,serif" font-size="14.00" fill="#000000">[{&quot;$match&quot;:{&quot;countrytype&quot;:112}},</text>
<text text-anchor="middle" x="14038" y="-90.8" font-family="Times,serif" font-size="14.00" fill="#000000">{$lookup: { from: &quot;productproducercountry&quot;, let: { &quot;country&quot;: &quot;$country&quot;}, pipeline: [ { $match: {$expr: {$eq: [&quot;$$country&quot;, &quot;$country&quot;] } } } ], as: &quot;mongojoin23&quot;}},</text>
<text text-anchor="middle" x="14038" y="-75.8" font-family="Times,serif" font-size="14.00" fill="#000000">{$unwind: &quot;$mongojoin23&quot;},</text>
<text text-anchor="middle" x="14038" y="-60.8" font-family="Times,serif" font-size="14.00" fill="#000000">{ &quot;$match&quot;: { &quot;mongojoin23.nr&quot;: %s, &quot;mongojoin23.producer&quot;: %s } }]</text>
<text text-anchor="middle" x="14038" y="-45.8" font-family="Times,serif" font-size="14.00" fill="#000000">[country, mongojoin23.nr, mongojoin23.producer]</text>
<text text-anchor="middle" x="14038" y="-30.8" font-family="Times,serif" font-size="14.00" fill="#000000">95</text>
</g>
<!-- 39&#45;&gt;41 -->
<g id="edge34" class="edge">
<title>39&#45;&gt;41</title>
<path fill="none" stroke="#000000" d="M14038,-186.9815C14038,-179.2136 14038,-170.3145 14038,-161.0988"/>
<polygon fill="#000000" stroke="#000000" points="14041.5001,-161.0129 14038,-151.0129 14034.5001,-161.0129 14041.5001,-161.0129"/>
</g>
<!-- 44 -->
<g id="node37" class="node">
<title>44</title>
<polygon fill="none" stroke="#ffff00" stroke-width="2" points="14995.5,-240 14896.5,-240 14896.5,-187 14995.5,-187 14995.5,-240"/>
<text text-anchor="middle" x="14946" y="-224.8" font-family="Times,serif" font-size="14.00" fill="#000000">RightBindJoin </text>
<text text-anchor="middle" x="14946" y="-209.8" font-family="Times,serif" font-size="14.00" fill="#000000">[1, 0]</text>
<text text-anchor="middle" x="14946" y="-194.8" font-family="Times,serif" font-size="14.00" fill="#000000">23</text>
</g>
<!-- 43&#45;&gt;44 -->
<g id="edge36" class="edge">
<title>43&#45;&gt;44</title>
<path fill="none" stroke="#000000" d="M14768.6911,-282.9744C14799.6316,-270.8511 14848.1853,-251.8264 14886.6665,-236.7485"/>
<polygon fill="#000000" stroke="#000000" points="14888.1821,-239.9138 14896.216,-233.0067 14885.6283,-233.3962 14888.1821,-239.9138"/>
</g>
<!-- 45 -->
<g id="node38" class="node">
<title>45</title>
<polygon fill="none" stroke="#ffff00" stroke-width="2" points="15364,-128.5 14528,-128.5 14528,-45.5 15364,-45.5 15364,-128.5"/>
<text text-anchor="middle" x="14946" y="-113.3" font-family="Times,serif" font-size="14.00" fill="#000000">SQLQuery</text>
<text text-anchor="middle" x="14946" y="-98.3" font-family="Times,serif" font-size="14.00" fill="#000000">SELECT tab_951.nr, tab_951.producer, tab_953.label, tab_953.propertyNum1 </text>
<text text-anchor="middle" x="14946" y="-83.3" font-family="Times,serif" font-size="14.00" fill="#000000">FROM Product AS tab_953, PRODUCTTYPEPRODUCT AS tab_952, PRODUCT AS tab_951 &#160;</text>
<text text-anchor="middle" x="14946" y="-68.3" font-family="Times,serif" font-size="14.00" fill="#000000">WHERE tab_952.producttype = 1058 AND tab_952.product = tab_951.nr AND tab_951.producer = tab_953.producer AND tab_951.nr = tab_953.nr</text>
<text text-anchor="middle" x="14946" y="-53.3" font-family="Times,serif" font-size="14.00" fill="#000000">182</text>
</g>
<!-- 44&#45;&gt;45 -->
<g id="edge37" class="edge">
<title>44&#45;&gt;45</title>
<path fill="none" stroke="#000000" d="M14946,-186.9815C14946,-173.0622 14946,-155.511 14946,-139.0135"/>
<polygon fill="#000000" stroke="#000000" points="14949.5001,-138.9195 14946,-128.9195 14942.5001,-138.9196 14949.5001,-138.9195"/>
</g>
<!-- 46 -->
<g id="node39" class="node">
<title>46</title>
<polygon fill="none" stroke="#ffff00" stroke-width="2" points="16326,-151 15382,-151 15382,-23 16326,-23 16326,-151"/>
<text text-anchor="middle" x="15854" y="-135.8" font-family="Times,serif" font-size="14.00" fill="#000000">PhyMongoDBEval</text>
<text text-anchor="middle" x="15854" y="-120.8" font-family="Times,serif" font-size="14.00" fill="#000000">countrytype</text>
<text text-anchor="middle" x="15854" y="-105.8" font-family="Times,serif" font-size="14.00" fill="#000000">[{&quot;$match&quot;:{&quot;countrytype&quot;:122}},</text>
<text text-anchor="middle" x="15854" y="-90.8" font-family="Times,serif" font-size="14.00" fill="#000000">{$lookup: { from: &quot;productproducercountry&quot;, let: { &quot;country&quot;: &quot;$country&quot;}, pipeline: [ { $match: {$expr: {$eq: [&quot;$$country&quot;, &quot;$country&quot;] } } } ], as: &quot;mongojoin24&quot;}},</text>
<text text-anchor="middle" x="15854" y="-75.8" font-family="Times,serif" font-size="14.00" fill="#000000">{$unwind: &quot;$mongojoin24&quot;},</text>
<text text-anchor="middle" x="15854" y="-60.8" font-family="Times,serif" font-size="14.00" fill="#000000">{ &quot;$match&quot;: { &quot;mongojoin24.producer&quot;: %s, &quot;mongojoin24.nr&quot;: %s } }]</text>
<text text-anchor="middle" x="15854" y="-45.8" font-family="Times,serif" font-size="14.00" fill="#000000">[country, mongojoin24.nr, mongojoin24.producer]</text>
<text text-anchor="middle" x="15854" y="-30.8" font-family="Times,serif" font-size="14.00" fill="#000000">23</text>
</g>
<!-- 44&#45;&gt;46 -->
<g id="edge38" class="edge">
<title>44&#45;&gt;46</title>
<path fill="none" stroke="#000000" d="M14995.7867,-206.5639C15072.4169,-195.888 15226.9311,-174.3615 15384.0018,-152.4788"/>
<polygon fill="#000000" stroke="#000000" points="15384.9293,-155.8835 15394.3507,-151.037 15383.9634,-148.9505 15384.9293,-155.8835"/>
</g>
<!-- 49 -->
<g id="node41" class="node">
<title>49</title>
<polygon fill="none" stroke="#ffff00" stroke-width="2" points="16811.5,-240 16712.5,-240 16712.5,-187 16811.5,-187 16811.5,-240"/>
<text text-anchor="middle" x="16762" y="-224.8" font-family="Times,serif" font-size="14.00" fill="#000000">RightBindJoin </text>
<text text-anchor="middle" x="16762" y="-209.8" font-family="Times,serif" font-size="14.00" fill="#000000">[0, 1]</text>
<text text-anchor="middle" x="16762" y="-194.8" font-family="Times,serif" font-size="14.00" fill="#000000">23</text>
</g>
<!-- 48&#45;&gt;49 -->
<g id="edge40" class="edge">
<title>48&#45;&gt;49</title>
<path fill="none" stroke="#000000" d="M15923.6729,-292.1233C16050.1543,-280.2611 16532.5395,-235.0202 16702.3934,-219.0903"/>
<polygon fill="#000000" stroke="#000000" points="16702.7766,-222.5698 16712.406,-218.1512 16702.1229,-215.6004 16702.7766,-222.5698"/>
</g>
<!-- 50 -->
<g id="node42" class="node">
<title>50</title>
<polygon fill="none" stroke="#ffff00" stroke-width="2" points="17180,-128.5 16344,-128.5 16344,-45.5 17180,-45.5 17180,-128.5"/>
<text text-anchor="middle" x="16762" y="-113.3" font-family="Times,serif" font-size="14.00" fill="#000000">SQLQuery</text>
<text text-anchor="middle" x="16762" y="-98.3" font-family="Times,serif" font-size="14.00" fill="#000000">SELECT tab_954.nr, tab_954.producer, tab_956.label, tab_956.propertyNum2 </text>
<text text-anchor="middle" x="16762" y="-83.3" font-family="Times,serif" font-size="14.00" fill="#000000">FROM Product AS tab_956, PRODUCT AS tab_954, PRODUCTTYPEPRODUCT AS tab_955 &#160;</text>
<text text-anchor="middle" x="16762" y="-68.3" font-family="Times,serif" font-size="14.00" fill="#000000">WHERE tab_955.producttype = 1058 AND tab_955.product = tab_954.nr AND tab_954.producer = tab_956.producer AND tab_954.nr = tab_956.nr</text>
<text text-anchor="middle" x="16762" y="-53.3" font-family="Times,serif" font-size="14.00" fill="#000000">182</text>
</g>
<!-- 49&#45;&gt;50 -->
<g id="edge41" class="edge">
<title>49&#45;&gt;50</title>
<path fill="none" stroke="#000000" d="M16762,-186.9815C16762,-173.0622 16762,-155.511 16762,-139.0135"/>
<polygon fill="#000000" stroke="#000000" points="16765.5001,-138.9195 16762,-128.9195 16758.5001,-138.9196 16765.5001,-138.9195"/>
</g>
<!-- 51 -->
<g id="node43" class="node">
<title>51</title>
<polygon fill="none" stroke="#ffff00" stroke-width="2" points="18142,-151 17198,-151 17198,-23 18142,-23 18142,-151"/>
<text text-anchor="middle" x="17670" y="-135.8" font-family="Times,serif" font-size="14.00" fill="#000000">PhyMongoDBEval</text>
<text text-anchor="middle" x="17670" y="-120.8" font-family="Times,serif" font-size="14.00" fill="#000000">countrytype</text>
<text text-anchor="middle" x="17670" y="-105.8" font-family="Times,serif" font-size="14.00" fill="#000000">[{&quot;$match&quot;:{&quot;countrytype&quot;:122}},</text>
<text text-anchor="middle" x="17670" y="-90.8" font-family="Times,serif" font-size="14.00" fill="#000000">{$lookup: { from: &quot;productproducercountry&quot;, let: { &quot;country&quot;: &quot;$country&quot;}, pipeline: [ { $match: {$expr: {$eq: [&quot;$$country&quot;, &quot;$country&quot;] } } } ], as: &quot;mongojoin25&quot;}},</text>
<text text-anchor="middle" x="17670" y="-75.8" font-family="Times,serif" font-size="14.00" fill="#000000">{$unwind: &quot;$mongojoin25&quot;},</text>
<text text-anchor="middle" x="17670" y="-60.8" font-family="Times,serif" font-size="14.00" fill="#000000">{ &quot;$match&quot;: { &quot;mongojoin25.nr&quot;: %s, &quot;mongojoin25.producer&quot;: %s } }]</text>
<text text-anchor="middle" x="17670" y="-45.8" font-family="Times,serif" font-size="14.00" fill="#000000">[country, mongojoin25.nr, mongojoin25.producer]</text>
<text text-anchor="middle" x="17670" y="-30.8" font-family="Times,serif" font-size="14.00" fill="#000000">23</text>
</g>
<!-- 49&#45;&gt;51 -->
<g id="edge42" class="edge">
<title>49&#45;&gt;51</title>
<path fill="none" stroke="#000000" d="M16811.7867,-206.5639C16888.4169,-195.888 17042.9311,-174.3615 17200.0018,-152.4788"/>
<polygon fill="#000000" stroke="#000000" points="17200.9293,-155.8835 17210.3507,-151.037 17199.9634,-148.9505 17200.9293,-155.8835"/>
</g>
<!-- 54 -->
<g id="node45" class="node">
<title>54</title>
<polygon fill="none" stroke="#ffff00" stroke-width="2" points="18627.5,-240 18528.5,-240 18528.5,-187 18627.5,-187 18627.5,-240"/>
<text text-anchor="middle" x="18578" y="-224.8" font-family="Times,serif" font-size="14.00" fill="#000000">RightBindJoin </text>
<text text-anchor="middle" x="18578" y="-209.8" font-family="Times,serif" font-size="14.00" fill="#000000">[0, 1]</text>
<text text-anchor="middle" x="18578" y="-194.8" font-family="Times,serif" font-size="14.00" fill="#000000">84</text>
</g>
<!-- 53&#45;&gt;54 -->
<g id="edge44" class="edge">
<title>53&#45;&gt;54</title>
<path fill="none" stroke="#000000" d="M17408.5654,-292.9241C17567.7279,-282.1143 18302.5875,-232.2051 18518.3093,-217.554"/>
<polygon fill="#000000" stroke="#000000" points="18518.7457,-221.0325 18528.4855,-216.8629 18518.2713,-214.0486 18518.7457,-221.0325"/>
</g>
<!-- 55 -->
<g id="node46" class="node">
<title>55</title>
<polygon fill="none" stroke="#ffff00" stroke-width="2" points="18996,-128.5 18160,-128.5 18160,-45.5 18996,-45.5 18996,-128.5"/>
<text text-anchor="middle" x="18578" y="-113.3" font-family="Times,serif" font-size="14.00" fill="#000000">SQLQuery</text>
<text text-anchor="middle" x="18578" y="-98.3" font-family="Times,serif" font-size="14.00" fill="#000000">SELECT tab_957.nr, tab_957.producer, tab_959.label, tab_959.propertyNum2 </text>
<text text-anchor="middle" x="18578" y="-83.3" font-family="Times,serif" font-size="14.00" fill="#000000">FROM PRODUCT AS tab_957, Product AS tab_959, PRODUCTTYPEPRODUCT AS tab_958 &#160;</text>
<text text-anchor="middle" x="18578" y="-68.3" font-family="Times,serif" font-size="14.00" fill="#000000">WHERE tab_958.producttype = 1058 AND tab_958.product = tab_957.nr AND tab_957.producer = tab_959.producer AND tab_957.nr = tab_959.nr</text>
<text text-anchor="middle" x="18578" y="-53.3" font-family="Times,serif" font-size="14.00" fill="#000000">182</text>
</g>
<!-- 54&#45;&gt;55 -->
<g id="edge45" class="edge">
<title>54&#45;&gt;55</title>
<path fill="none" stroke="#000000" d="M18578,-186.9815C18578,-173.0622 18578,-155.511 18578,-139.0135"/>
<polygon fill="#000000" stroke="#000000" points="18581.5001,-138.9195 18578,-128.9195 18574.5001,-138.9196 18581.5001,-138.9195"/>
</g>
<!-- 56 -->
<g id="node47" class="node">
<title>56</title>
<polygon fill="none" stroke="#ffff00" stroke-width="2" points="19958,-151 19014,-151 19014,-23 19958,-23 19958,-151"/>
<text text-anchor="middle" x="19486" y="-135.8" font-family="Times,serif" font-size="14.00" fill="#000000">PhyMongoDBEval</text>
<text text-anchor="middle" x="19486" y="-120.8" font-family="Times,serif" font-size="14.00" fill="#000000">countrytype</text>
<text text-anchor="middle" x="19486" y="-105.8" font-family="Times,serif" font-size="14.00" fill="#000000">[{&quot;$match&quot;:{&quot;countrytype&quot;:112}},</text>
<text text-anchor="middle" x="19486" y="-90.8" font-family="Times,serif" font-size="14.00" fill="#000000">{$lookup: { from: &quot;productproducercountry&quot;, let: { &quot;country&quot;: &quot;$country&quot;}, pipeline: [ { $match: {$expr: {$eq: [&quot;$$country&quot;, &quot;$country&quot;] } } } ], as: &quot;mongojoin26&quot;}},</text>
<text text-anchor="middle" x="19486" y="-75.8" font-family="Times,serif" font-size="14.00" fill="#000000">{$unwind: &quot;$mongojoin26&quot;},</text>
<text text-anchor="middle" x="19486" y="-60.8" font-family="Times,serif" font-size="14.00" fill="#000000">{ &quot;$match&quot;: { &quot;mongojoin26.nr&quot;: %s, &quot;mongojoin26.producer&quot;: %s } }]</text>
<text text-anchor="middle" x="19486" y="-45.8" font-family="Times,serif" font-size="14.00" fill="#000000">[mongojoin26.nr, mongojoin26.producer, mongojoin26.country]</text>
<text text-anchor="middle" x="19486" y="-30.8" font-family="Times,serif" font-size="14.00" fill="#000000">84</text>
</g>
<!-- 54&#45;&gt;56 -->
<g id="edge46" class="edge">
<title>54&#45;&gt;56</title>
<path fill="none" stroke="#000000" d="M18627.7867,-206.5639C18704.4169,-195.888 18858.9311,-174.3615 19016.0018,-152.4788"/>
<polygon fill="#000000" stroke="#000000" points="19016.9293,-155.8835 19026.3507,-151.037 19015.9634,-148.9505 19016.9293,-155.8835"/>
</g>
<!-- 59 -->
<g id="node49" class="node">
<title>59</title>
<polygon fill="none" stroke="#ffff00" stroke-width="2" points="20443.5,-240 20344.5,-240 20344.5,-187 20443.5,-187 20443.5,-240"/>
<text text-anchor="middle" x="20394" y="-224.8" font-family="Times,serif" font-size="14.00" fill="#000000">RightBindJoin </text>
<text text-anchor="middle" x="20394" y="-209.8" font-family="Times,serif" font-size="14.00" fill="#000000">[0, 1]</text>
<text text-anchor="middle" x="20394" y="-194.8" font-family="Times,serif" font-size="14.00" fill="#000000">24</text>
</g>
<!-- 58&#45;&gt;59 -->
<g id="edge48" class="edge">
<title>58&#45;&gt;59</title>
<path fill="none" stroke="#000000" d="M19059.7484,-293.1641C19233.9675,-282.762 20097.7196,-231.19 20334.1066,-217.0761"/>
<polygon fill="#000000" stroke="#000000" points="20334.4553,-220.5616 20344.2289,-216.4717 20334.038,-213.574 20334.4553,-220.5616"/>
</g>
<!-- 60 -->
<g id="node50" class="node">
<title>60</title>
<polygon fill="none" stroke="#ffff00" stroke-width="2" points="20812,-128.5 19976,-128.5 19976,-45.5 20812,-45.5 20812,-128.5"/>
<text text-anchor="middle" x="20394" y="-113.3" font-family="Times,serif" font-size="14.00" fill="#000000">SQLQuery</text>
<text text-anchor="middle" x="20394" y="-98.3" font-family="Times,serif" font-size="14.00" fill="#000000">SELECT tab_924.nr, tab_924.producer, tab_926.label, tab_926.propertyNum1 </text>
<text text-anchor="middle" x="20394" y="-83.3" font-family="Times,serif" font-size="14.00" fill="#000000">FROM PRODUCT AS tab_924, Product AS tab_926, PRODUCTTYPEPRODUCT AS tab_925 &#160;</text>
<text text-anchor="middle" x="20394" y="-68.3" font-family="Times,serif" font-size="14.00" fill="#000000">WHERE tab_925.producttype = 1058 AND tab_925.product = tab_924.nr AND tab_924.producer = tab_926.producer AND tab_924.nr = tab_926.nr</text>
<text text-anchor="middle" x="20394" y="-53.3" font-family="Times,serif" font-size="14.00" fill="#000000">182</text>
</g>
<!-- 59&#45;&gt;60 -->
<g id="edge49" class="edge">
<title>59&#45;&gt;60</title>
<path fill="none" stroke="#000000" d="M20394,-186.9815C20394,-173.0622 20394,-155.511 20394,-139.0135"/>
<polygon fill="#000000" stroke="#000000" points="20397.5001,-138.9195 20394,-128.9195 20390.5001,-138.9196 20397.5001,-138.9195"/>
</g>
<!-- 61 -->
<g id="node51" class="node">
<title>61</title>
<polygon fill="none" stroke="#ffff00" stroke-width="2" points="21774,-151 20830,-151 20830,-23 21774,-23 21774,-151"/>
<text text-anchor="middle" x="21302" y="-135.8" font-family="Times,serif" font-size="14.00" fill="#000000">PhyMongoDBEval</text>
<text text-anchor="middle" x="21302" y="-120.8" font-family="Times,serif" font-size="14.00" fill="#000000">countrytype</text>
<text text-anchor="middle" x="21302" y="-105.8" font-family="Times,serif" font-size="14.00" fill="#000000">[{&quot;$match&quot;:{&quot;countrytype&quot;:121}},</text>
<text text-anchor="middle" x="21302" y="-90.8" font-family="Times,serif" font-size="14.00" fill="#000000">{$lookup: { from: &quot;productproducercountry&quot;, let: { &quot;country&quot;: &quot;$country&quot;}, pipeline: [ { $match: {$expr: {$eq: [&quot;$$country&quot;, &quot;$country&quot;] } } } ], as: &quot;mongojoin27&quot;}},</text>
<text text-anchor="middle" x="21302" y="-75.8" font-family="Times,serif" font-size="14.00" fill="#000000">{$unwind: &quot;$mongojoin27&quot;},</text>
<text text-anchor="middle" x="21302" y="-60.8" font-family="Times,serif" font-size="14.00" fill="#000000">{ &quot;$match&quot;: { &quot;mongojoin27.nr&quot;: %s, &quot;mongojoin27.producer&quot;: %s } }]</text>
<text text-anchor="middle" x="21302" y="-45.8" font-family="Times,serif" font-size="14.00" fill="#000000">[mongojoin27.nr, mongojoin27.producer, mongojoin27.country]</text>
<text text-anchor="middle" x="21302" y="-30.8" font-family="Times,serif" font-size="14.00" fill="#000000">24</text>
</g>
<!-- 59&#45;&gt;61 -->
<g id="edge50" class="edge">
<title>59&#45;&gt;61</title>
<path fill="none" stroke="#000000" d="M20443.7867,-206.5639C20520.4169,-195.888 20674.9311,-174.3615 20832.0018,-152.4788"/>
<polygon fill="#000000" stroke="#000000" points="20832.9293,-155.8835 20842.3507,-151.037 20831.9634,-148.9505 20832.9293,-155.8835"/>
</g>
<!-- 64 -->
<g id="node53" class="node">
<title>64</title>
<polygon fill="none" stroke="#ffff00" stroke-width="2" points="22259.5,-240 22160.5,-240 22160.5,-187 22259.5,-187 22259.5,-240"/>
<text text-anchor="middle" x="22210" y="-224.8" font-family="Times,serif" font-size="14.00" fill="#000000">RightBindJoin </text>
<text text-anchor="middle" x="22210" y="-209.8" font-family="Times,serif" font-size="14.00" fill="#000000">[1, 0]</text>
<text text-anchor="middle" x="22210" y="-194.8" font-family="Times,serif" font-size="14.00" fill="#000000">22</text>
</g>
<!-- 63&#45;&gt;64 -->
<g id="edge52" class="edge">
<title>63&#45;&gt;64</title>
<path fill="none" stroke="#000000" d="M20792.5776,-293.279C20973.477,-283.0971 21904.02,-230.7219 22150.1946,-216.8661"/>
<polygon fill="#000000" stroke="#000000" points="22150.5871,-220.3497 22160.3746,-216.2931 22150.1937,-213.3607 22150.5871,-220.3497"/>
</g>
<!-- 65 -->
<g id="node54" class="node">
<title>65</title>
<polygon fill="none" stroke="#ffff00" stroke-width="2" points="22628,-128.5 21792,-128.5 21792,-45.5 22628,-45.5 22628,-128.5"/>
<text text-anchor="middle" x="22210" y="-113.3" font-family="Times,serif" font-size="14.00" fill="#000000">SQLQuery</text>
<text text-anchor="middle" x="22210" y="-98.3" font-family="Times,serif" font-size="14.00" fill="#000000">SELECT tab_960.nr, tab_960.producer, tab_962.label, tab_962.propertyNum1 </text>
<text text-anchor="middle" x="22210" y="-83.3" font-family="Times,serif" font-size="14.00" fill="#000000">FROM PRODUCTTYPEPRODUCT AS tab_961, PRODUCT AS tab_960, Product AS tab_962 &#160;</text>
<text text-anchor="middle" x="22210" y="-68.3" font-family="Times,serif" font-size="14.00" fill="#000000">WHERE tab_961.producttype = 1059 AND tab_961.product = tab_960.nr AND tab_960.nr = tab_962.nr AND tab_960.producer = tab_962.producer</text>
<text text-anchor="middle" x="22210" y="-53.3" font-family="Times,serif" font-size="14.00" fill="#000000">183</text>
</g>
<!-- 64&#45;&gt;65 -->
<g id="edge53" class="edge">
<title>64&#45;&gt;65</title>
<path fill="none" stroke="#000000" d="M22210,-186.9815C22210,-173.0622 22210,-155.511 22210,-139.0135"/>
<polygon fill="#000000" stroke="#000000" points="22213.5001,-138.9195 22210,-128.9195 22206.5001,-138.9196 22213.5001,-138.9195"/>
</g>
<!-- 66 -->
<g id="node55" class="node">
<title>66</title>
<polygon fill="none" stroke="#ffff00" stroke-width="2" points="23590,-151 22646,-151 22646,-23 23590,-23 23590,-151"/>
<text text-anchor="middle" x="23118" y="-135.8" font-family="Times,serif" font-size="14.00" fill="#000000">PhyMongoDBEval</text>
<text text-anchor="middle" x="23118" y="-120.8" font-family="Times,serif" font-size="14.00" fill="#000000">countrytype</text>
<text text-anchor="middle" x="23118" y="-105.8" font-family="Times,serif" font-size="14.00" fill="#000000">[{&quot;$match&quot;:{&quot;countrytype&quot;:122}},</text>
<text text-anchor="middle" x="23118" y="-90.8" font-family="Times,serif" font-size="14.00" fill="#000000">{$lookup: { from: &quot;productproducercountry&quot;, let: { &quot;country&quot;: &quot;$country&quot;}, pipeline: [ { $match: {$expr: {$eq: [&quot;$$country&quot;, &quot;$country&quot;] } } } ], as: &quot;mongojoin28&quot;}},</text>
<text text-anchor="middle" x="23118" y="-75.8" font-family="Times,serif" font-size="14.00" fill="#000000">{$unwind: &quot;$mongojoin28&quot;},</text>
<text text-anchor="middle" x="23118" y="-60.8" font-family="Times,serif" font-size="14.00" fill="#000000">{ &quot;$match&quot;: { &quot;mongojoin28.producer&quot;: %s, &quot;mongojoin28.nr&quot;: %s } }]</text>
<text text-anchor="middle" x="23118" y="-45.8" font-family="Times,serif" font-size="14.00" fill="#000000">[mongojoin28.nr, mongojoin28.producer, mongojoin28.country]</text>
<text text-anchor="middle" x="23118" y="-30.8" font-family="Times,serif" font-size="14.00" fill="#000000">22</text>
</g>
<!-- 64&#45;&gt;66 -->
<g id="edge54" class="edge">
<title>64&#45;&gt;66</title>
<path fill="none" stroke="#000000" d="M22259.7867,-206.5639C22336.4169,-195.888 22490.9311,-174.3615 22648.0018,-152.4788"/>
<polygon fill="#000000" stroke="#000000" points="22648.9293,-155.8835 22658.3507,-151.037 22647.9634,-148.9505 22648.9293,-155.8835"/>
</g>
<!-- 69 -->
<g id="node57" class="node">
<title>69</title>
<polygon fill="none" stroke="#ffff00" stroke-width="2" points="24075.5,-240 23976.5,-240 23976.5,-187 24075.5,-187 24075.5,-240"/>
<text text-anchor="middle" x="24026" y="-224.8" font-family="Times,serif" font-size="14.00" fill="#000000">RightBindJoin </text>
<text text-anchor="middle" x="24026" y="-209.8" font-family="Times,serif" font-size="14.00" fill="#000000">[1, 0]</text>
<text text-anchor="middle" x="24026" y="-194.8" font-family="Times,serif" font-size="14.00" fill="#000000">24</text>
</g>
<!-- 68&#45;&gt;69 -->
<g id="edge56" class="edge">
<title>68&#45;&gt;69</title>
<path fill="none" stroke="#000000" d="M22567.7581,-293.3165C22752.5724,-283.2007 23715.9474,-230.4706 23966.4295,-216.7606"/>
<polygon fill="#000000" stroke="#000000" points="23966.637,-220.2546 23976.4307,-216.2132 23966.2543,-213.265 23966.637,-220.2546"/>
</g>
<!-- 70 -->
<g id="node58" class="node">
<title>70</title>
<polygon fill="none" stroke="#ffff00" stroke-width="2" points="24444,-128.5 23608,-128.5 23608,-45.5 24444,-45.5 24444,-128.5"/>
<text text-anchor="middle" x="24026" y="-113.3" font-family="Times,serif" font-size="14.00" fill="#000000">SQLQuery</text>
<text text-anchor="middle" x="24026" y="-98.3" font-family="Times,serif" font-size="14.00" fill="#000000">SELECT tab_963.nr, tab_963.producer, tab_965.label, tab_965.propertyNum2 </text>
<text text-anchor="middle" x="24026" y="-83.3" font-family="Times,serif" font-size="14.00" fill="#000000">FROM Product AS tab_965, PRODUCTTYPEPRODUCT AS tab_964, PRODUCT AS tab_963 &#160;</text>
<text text-anchor="middle" x="24026" y="-68.3" font-family="Times,serif" font-size="14.00" fill="#000000">WHERE tab_964.producttype = 1058 AND tab_964.product = tab_963.nr AND tab_963.nr = tab_965.nr AND tab_963.producer = tab_965.producer</text>
<text text-anchor="middle" x="24026" y="-53.3" font-family="Times,serif" font-size="14.00" fill="#000000">182</text>
</g>
<!-- 69&#45;&gt;70 -->
<g id="edge57" class="edge">
<title>69&#45;&gt;70</title>
<path fill="none" stroke="#000000" d="M24026,-186.9815C24026,-173.0622 24026,-155.511 24026,-139.0135"/>
<polygon fill="#000000" stroke="#000000" points="24029.5001,-138.9195 24026,-128.9195 24022.5001,-138.9196 24029.5001,-138.9195"/>
</g>
<!-- 71 -->
<g id="node59" class="node">
<title>71</title>
<polygon fill="none" stroke="#ffff00" stroke-width="2" points="25406,-151 24462,-151 24462,-23 25406,-23 25406,-151"/>
<text text-anchor="middle" x="24934" y="-135.8" font-family="Times,serif" font-size="14.00" fill="#000000">PhyMongoDBEval</text>
<text text-anchor="middle" x="24934" y="-120.8" font-family="Times,serif" font-size="14.00" fill="#000000">countrytype</text>
<text text-anchor="middle" x="24934" y="-105.8" font-family="Times,serif" font-size="14.00" fill="#000000">[{&quot;$match&quot;:{&quot;countrytype&quot;:121}},</text>
<text text-anchor="middle" x="24934" y="-90.8" font-family="Times,serif" font-size="14.00" fill="#000000">{$lookup: { from: &quot;productproducercountry&quot;, let: { &quot;country&quot;: &quot;$country&quot;}, pipeline: [ { $match: {$expr: {$eq: [&quot;$$country&quot;, &quot;$country&quot;] } } } ], as: &quot;mongojoin29&quot;}},</text>
<text text-anchor="middle" x="24934" y="-75.8" font-family="Times,serif" font-size="14.00" fill="#000000">{$unwind: &quot;$mongojoin29&quot;},</text>
<text text-anchor="middle" x="24934" y="-60.8" font-family="Times,serif" font-size="14.00" fill="#000000">{ &quot;$match&quot;: { &quot;mongojoin29.producer&quot;: %s, &quot;mongojoin29.nr&quot;: %s } }]</text>
<text text-anchor="middle" x="24934" y="-45.8" font-family="Times,serif" font-size="14.00" fill="#000000">[mongojoin29.nr, mongojoin29.producer, mongojoin29.country]</text>
<text text-anchor="middle" x="24934" y="-30.8" font-family="Times,serif" font-size="14.00" fill="#000000">24</text>
</g>
<!-- 69&#45;&gt;71 -->
<g id="edge58" class="edge">
<title>69&#45;&gt;71</title>
<path fill="none" stroke="#000000" d="M24075.7867,-206.5639C24152.4169,-195.888 24306.9311,-174.3615 24464.0018,-152.4788"/>
<polygon fill="#000000" stroke="#000000" points="24464.9293,-155.8835 24474.3507,-151.037 24463.9634,-148.9505 24464.9293,-155.8835"/>
</g>
<!-- 74 -->
<g id="node61" class="node">
<title>74</title>
<polygon fill="none" stroke="#ffff00" stroke-width="2" points="25891.5,-240 25792.5,-240 25792.5,-187 25891.5,-187 25891.5,-240"/>
<text text-anchor="middle" x="25842" y="-224.8" font-family="Times,serif" font-size="14.00" fill="#000000">RightBindJoin </text>
<text text-anchor="middle" x="25842" y="-209.8" font-family="Times,serif" font-size="14.00" fill="#000000">[1, 0]</text>
<text text-anchor="middle" x="25842" y="-194.8" font-family="Times,serif" font-size="14.00" fill="#000000">95</text>
</g>
<!-- 73&#45;&gt;74 -->
<g id="edge60" class="edge">
<title>73&#45;&gt;74</title>
<path fill="none" stroke="#000000" d="M24362.5041,-293.3536C24548.3848,-283.321 25529.118,-230.3873 25782.3102,-216.7217"/>
<polygon fill="#000000" stroke="#000000" points="25782.6188,-220.2102 25792.4156,-216.1762 25782.2415,-213.2204 25782.6188,-220.2102"/>
</g>
<!-- 75 -->
<g id="node62" class="node">
<title>75</title>
<polygon fill="none" stroke="#ffff00" stroke-width="2" points="26260,-128.5 25424,-128.5 25424,-45.5 26260,-45.5 26260,-128.5"/>
<text text-anchor="middle" x="25842" y="-113.3" font-family="Times,serif" font-size="14.00" fill="#000000">SQLQuery</text>
<text text-anchor="middle" x="25842" y="-98.3" font-family="Times,serif" font-size="14.00" fill="#000000">SELECT tab_966.nr, tab_966.producer, tab_968.label, tab_968.propertyNum2 </text>
<text text-anchor="middle" x="25842" y="-83.3" font-family="Times,serif" font-size="14.00" fill="#000000">FROM PRODUCT AS tab_966, Product AS tab_968, PRODUCTTYPEPRODUCT AS tab_967 &#160;</text>
<text text-anchor="middle" x="25842" y="-68.3" font-family="Times,serif" font-size="14.00" fill="#000000">WHERE tab_967.producttype = 1059 AND tab_967.product = tab_966.nr AND tab_966.producer = tab_968.producer AND tab_966.nr = tab_968.nr</text>
<text text-anchor="middle" x="25842" y="-53.3" font-family="Times,serif" font-size="14.00" fill="#000000">183</text>
</g>
<!-- 74&#45;&gt;75 -->
<g id="edge61" class="edge">
<title>74&#45;&gt;75</title>
<path fill="none" stroke="#000000" d="M25842,-186.9815C25842,-173.0622 25842,-155.511 25842,-139.0135"/>
<polygon fill="#000000" stroke="#000000" points="25845.5001,-138.9195 25842,-128.9195 25838.5001,-138.9196 25845.5001,-138.9195"/>
</g>
<!-- 76 -->
<g id="node63" class="node">
<title>76</title>
<polygon fill="none" stroke="#ffff00" stroke-width="2" points="27222,-151 26278,-151 26278,-23 27222,-23 27222,-151"/>
<text text-anchor="middle" x="26750" y="-135.8" font-family="Times,serif" font-size="14.00" fill="#000000">PhyMongoDBEval</text>
<text text-anchor="middle" x="26750" y="-120.8" font-family="Times,serif" font-size="14.00" fill="#000000">countrytype</text>
<text text-anchor="middle" x="26750" y="-105.8" font-family="Times,serif" font-size="14.00" fill="#000000">[{&quot;$match&quot;:{&quot;countrytype&quot;:112}},</text>
<text text-anchor="middle" x="26750" y="-90.8" font-family="Times,serif" font-size="14.00" fill="#000000">{$lookup: { from: &quot;productproducercountry&quot;, let: { &quot;country&quot;: &quot;$country&quot;}, pipeline: [ { $match: {$expr: {$eq: [&quot;$$country&quot;, &quot;$country&quot;] } } } ], as: &quot;mongojoin30&quot;}},</text>
<text text-anchor="middle" x="26750" y="-75.8" font-family="Times,serif" font-size="14.00" fill="#000000">{$unwind: &quot;$mongojoin30&quot;},</text>
<text text-anchor="middle" x="26750" y="-60.8" font-family="Times,serif" font-size="14.00" fill="#000000">{ &quot;$match&quot;: { &quot;mongojoin30.producer&quot;: %s, &quot;mongojoin30.nr&quot;: %s } }]</text>
<text text-anchor="middle" x="26750" y="-45.8" font-family="Times,serif" font-size="14.00" fill="#000000">[mongojoin30.nr, mongojoin30.producer, mongojoin30.country]</text>
<text text-anchor="middle" x="26750" y="-30.8" font-family="Times,serif" font-size="14.00" fill="#000000">95</text>
</g>
<!-- 74&#45;&gt;76 -->
<g id="edge62" class="edge">
<title>74&#45;&gt;76</title>
<path fill="none" stroke="#000000" d="M25891.7867,-206.5639C25968.4169,-195.888 26122.9311,-174.3615 26280.0018,-152.4788"/>
<polygon fill="#000000" stroke="#000000" points="26280.9293,-155.8835 26290.3507,-151.037 26279.9634,-148.9505 26280.9293,-155.8835"/>
</g>
<!-- 79 -->
<g id="node65" class="node">
<title>79</title>
<polygon fill="none" stroke="#ffff00" stroke-width="2" points="27707.5,-240 27608.5,-240 27608.5,-187 27707.5,-187 27707.5,-240"/>
<text text-anchor="middle" x="27658" y="-224.8" font-family="Times,serif" font-size="14.00" fill="#000000">RightBindJoin </text>
<text text-anchor="middle" x="27658" y="-209.8" font-family="Times,serif" font-size="14.00" fill="#000000">[1, 0]</text>
<text text-anchor="middle" x="27658" y="-194.8" font-family="Times,serif" font-size="14.00" fill="#000000">22</text>
</g>
<!-- 78&#45;&gt;79 -->
<g id="edge64" class="edge">
<title>78&#45;&gt;79</title>
<path fill="none" stroke="#000000" d="M26168.7061,-293.3536C26355.9215,-283.3154 27344.1401,-230.3287 27598.3379,-216.699"/>
<polygon fill="#000000" stroke="#000000" points="27598.6831,-220.1856 27608.4813,-216.1551 27598.3082,-213.1956 27598.6831,-220.1856"/>
</g>
<!-- 80 -->
<g id="node66" class="node">
<title>80</title>
<polygon fill="none" stroke="#ffff00" stroke-width="2" points="28076,-128.5 27240,-128.5 27240,-45.5 28076,-45.5 28076,-128.5"/>
<text text-anchor="middle" x="27658" y="-113.3" font-family="Times,serif" font-size="14.00" fill="#000000">SQLQuery</text>
<text text-anchor="middle" x="27658" y="-98.3" font-family="Times,serif" font-size="14.00" fill="#000000">SELECT tab_969.nr, tab_969.producer, tab_971.label, tab_971.propertyNum1 </text>
<text text-anchor="middle" x="27658" y="-83.3" font-family="Times,serif" font-size="14.00" fill="#000000">FROM PRODUCTTYPEPRODUCT AS tab_970, PRODUCT AS tab_969, Product AS tab_971 &#160;</text>
<text text-anchor="middle" x="27658" y="-68.3" font-family="Times,serif" font-size="14.00" fill="#000000">WHERE tab_970.producttype = 1059 AND tab_970.product = tab_969.nr AND tab_969.nr = tab_971.nr AND tab_969.producer = tab_971.producer</text>
<text text-anchor="middle" x="27658" y="-53.3" font-family="Times,serif" font-size="14.00" fill="#000000">183</text>
</g>
<!-- 79&#45;&gt;80 -->
<g id="edge65" class="edge">
<title>79&#45;&gt;80</title>
<path fill="none" stroke="#000000" d="M27658,-186.9815C27658,-173.0622 27658,-155.511 27658,-139.0135"/>
<polygon fill="#000000" stroke="#000000" points="27661.5001,-138.9195 27658,-128.9195 27654.5001,-138.9196 27661.5001,-138.9195"/>
</g>
<!-- 81 -->
<g id="node67" class="node">
<title>81</title>
<polygon fill="none" stroke="#ffff00" stroke-width="2" points="29038,-151 28094,-151 28094,-23 29038,-23 29038,-151"/>
<text text-anchor="middle" x="28566" y="-135.8" font-family="Times,serif" font-size="14.00" fill="#000000">PhyMongoDBEval</text>
<text text-anchor="middle" x="28566" y="-120.8" font-family="Times,serif" font-size="14.00" fill="#000000">countrytype</text>
<text text-anchor="middle" x="28566" y="-105.8" font-family="Times,serif" font-size="14.00" fill="#000000">[{&quot;$match&quot;:{&quot;countrytype&quot;:121}},</text>
<text text-anchor="middle" x="28566" y="-90.8" font-family="Times,serif" font-size="14.00" fill="#000000">{$lookup: { from: &quot;productproducercountry&quot;, let: { &quot;country&quot;: &quot;$country&quot;}, pipeline: [ { $match: {$expr: {$eq: [&quot;$$country&quot;, &quot;$country&quot;] } } } ], as: &quot;mongojoin31&quot;}},</text>
<text text-anchor="middle" x="28566" y="-75.8" font-family="Times,serif" font-size="14.00" fill="#000000">{$unwind: &quot;$mongojoin31&quot;},</text>
<text text-anchor="middle" x="28566" y="-60.8" font-family="Times,serif" font-size="14.00" fill="#000000">{ &quot;$match&quot;: { &quot;mongojoin31.producer&quot;: %s, &quot;mongojoin31.nr&quot;: %s } }]</text>
<text text-anchor="middle" x="28566" y="-45.8" font-family="Times,serif" font-size="14.00" fill="#000000">[country, mongojoin31.nr, mongojoin31.producer]</text>
<text text-anchor="middle" x="28566" y="-30.8" font-family="Times,serif" font-size="14.00" fill="#000000">22</text>
</g>
<!-- 79&#45;&gt;81 -->
<g id="edge66" class="edge">
<title>79&#45;&gt;81</title>
<path fill="none" stroke="#000000" d="M27707.7867,-206.5639C27784.4169,-195.888 27938.9311,-174.3615 28096.0018,-152.4788"/>
<polygon fill="#000000" stroke="#000000" points="28096.9293,-155.8835 28106.3507,-151.037 28095.9634,-148.9505 28096.9293,-155.8835"/>
</g>
</g>
</svg>
