digraph  g{ graph[label = "17:39:52.233"]
node [shape=rectangle, color=black, fontcolor=black, style=bold] edge [color=black] 0 [label="BindAccessEval", color = yellow] ; 
1 [label="HashDistinct", color = yellow] ; 
0 -> 1 ; 
2 [label="Union", color = yellow] ; 
1 -> 2 ; 
3 [label="Project
[2, 3, 6]", color = yellow] ; 
2 -> 3 ; 
4 [label="RightBindJoin 
[0, 1]
22", color = yellow] ; 
3 -> 4 ; 
5 [label="SQLQuery
SELECT tab_930.nr, tab_930.producer, tab_932.label, tab_932.propertyNum2 
FROM Product AS tab_932, PRODUCTTYPEPRODUCT AS tab_931, PRODUCT AS tab_930  
WHERE tab_931.producttype = 1059 AND tab_931.product = tab_930.nr AND tab_930.nr = tab_932.nr AND tab_930.producer = tab_932.producer
183", color = yellow] ; 
4 -> 5 ; 
6 [label="PhyMongoDBEval
countrytype
[{\"$match\":{\"countrytype\":122}},
{$lookup: { from: \"productproducercountry\", let: { \"country\": \"$country\"}, pipeline: [ { $match: {$expr: {$eq: [\"$$country\", \"$country\"] } } } ], as: \"mongojoin16\"}},
{$unwind: \"$mongojoin16\"},
{ \"$match\": { \"mongojoin16.nr\": %s, \"mongojoin16.producer\": %s } }]
[mongojoin16.nr, mongojoin16.producer, mongojoin16.country]
22", color = yellow] ; 
4 -> 6 ; 
8 [label="Project
[2, 3, 6]", color = yellow] ; 
2 -> 8 ; 
9 [label="RightBindJoin 
[0, 1]
31", color = yellow] ; 
8 -> 9 ; 
10 [label="SQLQuery
SELECT tab_927.nr, tab_927.producer, tab_929.label, tab_929.propertyNum2 
FROM PRODUCTTYPEPRODUCT AS tab_928, PRODUCT AS tab_927, Product AS tab_929  
WHERE tab_928.producttype = 1058 AND tab_928.product = tab_927.nr AND tab_927.producer = tab_929.producer AND tab_927.nr = tab_929.nr
182", color = yellow] ; 
9 -> 10 ; 
11 [label="PhyMongoDBEval
countrytype
[{\"$match\":{\"countrytype\":111}},
{$lookup: { from: \"productproducercountry\", let: { \"country\": \"$country\"}, pipeline: [ { $match: {$expr: {$eq: [\"$$country\", \"$country\"] } } } ], as: \"mongojoin17\"}},
{$unwind: \"$mongojoin17\"},
{ \"$match\": { \"mongojoin17.nr\": %s, \"mongojoin17.producer\": %s } }]
[mongojoin17.nr, mongojoin17.producer, mongojoin17.country]
31", color = yellow] ; 
9 -> 11 ; 
13 [label="Project
[2, 3, 4]", color = yellow] ; 
2 -> 13 ; 
14 [label="RightBindJoin 
[1, 0]
31", color = yellow] ; 
13 -> 14 ; 
15 [label="SQLQuery
SELECT tab_933.nr, tab_933.producer, tab_935.label, tab_935.propertyNum1 
FROM PRODUCT AS tab_933, Product AS tab_935, PRODUCTTYPEPRODUCT AS tab_934  
WHERE tab_934.producttype = 1058 AND tab_934.product = tab_933.nr AND tab_933.producer = tab_935.producer AND tab_933.nr = tab_935.nr
182", color = yellow] ; 
14 -> 15 ; 
16 [label="PhyMongoDBEval
countrytype
[{\"$match\":{\"countrytype\":111}},
{$lookup: { from: \"productproducercountry\", let: { \"country\": \"$country\"}, pipeline: [ { $match: {$expr: {$eq: [\"$$country\", \"$country\"] } } } ], as: \"mongojoin18\"}},
{$unwind: \"$mongojoin18\"},
{ \"$match\": { \"mongojoin18.producer\": %s, \"mongojoin18.nr\": %s } }]
[country, mongojoin18.nr, mongojoin18.producer]
31", color = yellow] ; 
14 -> 16 ; 
18 [label="Project
[2, 3, 4]", color = yellow] ; 
2 -> 18 ; 
19 [label="RightBindJoin 
[1, 0]
27", color = yellow] ; 
18 -> 19 ; 
20 [label="SQLQuery
SELECT tab_936.nr, tab_936.producer, tab_938.label, tab_938.propertyNum1 
FROM Product AS tab_938, PRODUCT AS tab_936, PRODUCTTYPEPRODUCT AS tab_937  
WHERE tab_937.producttype = 1059 AND tab_937.product = tab_936.nr AND tab_936.producer = tab_938.producer AND tab_936.nr = tab_938.nr
183", color = yellow] ; 
19 -> 20 ; 
21 [label="PhyMongoDBEval
countrytype
[{\"$match\":{\"countrytype\":111}},
{$lookup: { from: \"productproducercountry\", let: { \"country\": \"$country\"}, pipeline: [ { $match: {$expr: {$eq: [\"$$country\", \"$country\"] } } } ], as: \"mongojoin19\"}},
{$unwind: \"$mongojoin19\"},
{ \"$match\": { \"mongojoin19.producer\": %s, \"mongojoin19.nr\": %s } }]
[country, mongojoin19.nr, mongojoin19.producer]
27", color = yellow] ; 
19 -> 21 ; 
23 [label="Project
[2, 3, 6]", color = yellow] ; 
2 -> 23 ; 
24 [label="RightBindJoin 
[0, 1]
27", color = yellow] ; 
23 -> 24 ; 
25 [label="SQLQuery
SELECT tab_939.nr, tab_939.producer, tab_941.label, tab_941.propertyNum2 
FROM PRODUCTTYPEPRODUCT AS tab_940, PRODUCT AS tab_939, Product AS tab_941  
WHERE tab_940.producttype = 1059 AND tab_940.product = tab_939.nr AND tab_939.nr = tab_941.nr AND tab_939.producer = tab_941.producer
183", color = yellow] ; 
24 -> 25 ; 
26 [label="PhyMongoDBEval
countrytype
[{\"$match\":{\"countrytype\":111}},
{$lookup: { from: \"productproducercountry\", let: { \"country\": \"$country\"}, pipeline: [ { $match: {$expr: {$eq: [\"$$country\", \"$country\"] } } } ], as: \"mongojoin20\"}},
{$unwind: \"$mongojoin20\"},
{ \"$match\": { \"mongojoin20.nr\": %s, \"mongojoin20.producer\": %s } }]
[mongojoin20.nr, mongojoin20.producer, mongojoin20.country]
27", color = yellow] ; 
24 -> 26 ; 
28 [label="Project
[2, 3, 6]", color = yellow] ; 
2 -> 28 ; 
29 [label="RightBindJoin 
[1, 0]
22", color = yellow] ; 
28 -> 29 ; 
30 [label="SQLQuery
SELECT tab_942.nr, tab_942.producer, tab_944.label, tab_944.propertyNum2 
FROM PRODUCT AS tab_942, Product AS tab_944, PRODUCTTYPEPRODUCT AS tab_943  
WHERE tab_943.producttype = 1059 AND tab_943.product = tab_942.nr AND tab_942.producer = tab_944.producer AND tab_942.nr = tab_944.nr
183", color = yellow] ; 
29 -> 30 ; 
31 [label="PhyMongoDBEval
countrytype
[{\"$match\":{\"countrytype\":121}},
{$lookup: { from: \"productproducercountry\", let: { \"country\": \"$country\"}, pipeline: [ { $match: {$expr: {$eq: [\"$$country\", \"$country\"] } } } ], as: \"mongojoin21\"}},
{$unwind: \"$mongojoin21\"},
{ \"$match\": { \"mongojoin21.producer\": %s, \"mongojoin21.nr\": %s } }]
[mongojoin21.nr, mongojoin21.producer, mongojoin21.country]
22", color = yellow] ; 
29 -> 31 ; 
33 [label="Project
[2, 3, 6]", color = yellow] ; 
2 -> 33 ; 
34 [label="RightBindJoin 
[0, 1]
84", color = yellow] ; 
33 -> 34 ; 
35 [label="SQLQuery
SELECT tab_945.nr, tab_945.producer, tab_947.label, tab_947.propertyNum1 
FROM PRODUCT AS tab_945, Product AS tab_947, PRODUCTTYPEPRODUCT AS tab_946  
WHERE tab_946.producttype = 1058 AND tab_946.product = tab_945.nr AND tab_945.producer = tab_947.producer AND tab_945.nr = tab_947.nr
182", color = yellow] ; 
34 -> 35 ; 
36 [label="PhyMongoDBEval
countrytype
[{\"$match\":{\"countrytype\":112}},
{$lookup: { from: \"productproducercountry\", let: { \"country\": \"$country\"}, pipeline: [ { $match: {$expr: {$eq: [\"$$country\", \"$country\"] } } } ], as: \"mongojoin22\"}},
{$unwind: \"$mongojoin22\"},
{ \"$match\": { \"mongojoin22.nr\": %s, \"mongojoin22.producer\": %s } }]
[mongojoin22.nr, mongojoin22.producer, mongojoin22.country]
84", color = yellow] ; 
34 -> 36 ; 
38 [label="Project
[2, 3, 4]", color = yellow] ; 
2 -> 38 ; 
39 [label="RightBindJoin 
[0, 1]
95", color = yellow] ; 
38 -> 39 ; 
40 [label="SQLQuery
SELECT tab_948.nr, tab_948.producer, tab_950.label, tab_950.propertyNum1 
FROM PRODUCTTYPEPRODUCT AS tab_949, PRODUCT AS tab_948, Product AS tab_950  
WHERE tab_949.producttype = 1059 AND tab_949.product = tab_948.nr AND tab_948.producer = tab_950.producer AND tab_948.nr = tab_950.nr
183", color = yellow] ; 
39 -> 40 ; 
41 [label="PhyMongoDBEval
countrytype
[{\"$match\":{\"countrytype\":112}},
{$lookup: { from: \"productproducercountry\", let: { \"country\": \"$country\"}, pipeline: [ { $match: {$expr: {$eq: [\"$$country\", \"$country\"] } } } ], as: \"mongojoin23\"}},
{$unwind: \"$mongojoin23\"},
{ \"$match\": { \"mongojoin23.nr\": %s, \"mongojoin23.producer\": %s } }]
[country, mongojoin23.nr, mongojoin23.producer]
95", color = yellow] ; 
39 -> 41 ; 
43 [label="Project
[2, 3, 4]", color = yellow] ; 
2 -> 43 ; 
44 [label="RightBindJoin 
[1, 0]
23", color = yellow] ; 
43 -> 44 ; 
45 [label="SQLQuery
SELECT tab_951.nr, tab_951.producer, tab_953.label, tab_953.propertyNum1 
FROM Product AS tab_953, PRODUCTTYPEPRODUCT AS tab_952, PRODUCT AS tab_951  
WHERE tab_952.producttype = 1058 AND tab_952.product = tab_951.nr AND tab_951.producer = tab_953.producer AND tab_951.nr = tab_953.nr
182", color = yellow] ; 
44 -> 45 ; 
46 [label="PhyMongoDBEval
countrytype
[{\"$match\":{\"countrytype\":122}},
{$lookup: { from: \"productproducercountry\", let: { \"country\": \"$country\"}, pipeline: [ { $match: {$expr: {$eq: [\"$$country\", \"$country\"] } } } ], as: \"mongojoin24\"}},
{$unwind: \"$mongojoin24\"},
{ \"$match\": { \"mongojoin24.producer\": %s, \"mongojoin24.nr\": %s } }]
[country, mongojoin24.nr, mongojoin24.producer]
23", color = yellow] ; 
44 -> 46 ; 
48 [label="Project
[2, 3, 4]", color = yellow] ; 
2 -> 48 ; 
49 [label="RightBindJoin 
[0, 1]
23", color = yellow] ; 
48 -> 49 ; 
50 [label="SQLQuery
SELECT tab_954.nr, tab_954.producer, tab_956.label, tab_956.propertyNum2 
FROM Product AS tab_956, PRODUCT AS tab_954, PRODUCTTYPEPRODUCT AS tab_955  
WHERE tab_955.producttype = 1058 AND tab_955.product = tab_954.nr AND tab_954.producer = tab_956.producer AND tab_954.nr = tab_956.nr
182", color = yellow] ; 
49 -> 50 ; 
51 [label="PhyMongoDBEval
countrytype
[{\"$match\":{\"countrytype\":122}},
{$lookup: { from: \"productproducercountry\", let: { \"country\": \"$country\"}, pipeline: [ { $match: {$expr: {$eq: [\"$$country\", \"$country\"] } } } ], as: \"mongojoin25\"}},
{$unwind: \"$mongojoin25\"},
{ \"$match\": { \"mongojoin25.nr\": %s, \"mongojoin25.producer\": %s } }]
[country, mongojoin25.nr, mongojoin25.producer]
23", color = yellow] ; 
49 -> 51 ; 
53 [label="Project
[2, 3, 6]", color = yellow] ; 
2 -> 53 ; 
54 [label="RightBindJoin 
[0, 1]
84", color = yellow] ; 
53 -> 54 ; 
55 [label="SQLQuery
SELECT tab_957.nr, tab_957.producer, tab_959.label, tab_959.propertyNum2 
FROM PRODUCT AS tab_957, Product AS tab_959, PRODUCTTYPEPRODUCT AS tab_958  
WHERE tab_958.producttype = 1058 AND tab_958.product = tab_957.nr AND tab_957.producer = tab_959.producer AND tab_957.nr = tab_959.nr
182", color = yellow] ; 
54 -> 55 ; 
56 [label="PhyMongoDBEval
countrytype
[{\"$match\":{\"countrytype\":112}},
{$lookup: { from: \"productproducercountry\", let: { \"country\": \"$country\"}, pipeline: [ { $match: {$expr: {$eq: [\"$$country\", \"$country\"] } } } ], as: \"mongojoin26\"}},
{$unwind: \"$mongojoin26\"},
{ \"$match\": { \"mongojoin26.nr\": %s, \"mongojoin26.producer\": %s } }]
[mongojoin26.nr, mongojoin26.producer, mongojoin26.country]
84", color = yellow] ; 
54 -> 56 ; 
58 [label="Project
[2, 3, 6]", color = yellow] ; 
2 -> 58 ; 
59 [label="RightBindJoin 
[0, 1]
24", color = yellow] ; 
58 -> 59 ; 
60 [label="SQLQuery
SELECT tab_924.nr, tab_924.producer, tab_926.label, tab_926.propertyNum1 
FROM PRODUCT AS tab_924, Product AS tab_926, PRODUCTTYPEPRODUCT AS tab_925  
WHERE tab_925.producttype = 1058 AND tab_925.product = tab_924.nr AND tab_924.producer = tab_926.producer AND tab_924.nr = tab_926.nr
182", color = yellow] ; 
59 -> 60 ; 
61 [label="PhyMongoDBEval
countrytype
[{\"$match\":{\"countrytype\":121}},
{$lookup: { from: \"productproducercountry\", let: { \"country\": \"$country\"}, pipeline: [ { $match: {$expr: {$eq: [\"$$country\", \"$country\"] } } } ], as: \"mongojoin27\"}},
{$unwind: \"$mongojoin27\"},
{ \"$match\": { \"mongojoin27.nr\": %s, \"mongojoin27.producer\": %s } }]
[mongojoin27.nr, mongojoin27.producer, mongojoin27.country]
24", color = yellow] ; 
59 -> 61 ; 
63 [label="Project
[2, 3, 6]", color = yellow] ; 
2 -> 63 ; 
64 [label="RightBindJoin 
[1, 0]
22", color = yellow] ; 
63 -> 64 ; 
65 [label="SQLQuery
SELECT tab_960.nr, tab_960.producer, tab_962.label, tab_962.propertyNum1 
FROM PRODUCTTYPEPRODUCT AS tab_961, PRODUCT AS tab_960, Product AS tab_962  
WHERE tab_961.producttype = 1059 AND tab_961.product = tab_960.nr AND tab_960.nr = tab_962.nr AND tab_960.producer = tab_962.producer
183", color = yellow] ; 
64 -> 65 ; 
66 [label="PhyMongoDBEval
countrytype
[{\"$match\":{\"countrytype\":122}},
{$lookup: { from: \"productproducercountry\", let: { \"country\": \"$country\"}, pipeline: [ { $match: {$expr: {$eq: [\"$$country\", \"$country\"] } } } ], as: \"mongojoin28\"}},
{$unwind: \"$mongojoin28\"},
{ \"$match\": { \"mongojoin28.producer\": %s, \"mongojoin28.nr\": %s } }]
[mongojoin28.nr, mongojoin28.producer, mongojoin28.country]
22", color = yellow] ; 
64 -> 66 ; 
68 [label="Project
[2, 3, 6]", color = yellow] ; 
2 -> 68 ; 
69 [label="RightBindJoin 
[1, 0]
24", color = yellow] ; 
68 -> 69 ; 
70 [label="SQLQuery
SELECT tab_963.nr, tab_963.producer, tab_965.label, tab_965.propertyNum2 
FROM Product AS tab_965, PRODUCTTYPEPRODUCT AS tab_964, PRODUCT AS tab_963  
WHERE tab_964.producttype = 1058 AND tab_964.product = tab_963.nr AND tab_963.nr = tab_965.nr AND tab_963.producer = tab_965.producer
182", color = yellow] ; 
69 -> 70 ; 
71 [label="PhyMongoDBEval
countrytype
[{\"$match\":{\"countrytype\":121}},
{$lookup: { from: \"productproducercountry\", let: { \"country\": \"$country\"}, pipeline: [ { $match: {$expr: {$eq: [\"$$country\", \"$country\"] } } } ], as: \"mongojoin29\"}},
{$unwind: \"$mongojoin29\"},
{ \"$match\": { \"mongojoin29.producer\": %s, \"mongojoin29.nr\": %s } }]
[mongojoin29.nr, mongojoin29.producer, mongojoin29.country]
24", color = yellow] ; 
69 -> 71 ; 
73 [label="Project
[2, 3, 6]", color = yellow] ; 
2 -> 73 ; 
74 [label="RightBindJoin 
[1, 0]
95", color = yellow] ; 
73 -> 74 ; 
75 [label="SQLQuery
SELECT tab_966.nr, tab_966.producer, tab_968.label, tab_968.propertyNum2 
FROM PRODUCT AS tab_966, Product AS tab_968, PRODUCTTYPEPRODUCT AS tab_967  
WHERE tab_967.producttype = 1059 AND tab_967.product = tab_966.nr AND tab_966.producer = tab_968.producer AND tab_966.nr = tab_968.nr
183", color = yellow] ; 
74 -> 75 ; 
76 [label="PhyMongoDBEval
countrytype
[{\"$match\":{\"countrytype\":112}},
{$lookup: { from: \"productproducercountry\", let: { \"country\": \"$country\"}, pipeline: [ { $match: {$expr: {$eq: [\"$$country\", \"$country\"] } } } ], as: \"mongojoin30\"}},
{$unwind: \"$mongojoin30\"},
{ \"$match\": { \"mongojoin30.producer\": %s, \"mongojoin30.nr\": %s } }]
[mongojoin30.nr, mongojoin30.producer, mongojoin30.country]
95", color = yellow] ; 
74 -> 76 ; 
78 [label="Project
[2, 3, 4]", color = yellow] ; 
2 -> 78 ; 
79 [label="RightBindJoin 
[1, 0]
22", color = yellow] ; 
78 -> 79 ; 
80 [label="SQLQuery
SELECT tab_969.nr, tab_969.producer, tab_971.label, tab_971.propertyNum1 
FROM PRODUCTTYPEPRODUCT AS tab_970, PRODUCT AS tab_969, Product AS tab_971  
WHERE tab_970.producttype = 1059 AND tab_970.product = tab_969.nr AND tab_969.nr = tab_971.nr AND tab_969.producer = tab_971.producer
183", color = yellow] ; 
79 -> 80 ; 
81 [label="PhyMongoDBEval
countrytype
[{\"$match\":{\"countrytype\":121}},
{$lookup: { from: \"productproducercountry\", let: { \"country\": \"$country\"}, pipeline: [ { $match: {$expr: {$eq: [\"$$country\", \"$country\"] } } } ], as: \"mongojoin31\"}},
{$unwind: \"$mongojoin31\"},
{ \"$match\": { \"mongojoin31.producer\": %s, \"mongojoin31.nr\": %s } }]
[country, mongojoin31.nr, mongojoin31.producer]
22", color = yellow] ; 
79 -> 81 ; 
82 [label="FunctionCallBindAccess
(\"{0}\", \"{1}\", <http://downlode.org/rdf/iso-3166/countries#{2}>)", color = yellow] ; 
0 -> 82 ; 
}
