<?xml version="1.0" encoding="UTF-8" standalone="no"?>
<!DOCTYPE svg PUBLIC "-//W3C//DTD SVG 1.1//EN"
 "http://www.w3.org/Graphics/SVG/1.1/DTD/svg11.dtd">
<!-- Generated by graphviz version 2.40.1 (20161225.0304)
 -->
<!-- Title: g Pages: 1 -->
<svg width="3318pt" height="456pt"
 viewBox="0.00 0.00 3317.50 456.00" xmlns="http://www.w3.org/2000/svg" xmlns:xlink="http://www.w3.org/1999/xlink">
<g id="graph0" class="graph" transform="scale(1 1) rotate(0) translate(4 452)">
<title>g</title>
<polygon fill="#ffffff" stroke="transparent" points="-4,4 -4,-452 3313.5,-452 3313.5,4 -4,4"/>
<text text-anchor="middle" x="1654.75" y="-7.8" font-family="Times,serif" font-size="14.00" fill="#000000">17:54:3.894</text>
<!-- 0 -->
<g id="node1" class="node">
<title>0</title>
<polygon fill="none" stroke="#ffff00" stroke-width="2" points="1987.5,-448 1881.5,-448 1881.5,-412 1987.5,-412 1987.5,-448"/>
<text text-anchor="middle" x="1934.5" y="-426.3" font-family="Times,serif" font-size="14.00" fill="#000000">BindAccessEval</text>
</g>
<!-- 1 -->
<g id="node2" class="node">
<title>1</title>
<polygon fill="none" stroke="#ffff00" stroke-width="2" points="2205,-376 0,-376 0,-23 2205,-23 2205,-376"/>
<text text-anchor="middle" x="1102.5" y="-360.8" font-family="Times,serif" font-size="14.00" fill="#000000">SQLQuery</text>
<text text-anchor="middle" x="1102.5" y="-345.8" font-family="Times,serif" font-size="14.00" fill="#000000">SELECT tab_5153.producer, tab_5153.nr, tab_5154.producer, tab_5154.nr </text>
<text text-anchor="middle" x="1102.5" y="-330.8" font-family="Times,serif" font-size="14.00" fill="#000000">FROM Product AS tab_5153, PRODUCTTYPEPRODUCT AS tab_5157, PRODUCT AS tab_5156, Product AS tab_5154, PRODUCT AS tab_5152, PRODUCTTYPEPRODUCT AS tab_5155 </text>
<text text-anchor="middle" x="1102.5" y="-315.8" font-family="Times,serif" font-size="14.00" fill="#000000">WHERE tab_5155.producttype = 966 AND tab_5155.product = tab_5152.nr AND tab_5154.producer = tab_5152.producer AND tab_5154.nr = tab_5152.nr AND tab_5153.propertyNum1 = &#39;1265&#39; AND tab_5154.producer = tab_5153.producer AND tab_5157.producttype = 1063 AND tab_5157.product = tab_5156.nr AND tab_5153.producer = tab_5156.producer AND tab_5153.nr = tab_5156.nr </text>
<text text-anchor="middle" x="1102.5" y="-300.8" font-family="Times,serif" font-size="14.00" fill="#000000">UNION</text>
<text text-anchor="middle" x="1102.5" y="-285.8" font-family="Times,serif" font-size="14.00" fill="#000000">SELECT tab_3760.producer, tab_3760.nr, tab_3762.producer, tab_3762.nr </text>
<text text-anchor="middle" x="1102.5" y="-270.8" font-family="Times,serif" font-size="14.00" fill="#000000">FROM PRODUCTTYPEPRODUCT AS tab_3764, PRODUCTTYPEPRODUCT AS tab_3759, PRODUCT AS tab_3763, PRODUCT AS tab_3760, Product AS tab_3761, Product AS tab_3762 </text>
<text text-anchor="middle" x="1102.5" y="-255.8" font-family="Times,serif" font-size="14.00" fill="#000000">WHERE tab_3759.producttype = 1053 AND tab_3759.product = tab_3760.nr AND tab_3761.propertyNum2 = &#39;1265&#39; AND tab_3760.producer = tab_3761.producer AND tab_3760.nr = tab_3761.nr AND tab_3761.producer = tab_3762.producer AND tab_3764.producttype = 964 AND tab_3764.product = tab_3763.nr AND tab_3762.producer = tab_3763.producer AND tab_3762.nr = tab_3763.nr </text>
<text text-anchor="middle" x="1102.5" y="-240.8" font-family="Times,serif" font-size="14.00" fill="#000000">UNION</text>
<text text-anchor="middle" x="1102.5" y="-225.8" font-family="Times,serif" font-size="14.00" fill="#000000">SELECT tab_4201.producer, tab_4201.nr, tab_4199.producer, tab_4199.nr </text>
<text text-anchor="middle" x="1102.5" y="-210.8" font-family="Times,serif" font-size="14.00" fill="#000000">FROM PRODUCT AS tab_4202, PRODUCTTYPEPRODUCT AS tab_4203, PRODUCT AS tab_4198, Product AS tab_4199, PRODUCTTYPEPRODUCT AS tab_4200, Product AS tab_4201 </text>
<text text-anchor="middle" x="1102.5" y="-195.8" font-family="Times,serif" font-size="14.00" fill="#000000">WHERE tab_4200.producttype = 962 AND tab_4200.product = tab_4198.nr AND tab_4199.producer = tab_4198.producer AND tab_4199.nr = tab_4198.nr AND tab_4201.propertyNum2 = &#39;1265&#39; AND tab_4199.producer = tab_4201.producer AND tab_4203.producttype = 1057 AND tab_4203.product = tab_4202.nr AND tab_4201.producer = tab_4202.producer AND tab_4201.nr = tab_4202.nr </text>
<text text-anchor="middle" x="1102.5" y="-180.8" font-family="Times,serif" font-size="14.00" fill="#000000">UNION</text>
<text text-anchor="middle" x="1102.5" y="-165.8" font-family="Times,serif" font-size="14.00" fill="#000000">SELECT tab_4018.producer, tab_4018.nr, tab_4017.producer, tab_4017.nr </text>
<text text-anchor="middle" x="1102.5" y="-150.8" font-family="Times,serif" font-size="14.00" fill="#000000">FROM Product AS tab_4017, Product AS tab_4019, PRODUCT AS tab_4018, PRODUCTTYPEPRODUCT AS tab_4022, PRODUCTTYPEPRODUCT AS tab_4020, PRODUCT AS tab_4021 </text>
<text text-anchor="middle" x="1102.5" y="-135.8" font-family="Times,serif" font-size="14.00" fill="#000000">WHERE tab_4020.producttype = 1057 AND tab_4020.product = tab_4018.nr AND tab_4019.propertyNum2 = &#39;1265&#39; AND tab_4018.producer = tab_4019.producer AND tab_4018.nr = tab_4019.nr AND tab_4019.producer = tab_4017.producer AND tab_4022.producttype = 969 AND tab_4022.product = tab_4021.nr AND tab_4017.producer = tab_4021.producer AND tab_4017.nr = tab_4021.nr </text>
<text text-anchor="middle" x="1102.5" y="-120.8" font-family="Times,serif" font-size="14.00" fill="#000000">UNION</text>
<text text-anchor="middle" x="1102.5" y="-105.8" font-family="Times,serif" font-size="14.00" fill="#000000">SELECT tab_6429.producer, tab_6429.nr, tab_6428.producer, tab_6428.nr </text>
<text text-anchor="middle" x="1102.5" y="-90.8" font-family="Times,serif" font-size="14.00" fill="#000000">FROM Product AS tab_6427, Product AS tab_6428, PRODUCT AS tab_6429, PRODUCTTYPEPRODUCT AS tab_6430, PRODUCT AS tab_6431, PRODUCTTYPEPRODUCT AS tab_6432 </text>
<text text-anchor="middle" x="1102.5" y="-75.8" font-family="Times,serif" font-size="14.00" fill="#000000">WHERE tab_6430.producttype = 1066 AND tab_6430.product = tab_6429.nr AND tab_6427.propertyNum1 = &#39;1265&#39; AND tab_6429.producer = tab_6427.producer AND tab_6429.nr = tab_6427.nr AND tab_6427.producer = tab_6428.producer AND tab_6432.producttype = 962 AND tab_6432.product = tab_6431.nr AND tab_6428.producer = tab_6431.producer AND tab_6428.nr = tab_6431.nr </text>
<text text-anchor="middle" x="1102.5" y="-60.8" font-family="Times,serif" font-size="14.00" fill="#000000">UNION</text>
<text text-anchor="middle" x="1102.5" y="-45.8" font-family="Times,serif" font-size="14.00" fill="#000000">SELECT tab_2175.producer, tab_2175.nr, tab_2177.producer, tab_217... (511 UNIONs)</text>
<text text-anchor="middle" x="1102.5" y="-30.8" font-family="Times,serif" font-size="14.00" fill="#000000">5</text>
</g>
<!-- 0&#45;&gt;1 -->
<g id="edge1" class="edge">
<title>0&#45;&gt;1</title>
<path fill="none" stroke="#000000" d="M1881.189,-415.2305C1848.4546,-406.1617 1802.6462,-393.4708 1749.4651,-378.7373"/>
<polygon fill="#000000" stroke="#000000" points="1750.3789,-375.3587 1739.8074,-376.0617 1748.51,-382.1046 1750.3789,-375.3587"/>
</g>
<!-- 2 -->
<g id="node3" class="node">
<title>2</title>
<polygon fill="none" stroke="#ffff00" stroke-width="2" points="3309.5,-218.5 2223.5,-218.5 2223.5,-180.5 3309.5,-180.5 3309.5,-218.5"/>
<text text-anchor="middle" x="2766.5" y="-203.3" font-family="Times,serif" font-size="14.00" fill="#000000">FunctionCallBindAccess</text>
<text text-anchor="middle" x="2766.5" y="-188.3" font-family="Times,serif" font-size="14.00" fill="#000000">(&lt;http://www4.wiwiss.fu&#45;berlin.de/bizer/bsbm/v01/instances/dataFromProducer{0}/Product{1}&gt;, &lt;http://www4.wiwiss.fu&#45;berlin.de/bizer/bsbm/v01/instances/dataFromProducer{2}/Product{3}&gt;)</text>
</g>
<!-- 0&#45;&gt;2 -->
<g id="edge2" class="edge">
<title>0&#45;&gt;2</title>
<path fill="none" stroke="#000000" d="M1987.5532,-421.7024C2044.1768,-412.3974 2136.3124,-395.9642 2214.5,-376 2395.1144,-329.8824 2603.4236,-258.071 2704.7391,-221.9116"/>
<polygon fill="#000000" stroke="#000000" points="2705.9683,-225.1892 2714.2053,-218.5257 2703.6107,-218.5982 2705.9683,-225.1892"/>
</g>
</g>
</svg>
