<?xml version="1.0" encoding="UTF-8" standalone="no"?>
<!DOCTYPE svg PUBLIC "-//W3C//DTD SVG 1.1//EN"
 "http://www.w3.org/Graphics/SVG/1.1/DTD/svg11.dtd">
<!-- Generated by graphviz version 2.40.1 (20161225.0304)
 -->
<!-- Title: g Pages: 1 -->
<svg width="1630pt" height="275pt"
 viewBox="0.00 0.00 1629.50 275.00" xmlns="http://www.w3.org/2000/svg" xmlns:xlink="http://www.w3.org/1999/xlink">
<g id="graph0" class="graph" transform="scale(1 1) rotate(0) translate(4 271)">
<title>g</title>
<polygon fill="#ffffff" stroke="transparent" points="-4,4 -4,-271 1625.5,-271 1625.5,4 -4,4"/>
<text text-anchor="middle" x="810.75" y="-7.8" font-family="Times,serif" font-size="14.00" fill="#000000">17:54:56.353</text>
<!-- 0 -->
<g id="node1" class="node">
<title>0</title>
<polygon fill="none" stroke="#ffff00" stroke-width="2" points="755.5,-267 649.5,-267 649.5,-231 755.5,-231 755.5,-267"/>
<text text-anchor="middle" x="702.5" y="-245.3" font-family="Times,serif" font-size="14.00" fill="#000000">BindAccessEval</text>
</g>
<!-- 1 -->
<g id="node2" class="node">
<title>1</title>
<polygon fill="none" stroke="#ffff00" stroke-width="2" points="419,-194 332,-194 332,-158 419,-158 419,-194"/>
<text text-anchor="middle" x="375.5" y="-172.3" font-family="Times,serif" font-size="14.00" fill="#000000">HashDistinct</text>
</g>
<!-- 0&#45;&gt;1 -->
<g id="edge1" class="edge">
<title>0&#45;&gt;1</title>
<path fill="none" stroke="#000000" d="M649.426,-240.9605C595.9422,-232.3188 510.9884,-217.1191 428.7592,-194.8574"/>
<polygon fill="#000000" stroke="#000000" points="429.5767,-191.4524 419.0069,-192.1799 427.7234,-198.2026 429.5767,-191.4524"/>
</g>
<!-- 3 -->
<g id="node4" class="node">
<title>3</title>
<polygon fill="none" stroke="#ffff00" stroke-width="2" points="1621.5,-195 437.5,-195 437.5,-157 1621.5,-157 1621.5,-195"/>
<text text-anchor="middle" x="1029.5" y="-179.8" font-family="Times,serif" font-size="14.00" fill="#000000">FunctionCallBindAccess</text>
<text text-anchor="middle" x="1029.5" y="-164.8" font-family="Times,serif" font-size="14.00" fill="#000000">(&lt;http://www4.wiwiss.fu&#45;berlin.de/bizer/bsbm/v01/instances/dataFromVendor{1}/Offer{0}&gt;, &lt;{2}&gt;, &lt;http://www4.wiwiss.fu&#45;berlin.de/bizer/bsbm/v01/instances/dataFromVendor{1}/Vendor{1}&gt;, &quot;{3}&quot;, &lt;{4}&gt;)</text>
</g>
<!-- 0&#45;&gt;3 -->
<g id="edge3" class="edge">
<title>0&#45;&gt;3</title>
<path fill="none" stroke="#000000" d="M755.766,-237.1088C804.01,-226.3387 876.2223,-210.2179 934.3659,-197.2379"/>
<polygon fill="#000000" stroke="#000000" points="935.3112,-200.6131 944.3083,-195.0183 933.786,-193.7813 935.3112,-200.6131"/>
</g>
<!-- 2 -->
<g id="node3" class="node">
<title>2</title>
<polygon fill="none" stroke="#ffff00" stroke-width="2" points="751,-121 0,-121 0,-23 751,-23 751,-121"/>
<text text-anchor="middle" x="375.5" y="-105.8" font-family="Times,serif" font-size="14.00" fill="#000000">PhyMongoDBEval</text>
<text text-anchor="middle" x="375.5" y="-90.8" font-family="Times,serif" font-size="14.00" fill="#000000">vendor</text>
<text text-anchor="middle" x="375.5" y="-75.8" font-family="Times,serif" font-size="14.00" fill="#000000">[{$lookup: { from: &quot;offer&quot;, let: { &quot;nr&quot;: &quot;$nr&quot;}, pipeline: [ { $match: {$expr: {$eq: [&quot;$$nr&quot;, &quot;$vendor&quot;] } } } ], as: &quot;mongojoin32&quot;}},</text>
<text text-anchor="middle" x="375.5" y="-60.8" font-family="Times,serif" font-size="14.00" fill="#000000">{$unwind: &quot;$mongojoin32&quot;}]</text>
<text text-anchor="middle" x="375.5" y="-45.8" font-family="Times,serif" font-size="14.00" fill="#000000">[mongojoin32.nr, mongojoin32.vendor, mongojoin32.offerwebpage, label, homepage]</text>
<text text-anchor="middle" x="375.5" y="-30.8" font-family="Times,serif" font-size="14.00" fill="#000000">3000000</text>
</g>
<!-- 1&#45;&gt;2 -->
<g id="edge2" class="edge">
<title>1&#45;&gt;2</title>
<path fill="none" stroke="#000000" d="M375.5,-157.8846C375.5,-150.2826 375.5,-140.9694 375.5,-131.3129"/>
<polygon fill="#000000" stroke="#000000" points="379.0001,-131.1828 375.5,-121.1829 372.0001,-131.1829 379.0001,-131.1828"/>
</g>
</g>
</svg>
