<?xml version="1.0" encoding="UTF-8" standalone="no"?>
<!DOCTYPE svg PUBLIC "-//W3C//DTD SVG 1.1//EN"
 "http://www.w3.org/Graphics/SVG/1.1/DTD/svg11.dtd">
<!-- Generated by graphviz version 2.40.1 (20161225.0304)
 -->
<!-- Title: g Pages: 1 -->
<svg width="2502pt" height="703pt"
 viewBox="0.00 0.00 2502.00 703.00" xmlns="http://www.w3.org/2000/svg" xmlns:xlink="http://www.w3.org/1999/xlink">
<g id="graph0" class="graph" transform="scale(1 1) rotate(0) translate(4 699)">
<title>g</title>
<polygon fill="#ffffff" stroke="transparent" points="-4,4 -4,-699 2498,-699 2498,4 -4,4"/>
<text text-anchor="middle" x="1247" y="-7.8" font-family="Times,serif" font-size="14.00" fill="#000000">18:7:29.864</text>
<!-- 0 -->
<g id="node1" class="node">
<title>0</title>
<polygon fill="none" stroke="#ffff00" stroke-width="2" points="1516.5,-695 1410.5,-695 1410.5,-659 1516.5,-659 1516.5,-695"/>
<text text-anchor="middle" x="1463.5" y="-673.3" font-family="Times,serif" font-size="14.00" fill="#000000">BindAccessEval</text>
</g>
<!-- 1 -->
<g id="node2" class="node">
<title>1</title>
<polygon fill="none" stroke="#ffff00" stroke-width="2" points="1333,-622 1246,-622 1246,-586 1333,-586 1333,-622"/>
<text text-anchor="middle" x="1289.5" y="-600.3" font-family="Times,serif" font-size="14.00" fill="#000000">HashDistinct</text>
</g>
<!-- 0&#45;&gt;1 -->
<g id="edge1" class="edge">
<title>0&#45;&gt;1</title>
<path fill="none" stroke="#000000" d="M1420.4888,-658.9551C1396.7517,-648.9964 1367.0859,-636.5504 1341.9915,-626.0223"/>
<polygon fill="#000000" stroke="#000000" points="1343.1949,-622.7317 1332.6195,-622.0904 1340.4868,-629.1866 1343.1949,-622.7317"/>
</g>
<!-- 34 -->
<g id="node32" class="node">
<title>34</title>
<polygon fill="none" stroke="#ffff00" stroke-width="2" points="1926,-623 1351,-623 1351,-585 1926,-585 1926,-623"/>
<text text-anchor="middle" x="1638.5" y="-607.8" font-family="Times,serif" font-size="14.00" fill="#000000">FunctionCallBindAccess</text>
<text text-anchor="middle" x="1638.5" y="-592.8" font-family="Times,serif" font-size="14.00" fill="#000000">(&lt;http://www4.wiwiss.fu&#45;berlin.de/bizer/bsbm/v01/instances/dataFromVendor{0}/Offer{1}&gt;, &lt;{2}&gt;)</text>
</g>
<!-- 0&#45;&gt;34 -->
<g id="edge31" class="edge">
<title>0&#45;&gt;34</title>
<path fill="none" stroke="#000000" d="M1506.7584,-658.9551C1529.9139,-649.2959 1558.6789,-637.2968 1583.4175,-626.9773"/>
<polygon fill="#000000" stroke="#000000" points="1584.7998,-630.193 1592.6816,-623.1128 1582.1049,-623.7326 1584.7998,-630.193"/>
</g>
<!-- 2 -->
<g id="node3" class="node">
<title>2</title>
<polygon fill="none" stroke="#ffff00" stroke-width="2" points="1316.5,-549 1262.5,-549 1262.5,-513 1316.5,-513 1316.5,-549"/>
<text text-anchor="middle" x="1289.5" y="-527.3" font-family="Times,serif" font-size="14.00" fill="#000000">Union</text>
</g>
<!-- 1&#45;&gt;2 -->
<g id="edge2" class="edge">
<title>1&#45;&gt;2</title>
<path fill="none" stroke="#000000" d="M1289.5,-585.9551C1289.5,-577.8828 1289.5,-568.1764 1289.5,-559.1817"/>
<polygon fill="#000000" stroke="#000000" points="1293.0001,-559.0903 1289.5,-549.0904 1286.0001,-559.0904 1293.0001,-559.0903"/>
</g>
<!-- 3 -->
<g id="node4" class="node">
<title>3</title>
<polygon fill="none" stroke="#ffff00" stroke-width="2" points="1068,-477 1007,-477 1007,-439 1068,-439 1068,-477"/>
<text text-anchor="middle" x="1037.5" y="-461.8" font-family="Times,serif" font-size="14.00" fill="#000000">Project</text>
<text text-anchor="middle" x="1037.5" y="-446.8" font-family="Times,serif" font-size="14.00" fill="#000000">[1, 0, 4]</text>
</g>
<!-- 2&#45;&gt;3 -->
<g id="edge3" class="edge">
<title>2&#45;&gt;3</title>
<path fill="none" stroke="#000000" d="M1262.0519,-523.0488C1217.5639,-510.1614 1129.4971,-484.6499 1077.8601,-469.6916"/>
<polygon fill="#000000" stroke="#000000" points="1078.6212,-466.2682 1068.0422,-466.8475 1076.6734,-472.9918 1078.6212,-466.2682"/>
</g>
<!-- 11 -->
<g id="node11" class="node">
<title>11</title>
<polygon fill="none" stroke="#ffff00" stroke-width="2" points="1281,-477 1220,-477 1220,-439 1281,-439 1281,-477"/>
<text text-anchor="middle" x="1250.5" y="-461.8" font-family="Times,serif" font-size="14.00" fill="#000000">Project</text>
<text text-anchor="middle" x="1250.5" y="-446.8" font-family="Times,serif" font-size="14.00" fill="#000000">[1, 0, 4]</text>
</g>
<!-- 2&#45;&gt;11 -->
<g id="edge10" class="edge">
<title>2&#45;&gt;11</title>
<path fill="none" stroke="#000000" d="M1279.8595,-512.9551C1275.5403,-504.8703 1270.3452,-495.1462 1265.5336,-486.1398"/>
<polygon fill="#000000" stroke="#000000" points="1268.5102,-484.2838 1260.711,-477.1128 1262.3361,-487.5823 1268.5102,-484.2838"/>
</g>
<!-- 19 -->
<g id="node18" class="node">
<title>19</title>
<polygon fill="none" stroke="#ffff00" stroke-width="2" points="1384,-477 1323,-477 1323,-439 1384,-439 1384,-477"/>
<text text-anchor="middle" x="1353.5" y="-461.8" font-family="Times,serif" font-size="14.00" fill="#000000">Project</text>
<text text-anchor="middle" x="1353.5" y="-446.8" font-family="Times,serif" font-size="14.00" fill="#000000">[1, 0, 4]</text>
</g>
<!-- 2&#45;&gt;19 -->
<g id="edge17" class="edge">
<title>2&#45;&gt;19</title>
<path fill="none" stroke="#000000" d="M1305.3202,-512.9551C1312.7813,-504.4448 1321.8348,-494.1181 1330.0707,-484.7241"/>
<polygon fill="#000000" stroke="#000000" points="1332.783,-486.9396 1336.7435,-477.1128 1327.5194,-482.3249 1332.783,-486.9396"/>
</g>
<!-- 27 -->
<g id="node25" class="node">
<title>27</title>
<polygon fill="none" stroke="#ffff00" stroke-width="2" points="1749,-477 1688,-477 1688,-439 1749,-439 1749,-477"/>
<text text-anchor="middle" x="1718.5" y="-461.8" font-family="Times,serif" font-size="14.00" fill="#000000">Project</text>
<text text-anchor="middle" x="1718.5" y="-446.8" font-family="Times,serif" font-size="14.00" fill="#000000">[1, 0, 4]</text>
</g>
<!-- 2&#45;&gt;27 -->
<g id="edge24" class="edge">
<title>2&#45;&gt;27</title>
<path fill="none" stroke="#000000" d="M1316.6613,-526.3781C1389.7585,-513.9397 1590.972,-479.7006 1677.769,-464.9309"/>
<polygon fill="#000000" stroke="#000000" points="1678.4994,-468.357 1687.7705,-463.229 1677.325,-461.4562 1678.4994,-468.357"/>
</g>
<!-- 4 -->
<g id="node5" class="node">
<title>4</title>
<polygon fill="none" stroke="#ffff00" stroke-width="2" points="844,-403 745,-403 745,-350 844,-350 844,-403"/>
<text text-anchor="middle" x="794.5" y="-387.8" font-family="Times,serif" font-size="14.00" fill="#000000">RightBindJoin </text>
<text text-anchor="middle" x="794.5" y="-372.8" font-family="Times,serif" font-size="14.00" fill="#000000">[1, 0]</text>
<text text-anchor="middle" x="794.5" y="-357.8" font-family="Times,serif" font-size="14.00" fill="#000000">1337483</text>
</g>
<!-- 3&#45;&gt;4 -->
<g id="edge4" class="edge">
<title>3&#45;&gt;4</title>
<path fill="none" stroke="#000000" d="M1006.7239,-447.678C968.4905,-434.8548 902.4105,-412.6922 854.1204,-396.4961"/>
<polygon fill="#000000" stroke="#000000" points="855.0019,-393.1003 844.408,-393.2387 852.776,-399.7369 855.0019,-393.1003"/>
</g>
<!-- 5 -->
<g id="node6" class="node">
<title>5</title>
<polygon fill="none" stroke="#ffff00" stroke-width="2" points="525,-291.5 470,-291.5 470,-253.5 525,-253.5 525,-291.5"/>
<text text-anchor="middle" x="497.5" y="-276.3" font-family="Times,serif" font-size="14.00" fill="#000000">Project</text>
<text text-anchor="middle" x="497.5" y="-261.3" font-family="Times,serif" font-size="14.00" fill="#000000">[1, 2]</text>
</g>
<!-- 4&#45;&gt;5 -->
<g id="edge5" class="edge">
<title>4&#45;&gt;5</title>
<path fill="none" stroke="#000000" d="M744.7889,-359.0927C685.527,-338.3411 587.8505,-304.1379 534.7253,-285.5351"/>
<polygon fill="#000000" stroke="#000000" points="535.6258,-282.1421 525.031,-282.1405 533.3124,-288.7488 535.6258,-282.1421"/>
</g>
<!-- 9 -->
<g id="node10" class="node">
<title>9</title>
<polygon fill="none" stroke="#ffff00" stroke-width="2" points="923,-314 666,-314 666,-231 923,-231 923,-314"/>
<text text-anchor="middle" x="794.5" y="-298.8" font-family="Times,serif" font-size="14.00" fill="#000000">PhyMongoDBEval</text>
<text text-anchor="middle" x="794.5" y="-283.8" font-family="Times,serif" font-size="14.00" fill="#000000">offer</text>
<text text-anchor="middle" x="794.5" y="-268.8" font-family="Times,serif" font-size="14.00" fill="#000000">[{ &quot;$match&quot;: { &quot;vendor&quot;: %s, &quot;nr&quot;: %s } }]</text>
<text text-anchor="middle" x="794.5" y="-253.8" font-family="Times,serif" font-size="14.00" fill="#000000">[nr, vendor, offerwebpage]</text>
<text text-anchor="middle" x="794.5" y="-238.8" font-family="Times,serif" font-size="14.00" fill="#000000">1337483</text>
</g>
<!-- 4&#45;&gt;9 -->
<g id="edge9" class="edge">
<title>4&#45;&gt;9</title>
<path fill="none" stroke="#000000" d="M794.5,-349.9873C794.5,-342.2014 794.5,-333.4027 794.5,-324.6002"/>
<polygon fill="#000000" stroke="#000000" points="798.0001,-324.3255 794.5,-314.3255 791.0001,-324.3255 798.0001,-324.3255"/>
</g>
<!-- 6 -->
<g id="node7" class="node">
<title>6</title>
<polygon fill="none" stroke="#ffff00" stroke-width="2" points="468,-195 369,-195 369,-142 468,-142 468,-195"/>
<text text-anchor="middle" x="418.5" y="-179.8" font-family="Times,serif" font-size="14.00" fill="#000000">RightBindJoin </text>
<text text-anchor="middle" x="418.5" y="-164.8" font-family="Times,serif" font-size="14.00" fill="#000000">[0]</text>
<text text-anchor="middle" x="418.5" y="-149.8" font-family="Times,serif" font-size="14.00" fill="#000000">1337483</text>
</g>
<!-- 5&#45;&gt;6 -->
<g id="edge6" class="edge">
<title>5&#45;&gt;6</title>
<path fill="none" stroke="#000000" d="M483.0102,-253.4248C472.3683,-239.4152 457.612,-219.9892 444.898,-203.2518"/>
<polygon fill="#000000" stroke="#000000" points="447.6837,-201.1328 438.8477,-195.2868 442.1095,-205.3671 447.6837,-201.1328"/>
</g>
<!-- 7 -->
<g id="node8" class="node">
<title>7</title>
<polygon fill="none" stroke="#ffff00" stroke-width="2" points="209,-106 0,-106 0,-23 209,-23 209,-106"/>
<text text-anchor="middle" x="104.5" y="-90.8" font-family="Times,serif" font-size="14.00" fill="#000000">PhyMongoDBEval</text>
<text text-anchor="middle" x="104.5" y="-75.8" font-family="Times,serif" font-size="14.00" fill="#000000">countrytype</text>
<text text-anchor="middle" x="104.5" y="-60.8" font-family="Times,serif" font-size="14.00" fill="#000000">[{&quot;$match&quot;:{&quot;countrytype&quot;:112}}]</text>
<text text-anchor="middle" x="104.5" y="-45.8" font-family="Times,serif" font-size="14.00" fill="#000000">[country]</text>
<text text-anchor="middle" x="104.5" y="-30.8" font-family="Times,serif" font-size="14.00" fill="#000000">2</text>
</g>
<!-- 6&#45;&gt;7 -->
<g id="edge7" class="edge">
<title>6&#45;&gt;7</title>
<path fill="none" stroke="#000000" d="M368.7133,-153.7825C330.1321,-142.2047 275.1414,-125.3281 218.8702,-106.4244"/>
<polygon fill="#000000" stroke="#000000" points="219.6884,-103.0066 209.0942,-103.1239 217.4492,-109.6388 219.6884,-103.0066"/>
</g>
<!-- 8 -->
<g id="node9" class="node">
<title>8</title>
<polygon fill="none" stroke="#ffff00" stroke-width="2" points="610,-106 227,-106 227,-23 610,-23 610,-106"/>
<text text-anchor="middle" x="418.5" y="-90.8" font-family="Times,serif" font-size="14.00" fill="#000000">SQLQuery</text>
<text text-anchor="middle" x="418.5" y="-75.8" font-family="Times,serif" font-size="14.00" fill="#000000">SELECT O.nr AS nr, O.vendor AS vendor, V.country AS country </text>
<text text-anchor="middle" x="418.5" y="-60.8" font-family="Times,serif" font-size="14.00" fill="#000000">FROM Offer AS O, Vendor AS V </text>
<text text-anchor="middle" x="418.5" y="-45.8" font-family="Times,serif" font-size="14.00" fill="#000000">WHERE V.country = ? AND O.vendor = V.nr</text>
<text text-anchor="middle" x="418.5" y="-30.8" font-family="Times,serif" font-size="14.00" fill="#000000">1337483</text>
</g>
<!-- 6&#45;&gt;8 -->
<g id="edge8" class="edge">
<title>6&#45;&gt;8</title>
<path fill="none" stroke="#000000" d="M418.5,-141.9873C418.5,-134.2014 418.5,-125.4027 418.5,-116.6002"/>
<polygon fill="#000000" stroke="#000000" points="422.0001,-116.3255 418.5,-106.3255 415.0001,-116.3255 422.0001,-116.3255"/>
</g>
<!-- 12 -->
<g id="node12" class="node">
<title>12</title>
<polygon fill="none" stroke="#ffff00" stroke-width="2" points="1253,-403 1154,-403 1154,-350 1253,-350 1253,-403"/>
<text text-anchor="middle" x="1203.5" y="-387.8" font-family="Times,serif" font-size="14.00" fill="#000000">RightBindJoin </text>
<text text-anchor="middle" x="1203.5" y="-372.8" font-family="Times,serif" font-size="14.00" fill="#000000">[0, 1]</text>
<text text-anchor="middle" x="1203.5" y="-357.8" font-family="Times,serif" font-size="14.00" fill="#000000">492478</text>
</g>
<!-- 11&#45;&gt;12 -->
<g id="edge11" class="edge">
<title>11&#45;&gt;12</title>
<path fill="none" stroke="#000000" d="M1239.3617,-438.6856C1234.7126,-430.6239 1229.1611,-420.9974 1223.8311,-411.7551"/>
<polygon fill="#000000" stroke="#000000" points="1226.8532,-409.9894 1218.8255,-403.0751 1220.7893,-413.4864 1226.8532,-409.9894"/>
</g>
<!-- 13 -->
<g id="node13" class="node">
<title>13</title>
<polygon fill="none" stroke="#ffff00" stroke-width="2" points="1057,-291.5 1002,-291.5 1002,-253.5 1057,-253.5 1057,-291.5"/>
<text text-anchor="middle" x="1029.5" y="-276.3" font-family="Times,serif" font-size="14.00" fill="#000000">Project</text>
<text text-anchor="middle" x="1029.5" y="-261.3" font-family="Times,serif" font-size="14.00" fill="#000000">[1, 2]</text>
</g>
<!-- 12&#45;&gt;13 -->
<g id="edge12" class="edge">
<title>12&#45;&gt;13</title>
<path fill="none" stroke="#000000" d="M1153.7622,-359.9693C1126.18,-349.3832 1092.1713,-333.8892 1065.5,-314 1059.9518,-309.8626 1054.6566,-304.7365 1049.9166,-299.5146"/>
<polygon fill="#000000" stroke="#000000" points="1052.5637,-297.2247 1043.4045,-291.8992 1047.2436,-301.7741 1052.5637,-297.2247"/>
</g>
<!-- 17 -->
<g id="node17" class="node">
<title>17</title>
<polygon fill="none" stroke="#ffff00" stroke-width="2" points="1332,-314 1075,-314 1075,-231 1332,-231 1332,-314"/>
<text text-anchor="middle" x="1203.5" y="-298.8" font-family="Times,serif" font-size="14.00" fill="#000000">PhyMongoDBEval</text>
<text text-anchor="middle" x="1203.5" y="-283.8" font-family="Times,serif" font-size="14.00" fill="#000000">offer</text>
<text text-anchor="middle" x="1203.5" y="-268.8" font-family="Times,serif" font-size="14.00" fill="#000000">[{ &quot;$match&quot;: { &quot;nr&quot;: %s, &quot;vendor&quot;: %s } }]</text>
<text text-anchor="middle" x="1203.5" y="-253.8" font-family="Times,serif" font-size="14.00" fill="#000000">[nr, vendor, offerwebpage]</text>
<text text-anchor="middle" x="1203.5" y="-238.8" font-family="Times,serif" font-size="14.00" fill="#000000">492478</text>
</g>
<!-- 12&#45;&gt;17 -->
<g id="edge16" class="edge">
<title>12&#45;&gt;17</title>
<path fill="none" stroke="#000000" d="M1203.5,-349.9873C1203.5,-342.2014 1203.5,-333.4027 1203.5,-324.6002"/>
<polygon fill="#000000" stroke="#000000" points="1207.0001,-324.3255 1203.5,-314.3255 1200.0001,-324.3255 1207.0001,-324.3255"/>
</g>
<!-- 14 -->
<g id="node14" class="node">
<title>14</title>
<polygon fill="none" stroke="#ffff00" stroke-width="2" points="1079,-195 980,-195 980,-142 1079,-142 1079,-195"/>
<text text-anchor="middle" x="1029.5" y="-179.8" font-family="Times,serif" font-size="14.00" fill="#000000">RightBindJoin </text>
<text text-anchor="middle" x="1029.5" y="-164.8" font-family="Times,serif" font-size="14.00" fill="#000000">[0]</text>
<text text-anchor="middle" x="1029.5" y="-149.8" font-family="Times,serif" font-size="14.00" fill="#000000">492478</text>
</g>
<!-- 13&#45;&gt;14 -->
<g id="edge13" class="edge">
<title>13&#45;&gt;14</title>
<path fill="none" stroke="#000000" d="M1029.5,-253.4248C1029.5,-240.052 1029.5,-221.744 1029.5,-205.5501"/>
<polygon fill="#000000" stroke="#000000" points="1033.0001,-205.2868 1029.5,-195.2868 1026.0001,-205.2868 1033.0001,-205.2868"/>
</g>
<!-- 15 -->
<g id="node15" class="node">
<title>15</title>
<polygon fill="none" stroke="#ffff00" stroke-width="2" points="837,-106 628,-106 628,-23 837,-23 837,-106"/>
<text text-anchor="middle" x="732.5" y="-90.8" font-family="Times,serif" font-size="14.00" fill="#000000">PhyMongoDBEval</text>
<text text-anchor="middle" x="732.5" y="-75.8" font-family="Times,serif" font-size="14.00" fill="#000000">countrytype</text>
<text text-anchor="middle" x="732.5" y="-60.8" font-family="Times,serif" font-size="14.00" fill="#000000">[{&quot;$match&quot;:{&quot;countrytype&quot;:121}}]</text>
<text text-anchor="middle" x="732.5" y="-45.8" font-family="Times,serif" font-size="14.00" fill="#000000">[country]</text>
<text text-anchor="middle" x="732.5" y="-30.8" font-family="Times,serif" font-size="14.00" fill="#000000">2</text>
</g>
<!-- 14&#45;&gt;15 -->
<g id="edge14" class="edge">
<title>14&#45;&gt;15</title>
<path fill="none" stroke="#000000" d="M979.7959,-151.9839C944.951,-140.3216 897.0557,-124.1256 846.8587,-106.4605"/>
<polygon fill="#000000" stroke="#000000" points="847.7223,-103.0538 837.1275,-103.0276 845.3935,-109.6551 847.7223,-103.0538"/>
</g>
<!-- 16 -->
<g id="node16" class="node">
<title>16</title>
<polygon fill="none" stroke="#ffff00" stroke-width="2" points="1238,-106 855,-106 855,-23 1238,-23 1238,-106"/>
<text text-anchor="middle" x="1046.5" y="-90.8" font-family="Times,serif" font-size="14.00" fill="#000000">SQLQuery</text>
<text text-anchor="middle" x="1046.5" y="-75.8" font-family="Times,serif" font-size="14.00" fill="#000000">SELECT O.nr AS nr, O.vendor AS vendor, V.country AS country </text>
<text text-anchor="middle" x="1046.5" y="-60.8" font-family="Times,serif" font-size="14.00" fill="#000000">FROM Offer AS O, Vendor AS V </text>
<text text-anchor="middle" x="1046.5" y="-45.8" font-family="Times,serif" font-size="14.00" fill="#000000">WHERE V.country = ? AND O.vendor = V.nr</text>
<text text-anchor="middle" x="1046.5" y="-30.8" font-family="Times,serif" font-size="14.00" fill="#000000">492478</text>
</g>
<!-- 14&#45;&gt;16 -->
<g id="edge15" class="edge">
<title>14&#45;&gt;16</title>
<path fill="none" stroke="#000000" d="M1033.8338,-141.9873C1035.1203,-134.1168 1036.576,-125.2113 1038.0305,-116.3132"/>
<polygon fill="#000000" stroke="#000000" points="1041.504,-116.7592 1039.6631,-106.3255 1034.5957,-115.6299 1041.504,-116.7592"/>
</g>
<!-- 20 -->
<g id="node19" class="node">
<title>20</title>
<polygon fill="none" stroke="#ffff00" stroke-width="2" points="1427,-403 1328,-403 1328,-350 1427,-350 1427,-403"/>
<text text-anchor="middle" x="1377.5" y="-387.8" font-family="Times,serif" font-size="14.00" fill="#000000">RightBindJoin </text>
<text text-anchor="middle" x="1377.5" y="-372.8" font-family="Times,serif" font-size="14.00" fill="#000000">[0, 1]</text>
<text text-anchor="middle" x="1377.5" y="-357.8" font-family="Times,serif" font-size="14.00" fill="#000000">456006</text>
</g>
<!-- 19&#45;&gt;20 -->
<g id="edge18" class="edge">
<title>19&#45;&gt;20</title>
<path fill="none" stroke="#000000" d="M1359.1877,-438.6856C1361.4638,-430.9563 1364.1635,-421.7887 1366.7809,-412.9003"/>
<polygon fill="#000000" stroke="#000000" points="1370.2067,-413.6566 1369.6742,-403.0751 1363.4918,-411.6791 1370.2067,-413.6566"/>
</g>
<!-- 21 -->
<g id="node20" class="node">
<title>21</title>
<polygon fill="none" stroke="#ffff00" stroke-width="2" points="1405,-291.5 1350,-291.5 1350,-253.5 1405,-253.5 1405,-291.5"/>
<text text-anchor="middle" x="1377.5" y="-276.3" font-family="Times,serif" font-size="14.00" fill="#000000">Project</text>
<text text-anchor="middle" x="1377.5" y="-261.3" font-family="Times,serif" font-size="14.00" fill="#000000">[1, 2]</text>
</g>
<!-- 20&#45;&gt;21 -->
<g id="edge19" class="edge">
<title>20&#45;&gt;21</title>
<path fill="none" stroke="#000000" d="M1377.5,-349.9873C1377.5,-335.3624 1377.5,-317.1641 1377.5,-302.0792"/>
<polygon fill="#000000" stroke="#000000" points="1381.0001,-301.7409 1377.5,-291.741 1374.0001,-301.741 1381.0001,-301.7409"/>
</g>
<!-- 25 -->
<g id="node24" class="node">
<title>25</title>
<polygon fill="none" stroke="#ffff00" stroke-width="2" points="1680,-314 1423,-314 1423,-231 1680,-231 1680,-314"/>
<text text-anchor="middle" x="1551.5" y="-298.8" font-family="Times,serif" font-size="14.00" fill="#000000">PhyMongoDBEval</text>
<text text-anchor="middle" x="1551.5" y="-283.8" font-family="Times,serif" font-size="14.00" fill="#000000">offer</text>
<text text-anchor="middle" x="1551.5" y="-268.8" font-family="Times,serif" font-size="14.00" fill="#000000">[{ &quot;$match&quot;: { &quot;nr&quot;: %s, &quot;vendor&quot;: %s } }]</text>
<text text-anchor="middle" x="1551.5" y="-253.8" font-family="Times,serif" font-size="14.00" fill="#000000">[nr, vendor, offerwebpage]</text>
<text text-anchor="middle" x="1551.5" y="-238.8" font-family="Times,serif" font-size="14.00" fill="#000000">456006</text>
</g>
<!-- 20&#45;&gt;25 -->
<g id="edge23" class="edge">
<title>20&#45;&gt;25</title>
<path fill="none" stroke="#000000" d="M1421.8578,-349.9873C1437.5193,-340.6264 1455.6303,-329.8014 1473.2569,-319.266"/>
<polygon fill="#000000" stroke="#000000" points="1475.0703,-322.2597 1481.8582,-314.125 1471.4789,-316.2512 1475.0703,-322.2597"/>
</g>
<!-- 22 -->
<g id="node21" class="node">
<title>22</title>
<polygon fill="none" stroke="#ffff00" stroke-width="2" points="1427,-195 1328,-195 1328,-142 1427,-142 1427,-195"/>
<text text-anchor="middle" x="1377.5" y="-179.8" font-family="Times,serif" font-size="14.00" fill="#000000">RightBindJoin </text>
<text text-anchor="middle" x="1377.5" y="-164.8" font-family="Times,serif" font-size="14.00" fill="#000000">[0]</text>
<text text-anchor="middle" x="1377.5" y="-149.8" font-family="Times,serif" font-size="14.00" fill="#000000">456006</text>
</g>
<!-- 21&#45;&gt;22 -->
<g id="edge20" class="edge">
<title>21&#45;&gt;22</title>
<path fill="none" stroke="#000000" d="M1377.5,-253.4248C1377.5,-240.052 1377.5,-221.744 1377.5,-205.5501"/>
<polygon fill="#000000" stroke="#000000" points="1381.0001,-205.2868 1377.5,-195.2868 1374.0001,-205.2868 1381.0001,-205.2868"/>
</g>
<!-- 23 -->
<g id="node22" class="node">
<title>23</title>
<polygon fill="none" stroke="#ffff00" stroke-width="2" points="1465,-106 1256,-106 1256,-23 1465,-23 1465,-106"/>
<text text-anchor="middle" x="1360.5" y="-90.8" font-family="Times,serif" font-size="14.00" fill="#000000">PhyMongoDBEval</text>
<text text-anchor="middle" x="1360.5" y="-75.8" font-family="Times,serif" font-size="14.00" fill="#000000">countrytype</text>
<text text-anchor="middle" x="1360.5" y="-60.8" font-family="Times,serif" font-size="14.00" fill="#000000">[{&quot;$match&quot;:{&quot;countrytype&quot;:111}}]</text>
<text text-anchor="middle" x="1360.5" y="-45.8" font-family="Times,serif" font-size="14.00" fill="#000000">[country]</text>
<text text-anchor="middle" x="1360.5" y="-30.8" font-family="Times,serif" font-size="14.00" fill="#000000">2</text>
</g>
<!-- 22&#45;&gt;23 -->
<g id="edge21" class="edge">
<title>22&#45;&gt;23</title>
<path fill="none" stroke="#000000" d="M1373.1662,-141.9873C1371.8797,-134.1168 1370.424,-125.2113 1368.9695,-116.3132"/>
<polygon fill="#000000" stroke="#000000" points="1372.4043,-115.6299 1367.3369,-106.3255 1365.496,-116.7592 1372.4043,-115.6299"/>
</g>
<!-- 24 -->
<g id="node23" class="node">
<title>24</title>
<polygon fill="none" stroke="#ffff00" stroke-width="2" points="1866,-106 1483,-106 1483,-23 1866,-23 1866,-106"/>
<text text-anchor="middle" x="1674.5" y="-90.8" font-family="Times,serif" font-size="14.00" fill="#000000">SQLQuery</text>
<text text-anchor="middle" x="1674.5" y="-75.8" font-family="Times,serif" font-size="14.00" fill="#000000">SELECT O.nr AS nr, O.vendor AS vendor, V.country AS country </text>
<text text-anchor="middle" x="1674.5" y="-60.8" font-family="Times,serif" font-size="14.00" fill="#000000">FROM Offer AS O, Vendor AS V </text>
<text text-anchor="middle" x="1674.5" y="-45.8" font-family="Times,serif" font-size="14.00" fill="#000000">WHERE V.country = ? AND O.vendor = V.nr</text>
<text text-anchor="middle" x="1674.5" y="-30.8" font-family="Times,serif" font-size="14.00" fill="#000000">456006</text>
</g>
<!-- 22&#45;&gt;24 -->
<g id="edge22" class="edge">
<title>22&#45;&gt;24</title>
<path fill="none" stroke="#000000" d="M1427.2111,-151.0927C1459.9115,-139.6421 1504.3084,-124.0957 1546.4626,-109.3347"/>
<polygon fill="#000000" stroke="#000000" points="1547.7011,-112.6094 1555.9825,-106.0011 1545.3876,-106.0027 1547.7011,-112.6094"/>
</g>
<!-- 28 -->
<g id="node26" class="node">
<title>28</title>
<polygon fill="none" stroke="#ffff00" stroke-width="2" points="1907,-403 1808,-403 1808,-350 1907,-350 1907,-403"/>
<text text-anchor="middle" x="1857.5" y="-387.8" font-family="Times,serif" font-size="14.00" fill="#000000">RightBindJoin </text>
<text text-anchor="middle" x="1857.5" y="-372.8" font-family="Times,serif" font-size="14.00" fill="#000000">[0, 1]</text>
<text text-anchor="middle" x="1857.5" y="-357.8" font-family="Times,serif" font-size="14.00" fill="#000000">483522</text>
</g>
<!-- 27&#45;&gt;28 -->
<g id="edge25" class="edge">
<title>27&#45;&gt;28</title>
<path fill="none" stroke="#000000" d="M1749.0041,-440.1145C1765.0098,-430.7299 1785.0952,-418.9532 1803.6194,-408.0919"/>
<polygon fill="#000000" stroke="#000000" points="1805.4244,-411.0908 1812.2806,-403.0135 1801.8838,-405.0523 1805.4244,-411.0908"/>
</g>
<!-- 29 -->
<g id="node27" class="node">
<title>29</title>
<polygon fill="none" stroke="#ffff00" stroke-width="2" points="1885,-291.5 1830,-291.5 1830,-253.5 1885,-253.5 1885,-291.5"/>
<text text-anchor="middle" x="1857.5" y="-276.3" font-family="Times,serif" font-size="14.00" fill="#000000">Project</text>
<text text-anchor="middle" x="1857.5" y="-261.3" font-family="Times,serif" font-size="14.00" fill="#000000">[1, 2]</text>
</g>
<!-- 28&#45;&gt;29 -->
<g id="edge26" class="edge">
<title>28&#45;&gt;29</title>
<path fill="none" stroke="#000000" d="M1857.5,-349.9873C1857.5,-335.3624 1857.5,-317.1641 1857.5,-302.0792"/>
<polygon fill="#000000" stroke="#000000" points="1861.0001,-301.7409 1857.5,-291.741 1854.0001,-301.741 1861.0001,-301.7409"/>
</g>
<!-- 33 -->
<g id="node31" class="node">
<title>33</title>
<polygon fill="none" stroke="#ffff00" stroke-width="2" points="2160,-314 1903,-314 1903,-231 2160,-231 2160,-314"/>
<text text-anchor="middle" x="2031.5" y="-298.8" font-family="Times,serif" font-size="14.00" fill="#000000">PhyMongoDBEval</text>
<text text-anchor="middle" x="2031.5" y="-283.8" font-family="Times,serif" font-size="14.00" fill="#000000">offer</text>
<text text-anchor="middle" x="2031.5" y="-268.8" font-family="Times,serif" font-size="14.00" fill="#000000">[{ &quot;$match&quot;: { &quot;nr&quot;: %s, &quot;vendor&quot;: %s } }]</text>
<text text-anchor="middle" x="2031.5" y="-253.8" font-family="Times,serif" font-size="14.00" fill="#000000">[nr, vendor, offerwebpage]</text>
<text text-anchor="middle" x="2031.5" y="-238.8" font-family="Times,serif" font-size="14.00" fill="#000000">483522</text>
</g>
<!-- 28&#45;&gt;33 -->
<g id="edge30" class="edge">
<title>28&#45;&gt;33</title>
<path fill="none" stroke="#000000" d="M1901.8578,-349.9873C1917.5193,-340.6264 1935.6303,-329.8014 1953.2569,-319.266"/>
<polygon fill="#000000" stroke="#000000" points="1955.0703,-322.2597 1961.8582,-314.125 1951.4789,-316.2512 1955.0703,-322.2597"/>
</g>
<!-- 30 -->
<g id="node28" class="node">
<title>30</title>
<polygon fill="none" stroke="#ffff00" stroke-width="2" points="2038,-195 1939,-195 1939,-142 2038,-142 2038,-195"/>
<text text-anchor="middle" x="1988.5" y="-179.8" font-family="Times,serif" font-size="14.00" fill="#000000">RightBindJoin </text>
<text text-anchor="middle" x="1988.5" y="-164.8" font-family="Times,serif" font-size="14.00" fill="#000000">[0]</text>
<text text-anchor="middle" x="1988.5" y="-149.8" font-family="Times,serif" font-size="14.00" fill="#000000">483522</text>
</g>
<!-- 29&#45;&gt;30 -->
<g id="edge27" class="edge">
<title>29&#45;&gt;30</title>
<path fill="none" stroke="#000000" d="M1872.7631,-253.36C1879.1004,-245.9736 1886.7722,-237.7059 1894.5,-231 1906.8801,-220.257 1921.2047,-209.8622 1934.8817,-200.735"/>
<polygon fill="#000000" stroke="#000000" points="1936.8453,-203.6328 1943.2907,-195.2239 1933.0083,-197.7781 1936.8453,-203.6328"/>
</g>
<!-- 31 -->
<g id="node29" class="node">
<title>31</title>
<polygon fill="none" stroke="#ffff00" stroke-width="2" points="2093,-106 1884,-106 1884,-23 2093,-23 2093,-106"/>
<text text-anchor="middle" x="1988.5" y="-90.8" font-family="Times,serif" font-size="14.00" fill="#000000">PhyMongoDBEval</text>
<text text-anchor="middle" x="1988.5" y="-75.8" font-family="Times,serif" font-size="14.00" fill="#000000">countrytype</text>
<text text-anchor="middle" x="1988.5" y="-60.8" font-family="Times,serif" font-size="14.00" fill="#000000">[{&quot;$match&quot;:{&quot;countrytype&quot;:122}}]</text>
<text text-anchor="middle" x="1988.5" y="-45.8" font-family="Times,serif" font-size="14.00" fill="#000000">[country]</text>
<text text-anchor="middle" x="1988.5" y="-30.8" font-family="Times,serif" font-size="14.00" fill="#000000">2</text>
</g>
<!-- 30&#45;&gt;31 -->
<g id="edge28" class="edge">
<title>30&#45;&gt;31</title>
<path fill="none" stroke="#000000" d="M1988.5,-141.9873C1988.5,-134.2014 1988.5,-125.4027 1988.5,-116.6002"/>
<polygon fill="#000000" stroke="#000000" points="1992.0001,-116.3255 1988.5,-106.3255 1985.0001,-116.3255 1992.0001,-116.3255"/>
</g>
<!-- 32 -->
<g id="node30" class="node">
<title>32</title>
<polygon fill="none" stroke="#ffff00" stroke-width="2" points="2494,-106 2111,-106 2111,-23 2494,-23 2494,-106"/>
<text text-anchor="middle" x="2302.5" y="-90.8" font-family="Times,serif" font-size="14.00" fill="#000000">SQLQuery</text>
<text text-anchor="middle" x="2302.5" y="-75.8" font-family="Times,serif" font-size="14.00" fill="#000000">SELECT O.nr AS nr, O.vendor AS vendor, V.country AS country </text>
<text text-anchor="middle" x="2302.5" y="-60.8" font-family="Times,serif" font-size="14.00" fill="#000000">FROM Offer AS O, Vendor AS V </text>
<text text-anchor="middle" x="2302.5" y="-45.8" font-family="Times,serif" font-size="14.00" fill="#000000">WHERE V.country = ? AND O.vendor = V.nr</text>
<text text-anchor="middle" x="2302.5" y="-30.8" font-family="Times,serif" font-size="14.00" fill="#000000">483522</text>
</g>
<!-- 30&#45;&gt;32 -->
<g id="edge29" class="edge">
<title>30&#45;&gt;32</title>
<path fill="none" stroke="#000000" d="M2038.2542,-152.0209C2073.1264,-140.4709 2121.5203,-124.4423 2167.3751,-109.2547"/>
<polygon fill="#000000" stroke="#000000" points="2168.7233,-112.4953 2177.1157,-106.0285 2166.5224,-105.8502 2168.7233,-112.4953"/>
</g>
</g>
</svg>
