<?xml version="1.0" encoding="UTF-8" standalone="no"?>
<!DOCTYPE svg PUBLIC "-//W3C//DTD SVG 1.1//EN"
 "http://www.w3.org/Graphics/SVG/1.1/DTD/svg11.dtd">
<!-- Generated by graphviz version 2.40.1 (20161225.0304)
 -->
<!-- Title: g Pages: 1 -->
<svg width="846pt" height="216pt"
 viewBox="0.00 0.00 846.00 216.00" xmlns="http://www.w3.org/2000/svg" xmlns:xlink="http://www.w3.org/1999/xlink">
<g id="graph0" class="graph" transform="scale(1 1) rotate(0) translate(4 212)">
<title>g</title>
<polygon fill="#ffffff" stroke="transparent" points="-4,4 -4,-212 842,-212 842,4 -4,4"/>
<text text-anchor="middle" x="419" y="-7.8" font-family="Times,serif" font-size="14.00" fill="#000000">18:13:9.355</text>
<!-- 0 -->
<g id="node1" class="node">
<title>0</title>
<polygon fill="none" stroke="#ffff00" stroke-width="2" points="381,-208 275,-208 275,-172 381,-172 381,-208"/>
<text text-anchor="middle" x="328" y="-186.3" font-family="Times,serif" font-size="14.00" fill="#000000">BindAccessEval</text>
</g>
<!-- 1 -->
<g id="node2" class="node">
<title>1</title>
<polygon fill="none" stroke="#ffff00" stroke-width="2" points="228,-136 0,-136 0,-23 228,-23 228,-136"/>
<text text-anchor="middle" x="114" y="-120.8" font-family="Times,serif" font-size="14.00" fill="#000000">SQLQuery</text>
<text text-anchor="middle" x="114" y="-105.8" font-family="Times,serif" font-size="14.00" fill="#000000">SELECT producer, nr, propertyNum2 </text>
<text text-anchor="middle" x="114" y="-90.8" font-family="Times,serif" font-size="14.00" fill="#000000">FROM Product </text>
<text text-anchor="middle" x="114" y="-75.8" font-family="Times,serif" font-size="14.00" fill="#000000">UNION</text>
<text text-anchor="middle" x="114" y="-60.8" font-family="Times,serif" font-size="14.00" fill="#000000">SELECT producer, nr, propertyNum1 </text>
<text text-anchor="middle" x="114" y="-45.8" font-family="Times,serif" font-size="14.00" fill="#000000">FROM Product</text>
<text text-anchor="middle" x="114" y="-30.8" font-family="Times,serif" font-size="14.00" fill="#000000">299902</text>
</g>
<!-- 0&#45;&gt;1 -->
<g id="edge1" class="edge">
<title>0&#45;&gt;1</title>
<path fill="none" stroke="#000000" d="M292.6623,-171.7532C275.8636,-163.0791 254.7037,-152.1531 232.8763,-140.8824"/>
<polygon fill="#000000" stroke="#000000" points="234.3171,-137.6873 223.8259,-136.2092 231.1055,-143.9071 234.3171,-137.6873"/>
</g>
<!-- 2 -->
<g id="node3" class="node">
<title>2</title>
<polygon fill="none" stroke="#ffff00" stroke-width="2" points="838,-98.5 246,-98.5 246,-60.5 838,-60.5 838,-98.5"/>
<text text-anchor="middle" x="542" y="-83.3" font-family="Times,serif" font-size="14.00" fill="#000000">FunctionCallBindAccess</text>
<text text-anchor="middle" x="542" y="-68.3" font-family="Times,serif" font-size="14.00" fill="#000000">(&lt;http://www4.wiwiss.fu&#45;berlin.de/bizer/bsbm/v01/instances/dataFromProducer{0}/Product{1}&gt;, &quot;{2}&quot;)</text>
</g>
<!-- 0&#45;&gt;2 -->
<g id="edge2" class="edge">
<title>0&#45;&gt;2</title>
<path fill="none" stroke="#000000" d="M363.3377,-171.7532C399.6826,-152.9863 456.4428,-123.6779 496.2085,-103.1447"/>
<polygon fill="#000000" stroke="#000000" points="497.8945,-106.2132 505.174,-98.5153 494.6828,-99.9935 497.8945,-106.2132"/>
</g>
</g>
</svg>
