<?xml version="1.0" encoding="UTF-8" standalone="no"?>
<!DOCTYPE svg PUBLIC "-//W3C//DTD SVG 1.1//EN"
 "http://www.w3.org/Graphics/SVG/1.1/DTD/svg11.dtd">
<!-- Generated by graphviz version 2.40.1 (20161225.0304)
 -->
<!-- Title: g Pages: 1 -->
<svg width="2470pt" height="597pt"
 viewBox="0.00 0.00 2469.50 597.00" xmlns="http://www.w3.org/2000/svg" xmlns:xlink="http://www.w3.org/1999/xlink">
<g id="graph0" class="graph" transform="scale(1 1) rotate(0) translate(4 593)">
<title>g</title>
<polygon fill="#ffffff" stroke="transparent" points="-4,4 -4,-593 2465.5,-593 2465.5,4 -4,4"/>
<text text-anchor="middle" x="1230.75" y="-7.8" font-family="Times,serif" font-size="14.00" fill="#000000">18:13:18.885</text>
<!-- 0 -->
<g id="node1" class="node">
<title>0</title>
<polygon fill="none" stroke="#ffff00" stroke-width="2" points="1728.5,-589 1641.5,-589 1641.5,-553 1728.5,-553 1728.5,-589"/>
<text text-anchor="middle" x="1685" y="-567.3" font-family="Times,serif" font-size="14.00" fill="#000000">HashDistinct</text>
</g>
<!-- 1 -->
<g id="node2" class="node">
<title>1</title>
<polygon fill="none" stroke="#ffff00" stroke-width="2" points="1712,-517 1658,-517 1658,-481 1712,-481 1712,-517"/>
<text text-anchor="middle" x="1685" y="-495.3" font-family="Times,serif" font-size="14.00" fill="#000000">Union</text>
</g>
<!-- 0&#45;&gt;1 -->
<g id="edge1" class="edge">
<title>0&#45;&gt;1</title>
<path fill="none" stroke="#000000" d="M1685,-552.8314C1685,-545.131 1685,-535.9743 1685,-527.4166"/>
<polygon fill="#000000" stroke="#000000" points="1688.5001,-527.4132 1685,-517.4133 1681.5001,-527.4133 1688.5001,-527.4132"/>
</g>
<!-- 2 -->
<g id="node3" class="node">
<title>2</title>
<polygon fill="none" stroke="#ffff00" stroke-width="2" points="1569,-445 1463,-445 1463,-409 1569,-409 1569,-445"/>
<text text-anchor="middle" x="1516" y="-423.3" font-family="Times,serif" font-size="14.00" fill="#000000">BindAccessEval</text>
</g>
<!-- 1&#45;&gt;2 -->
<g id="edge2" class="edge">
<title>1&#45;&gt;2</title>
<path fill="none" stroke="#000000" d="M1657.8472,-487.432C1633.5995,-477.1016 1597.423,-461.6891 1567.674,-449.0149"/>
<polygon fill="#000000" stroke="#000000" points="1568.836,-445.7057 1558.2643,-445.0061 1566.0924,-452.1456 1568.836,-445.7057"/>
</g>
<!-- 11 -->
<g id="node11" class="node">
<title>11</title>
<polygon fill="none" stroke="#ffff00" stroke-width="2" points="1908,-445 1802,-445 1802,-409 1908,-409 1908,-445"/>
<text text-anchor="middle" x="1855" y="-423.3" font-family="Times,serif" font-size="14.00" fill="#000000">BindAccessEval</text>
</g>
<!-- 1&#45;&gt;11 -->
<g id="edge10" class="edge">
<title>1&#45;&gt;11</title>
<path fill="none" stroke="#000000" d="M1712.3134,-487.432C1736.7047,-477.1016 1773.0952,-461.6891 1803.0203,-449.0149"/>
<polygon fill="#000000" stroke="#000000" points="1804.6424,-452.129 1812.4856,-445.0061 1801.9124,-445.6832 1804.6424,-452.129"/>
</g>
<!-- 3 -->
<g id="node4" class="node">
<title>3</title>
<polygon fill="none" stroke="#ffff00" stroke-width="2" points="1230,-372 1124,-372 1124,-336 1230,-336 1230,-372"/>
<text text-anchor="middle" x="1177" y="-350.3" font-family="Times,serif" font-size="14.00" fill="#000000">BindAccessEval</text>
</g>
<!-- 2&#45;&gt;3 -->
<g id="edge3" class="edge">
<title>2&#45;&gt;3</title>
<path fill="none" stroke="#000000" d="M1462.7914,-418.3345C1408.8881,-409.1736 1322.9758,-393.5273 1240.1556,-373.1727"/>
<polygon fill="#000000" stroke="#000000" points="1240.8837,-369.7473 1230.3348,-370.7329 1239.1959,-376.5408 1240.8837,-369.7473"/>
</g>
<!-- 9 -->
<g id="node10" class="node">
<title>9</title>
<polygon fill="none" stroke="#ffff00" stroke-width="2" points="1783.5,-373 1248.5,-373 1248.5,-335 1783.5,-335 1783.5,-373"/>
<text text-anchor="middle" x="1516" y="-357.8" font-family="Times,serif" font-size="14.00" fill="#000000">FunctionCallBindAccess</text>
<text text-anchor="middle" x="1516" y="-342.8" font-family="Times,serif" font-size="14.00" fill="#000000">AddConstant{1=(&quot;&lt;http://www4.wiwiss.fu&#45;berlin.de/bizer/bsbm/v01/vocabulary/producer&gt;&quot;)}</text>
</g>
<!-- 2&#45;&gt;9 -->
<g id="edge9" class="edge">
<title>2&#45;&gt;9</title>
<path fill="none" stroke="#000000" d="M1516,-408.9551C1516,-401.2107 1516,-391.9622 1516,-383.2811"/>
<polygon fill="#000000" stroke="#000000" points="1519.5001,-383.1128 1516,-373.1128 1512.5001,-383.1129 1519.5001,-383.1128"/>
</g>
<!-- 4 -->
<g id="node5" class="node">
<title>4</title>
<polygon fill="none" stroke="#ffff00" stroke-width="2" points="1029.5,-299 974.5,-299 974.5,-261 1029.5,-261 1029.5,-299"/>
<text text-anchor="middle" x="1002" y="-283.8" font-family="Times,serif" font-size="14.00" fill="#000000">Project</text>
<text text-anchor="middle" x="1002" y="-268.8" font-family="Times,serif" font-size="14.00" fill="#000000">[0, 4]</text>
</g>
<!-- 3&#45;&gt;4 -->
<g id="edge4" class="edge">
<title>3&#45;&gt;4</title>
<path fill="none" stroke="#000000" d="M1128.3077,-335.8948C1101.6674,-325.6648 1068.2291,-312.293 1039,-299 1038.9055,-298.957 1038.8109,-298.9139 1038.7162,-298.8707"/>
<polygon fill="#000000" stroke="#000000" points="1040.2755,-295.7367 1029.7414,-294.604 1037.27,-302.0586 1040.2755,-295.7367"/>
</g>
<!-- 8 -->
<g id="node9" class="node">
<title>8</title>
<polygon fill="none" stroke="#ffff00" stroke-width="2" points="1388,-299 1048,-299 1048,-261 1388,-261 1388,-299"/>
<text text-anchor="middle" x="1218" y="-283.8" font-family="Times,serif" font-size="14.00" fill="#000000">FunctionCallBindAccess</text>
<text text-anchor="middle" x="1218" y="-268.8" font-family="Times,serif" font-size="14.00" fill="#000000">(&quot;{1}&quot;, &lt;http://downlode.org/rdf/iso&#45;3166/countries#{0}&gt;)</text>
</g>
<!-- 3&#45;&gt;8 -->
<g id="edge8" class="edge">
<title>3&#45;&gt;8</title>
<path fill="none" stroke="#000000" d="M1187.1348,-335.7079C1191.759,-327.3619 1197.3379,-317.2926 1202.4736,-308.0232"/>
<polygon fill="#000000" stroke="#000000" points="1205.6249,-309.5574 1207.4098,-299.114 1199.5019,-306.1649 1205.6249,-309.5574"/>
</g>
<!-- 5 -->
<g id="node6" class="node">
<title>5</title>
<polygon fill="none" stroke="#ffff00" stroke-width="2" points="1051.5,-225 952.5,-225 952.5,-172 1051.5,-172 1051.5,-225"/>
<text text-anchor="middle" x="1002" y="-209.8" font-family="Times,serif" font-size="14.00" fill="#000000">RightBindJoin </text>
<text text-anchor="middle" x="1002" y="-194.8" font-family="Times,serif" font-size="14.00" fill="#000000">[2, 1]</text>
<text text-anchor="middle" x="1002" y="-179.8" font-family="Times,serif" font-size="14.00" fill="#000000">23034</text>
</g>
<!-- 4&#45;&gt;5 -->
<g id="edge5" class="edge">
<title>4&#45;&gt;5</title>
<path fill="none" stroke="#000000" d="M1002,-260.6856C1002,-253.0394 1002,-243.9857 1002,-235.1871"/>
<polygon fill="#000000" stroke="#000000" points="1005.5001,-235.0751 1002,-225.0751 998.5001,-235.0752 1005.5001,-235.0751"/>
</g>
<!-- 6 -->
<g id="node7" class="node">
<title>6</title>
<polygon fill="none" stroke="#ffff00" stroke-width="2" points="944,-136 0,-136 0,-23 944,-23 944,-136"/>
<text text-anchor="middle" x="472" y="-120.8" font-family="Times,serif" font-size="14.00" fill="#000000">PhyMongoDBEval</text>
<text text-anchor="middle" x="472" y="-105.8" font-family="Times,serif" font-size="14.00" fill="#000000">countrytype</text>
<text text-anchor="middle" x="472" y="-90.8" font-family="Times,serif" font-size="14.00" fill="#000000">[{&quot;$match&quot;:{&quot;countrytype&quot;:212}},</text>
<text text-anchor="middle" x="472" y="-75.8" font-family="Times,serif" font-size="14.00" fill="#000000">{$lookup: { from: &quot;productproducercountry&quot;, let: { &quot;country&quot;: &quot;$country&quot;}, pipeline: [ { $match: {$expr: {$eq: [&quot;$$country&quot;, &quot;$country&quot;] } } } ], as: &quot;mongojoin37&quot;}},</text>
<text text-anchor="middle" x="472" y="-60.8" font-family="Times,serif" font-size="14.00" fill="#000000">{$unwind: &quot;$mongojoin37&quot;}]</text>
<text text-anchor="middle" x="472" y="-45.8" font-family="Times,serif" font-size="14.00" fill="#000000">[country, mongojoin37.nr, mongojoin37.producer]</text>
<text text-anchor="middle" x="472" y="-30.8" font-family="Times,serif" font-size="14.00" fill="#000000">23034</text>
</g>
<!-- 5&#45;&gt;6 -->
<g id="edge6" class="edge">
<title>5&#45;&gt;6</title>
<path fill="none" stroke="#000000" d="M952.1389,-187.3048C900.891,-175.7982 817.0135,-156.9653 733.587,-138.2337"/>
<polygon fill="#000000" stroke="#000000" points="734.2055,-134.7855 723.6816,-136.0097 732.6719,-141.6155 734.2055,-134.7855"/>
</g>
<!-- 7 -->
<g id="node8" class="node">
<title>7</title>
<polygon fill="none" stroke="#ffff00" stroke-width="2" points="1171.5,-121 962.5,-121 962.5,-38 1171.5,-38 1171.5,-121"/>
<text text-anchor="middle" x="1067" y="-105.8" font-family="Times,serif" font-size="14.00" fill="#000000">SQLQuery</text>
<text text-anchor="middle" x="1067" y="-90.8" font-family="Times,serif" font-size="14.00" fill="#000000">SELECT nr, label, producer </text>
<text text-anchor="middle" x="1067" y="-75.8" font-family="Times,serif" font-size="14.00" fill="#000000">FROM Product </text>
<text text-anchor="middle" x="1067" y="-60.8" font-family="Times,serif" font-size="14.00" fill="#000000">WHERE producer = ? AND nr = ?</text>
<text text-anchor="middle" x="1067" y="-45.8" font-family="Times,serif" font-size="14.00" fill="#000000">23034</text>
</g>
<!-- 5&#45;&gt;7 -->
<g id="edge7" class="edge">
<title>5&#45;&gt;7</title>
<path fill="none" stroke="#000000" d="M1016.5873,-171.7941C1023.3446,-159.423 1031.6043,-144.3014 1039.4668,-129.907"/>
<polygon fill="#000000" stroke="#000000" points="1042.5719,-131.5235 1044.294,-121.0695 1036.4286,-128.1679 1042.5719,-131.5235"/>
</g>
<!-- 12 -->
<g id="node12" class="node">
<title>12</title>
<polygon fill="none" stroke="#ffff00" stroke-width="2" points="1908,-372 1802,-372 1802,-336 1908,-336 1908,-372"/>
<text text-anchor="middle" x="1855" y="-350.3" font-family="Times,serif" font-size="14.00" fill="#000000">BindAccessEval</text>
</g>
<!-- 11&#45;&gt;12 -->
<g id="edge11" class="edge">
<title>11&#45;&gt;12</title>
<path fill="none" stroke="#000000" d="M1855,-408.9551C1855,-400.8828 1855,-391.1764 1855,-382.1817"/>
<polygon fill="#000000" stroke="#000000" points="1858.5001,-382.0903 1855,-372.0904 1851.5001,-382.0904 1858.5001,-382.0903"/>
</g>
<!-- 18 -->
<g id="node18" class="node">
<title>18</title>
<polygon fill="none" stroke="#ffff00" stroke-width="2" points="2461.5,-373 1926.5,-373 1926.5,-335 2461.5,-335 2461.5,-373"/>
<text text-anchor="middle" x="2194" y="-357.8" font-family="Times,serif" font-size="14.00" fill="#000000">FunctionCallBindAccess</text>
<text text-anchor="middle" x="2194" y="-342.8" font-family="Times,serif" font-size="14.00" fill="#000000">AddConstant{1=(&quot;&lt;http://www4.wiwiss.fu&#45;berlin.de/bizer/bsbm/v01/vocabulary/producer&gt;&quot;)}</text>
</g>
<!-- 11&#45;&gt;18 -->
<g id="edge17" class="edge">
<title>11&#45;&gt;18</title>
<path fill="none" stroke="#000000" d="M1908.3417,-415.5134C1958.4152,-404.7306 2034.5486,-388.3361 2095.6285,-375.1832"/>
<polygon fill="#000000" stroke="#000000" points="2096.6434,-378.545 2105.6825,-373.0182 2095.1697,-371.7019 2096.6434,-378.545"/>
</g>
<!-- 13 -->
<g id="node13" class="node">
<title>13</title>
<polygon fill="none" stroke="#ffff00" stroke-width="2" points="1774.5,-299 1719.5,-299 1719.5,-261 1774.5,-261 1774.5,-299"/>
<text text-anchor="middle" x="1747" y="-283.8" font-family="Times,serif" font-size="14.00" fill="#000000">Project</text>
<text text-anchor="middle" x="1747" y="-268.8" font-family="Times,serif" font-size="14.00" fill="#000000">[4, 2]</text>
</g>
<!-- 12&#45;&gt;13 -->
<g id="edge12" class="edge">
<title>12&#45;&gt;13</title>
<path fill="none" stroke="#000000" d="M1828.5802,-335.8976C1814.9032,-326.5263 1797.9995,-314.9441 1783.1323,-304.7573"/>
<polygon fill="#000000" stroke="#000000" points="1784.8815,-301.7131 1774.6538,-298.948 1780.9248,-307.4876 1784.8815,-301.7131"/>
</g>
<!-- 17 -->
<g id="node17" class="node">
<title>17</title>
<polygon fill="none" stroke="#ffff00" stroke-width="2" points="2133,-299 1793,-299 1793,-261 2133,-261 2133,-299"/>
<text text-anchor="middle" x="1963" y="-283.8" font-family="Times,serif" font-size="14.00" fill="#000000">FunctionCallBindAccess</text>
<text text-anchor="middle" x="1963" y="-268.8" font-family="Times,serif" font-size="14.00" fill="#000000">(&quot;{0}&quot;, &lt;http://downlode.org/rdf/iso&#45;3166/countries#{1}&gt;)</text>
</g>
<!-- 12&#45;&gt;17 -->
<g id="edge16" class="edge">
<title>12&#45;&gt;17</title>
<path fill="none" stroke="#000000" d="M1881.4198,-335.8976C1894.9924,-326.5978 1911.7426,-315.1208 1926.5269,-304.9908"/>
<polygon fill="#000000" stroke="#000000" points="1928.6946,-307.7484 1934.9656,-299.2088 1924.7379,-301.9739 1928.6946,-307.7484"/>
</g>
<!-- 14 -->
<g id="node14" class="node">
<title>14</title>
<polygon fill="none" stroke="#ffff00" stroke-width="2" points="1796.5,-225 1697.5,-225 1697.5,-172 1796.5,-172 1796.5,-225"/>
<text text-anchor="middle" x="1747" y="-209.8" font-family="Times,serif" font-size="14.00" fill="#000000">RightBindJoin </text>
<text text-anchor="middle" x="1747" y="-194.8" font-family="Times,serif" font-size="14.00" fill="#000000">[1, 0]</text>
<text text-anchor="middle" x="1747" y="-179.8" font-family="Times,serif" font-size="14.00" fill="#000000">23884</text>
</g>
<!-- 13&#45;&gt;14 -->
<g id="edge13" class="edge">
<title>13&#45;&gt;14</title>
<path fill="none" stroke="#000000" d="M1747,-260.6856C1747,-253.0394 1747,-243.9857 1747,-235.1871"/>
<polygon fill="#000000" stroke="#000000" points="1750.5001,-235.0751 1747,-225.0751 1743.5001,-235.0752 1750.5001,-235.0751"/>
</g>
<!-- 15 -->
<g id="node15" class="node">
<title>15</title>
<polygon fill="none" stroke="#ffff00" stroke-width="2" points="2155,-136 1211,-136 1211,-23 2155,-23 2155,-136"/>
<text text-anchor="middle" x="1683" y="-120.8" font-family="Times,serif" font-size="14.00" fill="#000000">PhyMongoDBEval</text>
<text text-anchor="middle" x="1683" y="-105.8" font-family="Times,serif" font-size="14.00" fill="#000000">countrytype</text>
<text text-anchor="middle" x="1683" y="-90.8" font-family="Times,serif" font-size="14.00" fill="#000000">[{&quot;$match&quot;:{&quot;countrytype&quot;:211}},</text>
<text text-anchor="middle" x="1683" y="-75.8" font-family="Times,serif" font-size="14.00" fill="#000000">{$lookup: { from: &quot;productproducercountry&quot;, let: { &quot;country&quot;: &quot;$country&quot;}, pipeline: [ { $match: {$expr: {$eq: [&quot;$$country&quot;, &quot;$country&quot;] } } } ], as: &quot;mongojoin38&quot;}},</text>
<text text-anchor="middle" x="1683" y="-60.8" font-family="Times,serif" font-size="14.00" fill="#000000">{$unwind: &quot;$mongojoin38&quot;}]</text>
<text text-anchor="middle" x="1683" y="-45.8" font-family="Times,serif" font-size="14.00" fill="#000000">[mongojoin38.nr, mongojoin38.producer, mongojoin38.country]</text>
<text text-anchor="middle" x="1683" y="-30.8" font-family="Times,serif" font-size="14.00" fill="#000000">23884</text>
</g>
<!-- 14&#45;&gt;15 -->
<g id="edge14" class="edge">
<title>14&#45;&gt;15</title>
<path fill="none" stroke="#000000" d="M1732.6372,-171.7941C1728.3362,-163.7969 1723.417,-154.6503 1718.3849,-145.2938"/>
<polygon fill="#000000" stroke="#000000" points="1721.3613,-143.4387 1713.5422,-136.2894 1715.1963,-146.7543 1721.3613,-143.4387"/>
</g>
<!-- 16 -->
<g id="node16" class="node">
<title>16</title>
<polygon fill="none" stroke="#ffff00" stroke-width="2" points="2382.5,-121 2173.5,-121 2173.5,-38 2382.5,-38 2382.5,-121"/>
<text text-anchor="middle" x="2278" y="-105.8" font-family="Times,serif" font-size="14.00" fill="#000000">SQLQuery</text>
<text text-anchor="middle" x="2278" y="-90.8" font-family="Times,serif" font-size="14.00" fill="#000000">SELECT nr, label, producer </text>
<text text-anchor="middle" x="2278" y="-75.8" font-family="Times,serif" font-size="14.00" fill="#000000">FROM Product </text>
<text text-anchor="middle" x="2278" y="-60.8" font-family="Times,serif" font-size="14.00" fill="#000000">WHERE producer = ? AND nr = ?</text>
<text text-anchor="middle" x="2278" y="-45.8" font-family="Times,serif" font-size="14.00" fill="#000000">23884</text>
</g>
<!-- 14&#45;&gt;16 -->
<g id="edge15" class="edge">
<title>14&#45;&gt;16</title>
<path fill="none" stroke="#000000" d="M1796.5846,-196.0517C1875.8623,-191.0399 2035.3237,-176.4329 2164,-136 2173.6616,-132.9641 2183.519,-129.2035 2193.1922,-125.075"/>
<polygon fill="#000000" stroke="#000000" points="2194.6599,-128.253 2202.3976,-121.0157 2191.8355,-121.8481 2194.6599,-128.253"/>
</g>
</g>
</svg>
