digraph  g{ graph[label = "19:27:28.118"]
node [shape=rectangle, color=black, fontcolor=black, style=bold] edge [color=black] 0 [label="HashDistinct", color = yellow] ; 
1 [label="Union", color = yellow] ; 
0 -> 1 ; 
2 [label="BindAccessEval", color = yellow] ; 
1 -> 2 ; 
3 [label="BindAccessEval", color = yellow] ; 
2 -> 3 ; 
4 [label="Project
[1, 3, 4]", color = yellow] ; 
3 -> 4 ; 
5 [label="RightBindJoin 
[0]
223747", color = yellow] ; 
4 -> 5 ; 
6 [label="PhyMongoDBEval
countrytype
[{\"$match\":{\"countrytype\":121}}]
[country]
2", color = yellow] ; 
5 -> 6 ; 
7 [label="SQLQuery
SELECT tab_22296.nr, tab_22295.country, tab_22295.publisher, tab_22297.rating1 
FROM Person AS tab_22295, Review AS tab_22297, Review AS tab_22296 
WHERE tab_22295.country = ? AND tab_22296.person = tab_22295.nr AND tab_22295.publisher = tab_22297.publisher AND tab_22296.nr = tab_22297.nr
223747", color = yellow] ; 
5 -> 7 ; 
8 [label="FunctionCallBindAccess
(<http://www4.wiwiss.fu-berlin.de/bizer/bsbm/v01/instances/dataFromRatingSite{1}/Review{0}>, \"{2}\")", color = yellow] ; 
3 -> 8 ; 
9 [label="FunctionCallBindAccess
AddConstant{1=(\"<http://purl.org/stuff/rev#Review>\", \"<http://www4.wiwiss.fu-berlin.de/bizer/bsbm/v01/vocabulary/rating>\")}", color = yellow] ; 
2 -> 9 ; 
11 [label="BindAccessEval", color = yellow] ; 
1 -> 11 ; 
12 [label="BindAccessEval", color = yellow] ; 
11 -> 12 ; 
13 [label="Project
[1, 2, 3]", color = yellow] ; 
12 -> 13 ; 
14 [label="RightBindJoin 
[0]
221705", color = yellow] ; 
13 -> 14 ; 
15 [label="PhyMongoDBEval
countrytype
[{\"$match\":{\"countrytype\":122}}]
[country]
2", color = yellow] ; 
14 -> 15 ; 
16 [label="SQLQuery
SELECT tab_22289.nr, tab_22289.rating1, tab_22289.publisher, tab_22290.country 
FROM Review AS tab_22289, Review AS tab_22291, Person AS tab_22290 
WHERE tab_22290.country = ? AND tab_22291.person = tab_22290.nr AND tab_22289.publisher = tab_22290.publisher AND tab_22289.nr = tab_22291.nr
221705", color = yellow] ; 
14 -> 16 ; 
17 [label="FunctionCallBindAccess
(<http://www4.wiwiss.fu-berlin.de/bizer/bsbm/v01/instances/dataFromRatingSite{2}/Review{0}>, \"{1}\")", color = yellow] ; 
12 -> 17 ; 
18 [label="FunctionCallBindAccess
AddConstant{1=(\"<http://purl.org/stuff/rev#Review>\", \"<http://www4.wiwiss.fu-berlin.de/bizer/bsbm/v01/vocabulary/rating>\")}", color = yellow] ; 
11 -> 18 ; 
20 [label="BindAccessEval", color = yellow] ; 
1 -> 20 ; 
21 [label="BindAccessEval", color = yellow] ; 
20 -> 21 ; 
22 [label="Project
[0, 1, 4]", color = yellow] ; 
21 -> 22 ; 
23 [label="RightBindJoin 
[1, 0]
22374", color = yellow] ; 
22 -> 23 ; 
24 [label="PhyMongoDBEval
countrytype
[{\"$match\":{\"countrytype\":122}},
{$lookup: { from: \"productproducercountry\", let: { \"country\": \"$country\"}, pipeline: [ { $match: {$expr: {$eq: [\"$$country\", \"$country\"] } } } ], as: \"mongojoin1027\"}},
{$unwind: \"$mongojoin1027\"}]
[mongojoin1027.nr, mongojoin1027.producer]
22374", color = yellow] ; 
23 -> 24 ; 
25 [label="SQLQuery
SELECT nr, producer, propertyTex2 
FROM Product 
WHERE producer = ? AND nr = ?
22374", color = yellow] ; 
23 -> 25 ; 
26 [label="FunctionCallBindAccess
(<http://www4.wiwiss.fu-berlin.de/bizer/bsbm/v01/instances/dataFromProducer{1}/Product{0}>, \"{2}\")", color = yellow] ; 
21 -> 26 ; 
27 [label="FunctionCallBindAccess
AddConstant{1=(\"<http://www4.wiwiss.fu-berlin.de/bizer/bsbm/v01/vocabulary/Product>\", \"<http://www4.wiwiss.fu-berlin.de/bizer/bsbm/v01/vocabulary/productPropertyTextual>\")}", color = yellow] ; 
20 -> 27 ; 
29 [label="BindAccessEval", color = yellow] ; 
1 -> 29 ; 
30 [label="BindAccessEval", color = yellow] ; 
29 -> 30 ; 
31 [label="Project
[0, 1, 4]", color = yellow] ; 
30 -> 31 ; 
32 [label="RightBindJoin 
[1, 0]
23884", color = yellow] ; 
31 -> 32 ; 
33 [label="PhyMongoDBEval
countrytype
[{\"$match\":{\"countrytype\":121}},
{$lookup: { from: \"productproducercountry\", let: { \"country\": \"$country\"}, pipeline: [ { $match: {$expr: {$eq: [\"$$country\", \"$country\"] } } } ], as: \"mongojoin1028\"}},
{$unwind: \"$mongojoin1028\"}]
[mongojoin1028.nr, mongojoin1028.producer]
23884", color = yellow] ; 
32 -> 33 ; 
34 [label="SQLQuery
SELECT nr, producer, propertyTex2 
FROM Product 
WHERE producer = ? AND nr = ?
23884", color = yellow] ; 
32 -> 34 ; 
35 [label="FunctionCallBindAccess
(<http://www4.wiwiss.fu-berlin.de/bizer/bsbm/v01/instances/dataFromProducer{1}/Product{0}>, \"{2}\")", color = yellow] ; 
30 -> 35 ; 
36 [label="FunctionCallBindAccess
AddConstant{1=(\"<http://www4.wiwiss.fu-berlin.de/bizer/bsbm/v01/vocabulary/Product>\", \"<http://www4.wiwiss.fu-berlin.de/bizer/bsbm/v01/vocabulary/productPropertyTextual>\")}", color = yellow] ; 
29 -> 36 ; 
38 [label="BindAccessEval", color = yellow] ; 
1 -> 38 ; 
39 [label="BindAccessEval", color = yellow] ; 
38 -> 39 ; 
40 [label="Project
[0, 1, 4]", color = yellow] ; 
39 -> 40 ; 
41 [label="RightBindJoin 
[1, 0]
22374", color = yellow] ; 
40 -> 41 ; 
42 [label="PhyMongoDBEval
countrytype
[{\"$match\":{\"countrytype\":122}},
{$lookup: { from: \"productproducercountry\", let: { \"country\": \"$country\"}, pipeline: [ { $match: {$expr: {$eq: [\"$$country\", \"$country\"] } } } ], as: \"mongojoin1029\"}},
{$unwind: \"$mongojoin1029\"}]
[mongojoin1029.nr, mongojoin1029.producer]
22374", color = yellow] ; 
41 -> 42 ; 
43 [label="SQLQuery
SELECT nr, producer, propertyTex4 
FROM Product 
WHERE producer = ? AND nr = ?
22374", color = yellow] ; 
41 -> 43 ; 
44 [label="FunctionCallBindAccess
(<http://www4.wiwiss.fu-berlin.de/bizer/bsbm/v01/instances/dataFromProducer{1}/Product{0}>, \"{2}\")", color = yellow] ; 
39 -> 44 ; 
45 [label="FunctionCallBindAccess
AddConstant{1=(\"<http://www4.wiwiss.fu-berlin.de/bizer/bsbm/v01/vocabulary/Product>\", \"<http://www4.wiwiss.fu-berlin.de/bizer/bsbm/v01/vocabulary/productPropertyTextual>\")}", color = yellow] ; 
38 -> 45 ; 
47 [label="BindAccessEval", color = yellow] ; 
1 -> 47 ; 
48 [label="BindAccessEval", color = yellow] ; 
47 -> 48 ; 
49 [label="Project
[2, 3, 4]", color = yellow] ; 
48 -> 49 ; 
50 [label="RightBindJoin 
[1, 0]
23884", color = yellow] ; 
49 -> 50 ; 
51 [label="PhyMongoDBEval
countrytype
[{\"$match\":{\"countrytype\":121}},
{$lookup: { from: \"productproducercountry\", let: { \"country\": \"$country\"}, pipeline: [ { $match: {$expr: {$eq: [\"$$country\", \"$country\"] } } } ], as: \"mongojoin1030\"}},
{$unwind: \"$mongojoin1030\"}]
[mongojoin1030.nr, mongojoin1030.producer]
23884", color = yellow] ; 
50 -> 51 ; 
52 [label="SQLQuery
SELECT nr, producer, propertyTex4 
FROM Product 
WHERE producer = ? AND nr = ?
23884", color = yellow] ; 
50 -> 52 ; 
53 [label="FunctionCallBindAccess
(<http://www4.wiwiss.fu-berlin.de/bizer/bsbm/v01/instances/dataFromProducer{1}/Product{0}>, \"{2}\")", color = yellow] ; 
48 -> 53 ; 
54 [label="FunctionCallBindAccess
AddConstant{1=(\"<http://www4.wiwiss.fu-berlin.de/bizer/bsbm/v01/vocabulary/Product>\", \"<http://www4.wiwiss.fu-berlin.de/bizer/bsbm/v01/vocabulary/productPropertyTextual>\")}", color = yellow] ; 
47 -> 54 ; 
56 [label="BindAccessEval", color = yellow] ; 
1 -> 56 ; 
57 [label="BindAccessEval", color = yellow] ; 
56 -> 57 ; 
58 [label="Project
[0, 1, 4]", color = yellow] ; 
57 -> 58 ; 
59 [label="RightBindJoin 
[1, 0]
22374", color = yellow] ; 
58 -> 59 ; 
60 [label="PhyMongoDBEval
countrytype
[{\"$match\":{\"countrytype\":122}},
{$lookup: { from: \"productproducercountry\", let: { \"country\": \"$country\"}, pipeline: [ { $match: {$expr: {$eq: [\"$$country\", \"$country\"] } } } ], as: \"mongojoin1031\"}},
{$unwind: \"$mongojoin1031\"}]
[mongojoin1031.nr, mongojoin1031.producer]
22374", color = yellow] ; 
59 -> 60 ; 
61 [label="SQLQuery
SELECT nr, producer, propertyTex6 
FROM Product 
WHERE producer = ? AND nr = ?
22374", color = yellow] ; 
59 -> 61 ; 
62 [label="FunctionCallBindAccess
(<http://www4.wiwiss.fu-berlin.de/bizer/bsbm/v01/instances/dataFromProducer{1}/Product{0}>, \"{2}\")", color = yellow] ; 
57 -> 62 ; 
63 [label="FunctionCallBindAccess
AddConstant{1=(\"<http://www4.wiwiss.fu-berlin.de/bizer/bsbm/v01/vocabulary/Product>\", \"<http://www4.wiwiss.fu-berlin.de/bizer/bsbm/v01/vocabulary/productPropertyTextual>\")}", color = yellow] ; 
56 -> 63 ; 
65 [label="BindAccessEval", color = yellow] ; 
1 -> 65 ; 
66 [label="BindAccessEval", color = yellow] ; 
65 -> 66 ; 
67 [label="Project
[0, 1, 4]", color = yellow] ; 
66 -> 67 ; 
68 [label="RightBindJoin 
[0, 1]
23884", color = yellow] ; 
67 -> 68 ; 
69 [label="PhyMongoDBEval
countrytype
[{\"$match\":{\"countrytype\":121}},
{$lookup: { from: \"productproducercountry\", let: { \"country\": \"$country\"}, pipeline: [ { $match: {$expr: {$eq: [\"$$country\", \"$country\"] } } } ], as: \"mongojoin1032\"}},
{$unwind: \"$mongojoin1032\"}]
[mongojoin1032.nr, mongojoin1032.producer]
23884", color = yellow] ; 
68 -> 69 ; 
70 [label="SQLQuery
SELECT nr, producer, propertyTex6 
FROM Product 
WHERE nr = ? AND producer = ?
23884", color = yellow] ; 
68 -> 70 ; 
71 [label="FunctionCallBindAccess
(<http://www4.wiwiss.fu-berlin.de/bizer/bsbm/v01/instances/dataFromProducer{1}/Product{0}>, \"{2}\")", color = yellow] ; 
66 -> 71 ; 
72 [label="FunctionCallBindAccess
AddConstant{1=(\"<http://www4.wiwiss.fu-berlin.de/bizer/bsbm/v01/vocabulary/Product>\", \"<http://www4.wiwiss.fu-berlin.de/bizer/bsbm/v01/vocabulary/productPropertyTextual>\")}", color = yellow] ; 
65 -> 72 ; 
74 [label="BindAccessEval", color = yellow] ; 
1 -> 74 ; 
75 [label="BindAccessEval", color = yellow] ; 
74 -> 75 ; 
76 [label="Project
[0, 1, 4]", color = yellow] ; 
75 -> 76 ; 
77 [label="RightBindJoin 
[1, 0]
23884", color = yellow] ; 
76 -> 77 ; 
78 [label="PhyMongoDBEval
countrytype
[{\"$match\":{\"countrytype\":121}},
{$lookup: { from: \"productproducercountry\", let: { \"country\": \"$country\"}, pipeline: [ { $match: {$expr: {$eq: [\"$$country\", \"$country\"] } } } ], as: \"mongojoin1033\"}},
{$unwind: \"$mongojoin1033\"}]
[mongojoin1033.nr, mongojoin1033.producer]
23884", color = yellow] ; 
77 -> 78 ; 
79 [label="SQLQuery
SELECT nr, producer, propertyNum1 
FROM Product 
WHERE producer = ? AND nr = ?
23884", color = yellow] ; 
77 -> 79 ; 
80 [label="FunctionCallBindAccess
(<http://www4.wiwiss.fu-berlin.de/bizer/bsbm/v01/instances/dataFromProducer{1}/Product{0}>, \"{2}\")", color = yellow] ; 
75 -> 80 ; 
81 [label="FunctionCallBindAccess
AddConstant{1=(\"<http://www4.wiwiss.fu-berlin.de/bizer/bsbm/v01/vocabulary/Product>\", \"<http://www4.wiwiss.fu-berlin.de/bizer/bsbm/v01/vocabulary/productPropertyNumeric>\")}", color = yellow] ; 
74 -> 81 ; 
83 [label="BindAccessEval", color = yellow] ; 
1 -> 83 ; 
84 [label="BindAccessEval", color = yellow] ; 
83 -> 84 ; 
85 [label="Project
[0, 1, 4]", color = yellow] ; 
84 -> 85 ; 
86 [label="RightBindJoin 
[1, 0]
22374", color = yellow] ; 
85 -> 86 ; 
87 [label="PhyMongoDBEval
countrytype
[{\"$match\":{\"countrytype\":122}},
{$lookup: { from: \"productproducercountry\", let: { \"country\": \"$country\"}, pipeline: [ { $match: {$expr: {$eq: [\"$$country\", \"$country\"] } } } ], as: \"mongojoin1034\"}},
{$unwind: \"$mongojoin1034\"}]
[mongojoin1034.nr, mongojoin1034.producer]
22374", color = yellow] ; 
86 -> 87 ; 
88 [label="SQLQuery
SELECT nr, producer, propertyNum1 
FROM Product 
WHERE producer = ? AND nr = ?
22374", color = yellow] ; 
86 -> 88 ; 
89 [label="FunctionCallBindAccess
(<http://www4.wiwiss.fu-berlin.de/bizer/bsbm/v01/instances/dataFromProducer{1}/Product{0}>, \"{2}\")", color = yellow] ; 
84 -> 89 ; 
90 [label="FunctionCallBindAccess
AddConstant{1=(\"<http://www4.wiwiss.fu-berlin.de/bizer/bsbm/v01/vocabulary/Product>\", \"<http://www4.wiwiss.fu-berlin.de/bizer/bsbm/v01/vocabulary/productPropertyNumeric>\")}", color = yellow] ; 
83 -> 90 ; 
92 [label="BindAccessEval", color = yellow] ; 
1 -> 92 ; 
93 [label="BindAccessEval", color = yellow] ; 
92 -> 93 ; 
94 [label="Project
[1, 3, 4]", color = yellow] ; 
93 -> 94 ; 
95 [label="RightBindJoin 
[0]
223747", color = yellow] ; 
94 -> 95 ; 
96 [label="PhyMongoDBEval
countrytype
[{\"$match\":{\"countrytype\":121}}]
[country]
2", color = yellow] ; 
95 -> 96 ; 
97 [label="SQLQuery
SELECT tab_22299.nr, tab_22298.country, tab_22298.publisher, tab_22300.rating1 
FROM Review AS tab_22299, Review AS tab_22300, Person AS tab_22298 
WHERE tab_22298.country = ? AND tab_22299.person = tab_22298.nr AND tab_22298.publisher = tab_22300.publisher AND tab_22299.nr = tab_22300.nr
223747", color = yellow] ; 
95 -> 97 ; 
98 [label="FunctionCallBindAccess
(<http://www4.wiwiss.fu-berlin.de/bizer/bsbm/v01/instances/dataFromRatingSite{1}/Review{0}>, \"{2}\")", color = yellow] ; 
93 -> 98 ; 
99 [label="FunctionCallBindAccess
AddConstant{1=(\"<http://xmlns.com/foaf/0.1/Document>\", \"<http://www4.wiwiss.fu-berlin.de/bizer/bsbm/v01/vocabulary/rating>\")}", color = yellow] ; 
92 -> 99 ; 
101 [label="BindAccessEval", color = yellow] ; 
1 -> 101 ; 
102 [label="BindAccessEval", color = yellow] ; 
101 -> 102 ; 
103 [label="Project
[1, 3, 4]", color = yellow] ; 
102 -> 103 ; 
104 [label="RightBindJoin 
[0]
221705", color = yellow] ; 
103 -> 104 ; 
105 [label="PhyMongoDBEval
countrytype
[{\"$match\":{\"countrytype\":122}}]
[country]
2", color = yellow] ; 
104 -> 105 ; 
106 [label="SQLQuery
SELECT tab_22302.nr, tab_22301.country, tab_22301.publisher, tab_22303.rating1 
FROM Review AS tab_22303, Review AS tab_22302, Person AS tab_22301 
WHERE tab_22301.country = ? AND tab_22302.person = tab_22301.nr AND tab_22301.publisher = tab_22303.publisher AND tab_22302.nr = tab_22303.nr
221705", color = yellow] ; 
104 -> 106 ; 
107 [label="FunctionCallBindAccess
(<http://www4.wiwiss.fu-berlin.de/bizer/bsbm/v01/instances/dataFromRatingSite{1}/Review{0}>, \"{2}\")", color = yellow] ; 
102 -> 107 ; 
108 [label="FunctionCallBindAccess
AddConstant{1=(\"<http://xmlns.com/foaf/0.1/Document>\", \"<http://www4.wiwiss.fu-berlin.de/bizer/bsbm/v01/vocabulary/rating>\")}", color = yellow] ; 
101 -> 108 ; 
110 [label="BindAccessEval", color = yellow] ; 
1 -> 110 ; 
111 [label="BindAccessEval", color = yellow] ; 
110 -> 111 ; 
112 [label="Project
[1, 3, 4]", color = yellow] ; 
111 -> 112 ; 
113 [label="RightBindJoin 
[0]
223747", color = yellow] ; 
112 -> 113 ; 
114 [label="PhyMongoDBEval
countrytype
[{\"$match\":{\"countrytype\":121}}]
[country]
2", color = yellow] ; 
113 -> 114 ; 
115 [label="SQLQuery
SELECT tab_22305.nr, tab_22304.country, tab_22304.publisher, tab_22306.rating2 
FROM Person AS tab_22304, Review AS tab_22305, Review AS tab_22306 
WHERE tab_22304.country = ? AND tab_22305.person = tab_22304.nr AND tab_22304.publisher = tab_22306.publisher AND tab_22305.nr = tab_22306.nr
223747", color = yellow] ; 
113 -> 115 ; 
116 [label="FunctionCallBindAccess
(<http://www4.wiwiss.fu-berlin.de/bizer/bsbm/v01/instances/dataFromRatingSite{1}/Review{0}>, \"{2}\")", color = yellow] ; 
111 -> 116 ; 
117 [label="FunctionCallBindAccess
AddConstant{1=(\"<http://purl.org/stuff/rev#Review>\", \"<http://www4.wiwiss.fu-berlin.de/bizer/bsbm/v01/vocabulary/rating>\")}", color = yellow] ; 
110 -> 117 ; 
119 [label="BindAccessEval", color = yellow] ; 
1 -> 119 ; 
120 [label="BindAccessEval", color = yellow] ; 
119 -> 120 ; 
121 [label="Project
[1, 2, 3]", color = yellow] ; 
120 -> 121 ; 
122 [label="RightBindJoin 
[0]
221705", color = yellow] ; 
121 -> 122 ; 
123 [label="PhyMongoDBEval
countrytype
[{\"$match\":{\"countrytype\":122}}]
[country]
2", color = yellow] ; 
122 -> 123 ; 
124 [label="SQLQuery
SELECT tab_22292.nr, tab_22292.rating2, tab_22292.publisher, tab_22293.country 
FROM Review AS tab_22294, Person AS tab_22293, Review AS tab_22292 
WHERE tab_22293.country = ? AND tab_22294.person = tab_22293.nr AND tab_22292.publisher = tab_22293.publisher AND tab_22292.nr = tab_22294.nr
221705", color = yellow] ; 
122 -> 124 ; 
125 [label="FunctionCallBindAccess
(<http://www4.wiwiss.fu-berlin.de/bizer/bsbm/v01/instances/dataFromRatingSite{2}/Review{0}>, \"{1}\")", color = yellow] ; 
120 -> 125 ; 
126 [label="FunctionCallBindAccess
AddConstant{1=(\"<http://purl.org/stuff/rev#Review>\", \"<http://www4.wiwiss.fu-berlin.de/bizer/bsbm/v01/vocabulary/rating>\")}", color = yellow] ; 
119 -> 126 ; 
128 [label="BindAccessEval", color = yellow] ; 
1 -> 128 ; 
129 [label="BindAccessEval", color = yellow] ; 
128 -> 129 ; 
130 [label="Project
[0, 1, 4]", color = yellow] ; 
129 -> 130 ; 
131 [label="RightBindJoin 
[1, 0]
23884", color = yellow] ; 
130 -> 131 ; 
132 [label="PhyMongoDBEval
countrytype
[{\"$match\":{\"countrytype\":121}},
{$lookup: { from: \"productproducercountry\", let: { \"country\": \"$country\"}, pipeline: [ { $match: {$expr: {$eq: [\"$$country\", \"$country\"] } } } ], as: \"mongojoin1035\"}},
{$unwind: \"$mongojoin1035\"}]
[mongojoin1035.nr, mongojoin1035.producer]
23884", color = yellow] ; 
131 -> 132 ; 
133 [label="SQLQuery
SELECT nr, producer, propertyTex1 
FROM Product 
WHERE producer = ? AND nr = ?
23884", color = yellow] ; 
131 -> 133 ; 
134 [label="FunctionCallBindAccess
(<http://www4.wiwiss.fu-berlin.de/bizer/bsbm/v01/instances/dataFromProducer{1}/Product{0}>, \"{2}\")", color = yellow] ; 
129 -> 134 ; 
135 [label="FunctionCallBindAccess
AddConstant{1=(\"<http://www4.wiwiss.fu-berlin.de/bizer/bsbm/v01/vocabulary/Product>\", \"<http://www4.wiwiss.fu-berlin.de/bizer/bsbm/v01/vocabulary/productPropertyTextual>\")}", color = yellow] ; 
128 -> 135 ; 
137 [label="BindAccessEval", color = yellow] ; 
1 -> 137 ; 
138 [label="BindAccessEval", color = yellow] ; 
137 -> 138 ; 
139 [label="Project
[0, 1, 4]", color = yellow] ; 
138 -> 139 ; 
140 [label="RightBindJoin 
[1, 0]
22374", color = yellow] ; 
139 -> 140 ; 
141 [label="PhyMongoDBEval
countrytype
[{\"$match\":{\"countrytype\":122}},
{$lookup: { from: \"productproducercountry\", let: { \"country\": \"$country\"}, pipeline: [ { $match: {$expr: {$eq: [\"$$country\", \"$country\"] } } } ], as: \"mongojoin1036\"}},
{$unwind: \"$mongojoin1036\"}]
[mongojoin1036.nr, mongojoin1036.producer]
22374", color = yellow] ; 
140 -> 141 ; 
142 [label="SQLQuery
SELECT nr, producer, propertyTex1 
FROM Product 
WHERE producer = ? AND nr = ?
22374", color = yellow] ; 
140 -> 142 ; 
143 [label="FunctionCallBindAccess
(<http://www4.wiwiss.fu-berlin.de/bizer/bsbm/v01/instances/dataFromProducer{1}/Product{0}>, \"{2}\")", color = yellow] ; 
138 -> 143 ; 
144 [label="FunctionCallBindAccess
AddConstant{1=(\"<http://www4.wiwiss.fu-berlin.de/bizer/bsbm/v01/vocabulary/Product>\", \"<http://www4.wiwiss.fu-berlin.de/bizer/bsbm/v01/vocabulary/productPropertyTextual>\")}", color = yellow] ; 
137 -> 144 ; 
146 [label="BindAccessEval", color = yellow] ; 
1 -> 146 ; 
147 [label="BindAccessEval", color = yellow] ; 
146 -> 147 ; 
148 [label="Project
[2, 3, 4]", color = yellow] ; 
147 -> 148 ; 
149 [label="RightBindJoin 
[0, 1]
22374", color = yellow] ; 
148 -> 149 ; 
150 [label="PhyMongoDBEval
countrytype
[{\"$match\":{\"countrytype\":122}},
{$lookup: { from: \"productproducercountry\", let: { \"country\": \"$country\"}, pipeline: [ { $match: {$expr: {$eq: [\"$$country\", \"$country\"] } } } ], as: \"mongojoin1037\"}},
{$unwind: \"$mongojoin1037\"}]
[mongojoin1037.nr, mongojoin1037.producer]
22374", color = yellow] ; 
149 -> 150 ; 
151 [label="SQLQuery
SELECT nr, producer, propertyTex3 
FROM Product 
WHERE nr = ? AND producer = ?
22374", color = yellow] ; 
149 -> 151 ; 
152 [label="FunctionCallBindAccess
(<http://www4.wiwiss.fu-berlin.de/bizer/bsbm/v01/instances/dataFromProducer{1}/Product{0}>, \"{2}\")", color = yellow] ; 
147 -> 152 ; 
153 [label="FunctionCallBindAccess
AddConstant{1=(\"<http://www4.wiwiss.fu-berlin.de/bizer/bsbm/v01/vocabulary/Product>\", \"<http://www4.wiwiss.fu-berlin.de/bizer/bsbm/v01/vocabulary/productPropertyTextual>\")}", color = yellow] ; 
146 -> 153 ; 
155 [label="BindAccessEval", color = yellow] ; 
1 -> 155 ; 
156 [label="BindAccessEval", color = yellow] ; 
155 -> 156 ; 
157 [label="Project
[0, 1, 4]", color = yellow] ; 
156 -> 157 ; 
158 [label="RightBindJoin 
[0, 1]
23884", color = yellow] ; 
157 -> 158 ; 
159 [label="PhyMongoDBEval
countrytype
[{\"$match\":{\"countrytype\":121}},
{$lookup: { from: \"productproducercountry\", let: { \"country\": \"$country\"}, pipeline: [ { $match: {$expr: {$eq: [\"$$country\", \"$country\"] } } } ], as: \"mongojoin1038\"}},
{$unwind: \"$mongojoin1038\"}]
[mongojoin1038.nr, mongojoin1038.producer]
23884", color = yellow] ; 
158 -> 159 ; 
160 [label="SQLQuery
SELECT nr, producer, propertyTex3 
FROM Product 
WHERE nr = ? AND producer = ?
23884", color = yellow] ; 
158 -> 160 ; 
161 [label="FunctionCallBindAccess
(<http://www4.wiwiss.fu-berlin.de/bizer/bsbm/v01/instances/dataFromProducer{1}/Product{0}>, \"{2}\")", color = yellow] ; 
156 -> 161 ; 
162 [label="FunctionCallBindAccess
AddConstant{1=(\"<http://www4.wiwiss.fu-berlin.de/bizer/bsbm/v01/vocabulary/Product>\", \"<http://www4.wiwiss.fu-berlin.de/bizer/bsbm/v01/vocabulary/productPropertyTextual>\")}", color = yellow] ; 
155 -> 162 ; 
164 [label="BindAccessEval", color = yellow] ; 
1 -> 164 ; 
165 [label="BindAccessEval", color = yellow] ; 
164 -> 165 ; 
166 [label="Project
[0, 1, 4]", color = yellow] ; 
165 -> 166 ; 
167 [label="RightBindJoin 
[0, 1]
22374", color = yellow] ; 
166 -> 167 ; 
168 [label="PhyMongoDBEval
countrytype
[{\"$match\":{\"countrytype\":122}},
{$lookup: { from: \"productproducercountry\", let: { \"country\": \"$country\"}, pipeline: [ { $match: {$expr: {$eq: [\"$$country\", \"$country\"] } } } ], as: \"mongojoin1039\"}},
{$unwind: \"$mongojoin1039\"}]
[mongojoin1039.nr, mongojoin1039.producer]
22374", color = yellow] ; 
167 -> 168 ; 
169 [label="SQLQuery
SELECT nr, producer, propertyTex5 
FROM Product 
WHERE nr = ? AND producer = ?
22374", color = yellow] ; 
167 -> 169 ; 
170 [label="FunctionCallBindAccess
(<http://www4.wiwiss.fu-berlin.de/bizer/bsbm/v01/instances/dataFromProducer{1}/Product{0}>, \"{2}\")", color = yellow] ; 
165 -> 170 ; 
171 [label="FunctionCallBindAccess
AddConstant{1=(\"<http://www4.wiwiss.fu-berlin.de/bizer/bsbm/v01/vocabulary/Product>\", \"<http://www4.wiwiss.fu-berlin.de/bizer/bsbm/v01/vocabulary/productPropertyTextual>\")}", color = yellow] ; 
164 -> 171 ; 
173 [label="BindAccessEval", color = yellow] ; 
1 -> 173 ; 
174 [label="BindAccessEval", color = yellow] ; 
173 -> 174 ; 
175 [label="Project
[1, 3, 4]", color = yellow] ; 
174 -> 175 ; 
176 [label="RightBindJoin 
[0]
221705", color = yellow] ; 
175 -> 176 ; 
177 [label="PhyMongoDBEval
countrytype
[{\"$match\":{\"countrytype\":122}}]
[country]
2", color = yellow] ; 
176 -> 177 ; 
178 [label="SQLQuery
SELECT tab_22308.nr, tab_22307.country, tab_22307.publisher, tab_22309.rating2 
FROM Review AS tab_22309, Review AS tab_22308, Person AS tab_22307 
WHERE tab_22307.country = ? AND tab_22308.person = tab_22307.nr AND tab_22308.nr = tab_22309.nr AND tab_22307.publisher = tab_22309.publisher
221705", color = yellow] ; 
176 -> 178 ; 
179 [label="FunctionCallBindAccess
(<http://www4.wiwiss.fu-berlin.de/bizer/bsbm/v01/instances/dataFromRatingSite{1}/Review{0}>, \"{2}\")", color = yellow] ; 
174 -> 179 ; 
180 [label="FunctionCallBindAccess
AddConstant{1=(\"<http://xmlns.com/foaf/0.1/Document>\", \"<http://www4.wiwiss.fu-berlin.de/bizer/bsbm/v01/vocabulary/rating>\")}", color = yellow] ; 
173 -> 180 ; 
182 [label="BindAccessEval", color = yellow] ; 
1 -> 182 ; 
183 [label="BindAccessEval", color = yellow] ; 
182 -> 183 ; 
184 [label="Project
[1, 3, 4]", color = yellow] ; 
183 -> 184 ; 
185 [label="RightBindJoin 
[0]
223747", color = yellow] ; 
184 -> 185 ; 
186 [label="PhyMongoDBEval
countrytype
[{\"$match\":{\"countrytype\":121}}]
[country]
2", color = yellow] ; 
185 -> 186 ; 
187 [label="SQLQuery
SELECT tab_22311.nr, tab_22310.country, tab_22310.publisher, tab_22312.rating2 
FROM Review AS tab_22312, Review AS tab_22311, Person AS tab_22310 
WHERE tab_22310.country = ? AND tab_22311.person = tab_22310.nr AND tab_22311.nr = tab_22312.nr AND tab_22310.publisher = tab_22312.publisher
223747", color = yellow] ; 
185 -> 187 ; 
188 [label="FunctionCallBindAccess
(<http://www4.wiwiss.fu-berlin.de/bizer/bsbm/v01/instances/dataFromRatingSite{1}/Review{0}>, \"{2}\")", color = yellow] ; 
183 -> 188 ; 
189 [label="FunctionCallBindAccess
AddConstant{1=(\"<http://xmlns.com/foaf/0.1/Document>\", \"<http://www4.wiwiss.fu-berlin.de/bizer/bsbm/v01/vocabulary/rating>\")}", color = yellow] ; 
182 -> 189 ; 
191 [label="BindAccessEval", color = yellow] ; 
1 -> 191 ; 
192 [label="BindAccessEval", color = yellow] ; 
191 -> 192 ; 
193 [label="Project
[2, 3, 4]", color = yellow] ; 
192 -> 193 ; 
194 [label="RightBindJoin 
[0, 1]
23884", color = yellow] ; 
193 -> 194 ; 
195 [label="PhyMongoDBEval
countrytype
[{\"$match\":{\"countrytype\":121}},
{$lookup: { from: \"productproducercountry\", let: { \"country\": \"$country\"}, pipeline: [ { $match: {$expr: {$eq: [\"$$country\", \"$country\"] } } } ], as: \"mongojoin1040\"}},
{$unwind: \"$mongojoin1040\"}]
[mongojoin1040.nr, mongojoin1040.producer]
23884", color = yellow] ; 
194 -> 195 ; 
196 [label="SQLQuery
SELECT nr, producer, propertyTex5 
FROM Product 
WHERE nr = ? AND producer = ?
23884", color = yellow] ; 
194 -> 196 ; 
197 [label="FunctionCallBindAccess
(<http://www4.wiwiss.fu-berlin.de/bizer/bsbm/v01/instances/dataFromProducer{1}/Product{0}>, \"{2}\")", color = yellow] ; 
192 -> 197 ; 
198 [label="FunctionCallBindAccess
AddConstant{1=(\"<http://www4.wiwiss.fu-berlin.de/bizer/bsbm/v01/vocabulary/Product>\", \"<http://www4.wiwiss.fu-berlin.de/bizer/bsbm/v01/vocabulary/productPropertyTextual>\")}", color = yellow] ; 
191 -> 198 ; 
200 [label="BindAccessEval", color = yellow] ; 
1 -> 200 ; 
201 [label="BindAccessEval", color = yellow] ; 
200 -> 201 ; 
202 [label="Project
[2, 3, 4]", color = yellow] ; 
201 -> 202 ; 
203 [label="RightBindJoin 
[1, 0]
23884", color = yellow] ; 
202 -> 203 ; 
204 [label="PhyMongoDBEval
countrytype
[{\"$match\":{\"countrytype\":121}},
{$lookup: { from: \"productproducercountry\", let: { \"country\": \"$country\"}, pipeline: [ { $match: {$expr: {$eq: [\"$$country\", \"$country\"] } } } ], as: \"mongojoin1041\"}},
{$unwind: \"$mongojoin1041\"}]
[mongojoin1041.nr, mongojoin1041.producer]
23884", color = yellow] ; 
203 -> 204 ; 
205 [label="SQLQuery
SELECT nr, producer, propertyNum2 
FROM Product 
WHERE producer = ? AND nr = ?
23884", color = yellow] ; 
203 -> 205 ; 
206 [label="FunctionCallBindAccess
(<http://www4.wiwiss.fu-berlin.de/bizer/bsbm/v01/instances/dataFromProducer{1}/Product{0}>, \"{2}\")", color = yellow] ; 
201 -> 206 ; 
207 [label="FunctionCallBindAccess
AddConstant{1=(\"<http://www4.wiwiss.fu-berlin.de/bizer/bsbm/v01/vocabulary/Product>\", \"<http://www4.wiwiss.fu-berlin.de/bizer/bsbm/v01/vocabulary/productPropertyNumeric>\")}", color = yellow] ; 
200 -> 207 ; 
209 [label="BindAccessEval", color = yellow] ; 
1 -> 209 ; 
210 [label="BindAccessEval", color = yellow] ; 
209 -> 210 ; 
211 [label="Project
[0, 1, 4]", color = yellow] ; 
210 -> 211 ; 
212 [label="RightBindJoin 
[0, 1]
22374", color = yellow] ; 
211 -> 212 ; 
213 [label="PhyMongoDBEval
countrytype
[{\"$match\":{\"countrytype\":122}},
{$lookup: { from: \"productproducercountry\", let: { \"country\": \"$country\"}, pipeline: [ { $match: {$expr: {$eq: [\"$$country\", \"$country\"] } } } ], as: \"mongojoin1042\"}},
{$unwind: \"$mongojoin1042\"}]
[mongojoin1042.nr, mongojoin1042.producer]
22374", color = yellow] ; 
212 -> 213 ; 
214 [label="SQLQuery
SELECT nr, producer, propertyNum2 
FROM Product 
WHERE nr = ? AND producer = ?
22374", color = yellow] ; 
212 -> 214 ; 
215 [label="FunctionCallBindAccess
(<http://www4.wiwiss.fu-berlin.de/bizer/bsbm/v01/instances/dataFromProducer{1}/Product{0}>, \"{2}\")", color = yellow] ; 
210 -> 215 ; 
216 [label="FunctionCallBindAccess
AddConstant{1=(\"<http://www4.wiwiss.fu-berlin.de/bizer/bsbm/v01/vocabulary/Product>\", \"<http://www4.wiwiss.fu-berlin.de/bizer/bsbm/v01/vocabulary/productPropertyNumeric>\")}", color = yellow] ; 
209 -> 216 ; 
}
