digraph  g{ graph[label = "20:13:51.985"]
node [shape=rectangle, color=black, fontcolor=black, style=bold] edge [color=black] 0 [label="Uniq", color = yellow] ; 
1 [label="MemSort[0,1,2,3,4]{}", color = yellow] ; 
0 -> 1 ; 
2 [label="BindAccessEval", color = yellow] ; 
1 -> 2 ; 
3 [label="SQLQuery
SELECT tab_219.nr, tab_219.vendor, tab_219.offerWebpage, tab_220.vendor, tab_221.homepage, tab_222.label FROM
 Offer AS tab_219, Offer AS tab_220, Vendor AS tab_222, Vendor AS tab_221  WHERE
 tab_219.vendor = tab_220.vendor AND tab_219.nr = tab_220.nr AND tab_220.vendor = tab_221.nr AND tab_220.vendor = tab_221.nr AND tab_220.vendor = tab_222.nr AND tab_220.vendor = tab_222.nr", color = yellow] ; 
2 -> 3 ; 
4 [label="FunctionCallBindAccess
(<bsbm-int:dataFromVendor{1}/Offer{0}>, <bsbm-int:dataFromVendor{3}/Vendor{3}>, <{2}>, \"{5}\", <{4}>)", color = yellow] ; 
2 -> 4 ; 
}
