digraph  g{ graph[label = "15:43:13.493"]
node [shape=rectangle, color=black, fontcolor=black, style=bold] edge [color=black] 0 [label="HashDistinct", color = yellow] ; 
1 [label="Union", color = yellow] ; 
0 -> 1 ; 
2 [label="BindAccessEval", color = yellow] ; 
1 -> 2 ; 
3 [label="SQLQuery
SELECT P.nr, P.producer 
FROM PRODUCT AS P, PRODUCTTYPEPRODUCT AS PT  
WHERE PT.producttype = 137 AND PT.product = P.nr", color = yellow] ; 
2 -> 3 ; 
4 [label="FunctionCallBindAccess
(<http://www4.wiwiss.fu-berlin.de/bizer/bsbm/v01/instances/dataFromProducer{1}/Product{0}>)", color = yellow] ; 
2 -> 4 ; 
6 [label="BindAccessEval", color = yellow] ; 
1 -> 6 ; 
7 [label="SQLQuery
SELECT P.nr, P.producer 
FROM PRODUCT AS P, PRODUCTTYPEPRODUCT AS PT  
WHERE PT.producttype = 98 AND PT.product = P.nr", color = yellow] ; 
6 -> 7 ; 
8 [label="FunctionCallBindAccess
(<http://www4.wiwiss.fu-berlin.de/bizer/bsbm/v01/instances/dataFromProducer{1}/Product{0}>)", color = yellow] ; 
6 -> 8 ; 
10 [label="BindAccessEval", color = yellow] ; 
1 -> 10 ; 
11 [label="SQLQuery
SELECT P.nr, P.producer 
FROM PRODUCT AS P, PRODUCTTYPEPRODUCT AS PT  
WHERE PT.producttype = 145 AND PT.product = P.nr", color = yellow] ; 
10 -> 11 ; 
12 [label="FunctionCallBindAccess
(<http://www4.wiwiss.fu-berlin.de/bizer/bsbm/v01/instances/dataFromProducer{1}/Product{0}>)", color = yellow] ; 
10 -> 12 ; 
14 [label="BindAccessEval", color = yellow] ; 
1 -> 14 ; 
15 [label="SQLQuery
SELECT P.nr, P.producer 
FROM PRODUCT AS P, PRODUCTTYPEPRODUCT AS PT  
WHERE PT.producttype = 80 AND PT.product = P.nr", color = yellow] ; 
14 -> 15 ; 
16 [label="FunctionCallBindAccess
(<http://www4.wiwiss.fu-berlin.de/bizer/bsbm/v01/instances/dataFromProducer{1}/Product{0}>)", color = yellow] ; 
14 -> 16 ; 
18 [label="BindAccessEval", color = yellow] ; 
1 -> 18 ; 
19 [label="SQLQuery
SELECT P.nr, P.producer 
FROM PRODUCT AS P, PRODUCTTYPEPRODUCT AS PT  
WHERE PT.producttype = 77 AND PT.product = P.nr", color = yellow] ; 
18 -> 19 ; 
20 [label="FunctionCallBindAccess
(<http://www4.wiwiss.fu-berlin.de/bizer/bsbm/v01/instances/dataFromProducer{1}/Product{0}>)", color = yellow] ; 
18 -> 20 ; 
22 [label="BindAccessEval", color = yellow] ; 
1 -> 22 ; 
23 [label="SQLQuery
SELECT P.nr, P.producer 
FROM PRODUCT AS P, PRODUCTTYPEPRODUCT AS PT  
WHERE PT.producttype = 133 AND PT.product = P.nr", color = yellow] ; 
22 -> 23 ; 
24 [label="FunctionCallBindAccess
(<http://www4.wiwiss.fu-berlin.de/bizer/bsbm/v01/instances/dataFromProducer{1}/Product{0}>)", color = yellow] ; 
22 -> 24 ; 
26 [label="BindAccessEval", color = yellow] ; 
1 -> 26 ; 
27 [label="SQLQuery
SELECT P.nr, P.producer 
FROM PRODUCT AS P, PRODUCTTYPEPRODUCT AS PT  
WHERE PT.producttype = 65 AND PT.product = P.nr", color = yellow] ; 
26 -> 27 ; 
28 [label="FunctionCallBindAccess
(<http://www4.wiwiss.fu-berlin.de/bizer/bsbm/v01/instances/dataFromProducer{1}/Product{0}>)", color = yellow] ; 
26 -> 28 ; 
30 [label="BindAccessEval", color = yellow] ; 
1 -> 30 ; 
31 [label="SQLQuery
SELECT P.nr, P.producer 
FROM PRODUCT AS P, PRODUCTTYPEPRODUCT AS PT  
WHERE PT.producttype = 110 AND PT.product = P.nr", color = yellow] ; 
30 -> 31 ; 
32 [label="FunctionCallBindAccess
(<http://www4.wiwiss.fu-berlin.de/bizer/bsbm/v01/instances/dataFromProducer{1}/Product{0}>)", color = yellow] ; 
30 -> 32 ; 
34 [label="BindAccessEval", color = yellow] ; 
1 -> 34 ; 
35 [label="SQLQuery
SELECT P.nr, P.producer 
FROM PRODUCT AS P, PRODUCTTYPEPRODUCT AS PT  
WHERE PT.producttype = 81 AND PT.product = P.nr", color = yellow] ; 
34 -> 35 ; 
36 [label="FunctionCallBindAccess
(<http://www4.wiwiss.fu-berlin.de/bizer/bsbm/v01/instances/dataFromProducer{1}/Product{0}>)", color = yellow] ; 
34 -> 36 ; 
38 [label="BindAccessEval", color = yellow] ; 
1 -> 38 ; 
39 [label="SQLQuery
SELECT P.nr, P.producer 
FROM PRODUCT AS P, PRODUCTTYPEPRODUCT AS PT  
WHERE PT.producttype = 75 AND PT.product = P.nr", color = yellow] ; 
38 -> 39 ; 
40 [label="FunctionCallBindAccess
(<http://www4.wiwiss.fu-berlin.de/bizer/bsbm/v01/instances/dataFromProducer{1}/Product{0}>)", color = yellow] ; 
38 -> 40 ; 
42 [label="BindAccessEval", color = yellow] ; 
1 -> 42 ; 
43 [label="SQLQuery
SELECT P.nr, P.producer 
FROM PRODUCT AS P, PRODUCTTYPEPRODUCT AS PT  
WHERE PT.producttype = 62 AND PT.product = P.nr", color = yellow] ; 
42 -> 43 ; 
44 [label="FunctionCallBindAccess
(<http://www4.wiwiss.fu-berlin.de/bizer/bsbm/v01/instances/dataFromProducer{1}/Product{0}>)", color = yellow] ; 
42 -> 44 ; 
46 [label="BindAccessEval", color = yellow] ; 
1 -> 46 ; 
47 [label="SQLQuery
SELECT P.nr, P.producer 
FROM PRODUCT AS P, PRODUCTTYPEPRODUCT AS PT  
WHERE PT.producttype = 112 AND PT.product = P.nr", color = yellow] ; 
46 -> 47 ; 
48 [label="FunctionCallBindAccess
(<http://www4.wiwiss.fu-berlin.de/bizer/bsbm/v01/instances/dataFromProducer{1}/Product{0}>)", color = yellow] ; 
46 -> 48 ; 
50 [label="BindAccessEval", color = yellow] ; 
1 -> 50 ; 
51 [label="SQLQuery
SELECT P.nr, P.producer 
FROM PRODUCT AS P, PRODUCTTYPEPRODUCT AS PT  
WHERE PT.producttype = 84 AND PT.product = P.nr", color = yellow] ; 
50 -> 51 ; 
52 [label="FunctionCallBindAccess
(<http://www4.wiwiss.fu-berlin.de/bizer/bsbm/v01/instances/dataFromProducer{1}/Product{0}>)", color = yellow] ; 
50 -> 52 ; 
54 [label="BindAccessEval", color = yellow] ; 
1 -> 54 ; 
55 [label="SQLQuery
SELECT P.nr, P.producer 
FROM PRODUCT AS P, PRODUCTTYPEPRODUCT AS PT  
WHERE PT.producttype = 147 AND PT.product = P.nr", color = yellow] ; 
54 -> 55 ; 
56 [label="FunctionCallBindAccess
(<http://www4.wiwiss.fu-berlin.de/bizer/bsbm/v01/instances/dataFromProducer{1}/Product{0}>)", color = yellow] ; 
54 -> 56 ; 
58 [label="BindAccessEval", color = yellow] ; 
1 -> 58 ; 
59 [label="SQLQuery
SELECT P.nr, P.producer 
FROM PRODUCT AS P, PRODUCTTYPEPRODUCT AS PT  
WHERE PT.producttype = 138 AND PT.product = P.nr", color = yellow] ; 
58 -> 59 ; 
60 [label="FunctionCallBindAccess
(<http://www4.wiwiss.fu-berlin.de/bizer/bsbm/v01/instances/dataFromProducer{1}/Product{0}>)", color = yellow] ; 
58 -> 60 ; 
62 [label="BindAccessEval", color = yellow] ; 
1 -> 62 ; 
63 [label="SQLQuery
SELECT P.nr, P.producer 
FROM PRODUCT AS P, PRODUCTTYPEPRODUCT AS PT  
WHERE PT.producttype = 63 AND PT.product = P.nr", color = yellow] ; 
62 -> 63 ; 
64 [label="FunctionCallBindAccess
(<http://www4.wiwiss.fu-berlin.de/bizer/bsbm/v01/instances/dataFromProducer{1}/Product{0}>)", color = yellow] ; 
62 -> 64 ; 
66 [label="BindAccessEval", color = yellow] ; 
1 -> 66 ; 
67 [label="SQLQuery
SELECT P.nr, P.producer 
FROM PRODUCT AS P, PRODUCTTYPEPRODUCT AS PT  
WHERE PT.producttype = 128 AND PT.product = P.nr", color = yellow] ; 
66 -> 67 ; 
68 [label="FunctionCallBindAccess
(<http://www4.wiwiss.fu-berlin.de/bizer/bsbm/v01/instances/dataFromProducer{1}/Product{0}>)", color = yellow] ; 
66 -> 68 ; 
70 [label="BindAccessEval", color = yellow] ; 
1 -> 70 ; 
71 [label="SQLQuery
SELECT P.nr, P.producer 
FROM PRODUCT AS P, PRODUCTTYPEPRODUCT AS PT  
WHERE PT.producttype = 144 AND PT.product = P.nr", color = yellow] ; 
70 -> 71 ; 
72 [label="FunctionCallBindAccess
(<http://www4.wiwiss.fu-berlin.de/bizer/bsbm/v01/instances/dataFromProducer{1}/Product{0}>)", color = yellow] ; 
70 -> 72 ; 
74 [label="BindAccessEval", color = yellow] ; 
1 -> 74 ; 
75 [label="SQLQuery
SELECT P.nr, P.producer 
FROM PRODUCT AS P, PRODUCTTYPEPRODUCT AS PT  
WHERE PT.producttype = 72 AND PT.product = P.nr", color = yellow] ; 
74 -> 75 ; 
76 [label="FunctionCallBindAccess
(<http://www4.wiwiss.fu-berlin.de/bizer/bsbm/v01/instances/dataFromProducer{1}/Product{0}>)", color = yellow] ; 
74 -> 76 ; 
78 [label="BindAccessEval", color = yellow] ; 
1 -> 78 ; 
79 [label="SQLQuery
SELECT P.nr, P.producer 
FROM PRODUCT AS P, PRODUCTTYPEPRODUCT AS PT  
WHERE PT.producttype = 94 AND PT.product = P.nr", color = yellow] ; 
78 -> 79 ; 
80 [label="FunctionCallBindAccess
(<http://www4.wiwiss.fu-berlin.de/bizer/bsbm/v01/instances/dataFromProducer{1}/Product{0}>)", color = yellow] ; 
78 -> 80 ; 
82 [label="BindAccessEval", color = yellow] ; 
1 -> 82 ; 
83 [label="SQLQuery
SELECT P.nr, P.producer 
FROM PRODUCT AS P, PRODUCTTYPEPRODUCT AS PT  
WHERE PT.producttype = 118 AND PT.product = P.nr", color = yellow] ; 
82 -> 83 ; 
84 [label="FunctionCallBindAccess
(<http://www4.wiwiss.fu-berlin.de/bizer/bsbm/v01/instances/dataFromProducer{1}/Product{0}>)", color = yellow] ; 
82 -> 84 ; 
86 [label="BindAccessEval", color = yellow] ; 
1 -> 86 ; 
87 [label="SQLQuery
SELECT P.nr, P.producer 
FROM PRODUCT AS P, PRODUCTTYPEPRODUCT AS PT  
WHERE PT.producttype = 134 AND PT.product = P.nr", color = yellow] ; 
86 -> 87 ; 
88 [label="FunctionCallBindAccess
(<http://www4.wiwiss.fu-berlin.de/bizer/bsbm/v01/instances/dataFromProducer{1}/Product{0}>)", color = yellow] ; 
86 -> 88 ; 
90 [label="BindAccessEval", color = yellow] ; 
1 -> 90 ; 
91 [label="SQLQuery
SELECT P.nr, P.producer 
FROM PRODUCT AS P, PRODUCTTYPEPRODUCT AS PT  
WHERE PT.producttype = 119 AND PT.product = P.nr", color = yellow] ; 
90 -> 91 ; 
92 [label="FunctionCallBindAccess
(<http://www4.wiwiss.fu-berlin.de/bizer/bsbm/v01/instances/dataFromProducer{1}/Product{0}>)", color = yellow] ; 
90 -> 92 ; 
94 [label="BindAccessEval", color = yellow] ; 
1 -> 94 ; 
95 [label="SQLQuery
SELECT P.nr, P.producer 
FROM PRODUCT AS P, PRODUCTTYPEPRODUCT AS PT  
WHERE PT.producttype = 93 AND PT.product = P.nr", color = yellow] ; 
94 -> 95 ; 
96 [label="FunctionCallBindAccess
(<http://www4.wiwiss.fu-berlin.de/bizer/bsbm/v01/instances/dataFromProducer{1}/Product{0}>)", color = yellow] ; 
94 -> 96 ; 
98 [label="BindAccessEval", color = yellow] ; 
1 -> 98 ; 
99 [label="SQLQuery
SELECT P.nr, P.producer 
FROM PRODUCT AS P, PRODUCTTYPEPRODUCT AS PT  
WHERE PT.producttype = 86 AND PT.product = P.nr", color = yellow] ; 
98 -> 99 ; 
100 [label="FunctionCallBindAccess
(<http://www4.wiwiss.fu-berlin.de/bizer/bsbm/v01/instances/dataFromProducer{1}/Product{0}>)", color = yellow] ; 
98 -> 100 ; 
102 [label="BindAccessEval", color = yellow] ; 
1 -> 102 ; 
103 [label="SQLQuery
SELECT P.nr, P.producer 
FROM PRODUCT AS P, PRODUCTTYPEPRODUCT AS PT  
WHERE PT.producttype = 102 AND PT.product = P.nr", color = yellow] ; 
102 -> 103 ; 
104 [label="FunctionCallBindAccess
(<http://www4.wiwiss.fu-berlin.de/bizer/bsbm/v01/instances/dataFromProducer{1}/Product{0}>)", color = yellow] ; 
102 -> 104 ; 
106 [label="BindAccessEval", color = yellow] ; 
1 -> 106 ; 
107 [label="SQLQuery
SELECT P.nr, P.producer 
FROM PRODUCT AS P, PRODUCTTYPEPRODUCT AS PT  
WHERE PT.producttype = 58 AND PT.product = P.nr", color = yellow] ; 
106 -> 107 ; 
108 [label="FunctionCallBindAccess
(<http://www4.wiwiss.fu-berlin.de/bizer/bsbm/v01/instances/dataFromProducer{1}/Product{0}>)", color = yellow] ; 
106 -> 108 ; 
110 [label="BindAccessEval", color = yellow] ; 
1 -> 110 ; 
111 [label="SQLQuery
SELECT P.nr, P.producer 
FROM PRODUCT AS P, PRODUCTTYPEPRODUCT AS PT  
WHERE PT.producttype = 89 AND PT.product = P.nr", color = yellow] ; 
110 -> 111 ; 
112 [label="FunctionCallBindAccess
(<http://www4.wiwiss.fu-berlin.de/bizer/bsbm/v01/instances/dataFromProducer{1}/Product{0}>)", color = yellow] ; 
110 -> 112 ; 
114 [label="BindAccessEval", color = yellow] ; 
1 -> 114 ; 
115 [label="SQLQuery
SELECT P.nr, P.producer 
FROM PRODUCT AS P, PRODUCTTYPEPRODUCT AS PT  
WHERE PT.producttype = 113 AND PT.product = P.nr", color = yellow] ; 
114 -> 115 ; 
116 [label="FunctionCallBindAccess
(<http://www4.wiwiss.fu-berlin.de/bizer/bsbm/v01/instances/dataFromProducer{1}/Product{0}>)", color = yellow] ; 
114 -> 116 ; 
118 [label="BindAccessEval", color = yellow] ; 
1 -> 118 ; 
119 [label="SQLQuery
SELECT P.nr, P.producer 
FROM PRODUCT AS P, PRODUCTTYPEPRODUCT AS PT  
WHERE PT.producttype = 66 AND PT.product = P.nr", color = yellow] ; 
118 -> 119 ; 
120 [label="FunctionCallBindAccess
(<http://www4.wiwiss.fu-berlin.de/bizer/bsbm/v01/instances/dataFromProducer{1}/Product{0}>)", color = yellow] ; 
118 -> 120 ; 
122 [label="BindAccessEval", color = yellow] ; 
1 -> 122 ; 
123 [label="SQLQuery
SELECT P.nr, P.producer 
FROM PRODUCT AS P, PRODUCTTYPEPRODUCT AS PT  
WHERE PT.producttype = 120 AND PT.product = P.nr", color = yellow] ; 
122 -> 123 ; 
124 [label="FunctionCallBindAccess
(<http://www4.wiwiss.fu-berlin.de/bizer/bsbm/v01/instances/dataFromProducer{1}/Product{0}>)", color = yellow] ; 
122 -> 124 ; 
126 [label="BindAccessEval", color = yellow] ; 
1 -> 126 ; 
127 [label="SQLQuery
SELECT P.nr, P.producer 
FROM PRODUCT AS P, PRODUCTTYPEPRODUCT AS PT  
WHERE PT.producttype = 78 AND PT.product = P.nr", color = yellow] ; 
126 -> 127 ; 
128 [label="FunctionCallBindAccess
(<http://www4.wiwiss.fu-berlin.de/bizer/bsbm/v01/instances/dataFromProducer{1}/Product{0}>)", color = yellow] ; 
126 -> 128 ; 
130 [label="BindAccessEval", color = yellow] ; 
1 -> 130 ; 
131 [label="SQLQuery
SELECT P.nr, P.producer 
FROM PRODUCT AS P, PRODUCTTYPEPRODUCT AS PT  
WHERE PT.producttype = 129 AND PT.product = P.nr", color = yellow] ; 
130 -> 131 ; 
132 [label="FunctionCallBindAccess
(<http://www4.wiwiss.fu-berlin.de/bizer/bsbm/v01/instances/dataFromProducer{1}/Product{0}>)", color = yellow] ; 
130 -> 132 ; 
134 [label="BindAccessEval", color = yellow] ; 
1 -> 134 ; 
135 [label="SQLQuery
SELECT P.nr, P.producer 
FROM PRODUCT AS P, PRODUCTTYPEPRODUCT AS PT  
WHERE PT.producttype = 100 AND PT.product = P.nr", color = yellow] ; 
134 -> 135 ; 
136 [label="FunctionCallBindAccess
(<http://www4.wiwiss.fu-berlin.de/bizer/bsbm/v01/instances/dataFromProducer{1}/Product{0}>)", color = yellow] ; 
134 -> 136 ; 
138 [label="BindAccessEval", color = yellow] ; 
1 -> 138 ; 
139 [label="SQLQuery
SELECT P.nr, P.producer 
FROM PRODUCT AS P, PRODUCTTYPEPRODUCT AS PT  
WHERE PT.producttype = 71 AND PT.product = P.nr", color = yellow] ; 
138 -> 139 ; 
140 [label="FunctionCallBindAccess
(<http://www4.wiwiss.fu-berlin.de/bizer/bsbm/v01/instances/dataFromProducer{1}/Product{0}>)", color = yellow] ; 
138 -> 140 ; 
142 [label="BindAccessEval", color = yellow] ; 
1 -> 142 ; 
143 [label="SQLQuery
SELECT P.nr, P.producer 
FROM PRODUCT AS P, PRODUCTTYPEPRODUCT AS PT  
WHERE PT.producttype = 60 AND PT.product = P.nr", color = yellow] ; 
142 -> 143 ; 
144 [label="FunctionCallBindAccess
(<http://www4.wiwiss.fu-berlin.de/bizer/bsbm/v01/instances/dataFromProducer{1}/Product{0}>)", color = yellow] ; 
142 -> 144 ; 
146 [label="BindAccessEval", color = yellow] ; 
1 -> 146 ; 
147 [label="SQLQuery
SELECT P.nr, P.producer 
FROM PRODUCT AS P, PRODUCTTYPEPRODUCT AS PT  
WHERE PT.producttype = 111 AND PT.product = P.nr", color = yellow] ; 
146 -> 147 ; 
148 [label="FunctionCallBindAccess
(<http://www4.wiwiss.fu-berlin.de/bizer/bsbm/v01/instances/dataFromProducer{1}/Product{0}>)", color = yellow] ; 
146 -> 148 ; 
150 [label="BindAccessEval", color = yellow] ; 
1 -> 150 ; 
151 [label="SQLQuery
SELECT P.nr, P.producer 
FROM PRODUCT AS P, PRODUCTTYPEPRODUCT AS PT  
WHERE PT.producttype = 143 AND PT.product = P.nr", color = yellow] ; 
150 -> 151 ; 
152 [label="FunctionCallBindAccess
(<http://www4.wiwiss.fu-berlin.de/bizer/bsbm/v01/instances/dataFromProducer{1}/Product{0}>)", color = yellow] ; 
150 -> 152 ; 
154 [label="BindAccessEval", color = yellow] ; 
1 -> 154 ; 
155 [label="SQLQuery
SELECT P.nr, P.producer 
FROM PRODUCT AS P, PRODUCTTYPEPRODUCT AS PT  
WHERE PT.producttype = 107 AND PT.product = P.nr", color = yellow] ; 
154 -> 155 ; 
156 [label="FunctionCallBindAccess
(<http://www4.wiwiss.fu-berlin.de/bizer/bsbm/v01/instances/dataFromProducer{1}/Product{0}>)", color = yellow] ; 
154 -> 156 ; 
158 [label="BindAccessEval", color = yellow] ; 
1 -> 158 ; 
159 [label="SQLQuery
SELECT P.nr, P.producer 
FROM PRODUCT AS P, PRODUCTTYPEPRODUCT AS PT  
WHERE PT.producttype = 117 AND PT.product = P.nr", color = yellow] ; 
158 -> 159 ; 
160 [label="FunctionCallBindAccess
(<http://www4.wiwiss.fu-berlin.de/bizer/bsbm/v01/instances/dataFromProducer{1}/Product{0}>)", color = yellow] ; 
158 -> 160 ; 
162 [label="BindAccessEval", color = yellow] ; 
1 -> 162 ; 
163 [label="SQLQuery
SELECT P.nr, P.producer 
FROM PRODUCT AS P, PRODUCTTYPEPRODUCT AS PT  
WHERE PT.producttype = 85 AND PT.product = P.nr", color = yellow] ; 
162 -> 163 ; 
164 [label="FunctionCallBindAccess
(<http://www4.wiwiss.fu-berlin.de/bizer/bsbm/v01/instances/dataFromProducer{1}/Product{0}>)", color = yellow] ; 
162 -> 164 ; 
166 [label="BindAccessEval", color = yellow] ; 
1 -> 166 ; 
167 [label="SQLQuery
SELECT P.nr, P.producer 
FROM PRODUCT AS P, PRODUCTTYPEPRODUCT AS PT  
WHERE PT.producttype = 130 AND PT.product = P.nr", color = yellow] ; 
166 -> 167 ; 
168 [label="FunctionCallBindAccess
(<http://www4.wiwiss.fu-berlin.de/bizer/bsbm/v01/instances/dataFromProducer{1}/Product{0}>)", color = yellow] ; 
166 -> 168 ; 
170 [label="BindAccessEval", color = yellow] ; 
1 -> 170 ; 
171 [label="SQLQuery
SELECT P.nr, P.producer 
FROM PRODUCT AS P, PRODUCTTYPEPRODUCT AS PT  
WHERE PT.producttype = 121 AND PT.product = P.nr", color = yellow] ; 
170 -> 171 ; 
172 [label="FunctionCallBindAccess
(<http://www4.wiwiss.fu-berlin.de/bizer/bsbm/v01/instances/dataFromProducer{1}/Product{0}>)", color = yellow] ; 
170 -> 172 ; 
174 [label="BindAccessEval", color = yellow] ; 
1 -> 174 ; 
175 [label="SQLQuery
SELECT P.nr, P.producer 
FROM PRODUCT AS P, PRODUCTTYPEPRODUCT AS PT  
WHERE PT.producttype = 141 AND PT.product = P.nr", color = yellow] ; 
174 -> 175 ; 
176 [label="FunctionCallBindAccess
(<http://www4.wiwiss.fu-berlin.de/bizer/bsbm/v01/instances/dataFromProducer{1}/Product{0}>)", color = yellow] ; 
174 -> 176 ; 
178 [label="BindAccessEval", color = yellow] ; 
1 -> 178 ; 
179 [label="SQLQuery
SELECT P.nr, P.producer 
FROM PRODUCT AS P, PRODUCTTYPEPRODUCT AS PT  
WHERE PT.producttype = 108 AND PT.product = P.nr", color = yellow] ; 
178 -> 179 ; 
180 [label="FunctionCallBindAccess
(<http://www4.wiwiss.fu-berlin.de/bizer/bsbm/v01/instances/dataFromProducer{1}/Product{0}>)", color = yellow] ; 
178 -> 180 ; 
182 [label="BindAccessEval", color = yellow] ; 
1 -> 182 ; 
183 [label="SQLQuery
SELECT P.nr, P.producer 
FROM PRODUCT AS P, PRODUCTTYPEPRODUCT AS PT  
WHERE PT.producttype = 79 AND PT.product = P.nr", color = yellow] ; 
182 -> 183 ; 
184 [label="FunctionCallBindAccess
(<http://www4.wiwiss.fu-berlin.de/bizer/bsbm/v01/instances/dataFromProducer{1}/Product{0}>)", color = yellow] ; 
182 -> 184 ; 
186 [label="BindAccessEval", color = yellow] ; 
1 -> 186 ; 
187 [label="SQLQuery
SELECT P.nr, P.producer 
FROM PRODUCT AS P, PRODUCTTYPEPRODUCT AS PT  
WHERE PT.producttype = 91 AND PT.product = P.nr", color = yellow] ; 
186 -> 187 ; 
188 [label="FunctionCallBindAccess
(<http://www4.wiwiss.fu-berlin.de/bizer/bsbm/v01/instances/dataFromProducer{1}/Product{0}>)", color = yellow] ; 
186 -> 188 ; 
190 [label="BindAccessEval", color = yellow] ; 
1 -> 190 ; 
191 [label="SQLQuery
SELECT P.nr, P.producer 
FROM PRODUCT AS P, PRODUCTTYPEPRODUCT AS PT  
WHERE PT.producttype = 92 AND PT.product = P.nr", color = yellow] ; 
190 -> 191 ; 
192 [label="FunctionCallBindAccess
(<http://www4.wiwiss.fu-berlin.de/bizer/bsbm/v01/instances/dataFromProducer{1}/Product{0}>)", color = yellow] ; 
190 -> 192 ; 
194 [label="BindAccessEval", color = yellow] ; 
1 -> 194 ; 
195 [label="SQLQuery
SELECT P.nr, P.producer 
FROM PRODUCT AS P, PRODUCTTYPEPRODUCT AS PT  
WHERE PT.producttype = 87 AND PT.product = P.nr", color = yellow] ; 
194 -> 195 ; 
196 [label="FunctionCallBindAccess
(<http://www4.wiwiss.fu-berlin.de/bizer/bsbm/v01/instances/dataFromProducer{1}/Product{0}>)", color = yellow] ; 
194 -> 196 ; 
198 [label="BindAccessEval", color = yellow] ; 
1 -> 198 ; 
199 [label="SQLQuery
SELECT P.nr, P.producer 
FROM PRODUCT AS P, PRODUCTTYPEPRODUCT AS PT  
WHERE PT.producttype = 95 AND PT.product = P.nr", color = yellow] ; 
198 -> 199 ; 
200 [label="FunctionCallBindAccess
(<http://www4.wiwiss.fu-berlin.de/bizer/bsbm/v01/instances/dataFromProducer{1}/Product{0}>)", color = yellow] ; 
198 -> 200 ; 
202 [label="BindAccessEval", color = yellow] ; 
1 -> 202 ; 
203 [label="SQLQuery
SELECT P.nr, P.producer 
FROM PRODUCT AS P, PRODUCTTYPEPRODUCT AS PT  
WHERE PT.producttype = 56 AND PT.product = P.nr", color = yellow] ; 
202 -> 203 ; 
204 [label="FunctionCallBindAccess
(<http://www4.wiwiss.fu-berlin.de/bizer/bsbm/v01/instances/dataFromProducer{1}/Product{0}>)", color = yellow] ; 
202 -> 204 ; 
206 [label="BindAccessEval", color = yellow] ; 
1 -> 206 ; 
207 [label="SQLQuery
SELECT P.nr, P.producer 
FROM PRODUCT AS P, PRODUCTTYPEPRODUCT AS PT  
WHERE PT.producttype = 135 AND PT.product = P.nr", color = yellow] ; 
206 -> 207 ; 
208 [label="FunctionCallBindAccess
(<http://www4.wiwiss.fu-berlin.de/bizer/bsbm/v01/instances/dataFromProducer{1}/Product{0}>)", color = yellow] ; 
206 -> 208 ; 
210 [label="BindAccessEval", color = yellow] ; 
1 -> 210 ; 
211 [label="SQLQuery
SELECT P.nr, P.producer 
FROM PRODUCT AS P, PRODUCTTYPEPRODUCT AS PT  
WHERE PT.producttype = 131 AND PT.product = P.nr", color = yellow] ; 
210 -> 211 ; 
212 [label="FunctionCallBindAccess
(<http://www4.wiwiss.fu-berlin.de/bizer/bsbm/v01/instances/dataFromProducer{1}/Product{0}>)", color = yellow] ; 
210 -> 212 ; 
214 [label="BindAccessEval", color = yellow] ; 
1 -> 214 ; 
215 [label="SQLQuery
SELECT P.nr, P.producer 
FROM PRODUCT AS P, PRODUCTTYPEPRODUCT AS PT  
WHERE PT.producttype = 148 AND PT.product = P.nr", color = yellow] ; 
214 -> 215 ; 
216 [label="FunctionCallBindAccess
(<http://www4.wiwiss.fu-berlin.de/bizer/bsbm/v01/instances/dataFromProducer{1}/Product{0}>)", color = yellow] ; 
214 -> 216 ; 
218 [label="BindAccessEval", color = yellow] ; 
1 -> 218 ; 
219 [label="SQLQuery
SELECT P.nr, P.producer 
FROM PRODUCT AS P, PRODUCTTYPEPRODUCT AS PT  
WHERE PT.producttype = 97 AND PT.product = P.nr", color = yellow] ; 
218 -> 219 ; 
220 [label="FunctionCallBindAccess
(<http://www4.wiwiss.fu-berlin.de/bizer/bsbm/v01/instances/dataFromProducer{1}/Product{0}>)", color = yellow] ; 
218 -> 220 ; 
222 [label="BindAccessEval", color = yellow] ; 
1 -> 222 ; 
223 [label="SQLQuery
SELECT P.nr, P.producer 
FROM PRODUCT AS P, PRODUCTTYPEPRODUCT AS PT  
WHERE PT.producttype = 109 AND PT.product = P.nr", color = yellow] ; 
222 -> 223 ; 
224 [label="FunctionCallBindAccess
(<http://www4.wiwiss.fu-berlin.de/bizer/bsbm/v01/instances/dataFromProducer{1}/Product{0}>)", color = yellow] ; 
222 -> 224 ; 
226 [label="BindAccessEval", color = yellow] ; 
1 -> 226 ; 
227 [label="SQLQuery
SELECT P.nr, P.producer 
FROM PRODUCT AS P, PRODUCTTYPEPRODUCT AS PT  
WHERE PT.producttype = 139 AND PT.product = P.nr", color = yellow] ; 
226 -> 227 ; 
228 [label="FunctionCallBindAccess
(<http://www4.wiwiss.fu-berlin.de/bizer/bsbm/v01/instances/dataFromProducer{1}/Product{0}>)", color = yellow] ; 
226 -> 228 ; 
230 [label="BindAccessEval", color = yellow] ; 
1 -> 230 ; 
231 [label="SQLQuery
SELECT P.nr, P.producer 
FROM PRODUCT AS P, PRODUCTTYPEPRODUCT AS PT  
WHERE PT.producttype = 67 AND PT.product = P.nr", color = yellow] ; 
230 -> 231 ; 
232 [label="FunctionCallBindAccess
(<http://www4.wiwiss.fu-berlin.de/bizer/bsbm/v01/instances/dataFromProducer{1}/Product{0}>)", color = yellow] ; 
230 -> 232 ; 
234 [label="BindAccessEval", color = yellow] ; 
1 -> 234 ; 
235 [label="SQLQuery
SELECT P.nr, P.producer 
FROM PRODUCT AS P, PRODUCTTYPEPRODUCT AS PT  
WHERE PT.producttype = 61 AND PT.product = P.nr", color = yellow] ; 
234 -> 235 ; 
236 [label="FunctionCallBindAccess
(<http://www4.wiwiss.fu-berlin.de/bizer/bsbm/v01/instances/dataFromProducer{1}/Product{0}>)", color = yellow] ; 
234 -> 236 ; 
238 [label="BindAccessEval", color = yellow] ; 
1 -> 238 ; 
239 [label="SQLQuery
SELECT P.nr, P.producer 
FROM PRODUCT AS P, PRODUCTTYPEPRODUCT AS PT  
WHERE PT.producttype = 96 AND PT.product = P.nr", color = yellow] ; 
238 -> 239 ; 
240 [label="FunctionCallBindAccess
(<http://www4.wiwiss.fu-berlin.de/bizer/bsbm/v01/instances/dataFromProducer{1}/Product{0}>)", color = yellow] ; 
238 -> 240 ; 
242 [label="BindAccessEval", color = yellow] ; 
1 -> 242 ; 
243 [label="SQLQuery
SELECT P.nr, P.producer 
FROM PRODUCT AS P, PRODUCTTYPEPRODUCT AS PT  
WHERE PT.producttype = 136 AND PT.product = P.nr", color = yellow] ; 
242 -> 243 ; 
244 [label="FunctionCallBindAccess
(<http://www4.wiwiss.fu-berlin.de/bizer/bsbm/v01/instances/dataFromProducer{1}/Product{0}>)", color = yellow] ; 
242 -> 244 ; 
246 [label="BindAccessEval", color = yellow] ; 
1 -> 246 ; 
247 [label="SQLQuery
SELECT P.nr, P.producer 
FROM PRODUCT AS P, PRODUCTTYPEPRODUCT AS PT  
WHERE PT.producttype = 140 AND PT.product = P.nr", color = yellow] ; 
246 -> 247 ; 
248 [label="FunctionCallBindAccess
(<http://www4.wiwiss.fu-berlin.de/bizer/bsbm/v01/instances/dataFromProducer{1}/Product{0}>)", color = yellow] ; 
246 -> 248 ; 
250 [label="BindAccessEval", color = yellow] ; 
1 -> 250 ; 
251 [label="SQLQuery
SELECT P.nr, P.producer 
FROM PRODUCT AS P, PRODUCTTYPEPRODUCT AS PT  
WHERE PT.producttype = 82 AND PT.product = P.nr", color = yellow] ; 
250 -> 251 ; 
252 [label="FunctionCallBindAccess
(<http://www4.wiwiss.fu-berlin.de/bizer/bsbm/v01/instances/dataFromProducer{1}/Product{0}>)", color = yellow] ; 
250 -> 252 ; 
254 [label="BindAccessEval", color = yellow] ; 
1 -> 254 ; 
255 [label="SQLQuery
SELECT P.nr, P.producer 
FROM PRODUCT AS P, PRODUCTTYPEPRODUCT AS PT  
WHERE PT.producttype = 122 AND PT.product = P.nr", color = yellow] ; 
254 -> 255 ; 
256 [label="FunctionCallBindAccess
(<http://www4.wiwiss.fu-berlin.de/bizer/bsbm/v01/instances/dataFromProducer{1}/Product{0}>)", color = yellow] ; 
254 -> 256 ; 
258 [label="BindAccessEval", color = yellow] ; 
1 -> 258 ; 
259 [label="SQLQuery
SELECT P.nr, P.producer 
FROM PRODUCT AS P, PRODUCTTYPEPRODUCT AS PT  
WHERE PT.producttype = 150 AND PT.product = P.nr", color = yellow] ; 
258 -> 259 ; 
260 [label="FunctionCallBindAccess
(<http://www4.wiwiss.fu-berlin.de/bizer/bsbm/v01/instances/dataFromProducer{1}/Product{0}>)", color = yellow] ; 
258 -> 260 ; 
262 [label="BindAccessEval", color = yellow] ; 
1 -> 262 ; 
263 [label="SQLQuery
SELECT P.nr, P.producer 
FROM PRODUCT AS P, PRODUCTTYPEPRODUCT AS PT  
WHERE PT.producttype = 103 AND PT.product = P.nr", color = yellow] ; 
262 -> 263 ; 
264 [label="FunctionCallBindAccess
(<http://www4.wiwiss.fu-berlin.de/bizer/bsbm/v01/instances/dataFromProducer{1}/Product{0}>)", color = yellow] ; 
262 -> 264 ; 
266 [label="BindAccessEval", color = yellow] ; 
1 -> 266 ; 
267 [label="SQLQuery
SELECT P.nr, P.producer 
FROM PRODUCT AS P, PRODUCTTYPEPRODUCT AS PT  
WHERE PT.producttype = 90 AND PT.product = P.nr", color = yellow] ; 
266 -> 267 ; 
268 [label="FunctionCallBindAccess
(<http://www4.wiwiss.fu-berlin.de/bizer/bsbm/v01/instances/dataFromProducer{1}/Product{0}>)", color = yellow] ; 
266 -> 268 ; 
270 [label="BindAccessEval", color = yellow] ; 
1 -> 270 ; 
271 [label="SQLQuery
SELECT P.nr, P.producer 
FROM PRODUCT AS P, PRODUCTTYPEPRODUCT AS PT  
WHERE PT.producttype = 124 AND PT.product = P.nr", color = yellow] ; 
270 -> 271 ; 
272 [label="FunctionCallBindAccess
(<http://www4.wiwiss.fu-berlin.de/bizer/bsbm/v01/instances/dataFromProducer{1}/Product{0}>)", color = yellow] ; 
270 -> 272 ; 
274 [label="BindAccessEval", color = yellow] ; 
1 -> 274 ; 
275 [label="SQLQuery
SELECT P.nr, P.producer 
FROM PRODUCT AS P, PRODUCTTYPEPRODUCT AS PT  
WHERE PT.producttype = 57 AND PT.product = P.nr", color = yellow] ; 
274 -> 275 ; 
276 [label="FunctionCallBindAccess
(<http://www4.wiwiss.fu-berlin.de/bizer/bsbm/v01/instances/dataFromProducer{1}/Product{0}>)", color = yellow] ; 
274 -> 276 ; 
278 [label="BindAccessEval", color = yellow] ; 
1 -> 278 ; 
279 [label="SQLQuery
SELECT P.nr, P.producer 
FROM PRODUCT AS P, PRODUCTTYPEPRODUCT AS PT  
WHERE PT.producttype = 127 AND PT.product = P.nr", color = yellow] ; 
278 -> 279 ; 
280 [label="FunctionCallBindAccess
(<http://www4.wiwiss.fu-berlin.de/bizer/bsbm/v01/instances/dataFromProducer{1}/Product{0}>)", color = yellow] ; 
278 -> 280 ; 
282 [label="BindAccessEval", color = yellow] ; 
1 -> 282 ; 
283 [label="SQLQuery
SELECT P.nr, P.producer 
FROM PRODUCT AS P, PRODUCTTYPEPRODUCT AS PT  
WHERE PT.producttype = 126 AND PT.product = P.nr", color = yellow] ; 
282 -> 283 ; 
284 [label="FunctionCallBindAccess
(<http://www4.wiwiss.fu-berlin.de/bizer/bsbm/v01/instances/dataFromProducer{1}/Product{0}>)", color = yellow] ; 
282 -> 284 ; 
286 [label="BindAccessEval", color = yellow] ; 
1 -> 286 ; 
287 [label="SQLQuery
SELECT P.nr, P.producer 
FROM PRODUCT AS P, PRODUCTTYPEPRODUCT AS PT  
WHERE PT.producttype = 151 AND PT.product = P.nr", color = yellow] ; 
286 -> 287 ; 
288 [label="FunctionCallBindAccess
(<http://www4.wiwiss.fu-berlin.de/bizer/bsbm/v01/instances/dataFromProducer{1}/Product{0}>)", color = yellow] ; 
286 -> 288 ; 
290 [label="BindAccessEval", color = yellow] ; 
1 -> 290 ; 
291 [label="SQLQuery
SELECT P.nr, P.producer 
FROM PRODUCT AS P, PRODUCTTYPEPRODUCT AS PT  
WHERE PT.producttype = 83 AND PT.product = P.nr", color = yellow] ; 
290 -> 291 ; 
292 [label="FunctionCallBindAccess
(<http://www4.wiwiss.fu-berlin.de/bizer/bsbm/v01/instances/dataFromProducer{1}/Product{0}>)", color = yellow] ; 
290 -> 292 ; 
294 [label="BindAccessEval", color = yellow] ; 
1 -> 294 ; 
295 [label="SQLQuery
SELECT P.nr, P.producer 
FROM PRODUCT AS P, PRODUCTTYPEPRODUCT AS PT  
WHERE PT.producttype = 116 AND PT.product = P.nr", color = yellow] ; 
294 -> 295 ; 
296 [label="FunctionCallBindAccess
(<http://www4.wiwiss.fu-berlin.de/bizer/bsbm/v01/instances/dataFromProducer{1}/Product{0}>)", color = yellow] ; 
294 -> 296 ; 
298 [label="BindAccessEval", color = yellow] ; 
1 -> 298 ; 
299 [label="SQLQuery
SELECT P.nr, P.producer 
FROM PRODUCT AS P, PRODUCTTYPEPRODUCT AS PT  
WHERE PT.producttype = 68 AND PT.product = P.nr", color = yellow] ; 
298 -> 299 ; 
300 [label="FunctionCallBindAccess
(<http://www4.wiwiss.fu-berlin.de/bizer/bsbm/v01/instances/dataFromProducer{1}/Product{0}>)", color = yellow] ; 
298 -> 300 ; 
302 [label="BindAccessEval", color = yellow] ; 
1 -> 302 ; 
303 [label="SQLQuery
SELECT P.nr, P.producer 
FROM PRODUCT AS P, PRODUCTTYPEPRODUCT AS PT  
WHERE PT.producttype = 105 AND PT.product = P.nr", color = yellow] ; 
302 -> 303 ; 
304 [label="FunctionCallBindAccess
(<http://www4.wiwiss.fu-berlin.de/bizer/bsbm/v01/instances/dataFromProducer{1}/Product{0}>)", color = yellow] ; 
302 -> 304 ; 
306 [label="BindAccessEval", color = yellow] ; 
1 -> 306 ; 
307 [label="SQLQuery
SELECT P.nr, P.producer 
FROM PRODUCT AS P, PRODUCTTYPEPRODUCT AS PT  
WHERE PT.producttype = 149 AND PT.product = P.nr", color = yellow] ; 
306 -> 307 ; 
308 [label="FunctionCallBindAccess
(<http://www4.wiwiss.fu-berlin.de/bizer/bsbm/v01/instances/dataFromProducer{1}/Product{0}>)", color = yellow] ; 
306 -> 308 ; 
310 [label="BindAccessEval", color = yellow] ; 
1 -> 310 ; 
311 [label="SQLQuery
SELECT P.nr, P.producer 
FROM PRODUCT AS P, PRODUCTTYPEPRODUCT AS PT  
WHERE PT.producttype = 64 AND PT.product = P.nr", color = yellow] ; 
310 -> 311 ; 
312 [label="FunctionCallBindAccess
(<http://www4.wiwiss.fu-berlin.de/bizer/bsbm/v01/instances/dataFromProducer{1}/Product{0}>)", color = yellow] ; 
310 -> 312 ; 
314 [label="BindAccessEval", color = yellow] ; 
1 -> 314 ; 
315 [label="SQLQuery
SELECT P.nr, P.producer 
FROM PRODUCT AS P, PRODUCTTYPEPRODUCT AS PT  
WHERE PT.producttype = 115 AND PT.product = P.nr", color = yellow] ; 
314 -> 315 ; 
316 [label="FunctionCallBindAccess
(<http://www4.wiwiss.fu-berlin.de/bizer/bsbm/v01/instances/dataFromProducer{1}/Product{0}>)", color = yellow] ; 
314 -> 316 ; 
318 [label="BindAccessEval", color = yellow] ; 
1 -> 318 ; 
319 [label="SQLQuery
SELECT P.nr, P.producer 
FROM PRODUCT AS P, PRODUCTTYPEPRODUCT AS PT  
WHERE PT.producttype = 70 AND PT.product = P.nr", color = yellow] ; 
318 -> 319 ; 
320 [label="FunctionCallBindAccess
(<http://www4.wiwiss.fu-berlin.de/bizer/bsbm/v01/instances/dataFromProducer{1}/Product{0}>)", color = yellow] ; 
318 -> 320 ; 
322 [label="BindAccessEval", color = yellow] ; 
1 -> 322 ; 
323 [label="SQLQuery
SELECT P.nr, P.producer 
FROM PRODUCT AS P, PRODUCTTYPEPRODUCT AS PT  
WHERE PT.producttype = 114 AND PT.product = P.nr", color = yellow] ; 
322 -> 323 ; 
324 [label="FunctionCallBindAccess
(<http://www4.wiwiss.fu-berlin.de/bizer/bsbm/v01/instances/dataFromProducer{1}/Product{0}>)", color = yellow] ; 
322 -> 324 ; 
326 [label="BindAccessEval", color = yellow] ; 
1 -> 326 ; 
327 [label="SQLQuery
SELECT P.nr, P.producer 
FROM PRODUCT AS P, PRODUCTTYPEPRODUCT AS PT  
WHERE PT.producttype = 101 AND PT.product = P.nr", color = yellow] ; 
326 -> 327 ; 
328 [label="FunctionCallBindAccess
(<http://www4.wiwiss.fu-berlin.de/bizer/bsbm/v01/instances/dataFromProducer{1}/Product{0}>)", color = yellow] ; 
326 -> 328 ; 
330 [label="BindAccessEval", color = yellow] ; 
1 -> 330 ; 
331 [label="SQLQuery
SELECT P.nr, P.producer 
FROM PRODUCT AS P, PRODUCTTYPEPRODUCT AS PT  
WHERE PT.producttype = 125 AND PT.product = P.nr", color = yellow] ; 
330 -> 331 ; 
332 [label="FunctionCallBindAccess
(<http://www4.wiwiss.fu-berlin.de/bizer/bsbm/v01/instances/dataFromProducer{1}/Product{0}>)", color = yellow] ; 
330 -> 332 ; 
334 [label="BindAccessEval", color = yellow] ; 
1 -> 334 ; 
335 [label="SQLQuery
SELECT P.nr, P.producer 
FROM PRODUCT AS P, PRODUCTTYPEPRODUCT AS PT  
WHERE PT.producttype = 76 AND PT.product = P.nr", color = yellow] ; 
334 -> 335 ; 
336 [label="FunctionCallBindAccess
(<http://www4.wiwiss.fu-berlin.de/bizer/bsbm/v01/instances/dataFromProducer{1}/Product{0}>)", color = yellow] ; 
334 -> 336 ; 
338 [label="BindAccessEval", color = yellow] ; 
1 -> 338 ; 
339 [label="SQLQuery
SELECT P.nr, P.producer 
FROM PRODUCT AS P, PRODUCTTYPEPRODUCT AS PT  
WHERE PT.producttype = 132 AND PT.product = P.nr", color = yellow] ; 
338 -> 339 ; 
340 [label="FunctionCallBindAccess
(<http://www4.wiwiss.fu-berlin.de/bizer/bsbm/v01/instances/dataFromProducer{1}/Product{0}>)", color = yellow] ; 
338 -> 340 ; 
342 [label="BindAccessEval", color = yellow] ; 
1 -> 342 ; 
343 [label="SQLQuery
SELECT P.nr, P.producer 
FROM PRODUCT AS P, PRODUCTTYPEPRODUCT AS PT  
WHERE PT.producttype = 142 AND PT.product = P.nr", color = yellow] ; 
342 -> 343 ; 
344 [label="FunctionCallBindAccess
(<http://www4.wiwiss.fu-berlin.de/bizer/bsbm/v01/instances/dataFromProducer{1}/Product{0}>)", color = yellow] ; 
342 -> 344 ; 
346 [label="BindAccessEval", color = yellow] ; 
1 -> 346 ; 
347 [label="SQLQuery
SELECT P.nr, P.producer 
FROM PRODUCT AS P, PRODUCTTYPEPRODUCT AS PT  
WHERE PT.producttype = 123 AND PT.product = P.nr", color = yellow] ; 
346 -> 347 ; 
348 [label="FunctionCallBindAccess
(<http://www4.wiwiss.fu-berlin.de/bizer/bsbm/v01/instances/dataFromProducer{1}/Product{0}>)", color = yellow] ; 
346 -> 348 ; 
350 [label="BindAccessEval", color = yellow] ; 
1 -> 350 ; 
351 [label="SQLQuery
SELECT P.nr, P.producer 
FROM PRODUCT AS P, PRODUCTTYPEPRODUCT AS PT  
WHERE PT.producttype = 104 AND PT.product = P.nr", color = yellow] ; 
350 -> 351 ; 
352 [label="FunctionCallBindAccess
(<http://www4.wiwiss.fu-berlin.de/bizer/bsbm/v01/instances/dataFromProducer{1}/Product{0}>)", color = yellow] ; 
350 -> 352 ; 
354 [label="BindAccessEval", color = yellow] ; 
1 -> 354 ; 
355 [label="SQLQuery
SELECT P.nr, P.producer 
FROM PRODUCT AS P, PRODUCTTYPEPRODUCT AS PT  
WHERE PT.producttype = 69 AND PT.product = P.nr", color = yellow] ; 
354 -> 355 ; 
356 [label="FunctionCallBindAccess
(<http://www4.wiwiss.fu-berlin.de/bizer/bsbm/v01/instances/dataFromProducer{1}/Product{0}>)", color = yellow] ; 
354 -> 356 ; 
358 [label="BindAccessEval", color = yellow] ; 
1 -> 358 ; 
359 [label="SQLQuery
SELECT P.nr, P.producer 
FROM PRODUCT AS P, PRODUCTTYPEPRODUCT AS PT  
WHERE PT.producttype = 99 AND PT.product = P.nr", color = yellow] ; 
358 -> 359 ; 
360 [label="FunctionCallBindAccess
(<http://www4.wiwiss.fu-berlin.de/bizer/bsbm/v01/instances/dataFromProducer{1}/Product{0}>)", color = yellow] ; 
358 -> 360 ; 
362 [label="BindAccessEval", color = yellow] ; 
1 -> 362 ; 
363 [label="SQLQuery
SELECT P.nr, P.producer 
FROM PRODUCT AS P, PRODUCTTYPEPRODUCT AS PT  
WHERE PT.producttype = 88 AND PT.product = P.nr", color = yellow] ; 
362 -> 363 ; 
364 [label="FunctionCallBindAccess
(<http://www4.wiwiss.fu-berlin.de/bizer/bsbm/v01/instances/dataFromProducer{1}/Product{0}>)", color = yellow] ; 
362 -> 364 ; 
366 [label="BindAccessEval", color = yellow] ; 
1 -> 366 ; 
367 [label="SQLQuery
SELECT P.nr, P.producer 
FROM PRODUCT AS P, PRODUCTTYPEPRODUCT AS PT  
WHERE PT.producttype = 106 AND PT.product = P.nr", color = yellow] ; 
366 -> 367 ; 
368 [label="FunctionCallBindAccess
(<http://www4.wiwiss.fu-berlin.de/bizer/bsbm/v01/instances/dataFromProducer{1}/Product{0}>)", color = yellow] ; 
366 -> 368 ; 
370 [label="BindAccessEval", color = yellow] ; 
1 -> 370 ; 
371 [label="SQLQuery
SELECT P.nr, P.producer 
FROM PRODUCT AS P, PRODUCTTYPEPRODUCT AS PT  
WHERE PT.producttype = 59 AND PT.product = P.nr", color = yellow] ; 
370 -> 371 ; 
372 [label="FunctionCallBindAccess
(<http://www4.wiwiss.fu-berlin.de/bizer/bsbm/v01/instances/dataFromProducer{1}/Product{0}>)", color = yellow] ; 
370 -> 372 ; 
374 [label="BindAccessEval", color = yellow] ; 
1 -> 374 ; 
375 [label="SQLQuery
SELECT P.nr, P.producer 
FROM PRODUCT AS P, PRODUCTTYPEPRODUCT AS PT  
WHERE PT.producttype = 73 AND PT.product = P.nr", color = yellow] ; 
374 -> 375 ; 
376 [label="FunctionCallBindAccess
(<http://www4.wiwiss.fu-berlin.de/bizer/bsbm/v01/instances/dataFromProducer{1}/Product{0}>)", color = yellow] ; 
374 -> 376 ; 
378 [label="BindAccessEval", color = yellow] ; 
1 -> 378 ; 
379 [label="SQLQuery
SELECT P.nr, P.producer 
FROM PRODUCT AS P, PRODUCTTYPEPRODUCT AS PT  
WHERE PT.producttype = 74 AND PT.product = P.nr", color = yellow] ; 
378 -> 379 ; 
380 [label="FunctionCallBindAccess
(<http://www4.wiwiss.fu-berlin.de/bizer/bsbm/v01/instances/dataFromProducer{1}/Product{0}>)", color = yellow] ; 
378 -> 380 ; 
382 [label="BindAccessEval", color = yellow] ; 
1 -> 382 ; 
383 [label="SQLQuery
SELECT P.nr, P.producer 
FROM PRODUCT AS P, PRODUCTTYPEPRODUCT AS PT  
WHERE PT.producttype = 146 AND PT.product = P.nr", color = yellow] ; 
382 -> 383 ; 
384 [label="FunctionCallBindAccess
(<http://www4.wiwiss.fu-berlin.de/bizer/bsbm/v01/instances/dataFromProducer{1}/Product{0}>)", color = yellow] ; 
382 -> 384 ; 
}
