digraph  g{ graph[label = "19:10:20.260"]
node [shape=rectangle, color=black, fontcolor=black, style=bold] edge [color=black] 0 [label="BindAccessEval", color = yellow] ; 
1 [label="HashDistinct", color = yellow] ; 
0 -> 1 ; 
2 [label="Union", color = yellow] ; 
1 -> 2 ; 
3 [label="SQLQuery
SELECT tab_4744.label, tab_4743.propertyNum2, tab_4742.country 
FROM Product AS tab_4743, Product AS tab_4744, PRODUCTTYPEPRODUCT AS tab_4739, PRODUCT AS tab_4740, Producer AS tab_4742, CountryType AS tab_4745, Product AS tab_4741   
WHERE tab_4739.producttype = 1059 AND tab_4739.product = tab_4740.nr AND tab_4740.producer = tab_4743.producer AND tab_4740.nr = tab_4743.nr AND tab_4741.producer = tab_4742.nr AND tab_4740.producer = tab_4741.producer AND tab_4740.nr = tab_4741.nr AND tab_4740.producer = tab_4744.producer AND tab_4740.nr = tab_4744.nr AND tab_4745.countryType = 122 AND tab_4742.country = tab_4745.country", color = yellow] ; 
2 -> 3 ; 
5 [label="SQLQuery
SELECT tab_4680.label, tab_4677.propertyNum1, tab_4679.country 
FROM Product AS tab_4677, PRODUCTTYPEPRODUCT AS tab_4678, CountryType AS tab_4683, Product AS tab_4680, Product AS tab_4682, Producer AS tab_4679, PRODUCT AS tab_4681   
WHERE tab_4678.producttype = 1059 AND tab_4678.product = tab_4681.nr AND tab_4681.producer = tab_4680.producer AND tab_4681.nr = tab_4680.nr AND tab_4682.producer = tab_4679.nr AND tab_4681.producer = tab_4682.producer AND tab_4681.nr = tab_4682.nr AND tab_4681.producer = tab_4677.producer AND tab_4681.nr = tab_4677.nr AND tab_4683.countryType = 121 AND tab_4679.country = tab_4683.country", color = yellow] ; 
2 -> 5 ; 
7 [label="SQLQuery
SELECT tab_4722.label, tab_4723.propertyNum1, tab_4720.country 
FROM Product AS tab_4721, Product AS tab_4723, Product AS tab_4722, Producer AS tab_4720, PRODUCTTYPEPRODUCT AS tab_4718, PRODUCT AS tab_4719, CountryType AS tab_4724   
WHERE tab_4718.producttype = 1059 AND tab_4718.product = tab_4719.nr AND tab_4722.producer = tab_4719.producer AND tab_4722.nr = tab_4719.nr AND tab_4721.producer = tab_4720.nr AND tab_4722.producer = tab_4721.producer AND tab_4722.nr = tab_4721.nr AND tab_4722.producer = tab_4723.producer AND tab_4722.nr = tab_4723.nr AND tab_4724.countryType = 122 AND tab_4720.country = tab_4724.country", color = yellow] ; 
2 -> 7 ; 
9 [label="SQLQuery
SELECT tab_4660.label, tab_4659.propertyNum1, tab_4661.country 
FROM PRODUCTTYPEPRODUCT AS tab_4657, PRODUCT AS tab_4658, Product AS tab_4656, Product AS tab_4659, Producer AS tab_4661, CountryType AS tab_4662, Product AS tab_4660   
WHERE tab_4657.producttype = 1058 AND tab_4657.product = tab_4658.nr AND tab_4659.producer = tab_4658.producer AND tab_4659.nr = tab_4658.nr AND tab_4659.producer = tab_4660.producer AND tab_4659.nr = tab_4660.nr AND tab_4656.producer = tab_4661.nr AND tab_4659.producer = tab_4656.producer AND tab_4659.nr = tab_4656.nr AND tab_4662.countryType = 121 AND tab_4661.country = tab_4662.country", color = yellow] ; 
2 -> 9 ; 
11 [label="SQLQuery
SELECT tab_4703.label, tab_4700.propertyNum2, tab_4697.country 
FROM Product AS tab_4699, PRODUCTTYPEPRODUCT AS tab_4702, Product AS tab_4700, Product AS tab_4703, PRODUCT AS tab_4701, CountryType AS tab_4697, Producer AS tab_4698   
WHERE tab_4697.countryType = 121 AND tab_4699.producer = tab_4698.nr AND tab_4697.country = tab_4698.country AND tab_4699.producer = tab_4700.producer AND tab_4699.nr = tab_4700.nr AND tab_4702.producttype = 1059 AND tab_4702.product = tab_4701.nr AND tab_4699.producer = tab_4701.producer AND tab_4699.nr = tab_4701.nr AND tab_4699.producer = tab_4703.producer AND tab_4699.nr = tab_4703.nr", color = yellow] ; 
2 -> 11 ; 
13 [label="SQLQuery
SELECT tab_4641.label, tab_4636.propertyNum2, tab_4640.country 
FROM PRODUCT AS tab_4638, Product AS tab_4637, Product AS tab_4636, PRODUCTTYPEPRODUCT AS tab_4639, CountryType AS tab_4642, Producer AS tab_4640, Product AS tab_4641   
WHERE tab_4639.producttype = 1058 AND tab_4639.product = tab_4638.nr AND tab_4638.producer = tab_4641.producer AND tab_4638.nr = tab_4641.nr AND tab_4638.producer = tab_4636.producer AND tab_4638.nr = tab_4636.nr AND tab_4637.producer = tab_4640.nr AND tab_4638.producer = tab_4637.producer AND tab_4638.nr = tab_4637.nr AND tab_4642.countryType = 122 AND tab_4640.country = tab_4642.country", color = yellow] ; 
2 -> 13 ; 
15 [label="SQLQuery
SELECT tab_4764.label, tab_4762.propertyNum2, tab_4765.country 
FROM Product AS tab_4764, PRODUCTTYPEPRODUCT AS tab_4760, PRODUCT AS tab_4763, CountryType AS tab_4766, Product AS tab_4761, Producer AS tab_4765, Product AS tab_4762   
WHERE tab_4760.producttype = 1058 AND tab_4760.product = tab_4763.nr AND tab_4763.producer = tab_4762.producer AND tab_4763.nr = tab_4762.nr AND tab_4761.producer = tab_4765.nr AND tab_4763.producer = tab_4761.producer AND tab_4763.nr = tab_4761.nr AND tab_4763.producer = tab_4764.producer AND tab_4763.nr = tab_4764.nr AND tab_4766.countryType = 121 AND tab_4765.country = tab_4766.country", color = yellow] ; 
2 -> 15 ; 
17 [label="SQLQuery
SELECT tab_4616.label, tab_4620.propertyNum1, tab_4621.country 
FROM PRODUCT AS tab_4617, PRODUCTTYPEPRODUCT AS tab_4618, Product AS tab_4616, Product AS tab_4619, Producer AS tab_4621, CountryType AS tab_4622, Product AS tab_4620   
WHERE tab_4618.producttype = 1058 AND tab_4618.product = tab_4617.nr AND tab_4619.producer = tab_4621.nr AND tab_4617.producer = tab_4619.producer AND tab_4617.nr = tab_4619.nr AND tab_4617.producer = tab_4616.producer AND tab_4617.nr = tab_4616.nr AND tab_4617.producer = tab_4620.producer AND tab_4617.nr = tab_4620.nr AND tab_4622.countryType = 122 AND tab_4621.country = tab_4622.country", color = yellow] ; 
2 -> 17 ; 
18 [label="FunctionCallBindAccess
(\"{0}\", \"{1}\", <http://downlode.org/rdf/iso-3166/countries#{2}>)", color = yellow] ; 
0 -> 18 ; 
}
