digraph  g{ graph[label = "19:10:21.590"]
node [shape=rectangle, color=black, fontcolor=black, style=bold] edge [color=black] 0 [label="BindAccessEval", color = yellow] ; 
1 [label="HashDistinct", color = yellow] ; 
0 -> 1 ; 
2 [label="Union", color = yellow] ; 
1 -> 2 ; 
3 [label="SQLQuery
SELECT tab_5023.label, tab_5024.propertyNum2, tab_5019.country 
FROM Product AS tab_5021, Product AS tab_5023, CountryType AS tab_5019, PRODUCTTYPEPRODUCT AS tab_5022, Product AS tab_5024, PRODUCT AS tab_5020, Producer AS tab_5018   
WHERE tab_5019.countryType = 122 AND tab_5021.producer = tab_5018.nr AND tab_5019.country = tab_5018.country AND tab_5021.producer = tab_5023.producer AND tab_5021.nr = tab_5023.nr AND tab_5022.producttype = 1059 AND tab_5022.product = tab_5020.nr AND tab_5021.producer = tab_5020.producer AND tab_5021.nr = tab_5020.nr AND tab_5021.producer = tab_5024.producer AND tab_5021.nr = tab_5024.nr", color = yellow] ; 
2 -> 3 ; 
5 [label="SQLQuery
SELECT tab_4941.label, tab_4943.propertyNum2, tab_4940.country 
FROM Product AS tab_4941, PRODUCTTYPEPRODUCT AS tab_4942, Product AS tab_4943, Product AS tab_4944, Producer AS tab_4940, PRODUCT AS tab_4939, CountryType AS tab_4945   
WHERE tab_4944.producer = tab_4940.nr AND tab_4944.producer = tab_4941.producer AND tab_4944.nr = tab_4941.nr AND tab_4942.producttype = 1058 AND tab_4942.product = tab_4939.nr AND tab_4944.producer = tab_4939.producer AND tab_4944.nr = tab_4939.nr AND tab_4944.producer = tab_4943.producer AND tab_4944.nr = tab_4943.nr AND tab_4945.countryType = 112 AND tab_4940.country = tab_4945.country", color = yellow] ; 
2 -> 5 ; 
7 [label="SQLQuery
SELECT tab_4844.label, tab_4839.propertyNum1, tab_4843.country 
FROM Product AS tab_4844, Product AS tab_4839, CountryType AS tab_4843, PRODUCTTYPEPRODUCT AS tab_4841, PRODUCT AS tab_4838, Product AS tab_4840, Producer AS tab_4842   
WHERE tab_4843.countryType = 112 AND tab_4840.producer = tab_4842.nr AND tab_4843.country = tab_4842.country AND tab_4840.producer = tab_4839.producer AND tab_4840.nr = tab_4839.nr AND tab_4841.producttype = 1059 AND tab_4841.product = tab_4838.nr AND tab_4840.producer = tab_4838.producer AND tab_4840.nr = tab_4838.nr AND tab_4840.producer = tab_4844.producer AND tab_4840.nr = tab_4844.nr", color = yellow] ; 
2 -> 7 ; 
9 [label="SQLQuery
SELECT tab_5083.label, tab_5080.propertyNum1, tab_5081.country 
FROM Product AS tab_5080, Product AS tab_5083, Product AS tab_5082, PRODUCT AS tab_5079, Producer AS tab_5081, PRODUCTTYPEPRODUCT AS tab_5078, CountryType AS tab_5084   
WHERE tab_5078.producttype = 1058 AND tab_5078.product = tab_5079.nr AND tab_5083.producer = tab_5079.producer AND tab_5083.nr = tab_5079.nr AND tab_5083.producer = tab_5080.producer AND tab_5083.nr = tab_5080.nr AND tab_5082.producer = tab_5081.nr AND tab_5083.producer = tab_5082.producer AND tab_5083.nr = tab_5082.nr AND tab_5084.countryType = 112 AND tab_5081.country = tab_5084.country", color = yellow] ; 
2 -> 9 ; 
11 [label="SQLQuery
SELECT tab_4820.label, tab_4821.propertyNum2, tab_4822.country 
FROM Product AS tab_4820, PRODUCT AS tab_4823, Product AS tab_4821, Producer AS tab_4818, PRODUCTTYPEPRODUCT AS tab_4824, Product AS tab_4819, CountryType AS tab_4822   
WHERE tab_4822.countryType = 121 AND tab_4819.producer = tab_4818.nr AND tab_4822.country = tab_4818.country AND tab_4819.producer = tab_4820.producer AND tab_4819.nr = tab_4820.nr AND tab_4819.producer = tab_4821.producer AND tab_4819.nr = tab_4821.nr AND tab_4824.producttype = 1058 AND tab_4824.product = tab_4823.nr AND tab_4819.producer = tab_4823.producer AND tab_4819.nr = tab_4823.nr", color = yellow] ; 
2 -> 11 ; 
13 [label="SQLQuery
SELECT tab_5043.label, tab_5044.propertyNum2, tab_5039.country 
FROM PRODUCTTYPEPRODUCT AS tab_5040, PRODUCT AS tab_5041, CountryType AS tab_5045, Producer AS tab_5039, Product AS tab_5043, Product AS tab_5042, Product AS tab_5044   
WHERE tab_5042.producer = tab_5039.nr AND tab_5043.producer = tab_5042.producer AND tab_5043.nr = tab_5042.nr AND tab_5040.producttype = 1059 AND tab_5040.product = tab_5041.nr AND tab_5043.producer = tab_5041.producer AND tab_5043.nr = tab_5041.nr AND tab_5043.producer = tab_5044.producer AND tab_5043.nr = tab_5044.nr AND tab_5045.countryType = 112 AND tab_5039.country = tab_5045.country", color = yellow] ; 
2 -> 13 ; 
15 [label="SQLQuery
SELECT tab_4782.label, tab_4785.propertyNum2, tab_4784.country 
FROM PRODUCTTYPEPRODUCT AS tab_4781, CountryType AS tab_4786, Product AS tab_4780, PRODUCT AS tab_4783, Producer AS tab_4784, Product AS tab_4782, Product AS tab_4785   
WHERE tab_4781.producttype = 1058 AND tab_4781.product = tab_4783.nr AND tab_4785.producer = tab_4783.producer AND tab_4785.nr = tab_4783.nr AND tab_4785.producer = tab_4782.producer AND tab_4785.nr = tab_4782.nr AND tab_4780.producer = tab_4784.nr AND tab_4785.producer = tab_4780.producer AND tab_4785.nr = tab_4780.nr AND tab_4786.countryType = 111 AND tab_4784.country = tab_4786.country", color = yellow] ; 
2 -> 15 ; 
17 [label="SQLQuery
SELECT tab_4802.label, tab_4801.propertyNum2, tab_4804.country 
FROM Producer AS tab_4804, CountryType AS tab_4805, Product AS tab_4799, Product AS tab_4802, PRODUCT AS tab_4800, Product AS tab_4801, PRODUCTTYPEPRODUCT AS tab_4803   
WHERE tab_4802.producer = tab_4801.producer AND tab_4802.nr = tab_4801.nr AND tab_4803.producttype = 1058 AND tab_4803.product = tab_4800.nr AND tab_4802.producer = tab_4800.producer AND tab_4802.nr = tab_4800.nr AND tab_4799.producer = tab_4804.nr AND tab_4802.producer = tab_4799.producer AND tab_4802.nr = tab_4799.nr AND tab_4805.countryType = 122 AND tab_4804.country = tab_4805.country", color = yellow] ; 
2 -> 17 ; 
19 [label="SQLQuery
SELECT tab_5060.label, tab_5062.propertyNum2, tab_5059.country 
FROM PRODUCT AS tab_5063, CountryType AS tab_5064, Product AS tab_5061, Product AS tab_5060, Product AS tab_5062, PRODUCTTYPEPRODUCT AS tab_5058, Producer AS tab_5059   
WHERE tab_5060.producer = tab_5062.producer AND tab_5060.nr = tab_5062.nr AND tab_5058.producttype = 1059 AND tab_5058.product = tab_5063.nr AND tab_5060.producer = tab_5063.producer AND tab_5060.nr = tab_5063.nr AND tab_5061.producer = tab_5059.nr AND tab_5060.producer = tab_5061.producer AND tab_5060.nr = tab_5061.nr AND tab_5064.countryType = 111 AND tab_5059.country = tab_5064.country", color = yellow] ; 
2 -> 19 ; 
21 [label="SQLQuery
SELECT tab_5002.label, tab_4998.propertyNum1, tab_5001.country 
FROM PRODUCTTYPEPRODUCT AS tab_4999, Product AS tab_4998, Producer AS tab_5001, CountryType AS tab_5004, PRODUCT AS tab_5000, Product AS tab_5003, Product AS tab_5002   
WHERE tab_5003.producer = tab_5001.nr AND tab_5003.producer = tab_5002.producer AND tab_5003.nr = tab_5002.nr AND tab_5003.producer = tab_4998.producer AND tab_5003.nr = tab_4998.nr AND tab_4999.producttype = 1059 AND tab_4999.product = tab_5000.nr AND tab_5003.producer = tab_5000.producer AND tab_5003.nr = tab_5000.nr AND tab_5004.countryType = 121 AND tab_5001.country = tab_5004.country", color = yellow] ; 
2 -> 21 ; 
23 [label="SQLQuery
SELECT tab_4861.label, tab_4859.propertyNum1, tab_4862.country 
FROM Product AS tab_4857, PRODUCTTYPEPRODUCT AS tab_4858, Product AS tab_4859, Producer AS tab_4862, CountryType AS tab_4863, PRODUCT AS tab_4860, Product AS tab_4861   
WHERE tab_4861.producer = tab_4859.producer AND tab_4861.nr = tab_4859.nr AND tab_4857.producer = tab_4862.nr AND tab_4861.producer = tab_4857.producer AND tab_4861.nr = tab_4857.nr AND tab_4858.producttype = 1058 AND tab_4858.product = tab_4860.nr AND tab_4861.producer = tab_4860.producer AND tab_4861.nr = tab_4860.nr AND tab_4863.countryType = 122 AND tab_4862.country = tab_4863.country", color = yellow] ; 
2 -> 23 ; 
25 [label="SQLQuery
SELECT tab_4984.label, tab_4980.propertyNum1, tab_4983.country 
FROM Product AS tab_4984, PRODUCTTYPEPRODUCT AS tab_4978, Product AS tab_4979, CountryType AS tab_4983, PRODUCT AS tab_4981, Producer AS tab_4982, Product AS tab_4980   
WHERE tab_4983.countryType = 111 AND tab_4979.producer = tab_4982.nr AND tab_4983.country = tab_4982.country AND tab_4979.producer = tab_4980.producer AND tab_4979.nr = tab_4980.nr AND tab_4978.producttype = 1059 AND tab_4978.product = tab_4981.nr AND tab_4979.producer = tab_4981.producer AND tab_4979.nr = tab_4981.nr AND tab_4979.producer = tab_4984.producer AND tab_4979.nr = tab_4984.nr", color = yellow] ; 
2 -> 25 ; 
27 [label="SQLQuery
SELECT tab_4958.label, tab_4959.propertyNum1, tab_4963.country 
FROM Product AS tab_4958, PRODUCT AS tab_4960, Product AS tab_4959, CountryType AS tab_4964, PRODUCTTYPEPRODUCT AS tab_4962, Product AS tab_4961, Producer AS tab_4963   
WHERE tab_4958.producer = tab_4959.producer AND tab_4958.nr = tab_4959.nr AND tab_4961.producer = tab_4963.nr AND tab_4958.producer = tab_4961.producer AND tab_4958.nr = tab_4961.nr AND tab_4962.producttype = 1058 AND tab_4962.product = tab_4960.nr AND tab_4958.producer = tab_4960.producer AND tab_4958.nr = tab_4960.nr AND tab_4964.countryType = 111 AND tab_4963.country = tab_4964.country", color = yellow] ; 
2 -> 27 ; 
29 [label="SQLQuery
SELECT tab_4876.label, tab_4879.propertyNum1, tab_4877.country 
FROM Product AS tab_4876, Product AS tab_4879, Product AS tab_4880, PRODUCT AS tab_4881, CountryType AS tab_4877, Producer AS tab_4878, PRODUCTTYPEPRODUCT AS tab_4882   
WHERE tab_4877.countryType = 122 AND tab_4880.producer = tab_4878.nr AND tab_4877.country = tab_4878.country AND tab_4880.producer = tab_4879.producer AND tab_4880.nr = tab_4879.nr AND tab_4880.producer = tab_4876.producer AND tab_4880.nr = tab_4876.nr AND tab_4882.producttype = 1059 AND tab_4882.product = tab_4881.nr AND tab_4880.producer = tab_4881.producer AND tab_4880.nr = tab_4881.nr", color = yellow] ; 
2 -> 29 ; 
31 [label="SQLQuery
SELECT tab_4900.label, tab_4897.propertyNum1, tab_4899.country 
FROM Product AS tab_4897, CountryType AS tab_4903, PRODUCTTYPEPRODUCT AS tab_4898, PRODUCT AS tab_4901, Product AS tab_4900, Product AS tab_4902, Producer AS tab_4899   
WHERE tab_4898.producttype = 1058 AND tab_4898.product = tab_4901.nr AND tab_4901.producer = tab_4900.producer AND tab_4901.nr = tab_4900.nr AND tab_4902.producer = tab_4899.nr AND tab_4901.producer = tab_4902.producer AND tab_4901.nr = tab_4902.nr AND tab_4901.producer = tab_4897.producer AND tab_4901.nr = tab_4897.nr AND tab_4903.countryType = 121 AND tab_4899.country = tab_4903.country", color = yellow] ; 
2 -> 31 ; 
33 [label="SQLQuery
SELECT tab_4923.label, tab_4922.propertyNum2, tab_4921.country 
FROM PRODUCTTYPEPRODUCT AS tab_4920, Product AS tab_4923, Product AS tab_4922, Producer AS tab_4921, PRODUCT AS tab_4918, Product AS tab_4919, CountryType AS tab_4924   
WHERE tab_4920.producttype = 1059 AND tab_4920.product = tab_4918.nr AND tab_4918.producer = tab_4922.producer AND tab_4918.nr = tab_4922.nr AND tab_4919.producer = tab_4921.nr AND tab_4918.producer = tab_4919.producer AND tab_4918.nr = tab_4919.nr AND tab_4918.producer = tab_4923.producer AND tab_4918.nr = tab_4923.nr AND tab_4924.countryType = 121 AND tab_4921.country = tab_4924.country", color = yellow] ; 
2 -> 33 ; 
34 [label="FunctionCallBindAccess
(\"{0}\", \"{1}\", <http://downlode.org/rdf/iso-3166/countries#{2}>)", color = yellow] ; 
0 -> 34 ; 
}
