digraph  g{ graph[label = "19:14:0.565"]
node [shape=rectangle, color=black, fontcolor=black, style=bold] edge [color=black] 0 [label="BindAccessEval", color = yellow] ; 
1 [label="SQLQuery
SELECT DISTINCT ON (tab_40573.nr, tab_40573.vendor, tab_40573.offerWebpage, tab_40574.deliveryDays, tab_40575.price) tab_40573.nr, tab_40573.vendor, tab_40573.offerWebpage, tab_40574.deliveryDays, tab_40575.price 
FROM Offer AS tab_40573, Offer AS tab_40575, Offer AS tab_40574 
WHERE tab_40573.vendor = tab_40574.vendor AND tab_40573.nr = tab_40574.nr AND tab_40573.vendor = tab_40575.vendor AND tab_40573.nr = tab_40575.nr", color = yellow] ; 
0 -> 1 ; 
2 [label="FunctionCallBindAccess
(<http://www4.wiwiss.fu-berlin.de/bizer/bsbm/v01/instances/dataFromVendor{1}/Offer{0}>, <{2}>, \"{4}\", \"{3}\")", color = yellow] ; 
0 -> 2 ; 
}
