digraph  g{ graph[label = "19:14:21.300"]
node [shape=rectangle, color=black, fontcolor=black, style=bold] edge [color=black] 0 [label="BindAccessEval", color = yellow] ; 
1 [label="SQLQuery
SELECT DISTINCT ON (tab_40579.nr, tab_40579.vendor, tab_40578.product, tab_40578.producer, tab_40580.producer) tab_40579.nr, tab_40579.vendor, tab_40578.product, tab_40578.producer, tab_40580.producer 
FROM Product AS tab_40580, Offer AS tab_40579, Offer AS tab_40578 
WHERE tab_40579.vendor = tab_40578.vendor AND tab_40579.nr = tab_40578.nr AND tab_40578.producer = tab_40580.producer AND tab_40578.product = tab_40580.nr", color = yellow] ; 
0 -> 1 ; 
2 [label="FunctionCallBindAccess
(<http://www4.wiwiss.fu-berlin.de/bizer/bsbm/v01/instances/dataFromProducer{3}/Product{2}>, <http://www4.wiwiss.fu-berlin.de/bizer/bsbm/v01/instances/dataFromProducer{4}/Producer{4}>, <http://www4.wiwiss.fu-berlin.de/bizer/bsbm/v01/instances/dataFromVendor{1}/Offer{0}>, <http://www4.wiwiss.fu-berlin.de/bizer/bsbm/v01/instances/dataFromVendor{1}/Vendor{1}>)", color = yellow] ; 
0 -> 2 ; 
}
