digraph  g{ graph[label = "15:46:50.550"]
node [shape=rectangle, color=black, fontcolor=black, style=bold] edge [color=black] 0 [label="BindAccessEval", color = yellow] ; 
1 [label="SQLQuery
SELECT P.producer, P.nr 
FROM PRODUCT AS P, PRODUCTTYPEPRODUCT AS PT 
WHERE PT.producttype = 60 AND PT.product = P.nr 
UNION
SELECT P.producer, P.nr 
FROM PRODUCT AS P, PRODUCTTYPEPRODUCT AS PT 
WHERE PT.producttype = 133 AND PT.product = P.nr 
UNION
SELECT P.producer, P.nr 
FROM PRODUCT AS P, PRODUCTTYPEPRODUCT AS PT 
WHERE PT.producttype = 105 AND PT.product = P.nr 
UNION
SELECT P.producer, P.nr 
FROM PRODUCT AS P, PRODUCTTYPEPRODUCT AS PT 
WHERE PT.producttype = 87 AND PT.product = P.nr 
UNION
SELECT P.producer, P.nr 
FROM PRODUCT AS P, PRODUCTTYPEPRODUCT AS PT 
WHERE PT.producttype = 150 AND PT.product = P.nr 
UNION
SELECT P.producer, P.nr 
FROM PRODUCT AS P, PRODUCTTYPEPRODUCT AS PT 
WHERE PT.producttype = 124 AND PT.product = P.nr 
UNION
SELECT P.producer, P.nr 
FROM PRODUCT AS P, PRODUCTTYPEPRODUCT AS PT 
WHERE PT.producttype = 120 AND PT.product = P.nr 
UNION
SELECT P.producer, P.nr 
FROM PRODUCT AS P, PRODUCTTYPEPRODUCT AS PT 
WHERE PT.producttype = 127 AND PT.product = P.nr 
UNION
SELECT P.producer, P.nr 
FROM PRODUCT AS P, PRODUCTTYPEPRODUCT AS PT 
WHERE PT.producttype = 62 AND PT.product = P.nr 
UNION
SELECT P.producer, P.nr 
FROM PRODUCT AS P, PRODUCTTYPEPRODUCT AS PT 
WHERE PT.producttype = 97 AND PT.product = P.nr 
UNION
SELECT P.producer, P.nr 
FROM PRODUCT AS P, PRODUCTTYPEPRODUCT AS PT 
WHERE PT.producttype = 143 AND PT.product = P.nr 
UNION
SELECT P.producer, P.nr 
FROM PRODUCT AS P, PRODUCTTYPEPRODUCT AS PT 
WHERE PT.producttype = 130 AND PT.product = P.nr 
UNION
SELECT P.producer, P.nr 
FROM PRODUCT AS P, PRODUCTTYPEPRODUCT AS PT 
WHERE PT.producttype = 137 AND PT.product = P.nr 
UNION
SELECT P.producer, P.nr 
FROM PRODUCT AS P, PRODUCTTYPEPRODUCT AS PT 
WHERE PT.producttype = 73 AND PT.product = P.nr 
UNION
SELECT P.producer, P.nr 
FROM PRODUCT AS P, PRODUCTTYPEPRODUCT AS PT 
WHERE PT.producttype = 134 AND PT.product = P.nr 
UNION
SELECT P.producer, P.nr 
FROM PRODUCT AS P, PRODUCTTYPEPRODUCT AS PT 
WHERE PT.producttype = 142 AND PT.product = P.nr 
UNION
SELECT P.producer, P.nr 
FROM PRODUCT AS P, PRODUCTTYPEPRODUCT AS PT 
WHERE PT.producttype = 85 AND PT.product = P.nr 
UNION
SELECT P.producer, P.nr 
FROM PRODUCT AS P, PRODUCTTYPEPRODUCT AS PT 
WHERE PT.producttype = 64 AND PT.product = P.nr 
UNION
SELECT P.producer, P.nr 
FROM PRODUCT AS P, PRODUCTTYPEPRODUCT AS PT 
WHERE PT.producttype = 58 AND PT.product = P.nr 
UNION
SELECT P.producer, P.nr 
FROM PRODUCT AS P, PRODUCTTYPEPRODUCT AS PT 
WHERE PT.producttype = 81 AND PT.product = P.nr 
UNION
SELECT P.producer, P.nr 
FROM PRODUCT AS P, PRODUCTTYPEPRODUCT AS PT 
WHERE PT.producttype = 114 AND PT.product = P.nr 
UNION
SELECT P.producer, P.nr 
FROM PRODUCT AS P, PRODUCTTYPEPRODUCT AS PT 
WHERE PT.producttype = 121 AND PT.product = P.nr 
UNION
SELECT P.producer, P.nr 
FROM PRODUCT AS P, PRODUCTTYPEPRODUCT AS PT 
WHERE PT.producttype = 84 AND PT.product = P.nr 
UNION
SELECT P.producer, P.nr 
FROM PRODUCT AS P, PRODUCTTYPEPRODUCT AS PT 
WHERE PT.producttype = 147 AND PT.product ...", color = yellow] ; 
0 -> 1 ; 
2 [label="FunctionCallBindAccess
(<http://www4.wiwiss.fu-berlin.de/bizer/bsbm/v01/instances/dataFromProducer{0}/Product{1}>)", color = yellow] ; 
0 -> 2 ; 
}
