digraph  g{ graph[label = "13:42:37.194"]
node [shape=rectangle, color=black, fontcolor=black, style=bold] edge [color=black] 0 [label="Uniq", color = yellow] ; 
1 [label="MemSort[0,1,2,3,4]{}", color = yellow] ; 
0 -> 1 ; 
2 [label="Union", color = yellow] ; 
1 -> 2 ; 
3 [label="Uniq", color = yellow] ; 
2 -> 3 ; 
4 [label="MemSort[0,1,2,3,4]{}", color = yellow] ; 
3 -> 4 ; 
5 [label="Project
[25, 0, 42, 8, 3]", color = yellow] ; 
4 -> 5 ; 
6 [label="HashJoin
 [[25PREDICATE_EQUAL35]]", color = yellow] ; 
5 -> 6 ; 
7 [label="HashJoin
 [[0PREDICATE_EQUAL27]]", color = yellow] ; 
6 -> 7 ; 
8 [label="(276)"] ; 
7 -> 8 ; 
9 [label="BindAccessEval", color = yellow] ; 
7 -> 9 ; 
10 [label="SQLQuery
SELECT nr, product, producer, vendor, price, validFrom, validTo, deliveryDays, offerWebpage, publisher, publishDate FROM
 Offer", color = yellow] ; 
9 -> 10 ; 
11 [label="FunctionCallBindAccess
(<bsbm-int:dataFromVendor{3}/Offer{0}>, <bsbm-int:dataFromProducer{2}/Product{1}>, <bsbm-int:dataFromVendor{3}/Vendor{3}>, \"{4}\", \"{5}\", \"{6}\", \"{7}\", <{8}>, <bsbm-int:dataFromVendor{9}/Vendor{9}>, \"{10}\")", color = yellow] ; 
9 -> 11 ; 
12 [label="BindAccessEval", color = yellow] ; 
6 -> 12 ; 
13 [label="SQLQuery
SELECT nr, product, producer, vendor, price, validFrom, validTo, deliveryDays, offerWebpage, publisher, publishDate FROM
 Offer", color = yellow] ; 
12 -> 13 ; 
14 [label="FunctionCallBindAccess
(<bsbm-int:dataFromVendor{3}/Offer{0}>, <bsbm-int:dataFromProducer{2}/Product{1}>, <bsbm-int:dataFromVendor{3}/Vendor{3}>, \"{4}\", \"{5}\", \"{6}\", \"{7}\", <{8}>, <bsbm-int:dataFromVendor{9}/Vendor{9}>, \"{10}\")", color = yellow] ; 
12 -> 14 ; 
16 [label="Uniq", color = yellow] ; 
2 -> 16 ; 
17 [label="MemSort[0,1,2,3,4]{}", color = yellow] ; 
16 -> 17 ; 
18 [label="Project
[0, 12, 7, 28, 23]", color = yellow] ; 
17 -> 18 ; 
19 [label="(298)"] ; 
18 -> 19 ; 
21 [label="Uniq", color = yellow] ; 
2 -> 21 ; 
22 [label="MemSort[0,1,2,3,4]{}", color = yellow] ; 
21 -> 22 ; 
23 [label="Project
[0, 2, 17, 28, 23]", color = yellow] ; 
22 -> 23 ; 
24 [label="HashJoin
 [[2PREDICATE_EQUAL27]]", color = yellow] ; 
23 -> 24 ; 
25 [label="(309)"] ; 
24 -> 25 ; 
26 [label="BindAccessEval", color = yellow] ; 
24 -> 26 ; 
27 [label="SQLQuery
SELECT nr, label, comment, publisher, publishDate FROM
 ProductType", color = yellow] ; 
26 -> 27 ; 
28 [label="FunctionCallBindAccess
(<bsbm-int:ProductType{0}>, \"{1}\", \"{2}\", <bsbm-int:StandardizationInstitution{3}>, \"{4}\")", color = yellow] ; 
26 -> 28 ; 
30 [label="Uniq", color = yellow] ; 
2 -> 30 ; 
31 [label="MemSort[0,1,2,3,4]{}", color = yellow] ; 
30 -> 31 ; 
32 [label="Project
[14, 0, 31, 8, 3]", color = yellow] ; 
31 -> 32 ; 
33 [label="HashJoin
 [[14PREDICATE_EQUAL24]]", color = yellow] ; 
32 -> 33 ; 
34 [label="HashJoin
 [[0PREDICATE_EQUAL16]]", color = yellow] ; 
33 -> 34 ; 
35 [label="(315)"] ; 
34 -> 35 ; 
36 [label="BindAccessEval", color = yellow] ; 
34 -> 36 ; 
37 [label="SQLQuery
SELECT nr, product, producer, vendor, price, validFrom, validTo, deliveryDays, offerWebpage, publisher, publishDate FROM
 Offer", color = yellow] ; 
36 -> 37 ; 
38 [label="FunctionCallBindAccess
(<bsbm-int:dataFromVendor{3}/Offer{0}>, <bsbm-int:dataFromProducer{2}/Product{1}>, <bsbm-int:dataFromVendor{3}/Vendor{3}>, \"{4}\", \"{5}\", \"{6}\", \"{7}\", <{8}>, <bsbm-int:dataFromVendor{9}/Vendor{9}>, \"{10}\")", color = yellow] ; 
36 -> 38 ; 
39 [label="BindAccessEval", color = yellow] ; 
33 -> 39 ; 
40 [label="SQLQuery
SELECT nr, product, producer, vendor, price, validFrom, validTo, deliveryDays, offerWebpage, publisher, publishDate FROM
 Offer", color = yellow] ; 
39 -> 40 ; 
41 [label="FunctionCallBindAccess
(<bsbm-int:dataFromVendor{3}/Offer{0}>, <bsbm-int:dataFromProducer{2}/Product{1}>, <bsbm-int:dataFromVendor{3}/Vendor{3}>, \"{4}\", \"{5}\", \"{6}\", \"{7}\", <{8}>, <bsbm-int:dataFromVendor{9}/Vendor{9}>, \"{10}\")", color = yellow] ; 
39 -> 41 ; 
43 [label="Uniq", color = yellow] ; 
2 -> 43 ; 
44 [label="MemSort[0,1,2,3,4]{}", color = yellow] ; 
43 -> 44 ; 
45 [label="Project
[0, 12, 7, 21, 41]", color = yellow] ; 
44 -> 45 ; 
46 [label="HashJoin
 [[12PREDICATE_EQUAL38]]", color = yellow] ; 
45 -> 46 ; 
47 [label="(330)"] ; 
46 -> 47 ; 
48 [label="BindAccessEval", color = yellow] ; 
46 -> 48 ; 
49 [label="SQLQuery
SELECT nr, label, comment, homepage, country, publisher, publishDate FROM
 Producer", color = yellow] ; 
48 -> 49 ; 
50 [label="FunctionCallBindAccess
(<bsbm-int:dataFromProducer{0}/Producer{0}>, \"{1}\", \"{2}\", <{3}>, <http://downlode.org/rdf/iso-3166/countries#{4}>, <bsbm-int:dataFromProducer{5}/Producer{5}>, \"{6}\")", color = yellow] ; 
48 -> 50 ; 
52 [label="Uniq", color = yellow] ; 
2 -> 52 ; 
53 [label="MemSort[0,1,2,3,4]{}", color = yellow] ; 
52 -> 53 ; 
54 [label="Project
[0, 12, 7, 28, 23]", color = yellow] ; 
53 -> 54 ; 
55 [label="HashJoin
 [[12PREDICATE_EQUAL27]]", color = yellow] ; 
54 -> 55 ; 
56 [label="(343)"] ; 
55 -> 56 ; 
57 [label="BindAccessEval", color = yellow] ; 
55 -> 57 ; 
58 [label="SQLQuery
SELECT nr, label, comment, homepage, country, publisher, publishDate FROM
 Vendor", color = yellow] ; 
57 -> 58 ; 
59 [label="FunctionCallBindAccess
(<bsbm-int:dataFromVendor{0}/Vendor{0}>, \"{1}\", \"{2}\", <{3}>, <http://downlode.org/rdf/iso-3166/countries#{4}>, <bsbm-int:dataFromVendor{5}/Vendor{5}>, \"{6}\")", color = yellow] ; 
57 -> 59 ; 
61 [label="Uniq", color = yellow] ; 
2 -> 61 ; 
62 [label="MemSort[0,1,2,3,4]{}", color = yellow] ; 
61 -> 62 ; 
63 [label="Project
[0, 12, 7, 28, 23]", color = yellow] ; 
62 -> 63 ; 
64 [label="BindAccessEval", color = yellow] ; 
63 -> 64 ; 
65 [label="SQLQuery
SELECT tab_33.nr, tab_33.product, tab_33.producer, tab_33.vendor, tab_33.price, tab_33.validFrom, tab_33.validTo, tab_33.deliveryDays, tab_33.offerWebpage, tab_33.publisher, tab_33.publishDate, tab_34.nr, tab_34.product, tab_34.producer, tab_34.vendor, tab_34.price, tab_34.validFrom, tab_34.validTo, tab_34.deliveryDays, tab_34.offerWebpage, tab_34.publisher, tab_34.publishDate, tab_35.nr, tab_35.label, tab_35.comment, tab_35.homepage, tab_35.country, tab_35.publisher, tab_35.publishDate, tab_36.nr, tab_36.label, tab_36.comment, tab_36.homepage, tab_36.country, tab_36.publisher, tab_36.publishDate FROM
 Offer AS tab_33, Offer AS tab_34, Vendor AS tab_36, Vendor AS tab_35 WHERE
 tab_33.vendor = tab_34.vendor AND tab_33.nr = tab_34.nr AND tab_34.vendor = tab_35.nr AND tab_34.vendor = tab_35.nr AND tab_34.vendor = tab_36.nr AND tab_34.vendor = tab_36.nr", color = yellow] ; 
64 -> 65 ; 
66 [label="FunctionCallBindAccess
(<bsbm-int:dataFromVendor{3}/Offer{0}>, <bsbm-int:dataFromProducer{2}/Product{1}>, <bsbm-int:dataFromVendor{3}/Vendor{3}>, \"{4}\", \"{5}\", \"{6}\", \"{7}\", <{8}>, <bsbm-int:dataFromVendor{9}/Vendor{9}>, \"{10}\", <bsbm-int:dataFromVendor{14}/Offer{11}>, <bsbm-int:dataFromProducer{13}/Product{12}>, <bsbm-int:dataFromVendor{14}/Vendor{14}>, \"{15}\", \"{16}\", \"{17}\", \"{18}\", <{19}>, <bsbm-int:dataFromVendor{20}/Vendor{20}>, \"{21}\", <bsbm-int:dataFromVendor{22}/Vendor{22}>, \"{23}\", \"{24}\", <{25}>, <http://downlode.org/rdf/iso-3166/countries#{26}>, <bsbm-int:dataFromVendor{27}/Vendor{27}>, \"{28}\", <bsbm-int:dataFromVendor{29}/Vendor{29}>, \"{30}\", \"{31}\", <{32}>, <http://downlode.org/rdf/iso-3166/countries#{33}>, <bsbm-int:dataFromVendor{34}/Vendor{34}>, \"{35}\")", color = yellow] ; 
64 -> 66 ; 
68 [label="Uniq", color = yellow] ; 
2 -> 68 ; 
69 [label="MemSort[0,1,2,3,4]{}", color = yellow] ; 
68 -> 69 ; 
70 [label="Project
[0, 2, 17, 28, 23]", color = yellow] ; 
69 -> 70 ; 
71 [label="HashJoin
 [[2PREDICATE_EQUAL27]]", color = yellow] ; 
70 -> 71 ; 
72 [label="(378)"] ; 
71 -> 72 ; 
73 [label="BindAccessEval", color = yellow] ; 
71 -> 73 ; 
74 [label="SQLQuery
SELECT nr, label, comment, homepage, country, publisher, publishDate FROM
 Producer", color = yellow] ; 
73 -> 74 ; 
75 [label="FunctionCallBindAccess
(<bsbm-int:dataFromProducer{0}/Producer{0}>, \"{1}\", \"{2}\", <{3}>, <http://downlode.org/rdf/iso-3166/countries#{4}>, <bsbm-int:dataFromProducer{5}/Producer{5}>, \"{6}\")", color = yellow] ; 
73 -> 75 ; 
77 [label="Uniq", color = yellow] ; 
2 -> 77 ; 
78 [label="MemSort[0,1,2,3,4]{}", color = yellow] ; 
77 -> 78 ; 
79 [label="Project
[5, 0, 22, 1, 28]", color = yellow] ; 
78 -> 79 ; 
80 [label="HashJoin
 [[0PREDICATE_EQUAL25]]", color = yellow] ; 
79 -> 80 ; 
81 [label="HashJoin
 [[5PREDICATE_EQUAL15]]", color = yellow] ; 
80 -> 81 ; 
82 [label="(384)"] ; 
81 -> 82 ; 
83 [label="BindAccessEval", color = yellow] ; 
81 -> 83 ; 
84 [label="SQLQuery
SELECT nr, product, producer, vendor, price, validFrom, validTo, deliveryDays, offerWebpage, publisher, publishDate FROM
 Offer", color = yellow] ; 
83 -> 84 ; 
85 [label="FunctionCallBindAccess
(<bsbm-int:dataFromVendor{3}/Offer{0}>, <bsbm-int:dataFromProducer{2}/Product{1}>, <bsbm-int:dataFromVendor{3}/Vendor{3}>, \"{4}\", \"{5}\", \"{6}\", \"{7}\", <{8}>, <bsbm-int:dataFromVendor{9}/Vendor{9}>, \"{10}\")", color = yellow] ; 
83 -> 85 ; 
86 [label="BindAccessEval", color = yellow] ; 
80 -> 86 ; 
87 [label="SQLQuery
SELECT nr, label, comment, homepage, country, publisher, publishDate FROM
 Producer", color = yellow] ; 
86 -> 87 ; 
88 [label="FunctionCallBindAccess
(<bsbm-int:dataFromProducer{0}/Producer{0}>, \"{1}\", \"{2}\", <{3}>, <http://downlode.org/rdf/iso-3166/countries#{4}>, <bsbm-int:dataFromProducer{5}/Producer{5}>, \"{6}\")", color = yellow] ; 
86 -> 88 ; 
90 [label="Uniq", color = yellow] ; 
2 -> 90 ; 
91 [label="MemSort[0,1,2,3,4]{}", color = yellow] ; 
90 -> 91 ; 
92 [label="Project
[12, 0, 29, 8, 3]", color = yellow] ; 
91 -> 92 ; 
93 [label="HashJoin
 [[12PREDICATE_EQUAL22]]", color = yellow] ; 
92 -> 93 ; 
94 [label="HashJoin
 [[0PREDICATE_EQUAL14]]", color = yellow] ; 
93 -> 94 ; 
95 [label="(392)"] ; 
94 -> 95 ; 
96 [label="BindAccessEval", color = yellow] ; 
94 -> 96 ; 
97 [label="SQLQuery
SELECT nr, product, producer, vendor, price, validFrom, validTo, deliveryDays, offerWebpage, publisher, publishDate FROM
 Offer", color = yellow] ; 
96 -> 97 ; 
98 [label="FunctionCallBindAccess
(<bsbm-int:dataFromVendor{3}/Offer{0}>, <bsbm-int:dataFromProducer{2}/Product{1}>, <bsbm-int:dataFromVendor{3}/Vendor{3}>, \"{4}\", \"{5}\", \"{6}\", \"{7}\", <{8}>, <bsbm-int:dataFromVendor{9}/Vendor{9}>, \"{10}\")", color = yellow] ; 
96 -> 98 ; 
99 [label="BindAccessEval", color = yellow] ; 
93 -> 99 ; 
100 [label="SQLQuery
SELECT nr, product, producer, vendor, price, validFrom, validTo, deliveryDays, offerWebpage, publisher, publishDate FROM
 Offer", color = yellow] ; 
99 -> 100 ; 
101 [label="FunctionCallBindAccess
(<bsbm-int:dataFromVendor{3}/Offer{0}>, <bsbm-int:dataFromProducer{2}/Product{1}>, <bsbm-int:dataFromVendor{3}/Vendor{3}>, \"{4}\", \"{5}\", \"{6}\", \"{7}\", <{8}>, <bsbm-int:dataFromVendor{9}/Vendor{9}>, \"{10}\")", color = yellow] ; 
99 -> 101 ; 
}
