digraph  g{ graph[label = "18:57:18.113"]
node [shape=rectangle, color=black, fontcolor=black, style=bold] edge [color=black] 0 [label="BindAccessEval", color = yellow] ; 
1 [label="HashDistinct", color = yellow] ; 
0 -> 1 ; 
2 [label="Union", color = yellow] ; 
1 -> 2 ; 
3 [label="SQLQuery
SELECT tab_391.label, tab_387.label, tab_388.propertyNum1 
FROM ProductFeatureProduct AS tab_389, PRODUCT AS tab_385, Product AS tab_391, ProductFeature AS tab_387, Product AS tab_386, PRODUCTTYPEPRODUCT AS tab_390, Product AS tab_388   
WHERE tab_386.nr = tab_389.product AND tab_389.productFeature = tab_387.nr AND tab_390.producttype = 94 AND tab_390.product = tab_385.nr AND tab_386.producer = tab_385.producer AND tab_386.nr = tab_385.nr AND tab_386.producer = tab_388.producer AND tab_386.nr = tab_388.nr AND tab_386.producer = tab_391.producer AND tab_386.nr = tab_391.nr", color = yellow] ; 
2 -> 3 ; 
5 [label="SQLQuery
SELECT tab_440.label, tab_441.label, tab_445.propertyNum2 
FROM ProductFeatureProduct AS tab_442, PRODUCTTYPEPRODUCT AS tab_443, ProductFeature AS tab_441, Product AS tab_440, PRODUCT AS tab_439, Product AS tab_445, Product AS tab_444   
WHERE tab_443.producttype = 101 AND tab_443.product = tab_439.nr AND tab_444.nr = tab_442.product AND tab_442.productFeature = tab_441.nr AND tab_439.producer = tab_444.producer AND tab_439.nr = tab_444.nr AND tab_439.producer = tab_440.producer AND tab_439.nr = tab_440.nr AND tab_439.producer = tab_445.producer AND tab_439.nr = tab_445.nr", color = yellow] ; 
2 -> 5 ; 
7 [label="SQLQuery
SELECT tab_409.label, tab_408.label, tab_407.propertyNum1 
FROM Product AS tab_406, Product AS tab_409, ProductFeature AS tab_408, Product AS tab_407, PRODUCTTYPEPRODUCT AS tab_405, PRODUCT AS tab_403, ProductFeatureProduct AS tab_404   
WHERE tab_405.producttype = 98 AND tab_405.product = tab_403.nr AND tab_406.nr = tab_404.product AND tab_404.productFeature = tab_408.nr AND tab_403.producer = tab_406.producer AND tab_403.nr = tab_406.nr AND tab_403.producer = tab_407.producer AND tab_403.nr = tab_407.nr AND tab_403.producer = tab_409.producer AND tab_403.nr = tab_409.nr", color = yellow] ; 
2 -> 7 ; 
9 [label="SQLQuery
SELECT tab_535.label, tab_534.label, tab_536.propertyNum2 
FROM Product AS tab_536, Product AS tab_535, ProductFeatureProduct AS tab_532, ProductFeature AS tab_534, PRODUCTTYPEPRODUCT AS tab_538, Product AS tab_533, PRODUCT AS tab_537   
WHERE tab_533.nr = tab_532.product AND tab_532.productFeature = tab_534.nr AND tab_535.producer = tab_533.producer AND tab_535.nr = tab_533.nr AND tab_535.producer = tab_536.producer AND tab_535.nr = tab_536.nr AND tab_538.producttype = 100 AND tab_538.product = tab_537.nr AND tab_535.producer = tab_537.producer AND tab_535.nr = tab_537.nr", color = yellow] ; 
2 -> 9 ; 
11 [label="SQLQuery
SELECT tab_596.label, tab_600.label, tab_595.propertyNum2 
FROM PRODUCTTYPEPRODUCT AS tab_594, PRODUCT AS tab_597, Product AS tab_596, Product AS tab_595, ProductFeature AS tab_600, ProductFeatureProduct AS tab_599, Product AS tab_598   
WHERE tab_595.producer = tab_596.producer AND tab_595.nr = tab_596.nr AND tab_594.producttype = 102 AND tab_594.product = tab_597.nr AND tab_595.producer = tab_597.producer AND tab_595.nr = tab_597.nr AND tab_598.nr = tab_599.product AND tab_599.productFeature = tab_600.nr AND tab_595.producer = tab_598.producer AND tab_595.nr = tab_598.nr", color = yellow] ; 
2 -> 11 ; 
13 [label="SQLQuery
SELECT tab_267.label, tab_271.label, tab_266.propertyNum1 
FROM PRODUCT AS tab_268, PRODUCTTYPEPRODUCT AS tab_265, ProductFeature AS tab_271, Product AS tab_266, ProductFeatureProduct AS tab_270, Product AS tab_269, Product AS tab_267   
WHERE tab_266.producer = tab_267.producer AND tab_266.nr = tab_267.nr AND tab_265.producttype = 90 AND tab_265.product = tab_268.nr AND tab_266.producer = tab_268.producer AND tab_266.nr = tab_268.nr AND tab_269.nr = tab_270.product AND tab_270.productFeature = tab_271.nr AND tab_266.producer = tab_269.producer AND tab_266.nr = tab_269.nr", color = yellow] ; 
2 -> 13 ; 
15 [label="SQLQuery
SELECT tab_354.label, tab_352.label, tab_353.propertyNum1 
FROM PRODUCT AS tab_356, ProductFeatureProduct AS tab_355, PRODUCTTYPEPRODUCT AS tab_357, Product AS tab_354, Product AS tab_353, ProductFeature AS tab_352, Product AS tab_351   
WHERE tab_353.producer = tab_354.producer AND tab_353.nr = tab_354.nr AND tab_351.nr = tab_355.product AND tab_355.productFeature = tab_352.nr AND tab_353.producer = tab_351.producer AND tab_353.nr = tab_351.nr AND tab_357.producttype = 101 AND tab_357.product = tab_356.nr AND tab_353.producer = tab_356.producer AND tab_353.nr = tab_356.nr", color = yellow] ; 
2 -> 15 ; 
17 [label="SQLQuery
SELECT tab_326.label, tab_329.label, tab_325.propertyNum1 
FROM ProductFeature AS tab_329, PRODUCT AS tab_323, Product AS tab_327, Product AS tab_326, PRODUCTTYPEPRODUCT AS tab_324, Product AS tab_325, ProductFeatureProduct AS tab_328   
WHERE tab_326.producer = tab_325.producer AND tab_326.nr = tab_325.nr AND tab_324.producttype = 93 AND tab_324.product = tab_323.nr AND tab_326.producer = tab_323.producer AND tab_326.nr = tab_323.nr AND tab_327.nr = tab_328.product AND tab_328.productFeature = tab_329.nr AND tab_326.producer = tab_327.producer AND tab_326.nr = tab_327.nr", color = yellow] ; 
2 -> 17 ; 
19 [label="SQLQuery
SELECT tab_427.label, tab_421.label, tab_423.propertyNum2 
FROM PRODUCT AS tab_424, Product AS tab_427, PRODUCTTYPEPRODUCT AS tab_425, Product AS tab_423, Product AS tab_422, ProductFeature AS tab_421, ProductFeatureProduct AS tab_426   
WHERE tab_425.producttype = 89 AND tab_425.product = tab_424.nr AND tab_422.nr = tab_426.product AND tab_426.productFeature = tab_421.nr AND tab_424.producer = tab_422.producer AND tab_424.nr = tab_422.nr AND tab_424.producer = tab_423.producer AND tab_424.nr = tab_423.nr AND tab_424.producer = tab_427.producer AND tab_424.nr = tab_427.nr", color = yellow] ; 
2 -> 19 ; 
21 [label="SQLQuery
SELECT tab_486.label, tab_488.label, tab_492.propertyNum2 
FROM PRODUCT AS tab_489, ProductFeatureProduct AS tab_487, Product AS tab_492, Product AS tab_490, Product AS tab_486, ProductFeature AS tab_488, PRODUCTTYPEPRODUCT AS tab_491   
WHERE tab_491.producttype = 88 AND tab_491.product = tab_489.nr AND tab_489.producer = tab_486.producer AND tab_489.nr = tab_486.nr AND tab_490.nr = tab_487.product AND tab_487.productFeature = tab_488.nr AND tab_489.producer = tab_490.producer AND tab_489.nr = tab_490.nr AND tab_489.producer = tab_492.producer AND tab_489.nr = tab_492.nr", color = yellow] ; 
2 -> 21 ; 
23 [label="SQLQuery
SELECT tab_471.label, tab_476.label, tab_473.propertyNum1 
FROM PRODUCTTYPEPRODUCT AS tab_472, Product AS tab_471, ProductFeatureProduct AS tab_475, PRODUCT AS tab_470, Product AS tab_474, Product AS tab_473, ProductFeature AS tab_476   
WHERE tab_472.producttype = 102 AND tab_472.product = tab_470.nr AND tab_473.producer = tab_470.producer AND tab_473.nr = tab_470.nr AND tab_473.producer = tab_471.producer AND tab_473.nr = tab_471.nr AND tab_474.nr = tab_475.product AND tab_475.productFeature = tab_476.nr AND tab_473.producer = tab_474.producer AND tab_473.nr = tab_474.nr", color = yellow] ; 
2 -> 23 ; 
25 [label="SQLQuery
SELECT tab_145.label, tab_143.label, tab_142.propertyNum2 
FROM ProductFeatureProduct AS tab_139, PRODUCT AS tab_141, Product AS tab_145, Product AS tab_144, ProductFeature AS tab_143, Product AS tab_142, PRODUCTTYPEPRODUCT AS tab_140   
WHERE tab_140.producttype = 95 AND tab_140.product = tab_141.nr AND tab_142.producer = tab_141.producer AND tab_142.nr = tab_141.nr AND tab_144.nr = tab_139.product AND tab_139.productFeature = tab_143.nr AND tab_142.producer = tab_144.producer AND tab_142.nr = tab_144.nr AND tab_142.producer = tab_145.producer AND tab_142.nr = tab_145.nr", color = yellow] ; 
2 -> 25 ; 
27 [label="SQLQuery
SELECT tab_583.label, tab_587.label, tab_582.propertyNum2 
FROM PRODUCTTYPEPRODUCT AS tab_584, PRODUCT AS tab_581, Product AS tab_585, Product AS tab_583, Product AS tab_582, ProductFeatureProduct AS tab_586, ProductFeature AS tab_587   
WHERE tab_584.producttype = 91 AND tab_584.product = tab_581.nr AND tab_582.producer = tab_581.producer AND tab_582.nr = tab_581.nr AND tab_582.producer = tab_583.producer AND tab_582.nr = tab_583.nr AND tab_585.nr = tab_586.product AND tab_586.productFeature = tab_587.nr AND tab_582.producer = tab_585.producer AND tab_582.nr = tab_585.nr", color = yellow] ; 
2 -> 27 ; 
29 [label="SQLQuery
SELECT tab_551.label, tab_552.label, tab_556.propertyNum1 
FROM PRODUCT AS tab_555, PRODUCTTYPEPRODUCT AS tab_553, ProductFeatureProduct AS tab_550, ProductFeature AS tab_552, Product AS tab_551, Product AS tab_556, Product AS tab_554   
WHERE tab_553.producttype = 91 AND tab_553.product = tab_555.nr AND tab_554.nr = tab_550.product AND tab_550.productFeature = tab_552.nr AND tab_555.producer = tab_554.producer AND tab_555.nr = tab_554.nr AND tab_555.producer = tab_551.producer AND tab_555.nr = tab_551.nr AND tab_555.producer = tab_556.producer AND tab_555.nr = tab_556.nr", color = yellow] ; 
2 -> 29 ; 
31 [label="SQLQuery
SELECT tab_341.label, tab_339.label, tab_338.propertyNum1 
FROM ProductFeatureProduct AS tab_337, ProductFeature AS tab_339, Product AS tab_338, PRODUCTTYPEPRODUCT AS tab_343, PRODUCT AS tab_342, Product AS tab_341, Product AS tab_340   
WHERE tab_341.producer = tab_338.producer AND tab_341.nr = tab_338.nr AND tab_340.nr = tab_337.product AND tab_337.productFeature = tab_339.nr AND tab_341.producer = tab_340.producer AND tab_341.nr = tab_340.nr AND tab_343.producttype = 88 AND tab_343.product = tab_342.nr AND tab_341.producer = tab_342.producer AND tab_341.nr = tab_342.nr", color = yellow] ; 
2 -> 31 ; 
33 [label="SQLQuery
SELECT tab_124.label, tab_126.label, tab_123.propertyNum1 
FROM ProductFeatureProduct AS tab_125, Product AS tab_123, PRODUCTTYPEPRODUCT AS tab_129, Product AS tab_127, ProductFeature AS tab_126, Product AS tab_124, PRODUCT AS tab_128   
WHERE tab_123.producer = tab_124.producer AND tab_123.nr = tab_124.nr AND tab_127.nr = tab_125.product AND tab_125.productFeature = tab_126.nr AND tab_123.producer = tab_127.producer AND tab_123.nr = tab_127.nr AND tab_129.producttype = 103 AND tab_129.product = tab_128.nr AND tab_123.producer = tab_128.producer AND tab_123.nr = tab_128.nr", color = yellow] ; 
2 -> 33 ; 
35 [label="SQLQuery
SELECT tab_225.label, tab_223.label, tab_227.propertyNum1 
FROM PRODUCT AS tab_226, Product AS tab_227, ProductFeatureProduct AS tab_221, PRODUCTTYPEPRODUCT AS tab_224, Product AS tab_222, Product AS tab_225, ProductFeature AS tab_223   
WHERE tab_222.nr = tab_221.product AND tab_221.productFeature = tab_223.nr AND tab_225.producer = tab_222.producer AND tab_225.nr = tab_222.nr AND tab_224.producttype = 100 AND tab_224.product = tab_226.nr AND tab_225.producer = tab_226.producer AND tab_225.nr = tab_226.nr AND tab_225.producer = tab_227.producer AND tab_225.nr = tab_227.nr", color = yellow] ; 
2 -> 35 ; 
37 [label="SQLQuery
SELECT tab_285.label, tab_281.label, tab_287.propertyNum2 
FROM ProductFeature AS tab_281, PRODUCT AS tab_284, Product AS tab_287, ProductFeatureProduct AS tab_283, Product AS tab_286, Product AS tab_285, PRODUCTTYPEPRODUCT AS tab_282   
WHERE tab_282.producttype = 92 AND tab_282.product = tab_284.nr AND tab_284.producer = tab_285.producer AND tab_284.nr = tab_285.nr AND tab_286.nr = tab_283.product AND tab_283.productFeature = tab_281.nr AND tab_284.producer = tab_286.producer AND tab_284.nr = tab_286.nr AND tab_284.producer = tab_287.producer AND tab_284.nr = tab_287.nr", color = yellow] ; 
2 -> 37 ; 
39 [label="SQLQuery
SELECT tab_240.label, tab_243.label, tab_244.propertyNum2 
FROM PRODUCTTYPEPRODUCT AS tab_241, Product AS tab_240, Product AS tab_244, ProductFeature AS tab_243, Product AS tab_242, PRODUCT AS tab_238, ProductFeatureProduct AS tab_239   
WHERE tab_242.nr = tab_239.product AND tab_239.productFeature = tab_243.nr AND tab_242.producer = tab_240.producer AND tab_242.nr = tab_240.nr AND tab_241.producttype = 96 AND tab_241.product = tab_238.nr AND tab_242.producer = tab_238.producer AND tab_242.nr = tab_238.nr AND tab_242.producer = tab_244.producer AND tab_242.nr = tab_244.nr", color = yellow] ; 
2 -> 39 ; 
41 [label="SQLQuery
SELECT tab_462.label, tab_461.label, tab_459.propertyNum2 
FROM PRODUCT AS tab_456, ProductFeatureProduct AS tab_457, Product AS tab_459, Product AS tab_460, PRODUCTTYPEPRODUCT AS tab_458, Product AS tab_462, ProductFeature AS tab_461   
WHERE tab_460.nr = tab_457.product AND tab_457.productFeature = tab_461.nr AND tab_459.producer = tab_460.producer AND tab_459.nr = tab_460.nr AND tab_458.producttype = 94 AND tab_458.product = tab_456.nr AND tab_459.producer = tab_456.producer AND tab_459.nr = tab_456.nr AND tab_459.producer = tab_462.producer AND tab_459.nr = tab_462.nr", color = yellow] ; 
2 -> 41 ; 
43 [label="SQLQuery
SELECT tab_254.label, tab_258.label, tab_253.propertyNum2 
FROM ProductFeatureProduct AS tab_257, PRODUCTTYPEPRODUCT AS tab_255, PRODUCT AS tab_252, Product AS tab_254, Product AS tab_253, ProductFeature AS tab_258, Product AS tab_256   
WHERE tab_255.producttype = 103 AND tab_255.product = tab_252.nr AND tab_252.producer = tab_254.producer AND tab_252.nr = tab_254.nr AND tab_252.producer = tab_253.producer AND tab_252.nr = tab_253.nr AND tab_256.nr = tab_257.product AND tab_257.productFeature = tab_258.nr AND tab_252.producer = tab_256.producer AND tab_252.nr = tab_256.nr", color = yellow] ; 
2 -> 43 ; 
45 [label="SQLQuery
SELECT tab_506.label, tab_505.label, tab_504.propertyNum1 
FROM ProductFeatureProduct AS tab_503, ProductFeature AS tab_505, Product AS tab_504, Product AS tab_502, Product AS tab_506, PRODUCT AS tab_507, PRODUCTTYPEPRODUCT AS tab_508   
WHERE tab_502.nr = tab_503.product AND tab_503.productFeature = tab_505.nr AND tab_502.producer = tab_506.producer AND tab_502.nr = tab_506.nr AND tab_502.producer = tab_504.producer AND tab_502.nr = tab_504.nr AND tab_508.producttype = 95 AND tab_508.product = tab_507.nr AND tab_502.producer = tab_507.producer AND tab_502.nr = tab_507.nr", color = yellow] ; 
2 -> 45 ; 
47 [label="SQLQuery
SELECT tab_573.label, tab_571.label, tab_572.propertyNum1 
FROM PRODUCT AS tab_567, ProductFeatureProduct AS tab_569, Product AS tab_570, PRODUCTTYPEPRODUCT AS tab_568, Product AS tab_573, Product AS tab_572, ProductFeature AS tab_571   
WHERE tab_570.nr = tab_569.product AND tab_569.productFeature = tab_571.nr AND tab_570.producer = tab_572.producer AND tab_570.nr = tab_572.nr AND tab_568.producttype = 89 AND tab_568.product = tab_567.nr AND tab_570.producer = tab_567.producer AND tab_570.nr = tab_567.nr AND tab_570.producer = tab_573.producer AND tab_570.nr = tab_573.nr", color = yellow] ; 
2 -> 47 ; 
49 [label="SQLQuery
SELECT tab_188.label, tab_191.label, tab_189.propertyNum2 
FROM ProductFeature AS tab_191, Product AS tab_189, Product AS tab_188, Product AS tab_187, PRODUCT AS tab_192, PRODUCTTYPEPRODUCT AS tab_193, ProductFeatureProduct AS tab_190   
WHERE tab_188.producer = tab_189.producer AND tab_188.nr = tab_189.nr AND tab_187.nr = tab_190.product AND tab_190.productFeature = tab_191.nr AND tab_188.producer = tab_187.producer AND tab_188.nr = tab_187.nr AND tab_193.producttype = 93 AND tab_193.product = tab_192.nr AND tab_188.producer = tab_192.producer AND tab_188.nr = tab_192.nr", color = yellow] ; 
2 -> 49 ; 
51 [label="SQLQuery
SELECT tab_368.label, tab_372.label, tab_373.propertyNum2 
FROM ProductFeatureProduct AS tab_369, ProductFeature AS tab_372, Product AS tab_371, PRODUCTTYPEPRODUCT AS tab_367, PRODUCT AS tab_370, Product AS tab_373, Product AS tab_368   
WHERE tab_367.producttype = 99 AND tab_367.product = tab_370.nr AND tab_368.producer = tab_370.producer AND tab_368.nr = tab_370.nr AND tab_371.nr = tab_369.product AND tab_369.productFeature = tab_372.nr AND tab_368.producer = tab_371.producer AND tab_368.nr = tab_371.nr AND tab_368.producer = tab_373.producer AND tab_368.nr = tab_373.nr", color = yellow] ; 
2 -> 51 ; 
53 [label="SQLQuery
SELECT tab_113.label, tab_110.label, tab_115.propertyNum1 
FROM ProductFeatureProduct AS tab_114, PRODUCTTYPEPRODUCT AS tab_112, Product AS tab_111, ProductFeature AS tab_110, PRODUCT AS tab_109, Product AS tab_115, Product AS tab_113   
WHERE tab_112.producttype = 99 AND tab_112.product = tab_109.nr AND tab_109.producer = tab_113.producer AND tab_109.nr = tab_113.nr AND tab_111.nr = tab_114.product AND tab_114.productFeature = tab_110.nr AND tab_109.producer = tab_111.producer AND tab_109.nr = tab_111.nr AND tab_109.producer = tab_115.producer AND tab_109.nr = tab_115.nr", color = yellow] ; 
2 -> 53 ; 
55 [label="SQLQuery
SELECT tab_210.label, tab_209.label, tab_207.propertyNum1 
FROM PRODUCT AS tab_204, ProductFeatureProduct AS tab_205, Product AS tab_208, Product AS tab_207, ProductFeature AS tab_209, Product AS tab_210, PRODUCTTYPEPRODUCT AS tab_206   
WHERE tab_208.nr = tab_205.product AND tab_205.productFeature = tab_209.nr AND tab_207.producer = tab_208.producer AND tab_207.nr = tab_208.nr AND tab_206.producttype = 92 AND tab_206.product = tab_204.nr AND tab_207.producer = tab_204.producer AND tab_207.nr = tab_204.nr AND tab_207.producer = tab_210.producer AND tab_207.nr = tab_210.nr", color = yellow] ; 
2 -> 55 ; 
57 [label="SQLQuery
SELECT tab_159.label, tab_162.label, tab_163.propertyNum1 
FROM PRODUCT AS tab_158, Product AS tab_163, PRODUCTTYPEPRODUCT AS tab_157, ProductFeature AS tab_162, Product AS tab_160, ProductFeatureProduct AS tab_161, Product AS tab_159   
WHERE tab_157.producttype = 96 AND tab_157.product = tab_158.nr AND tab_160.nr = tab_161.product AND tab_161.productFeature = tab_162.nr AND tab_158.producer = tab_160.producer AND tab_158.nr = tab_160.nr AND tab_158.producer = tab_159.producer AND tab_158.nr = tab_159.nr AND tab_158.producer = tab_163.producer AND tab_158.nr = tab_163.nr", color = yellow] ; 
2 -> 57 ; 
59 [label="SQLQuery
SELECT tab_178.label, tab_176.label, tab_179.propertyNum2 
FROM PRODUCTTYPEPRODUCT AS tab_175, Product AS tab_173, ProductFeatureProduct AS tab_177, PRODUCT AS tab_174, Product AS tab_178, ProductFeature AS tab_176, Product AS tab_179   
WHERE tab_175.producttype = 98 AND tab_175.product = tab_174.nr AND tab_178.producer = tab_174.producer AND tab_178.nr = tab_174.nr AND tab_173.nr = tab_177.product AND tab_177.productFeature = tab_176.nr AND tab_178.producer = tab_173.producer AND tab_178.nr = tab_173.nr AND tab_178.producer = tab_179.producer AND tab_178.nr = tab_179.nr", color = yellow] ; 
2 -> 59 ; 
61 [label="SQLQuery
SELECT tab_310.label, tab_316.label, tab_311.propertyNum1 
FROM ProductFeatureProduct AS tab_315, PRODUCT AS tab_312, ProductFeature AS tab_316, PRODUCTTYPEPRODUCT AS tab_313, Product AS tab_310, Product AS tab_314, Product AS tab_311   
WHERE tab_310.producer = tab_311.producer AND tab_310.nr = tab_311.nr AND tab_313.producttype = 97 AND tab_313.product = tab_312.nr AND tab_310.producer = tab_312.producer AND tab_310.nr = tab_312.nr AND tab_314.nr = tab_315.product AND tab_315.productFeature = tab_316.nr AND tab_310.producer = tab_314.producer AND tab_310.nr = tab_314.nr", color = yellow] ; 
2 -> 61 ; 
63 [label="SQLQuery
SELECT tab_301.label, tab_299.label, tab_298.propertyNum2 
FROM PRODUCT AS tab_302, ProductFeatureProduct AS tab_300, ProductFeature AS tab_299, PRODUCTTYPEPRODUCT AS tab_303, Product AS tab_298, Product AS tab_297, Product AS tab_301   
WHERE tab_297.nr = tab_300.product AND tab_300.productFeature = tab_299.nr AND tab_298.producer = tab_297.producer AND tab_298.nr = tab_297.nr AND tab_298.producer = tab_301.producer AND tab_298.nr = tab_301.nr AND tab_303.producttype = 90 AND tab_303.product = tab_302.nr AND tab_298.producer = tab_302.producer AND tab_298.nr = tab_302.nr", color = yellow] ; 
2 -> 63 ; 
65 [label="SQLQuery
SELECT tab_517.label, tab_522.label, tab_516.propertyNum2 
FROM Product AS tab_516, Product AS tab_517, PRODUCT AS tab_519, ProductFeatureProduct AS tab_521, ProductFeature AS tab_522, PRODUCTTYPEPRODUCT AS tab_518, Product AS tab_520   
WHERE tab_518.producttype = 97 AND tab_518.product = tab_519.nr AND tab_519.producer = tab_517.producer AND tab_519.nr = tab_517.nr AND tab_519.producer = tab_516.producer AND tab_519.nr = tab_516.nr AND tab_520.nr = tab_521.product AND tab_521.productFeature = tab_522.nr AND tab_519.producer = tab_520.producer AND tab_519.nr = tab_520.nr", color = yellow] ; 
2 -> 65 ; 
66 [label="FunctionCallBindAccess
(\"{0}\", \"{1}\", \"{2}\")", color = yellow] ; 
0 -> 66 ; 
}
