digraph  g{ graph[label = "18:57:18.297"]
node [shape=rectangle, color=black, fontcolor=black, style=bold] edge [color=black] 0 [label="BindAccessEval", color = yellow] ; 
1 [label="HashDistinct", color = yellow] ; 
0 -> 1 ; 
2 [label="Union", color = yellow] ; 
1 -> 2 ; 
3 [label="SQLQuery
SELECT tab_676.label, tab_678.propertyNum2, tab_674.country 
FROM Product AS tab_678, Producer AS tab_674, PRODUCTTYPEPRODUCT AS tab_677, Product AS tab_676, Product AS tab_675, PRODUCT AS tab_679, CountryType AS tab_680   
WHERE tab_676.producer = tab_678.producer AND tab_676.nr = tab_678.nr AND tab_677.producttype = 110 AND tab_677.product = tab_679.nr AND tab_676.producer = tab_679.producer AND tab_676.nr = tab_679.nr AND tab_675.producer = tab_674.nr AND tab_676.producer = tab_675.producer AND tab_676.nr = tab_675.nr AND tab_680.countryType = 121 AND tab_674.country = tab_680.country", color = yellow] ; 
2 -> 3 ; 
5 [label="SQLQuery
SELECT tab_638.label, tab_636.propertyNum1, tab_634.country 
FROM Producer AS tab_634, Product AS tab_636, CountryType AS tab_640, Product AS tab_639, Product AS tab_638, PRODUCTTYPEPRODUCT AS tab_637, PRODUCT AS tab_635   
WHERE tab_637.producttype = 110 AND tab_637.product = tab_635.nr AND tab_635.producer = tab_638.producer AND tab_635.nr = tab_638.nr AND tab_635.producer = tab_636.producer AND tab_635.nr = tab_636.nr AND tab_639.producer = tab_634.nr AND tab_635.producer = tab_639.producer AND tab_635.nr = tab_639.nr AND tab_640.countryType = 122 AND tab_634.country = tab_640.country", color = yellow] ; 
2 -> 5 ; 
7 [label="SQLQuery
SELECT tab_618.label, tab_620.propertyNum1, tab_616.country 
FROM Product AS tab_615, Producer AS tab_614, Product AS tab_618, PRODUCT AS tab_619, CountryType AS tab_616, PRODUCTTYPEPRODUCT AS tab_617, Product AS tab_620   
WHERE tab_616.countryType = 121 AND tab_615.producer = tab_614.nr AND tab_616.country = tab_614.country AND tab_615.producer = tab_618.producer AND tab_615.nr = tab_618.nr AND tab_617.producttype = 110 AND tab_617.product = tab_619.nr AND tab_615.producer = tab_619.producer AND tab_615.nr = tab_619.nr AND tab_615.producer = tab_620.producer AND tab_615.nr = tab_620.nr", color = yellow] ; 
2 -> 7 ; 
9 [label="SQLQuery
SELECT tab_657.label, tab_660.propertyNum2, tab_656.country 
FROM Producer AS tab_656, Product AS tab_658, CountryType AS tab_661, Product AS tab_657, PRODUCTTYPEPRODUCT AS tab_655, Product AS tab_660, PRODUCT AS tab_659   
WHERE tab_655.producttype = 110 AND tab_655.product = tab_659.nr AND tab_657.producer = tab_659.producer AND tab_657.nr = tab_659.nr AND tab_658.producer = tab_656.nr AND tab_657.producer = tab_658.producer AND tab_657.nr = tab_658.nr AND tab_657.producer = tab_660.producer AND tab_657.nr = tab_660.nr AND tab_661.countryType = 122 AND tab_656.country = tab_661.country", color = yellow] ; 
2 -> 9 ; 
10 [label="FunctionCallBindAccess
(\"{0}\", \"{1}\", <http://downlode.org/rdf/iso-3166/countries#{2}>)", color = yellow] ; 
0 -> 10 ; 
}
