digraph  g{ graph[label = "18:57:22.8"]
node [shape=rectangle, color=black, fontcolor=black, style=bold] edge [color=black] 0 [label="HashDistinct", color = yellow] ; 
1 [label="Union", color = yellow] ; 
0 -> 1 ; 
2 [label="BindAccessEval", color = yellow] ; 
1 -> 2 ; 
3 [label="SQLQuery
SELECT tab_3780.nr, tab_3780.label, tab_3781.homepage 
FROM Vendor AS tab_3780, Vendor AS tab_3781  
WHERE tab_3780.nr = tab_3781.nr AND tab_3780.nr = tab_3781.nr", color = yellow] ; 
2 -> 3 ; 
4 [label="FunctionCallBindAccess
(<http://www4.wiwiss.fu-berlin.de/bizer/bsbm/v01/instances/dataFromVendor{0}/Vendor{0}>, \"{1}\", <{2}>)", color = yellow] ; 
2 -> 4 ; 
6 [label="BindAccessEval", color = yellow] ; 
1 -> 6 ; 
7 [label="SQLQuery
SELECT tab_3782.nr, tab_3782.label, tab_3783.homepage 
FROM Producer AS tab_3782, Producer AS tab_3783  
WHERE tab_3782.nr = tab_3783.nr AND tab_3782.nr = tab_3783.nr", color = yellow] ; 
6 -> 7 ; 
8 [label="FunctionCallBindAccess
(<http://www4.wiwiss.fu-berlin.de/bizer/bsbm/v01/instances/dataFromProducer{0}/Producer{0}>, \"{1}\", <{2}>)", color = yellow] ; 
6 -> 8 ; 
}
