digraph  g{ graph[label = "18:57:22.485"]
node [shape=rectangle, color=black, fontcolor=black, style=bold] edge [color=black] 0 [label="BindAccessEval", color = yellow] ; 
1 [label="SQLQuery
SELECT DISTINCT ON (tab_3789.nr, tab_3789.vendor, tab_3790.offerWebpage, tab_3791.label, tab_3792.homepage) tab_3789.nr, tab_3789.vendor, tab_3790.offerWebpage, tab_3791.label, tab_3792.homepage 
FROM Offer AS tab_3790, Offer AS tab_3789, Vendor AS tab_3791, Vendor AS tab_3792 
WHERE tab_3789.vendor = tab_3790.vendor AND tab_3789.nr = tab_3790.nr AND tab_3789.vendor = tab_3791.nr AND tab_3789.vendor = tab_3791.nr AND tab_3789.vendor = tab_3792.nr AND tab_3789.vendor = tab_3792.nr", color = yellow] ; 
0 -> 1 ; 
2 [label="FunctionCallBindAccess
(<http://www4.wiwiss.fu-berlin.de/bizer/bsbm/v01/instances/dataFromVendor{1}/Offer{0}>, <{2}>, <http://www4.wiwiss.fu-berlin.de/bizer/bsbm/v01/instances/dataFromVendor{1}/Vendor{1}>, \"{3}\", <{4}>)", color = yellow] ; 
0 -> 2 ; 
}
