digraph  g{ graph[label = "18:57:23.201"]
node [shape=rectangle, color=black, fontcolor=black, style=bold] edge [color=black] 0 [label="BindAccessEval", color = yellow] ; 
1 [label="HashDistinct", color = yellow] ; 
0 -> 1 ; 
2 [label="Union", color = yellow] ; 
1 -> 2 ; 
3 [label="SQLQuery
SELECT tab_3832.vendor, tab_3832.nr, tab_3831.offerWebpage 
FROM Offer AS tab_3831, Vendor AS tab_3833, Offer AS tab_3832, CountryType AS tab_3834   
WHERE tab_3832.vendor = tab_3833.nr AND tab_3832.vendor = tab_3831.vendor AND tab_3832.nr = tab_3831.nr AND tab_3834.countryType = 112 AND tab_3833.country = tab_3834.country", color = yellow] ; 
2 -> 3 ; 
5 [label="SQLQuery
SELECT tab_3819.vendor, tab_3819.nr, tab_3819.offerWebpage 
FROM Offer AS tab_3819, Offer AS tab_3817, CountryType AS tab_3820, Vendor AS tab_3818   
WHERE tab_3817.vendor = tab_3818.nr AND tab_3819.vendor = tab_3817.vendor AND tab_3819.nr = tab_3817.nr AND tab_3820.countryType = 111 AND tab_3818.country = tab_3820.country", color = yellow] ; 
2 -> 5 ; 
7 [label="SQLQuery
SELECT tab_3826.vendor, tab_3826.nr, tab_3826.offerWebpage 
FROM CountryType AS tab_3827, Vendor AS tab_3824, Offer AS tab_3826, Offer AS tab_3825   
WHERE tab_3825.vendor = tab_3824.nr AND tab_3826.vendor = tab_3825.vendor AND tab_3826.nr = tab_3825.nr AND tab_3827.countryType = 122 AND tab_3824.country = tab_3827.country", color = yellow] ; 
2 -> 7 ; 
9 [label="SQLQuery
SELECT tab_3810.vendor, tab_3810.nr, tab_3811.offerWebpage 
FROM Vendor AS tab_3812, Offer AS tab_3811, Offer AS tab_3810, CountryType AS tab_3813   
WHERE tab_3810.vendor = tab_3812.nr AND tab_3810.vendor = tab_3811.vendor AND tab_3810.nr = tab_3811.nr AND tab_3813.countryType = 121 AND tab_3812.country = tab_3813.country", color = yellow] ; 
2 -> 9 ; 
10 [label="FunctionCallBindAccess
(<http://www4.wiwiss.fu-berlin.de/bizer/bsbm/v01/instances/dataFromVendor{0}/Offer{1}>, <{2}>)", color = yellow] ; 
0 -> 10 ; 
}
