digraph  g{ graph[label = "12:24:52.508"]
node [shape=rectangle, color=black, fontcolor=black, style=bold] edge [color=black] 0 [label="HashDistinct", color = yellow] ; 
1 [label="BindAccessEval", color = yellow] ; 
0 -> 1 ; 
2 [label="BindAccessEval", color = yellow] ; 
1 -> 2 ; 
3 [label="SQLQuery
SELECT tab_24506.country, tab_24508.label 
FROM CountryType AS tab_24507, Producer AS tab_24506, Product AS tab_24508, Product AS tab_24505  
WHERE tab_24505.producer = tab_24506.nr AND tab_24507.countryType = 222 AND tab_24506.country = tab_24507.country AND tab_24505.producer = tab_24508.producer AND tab_24505.nr = tab_24508.nr", color = yellow] ; 
2 -> 3 ; 
4 [label="FunctionCallBindAccess
(\"{1}\", <http://downlode.org/rdf/iso-3166/countries#{0}>)", color = yellow] ; 
2 -> 4 ; 
5 [label="FunctionCallBindAccess
fr.inria.cedar.het2onto.rewriting.tatooine.AddConstantColumnsFunction@2285f28b", color = yellow] ; 
1 -> 5 ; 
}
