digraph  g{ graph[label = "18:57:38.834"]
node [shape=rectangle, color=black, fontcolor=black, style=bold] edge [color=black] 0 [label="BindAccessEval", color = yellow] ; 
1 [label="HashDistinct", color = yellow] ; 
0 -> 1 ; 
2 [label="Union", color = yellow] ; 
1 -> 2 ; 
3 [label="SQLQuery
SELECT tab_10521.vendor, tab_10521.nr, tab_10524.offerWebpage, tab_10521.price, tab_10523.deliveryDays, tab_10528.propertyNum1 
FROM Offer AS tab_10523, Offer AS tab_10521, Offer AS tab_10526, CountryType AS tab_10525, Offer AS tab_10524, PRODUCTTYPEPRODUCT AS tab_10530, Product AS tab_10527, Producer AS tab_10522, Product AS tab_10528, PRODUCT AS tab_10529   
WHERE tab_10521.vendor = tab_10523.vendor AND tab_10521.nr = tab_10523.nr AND tab_10521.vendor = tab_10524.vendor AND tab_10521.nr = tab_10524.nr AND tab_10521.vendor = tab_10526.vendor AND tab_10521.nr = tab_10526.nr AND tab_10526.producer = tab_10528.producer AND tab_10526.product = tab_10528.nr AND tab_10527.producer = tab_10522.nr AND tab_10526.producer = tab_10527.producer AND tab_10526.product = tab_10527.nr AND tab_10525.countryType = 222 AND tab_10522.country = tab_10525.country AND tab_10530.producttype = 110 AND tab_10530.product = tab_10529.nr AND tab_10526.producer = tab_10529.producer AND tab_10526.product = tab_10529.nr", color = yellow] ; 
2 -> 3 ; 
5 [label="SQLQuery
SELECT tab_10263.vendor, tab_10263.nr, tab_10265.offerWebpage, tab_10266.price, tab_10262.deliveryDays, tab_10261.propertyNum4 
FROM Product AS tab_10261, Offer AS tab_10262, CountryType AS tab_10268, Offer AS tab_10265, Offer AS tab_10266, Producer AS tab_10267, Offer AS tab_10263, PRODUCTTYPEPRODUCT AS tab_10264   
WHERE tab_10261.nr = tab_10263.product AND tab_10267.nr = tab_10261.producer AND tab_10261.nr = tab_10264.product AND tab_10264.producttype = 110 AND tab_10263.vendor = tab_10266.vendor AND tab_10263.nr = tab_10266.nr AND tab_10263.vendor = tab_10262.vendor AND tab_10263.nr = tab_10262.nr AND tab_10263.vendor = tab_10265.vendor AND tab_10263.nr = tab_10265.nr AND tab_10268.countryType = 212 AND tab_10267.country = tab_10268.country", color = yellow] ; 
2 -> 5 ; 
7 [label="SQLQuery
SELECT tab_10314.vendor, tab_10314.nr, tab_10314.offerWebpage, tab_10313.price, tab_10317.deliveryDays, tab_10316.propertyNum4 
FROM Offer AS tab_10313, PRODUCTTYPEPRODUCT AS tab_10318, Offer AS tab_10314, Offer AS tab_10317, Producer AS tab_10319, Offer AS tab_10315, Product AS tab_10316, CountryType AS tab_10320   
WHERE tab_10316.nr = tab_10315.product AND tab_10319.nr = tab_10316.producer AND tab_10316.nr = tab_10318.product AND tab_10318.producttype = 110 AND tab_10314.vendor = tab_10315.vendor AND tab_10314.nr = tab_10315.nr AND tab_10314.vendor = tab_10317.vendor AND tab_10314.nr = tab_10317.nr AND tab_10314.vendor = tab_10313.vendor AND tab_10314.nr = tab_10313.nr AND tab_10320.countryType = 221 AND tab_10319.country = tab_10320.country", color = yellow] ; 
2 -> 7 ; 
9 [label="SQLQuery
SELECT tab_10354.vendor, tab_10354.nr, tab_10355.offerWebpage, tab_10357.price, tab_10352.deliveryDays, tab_10351.propertyNum1 
FROM Offer AS tab_10357, Offer AS tab_10355, Product AS tab_10351, PRODUCT AS tab_10359, Producer AS tab_10356, Offer AS tab_10354, PRODUCTTYPEPRODUCT AS tab_10360, CountryType AS tab_10353, Product AS tab_10358, Offer AS tab_10352   
WHERE tab_10354.vendor = tab_10355.vendor AND tab_10354.nr = tab_10355.nr AND tab_10354.vendor = tab_10352.vendor AND tab_10354.nr = tab_10352.nr AND tab_10354.vendor = tab_10357.vendor AND tab_10354.nr = tab_10357.nr AND tab_10358.producer = tab_10356.nr AND tab_10354.producer = tab_10358.producer AND tab_10354.product = tab_10358.nr AND tab_10354.producer = tab_10351.producer AND tab_10354.product = tab_10351.nr AND tab_10353.countryType = 221 AND tab_10356.country = tab_10353.country AND tab_10360.producttype = 110 AND tab_10360.product = tab_10359.nr AND tab_10354.producer = tab_10359.producer AND tab_10354.product = tab_10359.nr", color = yellow] ; 
2 -> 9 ; 
11 [label="SQLQuery
SELECT tab_10292.vendor, tab_10292.nr, tab_10290.offerWebpage, tab_10293.price, tab_10288.deliveryDays, tab_10289.propertyNum4 
FROM PRODUCTTYPEPRODUCT AS tab_10291, CountryType AS tab_10294, Product AS tab_10289, Offer AS tab_10290, Offer AS tab_10292, Offer AS tab_10293, Offer AS tab_10288, Producer AS tab_10287   
WHERE tab_10289.nr = tab_10292.product AND tab_10287.nr = tab_10289.producer AND tab_10289.nr = tab_10291.product AND tab_10291.producttype = 110 AND tab_10292.vendor = tab_10288.vendor AND tab_10292.nr = tab_10288.nr AND tab_10292.vendor = tab_10290.vendor AND tab_10292.nr = tab_10290.nr AND tab_10292.vendor = tab_10293.vendor AND tab_10292.nr = tab_10293.nr AND tab_10294.countryType = 211 AND tab_10287.country = tab_10294.country", color = yellow] ; 
2 -> 11 ; 
13 [label="SQLQuery
SELECT tab_10482.vendor, tab_10482.nr, tab_10483.offerWebpage, tab_10484.price, tab_10490.deliveryDays, tab_10486.propertyNum1 
FROM Product AS tab_10489, CountryType AS tab_10491, Product AS tab_10486, PRODUCT AS tab_10487, Offer AS tab_10482, PRODUCTTYPEPRODUCT AS tab_10488, Offer AS tab_10490, Offer AS tab_10483, Offer AS tab_10484, Producer AS tab_10485   
WHERE tab_10482.vendor = tab_10490.vendor AND tab_10482.nr = tab_10490.nr AND tab_10482.vendor = tab_10484.vendor AND tab_10482.nr = tab_10484.nr AND tab_10482.vendor = tab_10483.vendor AND tab_10482.nr = tab_10483.nr AND tab_10482.producer = tab_10486.producer AND tab_10482.product = tab_10486.nr AND tab_10488.producttype = 110 AND tab_10488.product = tab_10487.nr AND tab_10482.producer = tab_10487.producer AND tab_10482.product = tab_10487.nr AND tab_10489.producer = tab_10485.nr AND tab_10482.producer = tab_10489.producer AND tab_10482.product = tab_10489.nr AND tab_10491.countryType = 212 AND tab_10485.country = tab_10491.country", color = yellow] ; 
2 -> 13 ; 
15 [label="SQLQuery
SELECT tab_10618.vendor, tab_10618.nr, tab_10616.offerWebpage, tab_10614.price, tab_10620.deliveryDays, tab_10617.propertyNum2 
FROM Producer AS tab_10619, Offer AS tab_10620, Offer AS tab_10614, PRODUCTTYPEPRODUCT AS tab_10613, PRODUCT AS tab_10621, Product AS tab_10617, Offer AS tab_10618, Product AS tab_10615, Offer AS tab_10616, CountryType AS tab_10622   
WHERE tab_10613.producttype = 110 AND tab_10613.product = tab_10621.nr AND tab_10617.producer = tab_10621.producer AND tab_10617.nr = tab_10621.nr AND tab_10615.producer = tab_10619.nr AND tab_10617.producer = tab_10615.producer AND tab_10617.nr = tab_10615.nr AND tab_10617.producer = tab_10618.producer AND tab_10617.nr = tab_10618.product AND tab_10618.vendor = tab_10620.vendor AND tab_10618.nr = tab_10620.nr AND tab_10618.vendor = tab_10616.vendor AND tab_10618.nr = tab_10616.nr AND tab_10618.vendor = tab_10614.vendor AND tab_10618.nr = tab_10614.nr AND tab_10622.countryType = 222 AND tab_10619.country = tab_10622.country", color = yellow] ; 
2 -> 15 ; 
17 [label="SQLQuery
SELECT tab_10659.vendor, tab_10659.nr, tab_10659.offerWebpage, tab_10657.price, tab_10662.deliveryDays, tab_10656.propertyNum2 
FROM PRODUCT AS tab_10661, Offer AS tab_10658, Offer AS tab_10659, Offer AS tab_10657, CountryType AS tab_10664, Offer AS tab_10662, Producer AS tab_10663, Product AS tab_10655, PRODUCTTYPEPRODUCT AS tab_10660, Product AS tab_10656   
WHERE tab_10659.vendor = tab_10658.vendor AND tab_10659.nr = tab_10658.nr AND tab_10659.vendor = tab_10662.vendor AND tab_10659.nr = tab_10662.nr AND tab_10659.vendor = tab_10657.vendor AND tab_10659.nr = tab_10657.nr AND tab_10660.producttype = 110 AND tab_10660.product = tab_10661.nr AND tab_10658.producer = tab_10661.producer AND tab_10658.product = tab_10661.nr AND tab_10655.producer = tab_10663.nr AND tab_10658.producer = tab_10655.producer AND tab_10658.product = tab_10655.nr AND tab_10658.producer = tab_10656.producer AND tab_10658.product = tab_10656.nr AND tab_10664.countryType = 212 AND tab_10663.country = tab_10664.country", color = yellow] ; 
2 -> 17 ; 
19 [label="SQLQuery
SELECT tab_10238.vendor, tab_10238.nr, tab_10242.offerWebpage, tab_10237.price, tab_10240.deliveryDays, tab_10236.propertyNum3 
FROM Product AS tab_10236, Offer AS tab_10237, Producer AS tab_10241, CountryType AS tab_10239, Offer AS tab_10238, Offer AS tab_10240, PRODUCTTYPEPRODUCT AS tab_10235, Offer AS tab_10242   
WHERE tab_10239.countryType = 212 AND tab_10236.nr = tab_10238.product AND tab_10241.nr = tab_10236.producer AND tab_10236.nr = tab_10235.product AND tab_10235.producttype = 110 AND tab_10239.country = tab_10241.country AND tab_10238.vendor = tab_10240.vendor AND tab_10238.nr = tab_10240.nr AND tab_10238.vendor = tab_10237.vendor AND tab_10238.nr = tab_10237.nr AND tab_10238.vendor = tab_10242.vendor AND tab_10238.nr = tab_10242.nr", color = yellow] ; 
2 -> 19 ; 
21 [label="SQLQuery
SELECT tab_10209.vendor, tab_10209.nr, tab_10211.offerWebpage, tab_10209.price, tab_10212.deliveryDays, tab_10215.propertyNum3 
FROM Offer AS tab_10212, Offer AS tab_10213, CountryType AS tab_10216, PRODUCTTYPEPRODUCT AS tab_10210, Offer AS tab_10209, Producer AS tab_10214, Offer AS tab_10211, Product AS tab_10215   
WHERE tab_10209.vendor = tab_10211.vendor AND tab_10209.nr = tab_10211.nr AND tab_10209.vendor = tab_10212.vendor AND tab_10209.nr = tab_10212.nr AND tab_10215.nr = tab_10213.product AND tab_10214.nr = tab_10215.producer AND tab_10215.nr = tab_10210.product AND tab_10210.producttype = 110 AND tab_10209.vendor = tab_10213.vendor AND tab_10209.nr = tab_10213.nr AND tab_10216.countryType = 222 AND tab_10214.country = tab_10216.country", color = yellow] ; 
2 -> 21 ; 
23 [label="SQLQuery
SELECT tab_10195.vendor, tab_10195.nr, tab_10195.offerWebpage, tab_10193.price, tab_10194.deliveryDays, tab_10191.propertyNum4 
FROM CountryType AS tab_10196, Offer AS tab_10192, PRODUCTTYPEPRODUCT AS tab_10189, Producer AS tab_10190, Offer AS tab_10195, Offer AS tab_10193, Offer AS tab_10194, Product AS tab_10191   
WHERE tab_10191.nr = tab_10192.product AND tab_10190.nr = tab_10191.producer AND tab_10191.nr = tab_10189.product AND tab_10189.producttype = 110 AND tab_10195.vendor = tab_10192.vendor AND tab_10195.nr = tab_10192.nr AND tab_10195.vendor = tab_10194.vendor AND tab_10195.nr = tab_10194.nr AND tab_10195.vendor = tab_10193.vendor AND tab_10195.nr = tab_10193.nr AND tab_10196.countryType = 222 AND tab_10190.country = tab_10196.country", color = yellow] ; 
2 -> 23 ; 
25 [label="SQLQuery
SELECT tab_10444.vendor, tab_10444.nr, tab_10447.offerWebpage, tab_10445.price, tab_10448.deliveryDays, tab_10446.propertyNum2 
FROM Offer AS tab_10445, PRODUCTTYPEPRODUCT AS tab_10449, PRODUCT AS tab_10450, Product AS tab_10443, Offer AS tab_10444, Offer AS tab_10447, Offer AS tab_10448, CountryType AS tab_10451, Producer AS tab_10442, Product AS tab_10446   
WHERE tab_10444.vendor = tab_10448.vendor AND tab_10444.nr = tab_10448.nr AND tab_10444.vendor = tab_10445.vendor AND tab_10444.nr = tab_10445.nr AND tab_10444.vendor = tab_10447.vendor AND tab_10444.nr = tab_10447.nr AND tab_10449.producttype = 110 AND tab_10449.product = tab_10450.nr AND tab_10444.producer = tab_10450.producer AND tab_10444.product = tab_10450.nr AND tab_10443.producer = tab_10442.nr AND tab_10444.producer = tab_10443.producer AND tab_10444.product = tab_10443.nr AND tab_10444.producer = tab_10446.producer AND tab_10444.product = tab_10446.nr AND tab_10451.countryType = 211 AND tab_10442.country = tab_10451.country", color = yellow] ; 
2 -> 25 ; 
27 [label="SQLQuery
SELECT tab_10168.vendor, tab_10168.nr, tab_10166.offerWebpage, tab_10164.price, tab_10167.deliveryDays, tab_10163.propertyNum3 
FROM Offer AS tab_10168, Product AS tab_10163, CountryType AS tab_10170, Offer AS tab_10166, Producer AS tab_10169, Offer AS tab_10167, Offer AS tab_10164, PRODUCTTYPEPRODUCT AS tab_10165   
WHERE tab_10163.nr = tab_10168.product AND tab_10169.nr = tab_10163.producer AND tab_10163.nr = tab_10165.product AND tab_10165.producttype = 110 AND tab_10168.vendor = tab_10164.vendor AND tab_10168.nr = tab_10164.nr AND tab_10168.vendor = tab_10167.vendor AND tab_10168.nr = tab_10167.nr AND tab_10168.vendor = tab_10166.vendor AND tab_10168.nr = tab_10166.nr AND tab_10170.countryType = 221 AND tab_10169.country = tab_10170.country", color = yellow] ; 
2 -> 27 ; 
29 [label="SQLQuery
SELECT tab_10566.vendor, tab_10566.nr, tab_10569.offerWebpage, tab_10567.price, tab_10573.deliveryDays, tab_10571.propertyNum1 
FROM Product AS tab_10565, Offer AS tab_10566, Offer AS tab_10567, Producer AS tab_10570, Offer AS tab_10569, Product AS tab_10571, PRODUCT AS tab_10568, Offer AS tab_10573, PRODUCTTYPEPRODUCT AS tab_10572, CountryType AS tab_10574   
WHERE tab_10572.producttype = 110 AND tab_10572.product = tab_10568.nr AND tab_10568.producer = tab_10566.producer AND tab_10568.nr = tab_10566.product AND tab_10566.vendor = tab_10567.vendor AND tab_10566.nr = tab_10567.nr AND tab_10566.vendor = tab_10569.vendor AND tab_10566.nr = tab_10569.nr AND tab_10566.vendor = tab_10573.vendor AND tab_10566.nr = tab_10573.nr AND tab_10568.producer = tab_10571.producer AND tab_10568.nr = tab_10571.nr AND tab_10565.producer = tab_10570.nr AND tab_10568.producer = tab_10565.producer AND tab_10568.nr = tab_10565.nr AND tab_10574.countryType = 211 AND tab_10570.country = tab_10574.country", color = yellow] ; 
2 -> 29 ; 
31 [label="SQLQuery
SELECT tab_10142.vendor, tab_10142.nr, tab_10143.offerWebpage, tab_10138.price, tab_10142.deliveryDays, tab_10137.propertyNum3 
FROM Product AS tab_10137, Offer AS tab_10138, Producer AS tab_10141, PRODUCTTYPEPRODUCT AS tab_10139, Offer AS tab_10140, Offer AS tab_10142, CountryType AS tab_10144, Offer AS tab_10143   
WHERE tab_10142.vendor = tab_10138.vendor AND tab_10142.nr = tab_10138.nr AND tab_10142.vendor = tab_10143.vendor AND tab_10142.nr = tab_10143.nr AND tab_10137.nr = tab_10140.product AND tab_10141.nr = tab_10137.producer AND tab_10137.nr = tab_10139.product AND tab_10139.producttype = 110 AND tab_10142.vendor = tab_10140.vendor AND tab_10142.nr = tab_10140.nr AND tab_10144.countryType = 211 AND tab_10141.country = tab_10144.country", color = yellow] ; 
2 -> 31 ; 
33 [label="SQLQuery
SELECT tab_10406.vendor, tab_10406.nr, tab_10403.offerWebpage, tab_10405.price, tab_10408.deliveryDays, tab_10401.propertyNum2 
FROM Product AS tab_10401, CountryType AS tab_10409, Offer AS tab_10405, Offer AS tab_10406, Offer AS tab_10403, PRODUCTTYPEPRODUCT AS tab_10404, Offer AS tab_10408, Producer AS tab_10400, PRODUCT AS tab_10407, Product AS tab_10402   
WHERE tab_10402.producer = tab_10400.nr AND tab_10404.producttype = 110 AND tab_10404.product = tab_10407.nr AND tab_10402.producer = tab_10407.producer AND tab_10402.nr = tab_10407.nr AND tab_10402.producer = tab_10406.producer AND tab_10402.nr = tab_10406.product AND tab_10406.vendor = tab_10405.vendor AND tab_10406.nr = tab_10405.nr AND tab_10406.vendor = tab_10408.vendor AND tab_10406.nr = tab_10408.nr AND tab_10406.vendor = tab_10403.vendor AND tab_10406.nr = tab_10403.nr AND tab_10402.producer = tab_10401.producer AND tab_10402.nr = tab_10401.nr AND tab_10409.countryType = 221 AND tab_10400.country = tab_10409.country", color = yellow] ; 
2 -> 33 ; 
34 [label="FunctionCallBindAccess
(<http://www4.wiwiss.fu-berlin.de/bizer/bsbm/v01/instances/dataFromVendor{0}/Offer{1}>, <{2}>, \"{3}\", \"{4}\", \"{5}\")", color = yellow] ; 
0 -> 34 ; 
}
