INPUT	N_ANS	N_EVO	N_JOI	N_REW	N_TRI	T_OP	T_QEV	T_REW	T_TOTAL
Qt	2810	192	96	96	1	39	480	133	652
Qt	2810	192	96	96	1	17	435	94	546
Qt	2810	192	96	96	1	14	433	107	554
Qt	2810	192	96	96	1	19	399	65	483
Qt	2810	192	96	96	1	15	406	78	499
Qt	2810	192	96	96	1	23	378	61	462
Qt	2810	192	96	96	1	13	323	64	400
Qt	2810	192	96	96	1	9	303	68	380
Qt	2810	192	96	96	1	14	310	105	429
Qt	2810	192	96	96	1	11	332	52	395
