INPUT	N_ANS	N_TRI	N_REF	N_REW	N_CLASH	N_COVER	T_REF	T_REW	T_CLASH	T_COVER	T_CORE	T_OP	T_QEV	T_TOTAL
Q01	1272	5	1	8	6	2	0	40	0	0	20	2	35	97
Q01a	4376	5	1	16	12	4	0	31	0	0	26	2	108	167
Q01b	22738	5	1	128	96	32	0	37	0	4	206	12	607	866
Q02	16	6	1	16	12	4	0	43	0	1	21	3	72	140
Q02a	56	6	1	32	24	8	0	44	0	2	43	4	149	242
Q02b	174	6	1	64	48	16	0	46	0	2	128	7	484	667
Q02c	1342	6	1	512	384	128	0	57	1	27	921	75	3678	4759
Q03	19	5	1	128	N/A	64	1	36	1	24	1104	93	175	1434
Q04	91	2	1	8	6	2	0	6	0	0	2	0	8	16
Q05	56200	4	1	8	7	1	0	7	0	0	4	0	1042	1053
Q05a	33089	4	1	2	N/A	2	0	23	0	0	2	1	5479	5505
Q05b	50958	4	1	4	N/A	4	0	22	0	0	3	3	10961	10989
Q06	52208	3	1	2	N/A	2	0	12	0	0	4	2	262	280
Q06a	29377	6	1	4	N/A	4	0	49	0	0	10	2	42778	42839
Q06b	17815	6	1	8	N/A	8	0	40	0	1	17	6	84475	84539
Q07	2	3	1	194	N/A	194	0	26	0	14	17	47	1414	1518
Q07a	3	3	1	388	N/A	388	1	28	0	57	35	117	2929	3167
Q08	56200	3	1	1	N/A	1	0	6	0	0	4	1	607	618
Q09	5617	1	1	2	N/A	2	0	12	0	1	3	1	19	36
Q10	9	3	1	586	N/A	586	0	77	1	201	80	254	4415	5028
Q10a	14	3	1	1172	N/A	1172	0	82	1	616	132	800	9356	10987
Q10b	24	3	1	2344	N/A	2344	0	98	1	2585	271	2816	19405	25176
Q11	116	5	509	16	14	1	7	8510	5	2	2	2	25	8553
Q12	116	5	2	8	7	1	34	49	0	0	2	1	25	111
Q12a	720	5	2	16	14	2	26	46	1	0	4	1	146	224
Q12b	2327	5	2	32	28	4	30	54	0	0	10	2	369	465
Q13	13190	4	16	25	N/A	21	1	208	0	17	45	15	434	720
Q13a	43157	4	16	50	N/A	42	0	191	0	31	86	28	1222	1558
Q13b	330142	4	16	400	N/A	336	0	245	1	323	764	301	10214	11848
Q14	56198	3	1	1	N/A	1	0	23	0	0	5	1	1081	1110
Q15	28100	5	1	4	3	1	0	18	0	0	4	1	220	243
Q16	8114	4	1	16	N/A	16	0	17	0	0	55	5	195	272
Q17	52208	2	1	2	N/A	2	0	12	0	0	4	1	197	214
Q18	56200	4	1	4	3	1	0	17	0	0	7	0	1171	1195
Q19	2015	9	1	56	N/A	16	0	89	0	152	136	9	616	1002
Q19a	3515	9	1	112	N/A	32	0	110	1	285	291	18	1239	1944
Q19b	15511	9	1	448	N/A	128	0	124	1	1123	1018	79	4660	7005
Q20	0	11	1	4	N/A	4	0	134	0	46	62	6	94	342
Q20a	236	11	1	8	N/A	8	0	143	0	94	132	9	295	673
Q20b	2312	11	1	64	N/A	64	0	136	1	712	701	76	2209	3835
Q20c	7564	11	1	128	N/A	128	0	118	0	1388	1410	168	4872	7956
Q21	1085	3	1	929	539	385	0	60	1	74	56	117	5110	5418
Q22	28	4	2	2	N/A	2	0	9	0	0	0	1	39	49
Q22a	434	4	24	32	N/A	32	1	94	0	0	5	5	595	700
Q23	25803	7	64	80	56	24	663	1596	0	12	39	13	1618	3941
Q23a	38258	7	64	160	112	48	819	1621	0	19	95	25	2695	5274
Q01	1272	5	1	8	6	2	0	30	0	1	11	1	43	86
Q01a	4376	5	1	16	12	4	0	31	0	1	22	2	123	179
Q01b	22738	5	1	128	96	32	0	33	0	5	186	12	639	875
Q02	16	6	1	16	12	4	0	44	1	0	22	3	73	143
Q02a	56	6	1	32	24	8	0	46	0	1	47	5	144	243
Q02b	174	6	1	64	48	16	1	46	0	3	88	7	491	636
Q02c	1342	6	1	512	384	128	0	57	0	31	932	59	3395	4474
Q03	19	5	1	128	N/A	64	0	36	0	24	1138	84	176	1458
Q04	91	2	1	8	6	2	0	6	0	0	1	1	9	17
Q05	56200	4	1	8	7	1	0	7	0	0	3	1	865	876
Q05a	33089	4	1	2	N/A	2	0	22	0	0	1	1	5714	5738
Q05b	50958	4	1	4	N/A	4	0	21	0	0	3	1	11061	11086
Q06	52208	3	1	2	N/A	2	0	13	0	0	4	2	219	238
Q06a	29377	6	1	4	N/A	4	0	44	0	0	14	3	42683	42744
Q06b	17815	6	1	8	N/A	8	0	40	0	1	16	6	84856	84919
Q07	2	3	1	194	N/A	194	0	29	0	15	17	47	1418	1526
Q07a	3	3	1	388	N/A	388	0	31	1	66	35	108	2861	3102
Q08	56200	3	1	1	N/A	1	0	6	0	0	5	1	508	520
Q09	5617	1	1	2	N/A	2	1	12	0	0	4	0	23	40
Q10	9	3	1	586	N/A	586	1	89	0	163	66	242	4410	4971
Q10a	14	3	1	1172	N/A	1172	0	83	1	650	131	982	9244	11091
Q10b	24	3	1	2344	N/A	2344	0	91	2	2345	259	2991	19262	24950
Q11	116	5	509	16	14	1	7	8975	1	4	2	2	27	9018
Q12	116	5	2	8	7	1	27	50	0	0	2	1	25	105
Q12a	720	5	2	16	14	2	29	48	0	0	4	1	149	231
Q12b	2327	5	2	32	28	4	37	50	0	0	13	2	373	475
Q13	13190	4	16	25	N/A	21	1	212	0	13	54	16	474	770
Q13a	43157	4	16	50	N/A	42	1	204	0	32	81	26	1302	1646
Q13b	330142	4	16	400	N/A	336	1	218	1	279	682	256	9565	11002
Q14	56198	3	1	1	N/A	1	0	27	0	0	6	1	1089	1123
Q15	28100	5	1	4	3	1	0	17	0	0	4	2	203	226
Q16	8114	4	1	16	N/A	16	1	17	0	0	55	5	228	306
Q17	52208	2	1	2	N/A	2	0	12	0	0	4	1	193	210
Q18	56200	4	1	4	3	1	0	16	0	0	7	1	1147	1171
Q19	2015	9	1	56	N/A	16	0	83	0	139	167	12	622	1023
Q19a	3515	9	1	112	N/A	32	0	89	0	271	247	20	1189	1816
Q19b	15511	9	1	448	N/A	128	0	126	1	1135	1564	82	4659	7567
Q20	0	11	1	4	N/A	4	0	116	0	46	54	5	94	315
Q20a	236	11	1	8	N/A	8	0	109	0	88	83	9	317	606
Q20b	2312	11	1	64	N/A	64	0	132	0	700	744	62	2239	3877
Q20c	7564	11	1	128	N/A	128	0	134	1	1438	1243	125	4643	7584
Q21	1085	3	1	929	539	385	0	61	1	81	59	130	4984	5316
Q22	28	4	2	2	N/A	2	0	10	0	0	0	0	37	47
Q22a	434	4	24	32	N/A	32	0	71	0	2	6	5	578	662
Q23	25803	7	64	80	56	24	686	1439	1	7	38	14	1647	3832
Q23a	38258	7	64	160	112	48	872	1538	1	16	77	25	2699	5228
Q01	1272	5	1	8	6	2	0	29	0	0	12	1	45	87
Q01a	4376	5	1	16	12	4	0	41	0	1	27	2	127	198
Q01b	22738	5	1	128	96	32	0	34	1	5	191	12	616	859
Q02	16	6	1	16	12	4	0	54	0	0	26	2	77	159
Q02a	56	6	1	32	24	8	0	46	0	1	47	4	186	284
Q02b	174	6	1	64	48	16	0	45	0	3	93	10	419	570
Q02c	1342	6	1	512	384	128	0	59	0	29	719	58	3644	4509
Q03	19	5	1	128	N/A	64	0	44	0	24	1111	80	174	1433
Q04	91	2	1	8	6	2	0	6	0	0	1	1	7	15
Q05	56200	4	1	8	7	1	0	6	0	0	4	0	978	988
Q05a	33089	4	1	2	N/A	2	0	23	0	0	2	1	5489	5515
Q05b	50958	4	1	4	N/A	4	0	22	0	0	3	2	10889	10916
Q06	52208	3	1	2	N/A	2	0	13	0	0	4	1	210	228
Q06a	29377	6	1	4	N/A	4	0	42	0	1	9	2	42868	42922
Q06b	17815	6	1	8	N/A	8	0	38	1	1	16	5	85347	85408
Q07	2	3	1	194	N/A	194	0	38	0	20	25	55	1432	1570
Q07a	3	3	1	388	N/A	388	0	29	1	56	33	119	2873	3111
Q08	56200	3	1	1	N/A	1	0	6	0	0	4	1	578	589
Q09	5617	1	1	2	N/A	2	0	13	0	0	4	1	18	36
Q10	9	3	1	586	N/A	586	0	71	0	156	63	323	4357	4970
Q10a	14	3	1	1172	N/A	1172	0	78	1	700	171	850	9289	11089
Q10b	24	3	1	2344	N/A	2344	0	113	2	2460	260	2923	19306	25064
Q11	116	5	509	16	14	1	7	8650	0	1	2	1	25	8686
Q12	116	5	2	8	7	1	28	46	1	0	1	1	24	101
Q12a	720	5	2	16	14	2	30	63	0	0	6	1	146	246
Q12b	2327	5	2	32	28	4	25	49	0	0	8	2	367	451
Q13	13190	4	16	25	N/A	21	1	194	0	13	46	13	439	706
Q13a	43157	4	16	50	N/A	42	1	192	0	31	92	28	1146	1490
Q13b	330142	4	16	400	N/A	336	1	223	0	286	726	260	9315	10811
Q14	56198	3	1	1	N/A	1	0	21	0	0	4	0	1069	1094
Q15	28100	5	1	4	3	1	0	17	0	0	4	1	233	255
Q16	8114	4	1	16	N/A	16	0	17	0	1	75	7	196	296
Q17	52208	2	1	2	N/A	2	0	12	0	0	4	0	214	230
Q18	56200	4	1	4	3	1	0	16	0	0	7	0	1142	1165
Q19	2015	9	1	56	N/A	16	0	83	0	141	122	10	636	992
Q19a	3515	9	1	112	N/A	32	1	87	0	289	285	21	1216	1899
Q19b	15511	9	1	448	N/A	128	0	126	1	1128	1106	84	4774	7219
Q20	0	11	1	4	N/A	4	0	140	0	47	57	5	86	335
Q20a	236	11	1	8	N/A	8	0	104	0	91	83	8	319	605
Q20b	2312	11	1	64	N/A	64	0	115	0	716	661	63	2259	3814
Q20c	7564	11	1	128	N/A	128	0	118	0	1408	1577	151	4830	8084
Q21	1085	3	1	929	539	385	0	53	0	71	50	146	4988	5308
Q22	28	4	2	2	N/A	2	1	11	0	0	0	1	37	50
Q22a	434	4	24	32	N/A	32	0	71	1	1	5	4	600	682
Q23	25803	7	64	80	56	24	637	1502	1	8	37	13	1645	3843
Q23a	38258	7	64	160	112	48	638	1602	0	22	74	25	2649	5010
Q01	1272	5	1	8	6	2	1	33	0	0	12	2	34	82
Q01a	4376	5	1	16	12	4	0	30	0	1	22	2	99	154
Q01b	22738	5	1	128	96	32	0	34	0	5	176	11	661	887
Q02	16	6	1	16	12	4	0	45	0	1	23	2	79	150
Q02a	56	6	1	32	24	8	0	53	0	1	45	4	145	248
Q02b	174	6	1	64	48	16	0	47	0	2	108	8	426	591
Q02c	1342	6	1	512	384	128	0	60	1	29	725	64	3437	4316
Q03	19	5	1	128	N/A	64	0	37	0	21	1138	82	174	1452
Q04	91	2	1	8	6	2	0	6	0	0	1	0	8	15
Q05	56200	4	1	8	7	1	0	6	0	0	3	1	863	873
Q05a	33089	4	1	2	N/A	2	0	23	0	0	1	1	5629	5654
Q05b	50958	4	1	4	N/A	4	0	22	0	0	3	2	11009	11036
Q06	52208	3	1	2	N/A	2	0	13	0	0	4	2	228	247
Q06a	29377	6	1	4	N/A	4	0	39	0	0	9	3	42491	42542
Q06b	17815	6	1	8	N/A	8	0	38	0	1	25	5	84940	85009
Q07	2	3	1	194	N/A	194	0	26	1	14	17	42	1360	1460
Q07a	3	3	1	388	N/A	388	0	29	1	57	34	141	2852	3114
Q08	56200	3	1	1	N/A	1	0	7	0	0	5	0	580	592
Q09	5617	1	1	2	N/A	2	0	14	0	0	4	1	17	36
Q10	9	3	1	586	N/A	586	0	72	0	164	66	244	4940	5486
Q10a	14	3	1	1172	N/A	1172	0	76	0	613	126	806	9206	10827
Q10b	24	3	1	2344	N/A	2344	0	97	1	2602	261	2795	19443	25199
Q11	116	5	509	16	14	1	7	8934	1	1	2	1	26	8972
Q12	116	5	2	8	7	1	25	46	0	0	2	1	24	98
Q12a	720	5	2	16	14	2	28	47	0	0	4	1	188	268
Q12b	2327	5	2	32	28	4	25	47	0	0	8	2	362	444
Q13	13190	4	16	25	N/A	21	1	235	0	15	40	13	444	748
Q13a	43157	4	16	50	N/A	42	1	196	1	28	86	27	1250	1589
Q13b	330142	4	16	400	N/A	336	1	217	0	275	661	268	9736	11158
Q14	56198	3	1	1	N/A	1	1	24	0	0	4	1	1179	1209
Q15	28100	5	1	4	3	1	1	19	0	0	4	2	224	250
Q16	8114	4	1	16	N/A	16	0	19	0	0	60	6	191	276
Q17	52208	2	1	2	N/A	2	0	13	0	1	5	1	187	207
Q18	56200	4	1	4	3	1	0	15	0	0	7	1	1277	1300
Q19	2015	9	1	56	N/A	16	1	98	1	139	147	9	653	1048
Q19a	3515	9	1	112	N/A	32	0	87	0	267	238	19	1257	1868
Q19b	15511	9	1	448	N/A	128	0	127	1	1120	993	97	4774	7112
Q20	0	11	1	4	N/A	4	0	105	0	45	60	6	96	312
Q20a	236	11	1	8	N/A	8	0	105	0	87	84	9	285	570
Q20b	2312	11	1	64	N/A	64	0	113	1	706	867	76	2382	4145
Q20c	7564	11	1	128	N/A	128	0	119	0	1386	1423	139	5104	8171
Q21	1085	3	1	929	539	385	1	57	1	87	75	130	5055	5406
Q22	28	4	2	2	N/A	2	0	9	0	0	1	0	40	50
Q22a	434	4	24	32	N/A	32	0	69	1	1	4	4	593	672
Q23	25803	7	64	80	56	24	682	1508	1	10	38	14	1692	3945
Q23a	38258	7	64	160	112	48	639	1517	1	19	76	27	2695	4974
Q01	1272	5	1	8	6	2	0	30	0	1	13	1	36	81
Q01a	4376	5	1	16	12	4	0	32	0	0	23	2	99	156
Q01b	22738	5	1	128	96	32	1	33	1	5	190	12	624	866
Q02	16	6	1	16	12	4	0	54	0	1	29	3	72	159
Q02a	56	6	1	32	24	8	0	46	0	1	46	4	159	256
Q02b	174	6	1	64	48	16	0	47	0	2	92	7	481	629
Q02c	1342	6	1	512	384	128	0	57	0	30	751	59	3507	4404
Q03	19	5	1	128	N/A	64	0	42	0	27	1227	93	174	1563
Q04	91	2	1	8	6	2	0	7	0	0	1	0	8	16
Q05	56200	4	1	8	7	1	0	6	0	0	3	1	963	973
Q05a	33089	4	1	2	N/A	2	0	23	0	0	2	0	5666	5691
Q05b	50958	4	1	4	N/A	4	0	22	0	0	3	2	11006	11033
Q06	52208	3	1	2	N/A	2	0	13	0	0	6	2	219	240
Q06a	29377	6	1	4	N/A	4	0	38	0	0	8	3	42368	42417
Q06b	17815	6	1	8	N/A	8	0	42	0	1	16	4	84693	84756
Q07	2	3	1	194	N/A	194	0	37	0	22	19	53	1380	1511
Q07a	3	3	1	388	N/A	388	0	29	0	56	33	121	2879	3118
Q08	56200	3	1	1	N/A	1	0	7	0	0	6	0	584	597
Q09	5617	1	1	2	N/A	2	0	14	0	0	4	1	19	38
Q10	9	3	1	586	N/A	586	0	72	1	157	62	278	4382	4952
Q10a	14	3	1	1172	N/A	1172	0	79	0	602	128	768	9361	10938
Q10b	24	3	1	2344	N/A	2344	0	90	2	2383	260	3343	19394	25472
Q11	116	5	509	16	14	1	7	9198	2	4	2	1	24	9238
Q12	116	5	2	8	7	1	26	45	0	0	2	0	24	97
Q12a	720	5	2	16	14	2	26	46	0	0	3	1	142	218
Q12b	2327	5	2	32	28	4	25	47	0	0	8	2	366	448
Q13	13190	4	16	25	N/A	21	1	188	0	15	45	14	408	671
Q13a	43157	4	16	50	N/A	42	1	191	0	28	84	26	1285	1615
Q13b	330142	4	16	400	N/A	336	1	217	0	273	653	250	9630	11024
Q14	56199	3	1	1	N/A	1	0	20	0	0	4	1	1062	1087
Q15	28100	5	1	4	3	1	0	18	0	0	5	1	208	232
Q16	8114	4	1	16	N/A	16	0	17	0	0	54	5	180	256
Q17	52208	2	1	2	N/A	2	0	11	0	0	4	0	202	217
Q18	56200	4	1	4	3	1	0	15	0	0	7	0	1079	1101
Q19	2015	9	1	56	N/A	16	0	83	0	136	116	8	615	958
Q19a	3515	9	1	112	N/A	32	0	89	1	288	323	21	1248	1970
Q19b	15511	9	1	448	N/A	128	0	137	1	1118	978	89	4659	6982
Q20	0	11	1	4	N/A	4	1	105	0	43	40	4	94	287
Q20a	236	11	1	8	N/A	8	0	104	0	86	78	8	296	572
Q20b	2312	11	1	64	N/A	64	0	135	0	760	789	56	2219	3959
Q20c	7564	11	1	128	N/A	128	0	119	1	1392	1309	126	5127	8074
Q21	1085	3	1	929	539	385	0	52	1	73	53	119	5110	5408
Q22	28	4	2	2	N/A	2	0	9	0	0	0	1	38	48
Q22a	434	4	24	32	N/A	32	1	70	0	0	5	4	583	663
Q23	25803	7	64	80	56	24	681	1804	1	11	45	12	1656	4210
Q23a	38258	7	64	160	112	48	684	1544	2	17	79	26	2676	5028
