digraph  g{ graph[label = "19:11:38.303"]
node [shape=rectangle, color=black, fontcolor=black, style=bold] edge [color=black] 0 [label="BindAccessEval", color = yellow] ; 
1 [label="HashDistinct", color = yellow] ; 
0 -> 1 ; 
2 [label="Union", color = yellow] ; 
1 -> 2 ; 
3 [label="SQLQuery
SELECT tab_575.vendor, tab_575.nr, tab_574.offerWebpage 
FROM CountryType AS tab_577, Offer AS tab_574, Offer AS tab_575, Vendor AS tab_576   
WHERE tab_575.vendor = tab_576.nr AND tab_575.vendor = tab_574.vendor AND tab_575.nr = tab_574.nr AND tab_577.countryType = 112 AND tab_576.country = tab_577.country", color = yellow] ; 
2 -> 3 ; 
5 [label="SQLQuery
SELECT tab_588.vendor, tab_588.nr, tab_588.offerWebpage 
FROM Vendor AS tab_590, Offer AS tab_589, Offer AS tab_588, CountryType AS tab_591   
WHERE tab_589.vendor = tab_590.nr AND tab_588.vendor = tab_589.vendor AND tab_588.nr = tab_589.nr AND tab_591.countryType = 122 AND tab_590.country = tab_591.country", color = yellow] ; 
2 -> 5 ; 
7 [label="SQLQuery
SELECT tab_582.vendor, tab_582.nr, tab_582.offerWebpage 
FROM Vendor AS tab_581, CountryType AS tab_584, Offer AS tab_583, Offer AS tab_582   
WHERE tab_583.vendor = tab_581.nr AND tab_582.vendor = tab_583.vendor AND tab_582.nr = tab_583.nr AND tab_584.countryType = 121 AND tab_581.country = tab_584.country", color = yellow] ; 
2 -> 7 ; 
9 [label="SQLQuery
SELECT tab_597.vendor, tab_597.nr, tab_596.offerWebpage 
FROM CountryType AS tab_598, Offer AS tab_596, Offer AS tab_597, Vendor AS tab_595   
WHERE tab_597.vendor = tab_595.nr AND tab_597.vendor = tab_596.vendor AND tab_597.nr = tab_596.nr AND tab_598.countryType = 111 AND tab_595.country = tab_598.country", color = yellow] ; 
2 -> 9 ; 
10 [label="FunctionCallBindAccess
(<http://www4.wiwiss.fu-berlin.de/bizer/bsbm/v01/instances/dataFromVendor{0}/Offer{1}>, <{2}>)", color = yellow] ; 
0 -> 10 ; 
}
