digraph  g{ graph[label = "19:13:57.524"]
node [shape=rectangle, color=black, fontcolor=black, style=bold] edge [color=black] 0 [label="BindAccessEval", color = yellow] ; 
1 [label="SQLQuery
SELECT DISTINCT ON (tab_850.nr, tab_850.vendor, tab_850.offerWebpage, tab_851.deliveryDays, tab_852.price) tab_850.nr, tab_850.vendor, tab_850.offerWebpage, tab_851.deliveryDays, tab_852.price 
FROM Offer AS tab_851, Offer AS tab_852, Offer AS tab_850 
WHERE tab_850.vendor = tab_851.vendor AND tab_850.nr = tab_851.nr AND tab_850.vendor = tab_852.vendor AND tab_850.nr = tab_852.nr", color = yellow] ; 
0 -> 1 ; 
2 [label="FunctionCallBindAccess
(<http://www4.wiwiss.fu-berlin.de/bizer/bsbm/v01/instances/dataFromVendor{1}/Offer{0}>, <{2}>, \"{4}\", \"{3}\")", color = yellow] ; 
0 -> 2 ; 
}
