digraph  g{ graph[label = "19:16:20.680"]
node [shape=rectangle, color=black, fontcolor=black, style=bold] edge [color=black] 0 [label="BindAccessEval", color = yellow] ; 
1 [label="SQLQuery
SELECT DISTINCT ON (tab_2223.nr, tab_2223.vendor, tab_2223.price, tab_2222.product, tab_2222.producer, tab_2221.vendor, tab_2224.label) tab_2223.nr, tab_2223.vendor, tab_2223.price, tab_2222.product, tab_2222.producer, tab_2221.vendor, tab_2224.label 
FROM Offer AS tab_2223, Offer AS tab_2222, Product AS tab_2224, Offer AS tab_2221 
WHERE tab_2223.vendor = tab_2222.vendor AND tab_2223.nr = tab_2222.nr AND tab_2223.vendor = tab_2221.vendor AND tab_2223.nr = tab_2221.nr AND tab_2222.producer = tab_2224.producer AND tab_2222.product = tab_2224.nr", color = yellow] ; 
0 -> 1 ; 
2 [label="FunctionCallBindAccess
(<http://www4.wiwiss.fu-berlin.de/bizer/bsbm/v01/instances/dataFromVendor{1}/Offer{0}>, <http://www4.wiwiss.fu-berlin.de/bizer/bsbm/v01/instances/dataFromProducer{4}/Product{3}>, \"{6}\", <http://www4.wiwiss.fu-berlin.de/bizer/bsbm/v01/instances/dataFromVendor{5}/Vendor{5}>, \"{2}\")", color = yellow] ; 
0 -> 2 ; 
}
