digraph  g{ graph[label = "14:8:28.335"]
node [shape=rectangle, color=black, fontcolor=black, style=bold] edge [color=black] 0 [label="Uniq", color = yellow] ; 
1 [label="MemSort[0,1,2,3,4]{}", color = yellow] ; 
0 -> 1 ; 
2 [label="Union", color = yellow] ; 
1 -> 2 ; 
3 [label="Uniq", color = yellow] ; 
2 -> 3 ; 
4 [label="MemSort[0,1,2,3,4]{}", color = yellow] ; 
3 -> 4 ; 
5 [label="Project
[0, 12, 7, 28, 23]", color = yellow] ; 
4 -> 5 ; 
6 [label="HashJoin
 [[12PREDICATE_EQUAL27]]", color = yellow] ; 
5 -> 6 ; 
7 [label="HashJoin
 [[12PREDICATE_EQUAL20]]", color = yellow] ; 
6 -> 7 ; 
8 [label="HashJoin
 [[0PREDICATE_EQUAL10]]", color = yellow] ; 
7 -> 8 ; 
9 [label="BindAccessEval", color = yellow] ; 
8 -> 9 ; 
10 [label="SQLQuery
SELECT nr, product, producer, vendor, price, validFrom, validTo, deliveryDays, offerWebpage, publisher, publishDate FROM
 Offer", color = yellow] ; 
9 -> 10 ; 
11 [label="FunctionCallBindAccess
(<bsbm-int:dataFromVendor{3}/Offer{0}>, <bsbm-int:dataFromProducer{2}/Product{1}>, <bsbm-int:dataFromVendor{3}/Vendor{3}>, \"{4}\", \"{5}\", \"{6}\", \"{7}\", <{8}>, <bsbm-int:dataFromVendor{9}/Vendor{9}>, \"{10}\")", color = yellow] ; 
9 -> 11 ; 
12 [label="BindAccessEval", color = yellow] ; 
8 -> 12 ; 
13 [label="SQLQuery
SELECT nr, product, producer, vendor, price, validFrom, validTo, deliveryDays, offerWebpage, publisher, publishDate FROM
 Offer", color = yellow] ; 
12 -> 13 ; 
14 [label="FunctionCallBindAccess
(<bsbm-int:dataFromVendor{3}/Offer{0}>, <bsbm-int:dataFromProducer{2}/Product{1}>, <bsbm-int:dataFromVendor{3}/Vendor{3}>, \"{4}\", \"{5}\", \"{6}\", \"{7}\", <{8}>, <bsbm-int:dataFromVendor{9}/Vendor{9}>, \"{10}\")", color = yellow] ; 
12 -> 14 ; 
15 [label="BindAccessEval", color = yellow] ; 
7 -> 15 ; 
16 [label="SQLQuery
SELECT nr, label, comment, homepage, country, publisher, publishDate FROM
 Vendor", color = yellow] ; 
15 -> 16 ; 
17 [label="FunctionCallBindAccess
(<bsbm-int:dataFromVendor{0}/Vendor{0}>, \"{1}\", \"{2}\", <{3}>, <http://downlode.org/rdf/iso-3166/countries#{4}>, <bsbm-int:dataFromVendor{5}/Vendor{5}>, \"{6}\")", color = yellow] ; 
15 -> 17 ; 
18 [label="BindAccessEval", color = yellow] ; 
6 -> 18 ; 
19 [label="SQLQuery
SELECT nr, label, comment, publisher, publishDate FROM
 ProductFeature", color = yellow] ; 
18 -> 19 ; 
20 [label="FunctionCallBindAccess
(<bsbm-int:ProductFeature{0}>, \"{1}\", \"{2}\", <bsbm-int:StandardizationInstitution{3}>, \"{4}\")", color = yellow] ; 
18 -> 20 ; 
22 [label="Uniq", color = yellow] ; 
2 -> 22 ; 
23 [label="MemSort[0,1,2,3,4]{}", color = yellow] ; 
22 -> 23 ; 
24 [label="Project
[14, 0, 31, 8, 3]", color = yellow] ; 
23 -> 24 ; 
25 [label="HashJoin
 [[14PREDICATE_EQUAL24]]", color = yellow] ; 
24 -> 25 ; 
26 [label="HashJoin
 [[0PREDICATE_EQUAL16]]", color = yellow] ; 
25 -> 26 ; 
27 [label="HashJoin
 [[0PREDICATE_EQUAL7]]", color = yellow] ; 
26 -> 27 ; 
28 [label="BindAccessEval", color = yellow] ; 
27 -> 28 ; 
29 [label="SQLQuery
SELECT nr, label, comment, homepage, country, publisher, publishDate FROM
 Vendor", color = yellow] ; 
28 -> 29 ; 
30 [label="FunctionCallBindAccess
(<bsbm-int:dataFromVendor{0}/Vendor{0}>, \"{1}\", \"{2}\", <{3}>, <http://downlode.org/rdf/iso-3166/countries#{4}>, <bsbm-int:dataFromVendor{5}/Vendor{5}>, \"{6}\")", color = yellow] ; 
28 -> 30 ; 
31 [label="BindAccessEval", color = yellow] ; 
27 -> 31 ; 
32 [label="SQLQuery
SELECT nr, label, comment, homepage, country, publisher, publishDate FROM
 Producer", color = yellow] ; 
31 -> 32 ; 
33 [label="FunctionCallBindAccess
(<bsbm-int:dataFromProducer{0}/Producer{0}>, \"{1}\", \"{2}\", <{3}>, <http://downlode.org/rdf/iso-3166/countries#{4}>, <bsbm-int:dataFromProducer{5}/Producer{5}>, \"{6}\")", color = yellow] ; 
31 -> 33 ; 
34 [label="BindAccessEval", color = yellow] ; 
26 -> 34 ; 
35 [label="SQLQuery
SELECT nr, product, producer, vendor, price, validFrom, validTo, deliveryDays, offerWebpage, publisher, publishDate FROM
 Offer", color = yellow] ; 
34 -> 35 ; 
36 [label="FunctionCallBindAccess
(<bsbm-int:dataFromVendor{3}/Offer{0}>, <bsbm-int:dataFromProducer{2}/Product{1}>, <bsbm-int:dataFromVendor{3}/Vendor{3}>, \"{4}\", \"{5}\", \"{6}\", \"{7}\", <{8}>, <bsbm-int:dataFromVendor{9}/Vendor{9}>, \"{10}\")", color = yellow] ; 
34 -> 36 ; 
37 [label="BindAccessEval", color = yellow] ; 
25 -> 37 ; 
38 [label="SQLQuery
SELECT nr, product, producer, vendor, price, validFrom, validTo, deliveryDays, offerWebpage, publisher, publishDate FROM
 Offer", color = yellow] ; 
37 -> 38 ; 
39 [label="FunctionCallBindAccess
(<bsbm-int:dataFromVendor{3}/Offer{0}>, <bsbm-int:dataFromProducer{2}/Product{1}>, <bsbm-int:dataFromVendor{3}/Vendor{3}>, \"{4}\", \"{5}\", \"{6}\", \"{7}\", <{8}>, <bsbm-int:dataFromVendor{9}/Vendor{9}>, \"{10}\")", color = yellow] ; 
37 -> 39 ; 
41 [label="Uniq", color = yellow] ; 
2 -> 41 ; 
42 [label="MemSort[0,1,2,3,4]{}", color = yellow] ; 
41 -> 42 ; 
43 [label="Project
[7, 0, 24, 1, 30]", color = yellow] ; 
42 -> 43 ; 
44 [label="HashJoin
 [[0PREDICATE_EQUAL27]]", color = yellow] ; 
43 -> 44 ; 
45 [label="HashJoin
 [[7PREDICATE_EQUAL17]]", color = yellow] ; 
44 -> 45 ; 
46 [label="HashJoin
 [[0PREDICATE_EQUAL9]]", color = yellow] ; 
45 -> 46 ; 
47 [label="BindAccessEval", color = yellow] ; 
46 -> 47 ; 
48 [label="SQLQuery
SELECT nr, label, comment, homepage, country, publisher, publishDate FROM
 Producer", color = yellow] ; 
47 -> 48 ; 
49 [label="FunctionCallBindAccess
(<bsbm-int:dataFromProducer{0}/Producer{0}>, \"{1}\", \"{2}\", <{3}>, <http://downlode.org/rdf/iso-3166/countries#{4}>, <bsbm-int:dataFromProducer{5}/Producer{5}>, \"{6}\")", color = yellow] ; 
47 -> 49 ; 
50 [label="BindAccessEval", color = yellow] ; 
46 -> 50 ; 
51 [label="SQLQuery
SELECT nr, product, producer, vendor, price, validFrom, validTo, deliveryDays, offerWebpage, publisher, publishDate FROM
 Offer", color = yellow] ; 
50 -> 51 ; 
52 [label="FunctionCallBindAccess
(<bsbm-int:dataFromVendor{3}/Offer{0}>, <bsbm-int:dataFromProducer{2}/Product{1}>, <bsbm-int:dataFromVendor{3}/Vendor{3}>, \"{4}\", \"{5}\", \"{6}\", \"{7}\", <{8}>, <bsbm-int:dataFromVendor{9}/Vendor{9}>, \"{10}\")", color = yellow] ; 
50 -> 52 ; 
53 [label="BindAccessEval", color = yellow] ; 
45 -> 53 ; 
54 [label="SQLQuery
SELECT nr, product, producer, vendor, price, validFrom, validTo, deliveryDays, offerWebpage, publisher, publishDate FROM
 Offer", color = yellow] ; 
53 -> 54 ; 
55 [label="FunctionCallBindAccess
(<bsbm-int:dataFromVendor{3}/Offer{0}>, <bsbm-int:dataFromProducer{2}/Product{1}>, <bsbm-int:dataFromVendor{3}/Vendor{3}>, \"{4}\", \"{5}\", \"{6}\", \"{7}\", <{8}>, <bsbm-int:dataFromVendor{9}/Vendor{9}>, \"{10}\")", color = yellow] ; 
53 -> 55 ; 
56 [label="BindAccessEval", color = yellow] ; 
44 -> 56 ; 
57 [label="SQLQuery
SELECT nr, label, comment, homepage, country, publisher, publishDate FROM
 Producer", color = yellow] ; 
56 -> 57 ; 
58 [label="FunctionCallBindAccess
(<bsbm-int:dataFromProducer{0}/Producer{0}>, \"{1}\", \"{2}\", <{3}>, <http://downlode.org/rdf/iso-3166/countries#{4}>, <bsbm-int:dataFromProducer{5}/Producer{5}>, \"{6}\")", color = yellow] ; 
56 -> 58 ; 
60 [label="Uniq", color = yellow] ; 
2 -> 60 ; 
61 [label="MemSort[0,1,2,3,4]{}", color = yellow] ; 
60 -> 61 ; 
62 [label="Project
[0, 12, 7, 21, 28]", color = yellow] ; 
61 -> 62 ; 
63 [label="HashJoin
 [[12PREDICATE_EQUAL25]]", color = yellow] ; 
62 -> 63 ; 
64 [label="HashJoin
 [[12PREDICATE_EQUAL20]]", color = yellow] ; 
63 -> 64 ; 
65 [label="HashJoin
 [[0PREDICATE_EQUAL10]]", color = yellow] ; 
64 -> 65 ; 
66 [label="BindAccessEval", color = yellow] ; 
65 -> 66 ; 
67 [label="SQLQuery
SELECT nr, product, producer, vendor, price, validFrom, validTo, deliveryDays, offerWebpage, publisher, publishDate FROM
 Offer", color = yellow] ; 
66 -> 67 ; 
68 [label="FunctionCallBindAccess
(<bsbm-int:dataFromVendor{3}/Offer{0}>, <bsbm-int:dataFromProducer{2}/Product{1}>, <bsbm-int:dataFromVendor{3}/Vendor{3}>, \"{4}\", \"{5}\", \"{6}\", \"{7}\", <{8}>, <bsbm-int:dataFromVendor{9}/Vendor{9}>, \"{10}\")", color = yellow] ; 
66 -> 68 ; 
69 [label="BindAccessEval", color = yellow] ; 
65 -> 69 ; 
70 [label="SQLQuery
SELECT nr, product, producer, vendor, price, validFrom, validTo, deliveryDays, offerWebpage, publisher, publishDate FROM
 Offer", color = yellow] ; 
69 -> 70 ; 
71 [label="FunctionCallBindAccess
(<bsbm-int:dataFromVendor{3}/Offer{0}>, <bsbm-int:dataFromProducer{2}/Product{1}>, <bsbm-int:dataFromVendor{3}/Vendor{3}>, \"{4}\", \"{5}\", \"{6}\", \"{7}\", <{8}>, <bsbm-int:dataFromVendor{9}/Vendor{9}>, \"{10}\")", color = yellow] ; 
69 -> 71 ; 
72 [label="BindAccessEval", color = yellow] ; 
64 -> 72 ; 
73 [label="SQLQuery
SELECT nr, label, comment, publisher, publishDate FROM
 ProductType", color = yellow] ; 
72 -> 73 ; 
74 [label="FunctionCallBindAccess
(<bsbm-int:ProductType{0}>, \"{1}\", \"{2}\", <bsbm-int:StandardizationInstitution{3}>, \"{4}\")", color = yellow] ; 
72 -> 74 ; 
75 [label="BindAccessEval", color = yellow] ; 
63 -> 75 ; 
76 [label="SQLQuery
SELECT nr, label, comment, homepage, country, publisher, publishDate FROM
 Producer", color = yellow] ; 
75 -> 76 ; 
77 [label="FunctionCallBindAccess
(<bsbm-int:dataFromProducer{0}/Producer{0}>, \"{1}\", \"{2}\", <{3}>, <http://downlode.org/rdf/iso-3166/countries#{4}>, <bsbm-int:dataFromProducer{5}/Producer{5}>, \"{6}\")", color = yellow] ; 
75 -> 77 ; 
79 [label="Uniq", color = yellow] ; 
2 -> 79 ; 
80 [label="MemSort[0,1,2,3,4]{}", color = yellow] ; 
79 -> 80 ; 
81 [label="Project
[12, 0, 29, 1, 8]", color = yellow] ; 
80 -> 81 ; 
82 [label="HashJoin
 [[12PREDICATE_EQUAL22]]", color = yellow] ; 
81 -> 82 ; 
83 [label="HashJoin
 [[0PREDICATE_EQUAL14]]", color = yellow] ; 
82 -> 83 ; 
84 [label="HashJoin
 [[0PREDICATE_EQUAL5]]", color = yellow] ; 
83 -> 84 ; 
85 [label="BindAccessEval", color = yellow] ; 
84 -> 85 ; 
86 [label="SQLQuery
SELECT nr, label, comment, publisher, publishDate FROM
 ProductFeature", color = yellow] ; 
85 -> 86 ; 
87 [label="FunctionCallBindAccess
(<bsbm-int:ProductFeature{0}>, \"{1}\", \"{2}\", <bsbm-int:StandardizationInstitution{3}>, \"{4}\")", color = yellow] ; 
85 -> 87 ; 
88 [label="BindAccessEval", color = yellow] ; 
84 -> 88 ; 
89 [label="SQLQuery
SELECT nr, label, comment, homepage, country, publisher, publishDate FROM
 Producer", color = yellow] ; 
88 -> 89 ; 
90 [label="FunctionCallBindAccess
(<bsbm-int:dataFromProducer{0}/Producer{0}>, \"{1}\", \"{2}\", <{3}>, <http://downlode.org/rdf/iso-3166/countries#{4}>, <bsbm-int:dataFromProducer{5}/Producer{5}>, \"{6}\")", color = yellow] ; 
88 -> 90 ; 
91 [label="BindAccessEval", color = yellow] ; 
83 -> 91 ; 
92 [label="SQLQuery
SELECT nr, product, producer, vendor, price, validFrom, validTo, deliveryDays, offerWebpage, publisher, publishDate FROM
 Offer", color = yellow] ; 
91 -> 92 ; 
93 [label="FunctionCallBindAccess
(<bsbm-int:dataFromVendor{3}/Offer{0}>, <bsbm-int:dataFromProducer{2}/Product{1}>, <bsbm-int:dataFromVendor{3}/Vendor{3}>, \"{4}\", \"{5}\", \"{6}\", \"{7}\", <{8}>, <bsbm-int:dataFromVendor{9}/Vendor{9}>, \"{10}\")", color = yellow] ; 
91 -> 93 ; 
94 [label="BindAccessEval", color = yellow] ; 
82 -> 94 ; 
95 [label="SQLQuery
SELECT nr, product, producer, vendor, price, validFrom, validTo, deliveryDays, offerWebpage, publisher, publishDate FROM
 Offer", color = yellow] ; 
94 -> 95 ; 
96 [label="FunctionCallBindAccess
(<bsbm-int:dataFromVendor{3}/Offer{0}>, <bsbm-int:dataFromProducer{2}/Product{1}>, <bsbm-int:dataFromVendor{3}/Vendor{3}>, \"{4}\", \"{5}\", \"{6}\", \"{7}\", <{8}>, <bsbm-int:dataFromVendor{9}/Vendor{9}>, \"{10}\")", color = yellow] ; 
94 -> 96 ; 
98 [label="Uniq", color = yellow] ; 
2 -> 98 ; 
99 [label="MemSort[0,1,2,3,4]{}", color = yellow] ; 
98 -> 99 ; 
100 [label="Project
[0, 2, 17, 21, 28]", color = yellow] ; 
99 -> 100 ; 
101 [label="HashJoin
 [[2PREDICATE_EQUAL25]]", color = yellow] ; 
100 -> 101 ; 
102 [label="HashJoin
 [[2PREDICATE_EQUAL20]]", color = yellow] ; 
101 -> 102 ; 
103 [label="HashJoin
 [[0PREDICATE_EQUAL10]]", color = yellow] ; 
102 -> 103 ; 
104 [label="BindAccessEval", color = yellow] ; 
103 -> 104 ; 
105 [label="SQLQuery
SELECT nr, product, producer, vendor, price, validFrom, validTo, deliveryDays, offerWebpage, publisher, publishDate FROM
 Offer", color = yellow] ; 
104 -> 105 ; 
106 [label="FunctionCallBindAccess
(<bsbm-int:dataFromVendor{3}/Offer{0}>, <bsbm-int:dataFromProducer{2}/Product{1}>, <bsbm-int:dataFromVendor{3}/Vendor{3}>, \"{4}\", \"{5}\", \"{6}\", \"{7}\", <{8}>, <bsbm-int:dataFromVendor{9}/Vendor{9}>, \"{10}\")", color = yellow] ; 
104 -> 106 ; 
107 [label="BindAccessEval", color = yellow] ; 
103 -> 107 ; 
108 [label="SQLQuery
SELECT nr, product, producer, vendor, price, validFrom, validTo, deliveryDays, offerWebpage, publisher, publishDate FROM
 Offer", color = yellow] ; 
107 -> 108 ; 
109 [label="FunctionCallBindAccess
(<bsbm-int:dataFromVendor{3}/Offer{0}>, <bsbm-int:dataFromProducer{2}/Product{1}>, <bsbm-int:dataFromVendor{3}/Vendor{3}>, \"{4}\", \"{5}\", \"{6}\", \"{7}\", <{8}>, <bsbm-int:dataFromVendor{9}/Vendor{9}>, \"{10}\")", color = yellow] ; 
107 -> 109 ; 
110 [label="BindAccessEval", color = yellow] ; 
102 -> 110 ; 
111 [label="SQLQuery
SELECT nr, label, comment, publisher, publishDate FROM
 ProductType", color = yellow] ; 
110 -> 111 ; 
112 [label="FunctionCallBindAccess
(<bsbm-int:ProductType{0}>, \"{1}\", \"{2}\", <bsbm-int:StandardizationInstitution{3}>, \"{4}\")", color = yellow] ; 
110 -> 112 ; 
113 [label="BindAccessEval", color = yellow] ; 
101 -> 113 ; 
114 [label="SQLQuery
SELECT nr, label, comment, homepage, country, publisher, publishDate FROM
 Vendor", color = yellow] ; 
113 -> 114 ; 
115 [label="FunctionCallBindAccess
(<bsbm-int:dataFromVendor{0}/Vendor{0}>, \"{1}\", \"{2}\", <{3}>, <http://downlode.org/rdf/iso-3166/countries#{4}>, <bsbm-int:dataFromVendor{5}/Vendor{5}>, \"{6}\")", color = yellow] ; 
113 -> 115 ; 
117 [label="Uniq", color = yellow] ; 
2 -> 117 ; 
118 [label="MemSort[0,1,2,3,4]{}", color = yellow] ; 
117 -> 118 ; 
119 [label="Project
[0, 2, 17, 21, 30]", color = yellow] ; 
118 -> 119 ; 
120 [label="HashJoin
 [[2PREDICATE_EQUAL27]]", color = yellow] ; 
119 -> 120 ; 
121 [label="HashJoin
 [[2PREDICATE_EQUAL20]]", color = yellow] ; 
120 -> 121 ; 
122 [label="HashJoin
 [[0PREDICATE_EQUAL10]]", color = yellow] ; 
121 -> 122 ; 
123 [label="BindAccessEval", color = yellow] ; 
122 -> 123 ; 
124 [label="SQLQuery
SELECT nr, product, producer, vendor, price, validFrom, validTo, deliveryDays, offerWebpage, publisher, publishDate FROM
 Offer", color = yellow] ; 
123 -> 124 ; 
125 [label="FunctionCallBindAccess
(<bsbm-int:dataFromVendor{3}/Offer{0}>, <bsbm-int:dataFromProducer{2}/Product{1}>, <bsbm-int:dataFromVendor{3}/Vendor{3}>, \"{4}\", \"{5}\", \"{6}\", \"{7}\", <{8}>, <bsbm-int:dataFromVendor{9}/Vendor{9}>, \"{10}\")", color = yellow] ; 
123 -> 125 ; 
126 [label="BindAccessEval", color = yellow] ; 
122 -> 126 ; 
127 [label="SQLQuery
SELECT nr, product, producer, vendor, price, validFrom, validTo, deliveryDays, offerWebpage, publisher, publishDate FROM
 Offer", color = yellow] ; 
126 -> 127 ; 
128 [label="FunctionCallBindAccess
(<bsbm-int:dataFromVendor{3}/Offer{0}>, <bsbm-int:dataFromProducer{2}/Product{1}>, <bsbm-int:dataFromVendor{3}/Vendor{3}>, \"{4}\", \"{5}\", \"{6}\", \"{7}\", <{8}>, <bsbm-int:dataFromVendor{9}/Vendor{9}>, \"{10}\")", color = yellow] ; 
126 -> 128 ; 
129 [label="BindAccessEval", color = yellow] ; 
121 -> 129 ; 
130 [label="SQLQuery
SELECT nr, label, comment, homepage, country, publisher, publishDate FROM
 Vendor", color = yellow] ; 
129 -> 130 ; 
131 [label="FunctionCallBindAccess
(<bsbm-int:dataFromVendor{0}/Vendor{0}>, \"{1}\", \"{2}\", <{3}>, <http://downlode.org/rdf/iso-3166/countries#{4}>, <bsbm-int:dataFromVendor{5}/Vendor{5}>, \"{6}\")", color = yellow] ; 
129 -> 131 ; 
132 [label="BindAccessEval", color = yellow] ; 
120 -> 132 ; 
133 [label="SQLQuery
SELECT nr, label, comment, homepage, country, publisher, publishDate FROM
 Vendor", color = yellow] ; 
132 -> 133 ; 
134 [label="FunctionCallBindAccess
(<bsbm-int:dataFromVendor{0}/Vendor{0}>, \"{1}\", \"{2}\", <{3}>, <http://downlode.org/rdf/iso-3166/countries#{4}>, <bsbm-int:dataFromVendor{5}/Vendor{5}>, \"{6}\")", color = yellow] ; 
132 -> 134 ; 
136 [label="Uniq", color = yellow] ; 
2 -> 136 ; 
137 [label="MemSort[0,1,2,3,4]{}", color = yellow] ; 
136 -> 137 ; 
138 [label="Project
[0, 2, 17, 28, 23]", color = yellow] ; 
137 -> 138 ; 
139 [label="HashJoin
 [[2PREDICATE_EQUAL27]]", color = yellow] ; 
138 -> 139 ; 
140 [label="HashJoin
 [[2PREDICATE_EQUAL20]]", color = yellow] ; 
139 -> 140 ; 
141 [label="HashJoin
 [[0PREDICATE_EQUAL10]]", color = yellow] ; 
140 -> 141 ; 
142 [label="BindAccessEval", color = yellow] ; 
141 -> 142 ; 
143 [label="SQLQuery
SELECT nr, product, producer, vendor, price, validFrom, validTo, deliveryDays, offerWebpage, publisher, publishDate FROM
 Offer", color = yellow] ; 
142 -> 143 ; 
144 [label="FunctionCallBindAccess
(<bsbm-int:dataFromVendor{3}/Offer{0}>, <bsbm-int:dataFromProducer{2}/Product{1}>, <bsbm-int:dataFromVendor{3}/Vendor{3}>, \"{4}\", \"{5}\", \"{6}\", \"{7}\", <{8}>, <bsbm-int:dataFromVendor{9}/Vendor{9}>, \"{10}\")", color = yellow] ; 
142 -> 144 ; 
145 [label="BindAccessEval", color = yellow] ; 
141 -> 145 ; 
146 [label="SQLQuery
SELECT nr, product, producer, vendor, price, validFrom, validTo, deliveryDays, offerWebpage, publisher, publishDate FROM
 Offer", color = yellow] ; 
145 -> 146 ; 
147 [label="FunctionCallBindAccess
(<bsbm-int:dataFromVendor{3}/Offer{0}>, <bsbm-int:dataFromProducer{2}/Product{1}>, <bsbm-int:dataFromVendor{3}/Vendor{3}>, \"{4}\", \"{5}\", \"{6}\", \"{7}\", <{8}>, <bsbm-int:dataFromVendor{9}/Vendor{9}>, \"{10}\")", color = yellow] ; 
145 -> 147 ; 
148 [label="BindAccessEval", color = yellow] ; 
140 -> 148 ; 
149 [label="SQLQuery
SELECT nr, label, comment, homepage, country, publisher, publishDate FROM
 Producer", color = yellow] ; 
148 -> 149 ; 
150 [label="FunctionCallBindAccess
(<bsbm-int:dataFromProducer{0}/Producer{0}>, \"{1}\", \"{2}\", <{3}>, <http://downlode.org/rdf/iso-3166/countries#{4}>, <bsbm-int:dataFromProducer{5}/Producer{5}>, \"{6}\")", color = yellow] ; 
148 -> 150 ; 
151 [label="BindAccessEval", color = yellow] ; 
139 -> 151 ; 
152 [label="SQLQuery
SELECT nr, label, comment, homepage, country, publisher, publishDate FROM
 Vendor", color = yellow] ; 
151 -> 152 ; 
153 [label="FunctionCallBindAccess
(<bsbm-int:dataFromVendor{0}/Vendor{0}>, \"{1}\", \"{2}\", <{3}>, <http://downlode.org/rdf/iso-3166/countries#{4}>, <bsbm-int:dataFromVendor{5}/Vendor{5}>, \"{6}\")", color = yellow] ; 
151 -> 153 ; 
155 [label="Uniq", color = yellow] ; 
2 -> 155 ; 
156 [label="MemSort[0,1,2,3,4]{}", color = yellow] ; 
155 -> 156 ; 
157 [label="Project
[7, 0, 24, 28, 3]", color = yellow] ; 
156 -> 157 ; 
158 [label="HashJoin
 [[0PREDICATE_EQUAL27]]", color = yellow] ; 
157 -> 158 ; 
159 [label="HashJoin
 [[7PREDICATE_EQUAL17]]", color = yellow] ; 
158 -> 159 ; 
160 [label="HashJoin
 [[0PREDICATE_EQUAL9]]", color = yellow] ; 
159 -> 160 ; 
161 [label="BindAccessEval", color = yellow] ; 
160 -> 161 ; 
162 [label="SQLQuery
SELECT nr, label, comment, homepage, country, publisher, publishDate FROM
 Producer", color = yellow] ; 
161 -> 162 ; 
163 [label="FunctionCallBindAccess
(<bsbm-int:dataFromProducer{0}/Producer{0}>, \"{1}\", \"{2}\", <{3}>, <http://downlode.org/rdf/iso-3166/countries#{4}>, <bsbm-int:dataFromProducer{5}/Producer{5}>, \"{6}\")", color = yellow] ; 
161 -> 163 ; 
164 [label="BindAccessEval", color = yellow] ; 
160 -> 164 ; 
165 [label="SQLQuery
SELECT nr, product, producer, vendor, price, validFrom, validTo, deliveryDays, offerWebpage, publisher, publishDate FROM
 Offer", color = yellow] ; 
164 -> 165 ; 
166 [label="FunctionCallBindAccess
(<bsbm-int:dataFromVendor{3}/Offer{0}>, <bsbm-int:dataFromProducer{2}/Product{1}>, <bsbm-int:dataFromVendor{3}/Vendor{3}>, \"{4}\", \"{5}\", \"{6}\", \"{7}\", <{8}>, <bsbm-int:dataFromVendor{9}/Vendor{9}>, \"{10}\")", color = yellow] ; 
164 -> 166 ; 
167 [label="BindAccessEval", color = yellow] ; 
159 -> 167 ; 
168 [label="SQLQuery
SELECT nr, product, producer, vendor, price, validFrom, validTo, deliveryDays, offerWebpage, publisher, publishDate FROM
 Offer", color = yellow] ; 
167 -> 168 ; 
169 [label="FunctionCallBindAccess
(<bsbm-int:dataFromVendor{3}/Offer{0}>, <bsbm-int:dataFromProducer{2}/Product{1}>, <bsbm-int:dataFromVendor{3}/Vendor{3}>, \"{4}\", \"{5}\", \"{6}\", \"{7}\", <{8}>, <bsbm-int:dataFromVendor{9}/Vendor{9}>, \"{10}\")", color = yellow] ; 
167 -> 169 ; 
170 [label="BindAccessEval", color = yellow] ; 
158 -> 170 ; 
171 [label="SQLQuery
SELECT nr, label, comment, producer, propertyNum1, propertyNum2, propertyNum3, propertyNum4, propertyNum5, propertyNum6, propertyTex1, propertyTex2, propertyTex3, propertyTex4, propertyTex5, propertyTex6, publisher, publishDate FROM
 Product", color = yellow] ; 
170 -> 171 ; 
172 [label="FunctionCallBindAccess
(<bsbm-int:dataFromProducer{3}/Product{0}>, \"{1}\", \"{2}\", <bsbm-int:{3}>, \"{4}\", \"{5}\", \"{6}\", \"{7}\", \"{8}\", \"{9}\", \"{10}\", \"{11}\", \"{12}\", \"{13}\", \"{14}\", \"{15}\", \"{16}\", \"{17}\")", color = yellow] ; 
170 -> 172 ; 
174 [label="Uniq", color = yellow] ; 
2 -> 174 ; 
175 [label="MemSort[0,1,2,3,4]{}", color = yellow] ; 
174 -> 175 ; 
176 [label="Project
[0, 2, 17, 28, 23]", color = yellow] ; 
175 -> 176 ; 
177 [label="HashJoin
 [[2PREDICATE_EQUAL27]]", color = yellow] ; 
176 -> 177 ; 
178 [label="HashJoin
 [[2PREDICATE_EQUAL20]]", color = yellow] ; 
177 -> 178 ; 
179 [label="HashJoin
 [[0PREDICATE_EQUAL10]]", color = yellow] ; 
178 -> 179 ; 
180 [label="BindAccessEval", color = yellow] ; 
179 -> 180 ; 
181 [label="SQLQuery
SELECT nr, product, producer, vendor, price, validFrom, validTo, deliveryDays, offerWebpage, publisher, publishDate FROM
 Offer", color = yellow] ; 
180 -> 181 ; 
182 [label="FunctionCallBindAccess
(<bsbm-int:dataFromVendor{3}/Offer{0}>, <bsbm-int:dataFromProducer{2}/Product{1}>, <bsbm-int:dataFromVendor{3}/Vendor{3}>, \"{4}\", \"{5}\", \"{6}\", \"{7}\", <{8}>, <bsbm-int:dataFromVendor{9}/Vendor{9}>, \"{10}\")", color = yellow] ; 
180 -> 182 ; 
183 [label="BindAccessEval", color = yellow] ; 
179 -> 183 ; 
184 [label="SQLQuery
SELECT nr, product, producer, vendor, price, validFrom, validTo, deliveryDays, offerWebpage, publisher, publishDate FROM
 Offer", color = yellow] ; 
183 -> 184 ; 
185 [label="FunctionCallBindAccess
(<bsbm-int:dataFromVendor{3}/Offer{0}>, <bsbm-int:dataFromProducer{2}/Product{1}>, <bsbm-int:dataFromVendor{3}/Vendor{3}>, \"{4}\", \"{5}\", \"{6}\", \"{7}\", <{8}>, <bsbm-int:dataFromVendor{9}/Vendor{9}>, \"{10}\")", color = yellow] ; 
183 -> 185 ; 
186 [label="BindAccessEval", color = yellow] ; 
178 -> 186 ; 
187 [label="SQLQuery
SELECT nr, label, comment, homepage, country, publisher, publishDate FROM
 Vendor", color = yellow] ; 
186 -> 187 ; 
188 [label="FunctionCallBindAccess
(<bsbm-int:dataFromVendor{0}/Vendor{0}>, \"{1}\", \"{2}\", <{3}>, <http://downlode.org/rdf/iso-3166/countries#{4}>, <bsbm-int:dataFromVendor{5}/Vendor{5}>, \"{6}\")", color = yellow] ; 
186 -> 188 ; 
189 [label="BindAccessEval", color = yellow] ; 
177 -> 189 ; 
190 [label="SQLQuery
SELECT nr, label, comment, producer, propertyNum1, propertyNum2, propertyNum3, propertyNum4, propertyNum5, propertyNum6, propertyTex1, propertyTex2, propertyTex3, propertyTex4, propertyTex5, propertyTex6, publisher, publishDate FROM
 Product", color = yellow] ; 
189 -> 190 ; 
191 [label="FunctionCallBindAccess
(<bsbm-int:dataFromProducer{3}/Product{0}>, \"{1}\", \"{2}\", <bsbm-int:{3}>, \"{4}\", \"{5}\", \"{6}\", \"{7}\", \"{8}\", \"{9}\", \"{10}\", \"{11}\", \"{12}\", \"{13}\", \"{14}\", \"{15}\", \"{16}\", \"{17}\")", color = yellow] ; 
189 -> 191 ; 
}
